0.12312
0.094785
0.12312
0.12312
0.082034
0.076248
0.02748
0.024505
0.11561
0.11176
0.12312
0.04954
0.12312
0.12312
0.12312
0.11824
0.12312
0.052259
0.12154
0.038169
0.066713
0.048414
0.12312
0.047581
0.12312
0.12312
0.048027
0.12312
0.041729
0.094375
0.12049
0.12312
0.12312
0.11088
0.12312
0.048803
0.12312
0.12312
0.12312
0.12486
0.12312
0.12312
0.12068
0.12312
0.12312
0.12312
0.058173
0.12312
0.033165
0.070025
0.10471
0.098842
0.12312
0.027974
0.021474
0.12312
0.12312
0.12522
0.12312
0.059302
0.037796
0.12312
0.11893
0.10528
0.069924
0.037667
0.040888
0.067928
0.12312
0.12312
0.12312
0.028717
0.11454
0.11167
0.12312
0.11168
0.10323
0.12312
0.12312
0.12312
0.12312
0.12312
0.12312
0.12312
0.12312
0.095343
0.12977
0.11322
0.12312
0.040788
0.12312
0.12312
0.12312
0.10906
0.12208
0.10348
0.12312
0.034485
0.12312
0.12312
0.12312
0.03673
0.12312
0.12312
0.089278
0.12312
0.12312
0.040224
0.12312
0.11691
0.12312
0.044518
0.12312
0.078719
0.12312
0.1082
0.029697
0.12312
0.12312
0.12312
0.11593
0.12312
0.12216
0.11849
0.12312
0.066276
0.12312
0.11079
0.11374
0.12721
0.043081
0.12312
0.12312
0.12312
0.10898
0.12312
0.12312
0.12312
0.12312
0.073688
0.12312
0.060385
0.080876
0.10399
0.12312
0.12312
0.12312
0.11705
0.06175
0.051595
0.12312
0.06165
0.056361
0.12312
0.12312
0.12312
0.12312
0.041755
0.10627
0.12171
0.038279
0.11791
0.099659
0.081531
0.12312
0.054748
0.10672
0.12312
0.12312
0.12312
0.12312
0.11207
0.12312
0.099154
0.12312
0.12312
0.12312
0.034017
0.12312
0.10142
0.12312
0.12312
0.096672
0.041815
0.12312
0.12312
0.12312
0.12312
0.12312
0.12223
0.12312
0.0303
0.12312
0.033639
0.12312
0.099873
0.025559
0.12312
0.12312
0.12312
0.12312
0.12331
0.12117
0.026774
0.02507
0.12312
0.12312
0.12312
0.12312
0.12312
0.12312
0.048308
0.12312
0.10124
0.027355
0.12312
0.091321
0.12312
0.039575
0.12312
0.022196
0.12312
0.12051
0.033257
0.041935
0.12312
0.051445
0.097424
0.11901
0.12312
0.047951
0.12312
0.10851
0.051629
0.091915
0.12312
0.12312
0.11557
0.12001
0.12312
0.12312
0.12312
0.13827
0.044858
0.11676
0.12312
0.12312
0.10831
0.10961
0.12312
0.12312
0.12312
0.024287
0.12312
0.037835
0.12312
0.12324
0.02697
0.12312
0.027316
0.12312
0.12312
0.072665
0.12312
0.12312
0.06259
0.11562
0.036204
0.10466
0.12312
0.12312
0.12312
0.11519
0.12312
0.098271
0.12312
0.12312
0.057342
0.12312
0.094673
0.12312
0.049228
0.12312
0.12312
0.12312
0.12312
0.068601
0.12312
0.12312
0.10665
0.12312
0.11129
0.045718
0.12312
0.10677
0.12312
0.05723
0.12312
0.062555
0.030746
0.12312
0.10034
0.10826
0.12312
0.12312
0.039865
0.093361
0.055833
0.11588
0.04724
0.12312
0.12312
0.12312
0.12312
0.034819
0.12312
0.037347
0.12312
0.12312
0.12024
