0.033789,0.0062694,0.010758,0.014712,0.0019554,0.022024,0.063237,0.0091618,0.078304,0.0056545,0.01692,0.036353,0.0019663,0.031437,0.013301,0.0078457,0.22948,0.11494,3.4329,158.76,85.372,0.80821,0.68545,55.473,143.41,0.69208,0.1598,3.5867,0.40216,0.32632
0.064855,0.0059499,0.0751,0.06994,0.0025774,0.015337,0.081288,0.0032418,0.078191,0.008473,0.029624,0.018546,0.004631,0.044859,0.065964,0.0089523,0.29657,0.5454,3.0496,235.41,148.3,0.13715,4.3537,103.96,124.66,0.14358,0.92172,2.6673,0.67862,0.72923
0.031412,0.0079958,0.074606,0.073661,0.0072187,0.067093,0.074542,0.0039251,0.050788,0.0086999,0.022649,0.011027,0.004334,0.081767,0.099084,0.0091251,0.91214,0.9447,3.6819,66.081,57.303,0.58888,0.28889,143.89,8.4876,0.27079,0.75706,1.5749,0.91572,0.79404
0.060222,0.0090796,0.094518,0.016784,0.0012281,0.081269,0.016786,0.0037165,0.036388,0.0093676,0.04505,0.063332,0.0041678,0.010233,0.098235,0.0044206,0.87013,0.35634,3.8399,121.54,236.92,0.19911,1.3407,115.38,200.12,0.95627,0.27871,3.9796,0.44682,0.66966
0.036966,0.0053297,0.044437,0.017295,0.0016781,0.018279,0.060982,0.0089014,0.064957,0.0087321,0.074086,0.015576,0.0076178,0.044059,0.046444,0.0097186,0.25297,0.73107,3.9026,91.402,49.405,0.35488,3.4401,244.4,221.17,0.6328,0.91638,2.8881,0.73269,0.41833
0.021257,0.0096159,0.064785,0.0375,0.0062297,0.047823,0.055152,0.0045527,0.037712,0.0045809,0.012938,0.097992,0.0037621,0.021211,0.013596,0.0037569,0.75672,0.48533,4.3714,178.87,4.6961,0.67546,4.6418,61.714,140.05,0.58533,0.031341,2.4939,0.28776,0.050052
0.042628,0.0076732,0.098173,0.085828,0.0045653,0.026458,0.054638,0.0022835,0.066253,0.0024104,0.068479,0.073748,0.003832,0.09505,0.038833,0.0081578,0.93572,0.56575,2.0918,168.98,129.99,0.6795,1.9394,51.532,50.4,0.13448,0.54402,2.5776,0.75086,0.87417
0.062599,0.0069699,0.046756,0.059675,0.004679,0.099441,0.087925,0.0025555,0.021214,0.0094867,0.054199,0.036075,0.0014118,0.076583,0.071634,0.0054943,0.35445,0.73296,1.9533,228.9,75.382,0.98207,2.6575,67.817,134.95,0.68135,0.75005,2.4979,0.41191,0.43657
0.063611,0.0083222,0.096525,0.061572,0.007413,0.033456,0.011999,0.0017606,0.099445,0.0097011,0.097166,0.055513,0.0027171,0.014824,0.067306,0.0056551,0.78712,0.56951,4.3495,134.69,222.04,0.38612,2.0517,207.18,133.61,0.55411,0.48817,1.112,0.023563,0.090893
0.03077,0.0040934,0.035255,0.042299,0.0013038,0.049071,0.098702,0.0017072,0.043089,0.0034238,0.094031,0.081306,0.008332,0.063173,0.066671,0.0026709,0.67916,0.61408,0.20276,107.98,180.81,0.3177,2.8501,79.394,38.88,0.53316,0.39766,1.991,0.23481,0.97332
0.091854,0.0046313,0.026016,0.06378,0.0026004,0.083116,0.030326,0.0024922,0.063593,0.009582,0.036711,0.086884,0.0098175,0.081983,0.019442,0.008501,0.90433,0.54119,4.4757,156.14,248.57,0.91124,2.5637,121.44,87.182,0.70809,0.053829,1.4046,0.059197,0.248
0.068329,0.0041112,0.02537,0.069491,0.0091661,0.047364,0.090928,0.009224,0.096847,0.0095971,0.027867,0.034921,0.0044694,0.020733,0.028906,0.0010851,0.85666,0.42706,4.9338,145.72,165.53,0.288,2.9038,116.46,10.522,0.23496,0.31952,3.9825,0.38887,0.92429
0.014782,0.0059654,0.035064,0.017434,0.0063071,0.050884,0.052076,0.0030648,0.015602,0.007777,0.02973,0.090147,0.0075962,0.023296,0.078315,0.0069602,0.83491,0.97224,0.36156,98.944,167.28,0.24338,4.9311,208.39,159.92,0.8497,0.91468,1.7549,0.45644,0.75201
0.096821,0.0019971,0.019147,0.081077,0.004895,0.044353,0.061091,0.0078365,0.061225,0.0080347,0.098241,0.056707,0.0089371,0.03411,0.056411,0.0069336,0.48257,0.81927,1.641,240.36,41.852,0.85025,4.8143,217.47,243.78,0.50685,0.58274,0.78683,0.20718,0.64312
0.096258,0.0084231,0.031403,0.025139,0.0020586,0.078966,0.085401,0.005474,0.097117,0.006155,0.012173,0.077648,0.0011214,0.078385,0.037168,0.0082206,0.49297,0.24416,2.7768,91.692,173.56,0.49866,1.4701,184.25,125.29,0.61265,0.47278,1.3595,0.5399,0.73725
0.085928,0.0025215,0.013204,0.055573,0.0074155,0.032902,0.056176,0.0090868,0.074627,0.0011402,0.045473,0.059433,0.0075504,0.077532,0.072124,0.0051523,0.86643,0.22572,1.0368,156,54.018,0.86803,0.10003,158.41,193.77,0.56479,0.31798,0.59423,0.36384,0.92076
0.019631,0.0017892,0.092303,0.05339,0.006075,0.071755,0.048706,0.0043107,0.072921,0.0049145,0.032218,0.020061,0.0071607,0.072355,0.084809,0.0054269,0.32047,0.45177,3.0545,191.35,143.16,0.51212,1.5106,248.29,31.137,0.94286,0.90804,2.6392,0.15132,0.51386
0.061889,0.006048,0.080493,0.090931,0.0011561,0.050814,0.034607,0.0088974,0.096334,0.0066817,0.015376,0.091435,0.00608,0.059456,0.036715,0.0047083,0.39428,0.76573,4.9046,64.18,71.392,0.92555,4.3231,80.475,111.69,0.12919,0.91281,1.7011,0.50488,0.96003
0.078734,0.0053332,0.056736,0.073288,0.0073966,0.085739,0.030785,0.0017413,0.073153,0.0084174,0.035085,0.016387,0.0065554,0.059528,0.08118,0.0029584,0.11607,0.90485,4.8208,154.53,205.7,0.018564,3.2383,186.94,137.83,0.72291,0.54928,2.9773,0.16618,0.57685
0.077136,0.0018102,0.095101,0.020678,0.0083768,0.061173,0.057588,0.0084581,0.023617,0.0028056,0.017968,0.075374,0.0089393,0.03081,0.015296,0.0086677,0.46285,0.42095,1.5827,63.747,7.3327,0.050089,3.9672,229.8,118.8,0.92703,0.84613,3.2325,0.69048,0.26436
0.040611,0.009063,0.015248,0.037794,0.0045602,0.031767,0.043586,0.004689,0.049993,0.0047071,0.012884,0.080565,0.0081352,0.060308,0.068835,0.0079095,0.32651,0.32842,4.8971,165.69,107.27,0.7972,3.0059,140.13,72.999,0.45662,0.28063,4.7992,0.7394,0.90572
0.048587,0.0021583,0.078414,0.071684,0.0035044,0.016259,0.018688,0.0093691,0.062751,0.0096413,0.093515,0.076483,0.0077749,0.013605,0.080266,0.00785,0.98537,0.65744,1.2776,202.21,222.48,0.5853,3.5585,228.53,145.19,0.77913,0.24681,3.905,0.21945,0.96103
0.035951,0.005351,0.029986,0.054825,0.0039513,0.090738,0.05003,0.003617,0.034956,0.0015905,0.022415,0.074066,0.0015205,0.058122,0.018266,0.0032244,0.89017,0.90646,2.2315,228.26,117.44,0.41354,4.4296,96.588,143.73,0.24746,0.78478,4.0174,0.72353,0.72282
0.055054,0.0026653,0.026868,0.069071,0.007974,0.021132,0.092315,0.0038313,0.022258,0.0047118,0.07682,0.099898,0.0099581,0.030762,0.04545,0.0063302,0.28973,0.50278,4.6883,227.66,51.868,0.050774,2.5108,218.15,233.16,0.30865,0.60161,0.39166,0.93934,0.9254
0.072447,0.0072005,0.068644,0.091719,0.0012529,0.058858,0.04163,0.0097617,0.073201,0.0080173,0.070463,0.073073,0.0029308,0.029173,0.067017,0.0052848,0.21658,0.66811,1.6612,183.26,88.268,0.4458,2.2494,60.984,198.16,0.93147,0.23979,2.1449,0.22304,0.27195
0.022169,0.0076666,0.089854,0.032636,0.0084058,0.013593,0.06203,0.0026587,0.02085,0.0059562,0.093331,0.076448,0.0079053,0.08957,0.097038,0.0061033,0.89852,0.56022,2.5986,132.64,212.7,0.31241,3.2797,198.87,23.549,0.47111,0.41818,1.9333,0.81911,0.47565
0.066917,0.0071423,0.077353,0.065597,0.0057189,0.062143,0.021285,0.0022588,0.034892,0.0071587,0.028839,0.019429,0.0098574,0.095963,0.094053,0.0047343,0.56161,0.35307,3.0572,125.87,33.091,0.75295,3.6319,176.83,191.55,0.23923,0.15452,3.7215,0.82335,0.95149
0.070866,0.0049947,0.092233,0.035877,0.0087277,0.068847,0.021211,0.0027443,0.099168,0.0059499,0.057586,0.06875,0.0023863,0.042095,0.012035,0.0039045,0.69267,0.59759,1.6949,167.7,178.01,0.023986,0.87832,94.781,165.25,0.090333,0.16793,4.6884,0.74728,0.53808
0.042784,0.0046936,0.013615,0.030861,0.0072794,0.025943,0.053463,0.0021003,0.020054,0.0087333,0.028259,0.09288,0.0023893,0.018371,0.038965,0.003756,0.62311,0.62646,2.9582,111.69,218.26,0.72538,4.9927,244.33,230.28,0.45491,0.6759,2.5097,0.81029,0.54205
0.065603,0.0090445,0.070726,0.039323,0.0045084,0.054996,0.080394,0.0055627,0.040713,0.0038697,0.016139,0.071989,0.0038064,0.076953,0.050416,0.0063352,0.9009,0.93509,1.1158,186.64,30.068,0.15194,0.67056,192.25,66.236,0.45836,0.89811,4.4185,0.93504,0.40226
0.055432,0.0059712,0.093964,0.058059,0.0015671,0.010531,0.053928,0.0023783,0.06996,0.0029052,0.083639,0.025118,0.0023346,0.013521,0.086867,0.0049684,0.85954,0.41745,1.7439,52.624,240.92,0.79885,3.3684,65.631,113,0.88211,0.57368,1.7405,0.08191,0.1823
0.071482,0.0062936,0.094684,0.071933,0.0076798,0.070323,0.067068,0.0024816,0.069454,0.0046099,0.050601,0.081508,0.0082394,0.04266,0.085675,0.0063976,0.3235,0.41168,4.0116,78.401,32.029,0.66936,4.6556,193.89,248.87,0.96737,0.94528,3.9843,0.91709,0.13314
0.048527,0.0054273,0.020472,0.044275,0.0091896,0.060668,0.037048,0.003901,0.089699,0.0083286,0.08313,0.079331,0.0056564,0.027793,0.065147,0.0048236,0.42817,0.20449,1.959,117.5,73.226,0.46965,2.1243,132.62,56.005,0.36974,0.52989,3.0288,0.9257,0.24012
0.057477,0.0040875,0.017672,0.077763,0.0095372,0.097648,0.098057,0.0041945,0.033522,0.006754,0.049675,0.041438,0.0042044,0.010346,0.022406,0.0066166,0.55715,0.78752,3.2082,59.958,206.1,0.4,2.0277,238.92,119.7,0.98376,0.24416,1.7426,0.72101,0.67555
0.044232,0.007629,0.015896,0.095981,0.0022447,0.019706,0.097536,0.0092396,0.079576,0.0043764,0.039935,0.042568,0.0034387,0.071118,0.03139,0.0026573,0.89845,0.68966,1.964,182.68,210.89,0.76858,1.1074,82.54,71.396,0.093129,0.28315,1.6,0.14109,0.55511
0.014634,0.0086631,0.041909,0.085381,0.0093831,0.015089,0.024391,0.0085041,0.088441,0.0040682,0.095866,0.045116,0.0063418,0.017112,0.085748,0.0040763,0.1447,0.28391,0.72208,159.8,196.07,0.1287,4.7493,135.81,162.55,0.093104,0.92213,4.9387,0.32986,0.36479
0.099486,0.0018647,0.019402,0.083151,0.0012187,0.066173,0.018978,0.0016885,0.050853,0.0030261,0.097409,0.084326,0.006357,0.040411,0.076371,0.0070997,0.37715,0.5588,1.9413,241.17,150.77,0.39609,2.9366,58.365,228.42,0.94929,0.53994,3.585,0.6473,0.38467
0.066191,0.0066052,0.032851,0.088623,0.001159,0.012256,0.036962,0.0085726,0.084196,0.0076241,0.047886,0.063082,0.0026412,0.033943,0.098961,0.0090719,0.56155,0.59819,4.9078,75.351,150.65,0.22485,0.77794,214,206.85,0.70933,0.50222,0.043164,0.095003,0.55566
0.041239,0.0079054,0.0918,0.070327,0.004429,0.058471,0.074277,0.0036627,0.027895,0.0011725,0.099431,0.023087,0.0083842,0.081355,0.068219,0.0054701,0.69385,0.19121,4.6475,65.917,74.154,0.69734,0.61869,117.35,249.41,0.6744,0.40987,3.1859,0.63922,0.32536
0.081646,0.0053943,0.022628,0.018229,0.0073893,0.057566,0.091954,0.0016884,0.083619,0.002,0.044331,0.017388,0.0035489,0.030166,0.023463,0.0026229,0.7374,0.98287,3.4732,123.75,231.72,0.25205,3.9123,56.636,178.44,0.48417,0.64082,0.56225,0.61557,0.15187
0.054858,0.0050496,0.083571,0.012564,0.0069255,0.051817,0.097089,0.0036134,0.010262,0.0033295,0.087945,0.019718,0.0039929,0.075746,0.081035,0.0021508,0.67147,0.73973,2.6524,162.89,213.19,0.8019,1.5236,133.46,56.022,0.14881,0.70698,4.2901,0.29993,0.97299
0.038782,0.0032146,0.067925,0.082112,0.0059802,0.056948,0.05216,0.0065441,0.071063,0.0065005,0.02411,0.096593,0.0019605,0.06288,0.046765,0.0068665,0.53722,0.21925,3.4443,87.678,190.75,0.31145,3.6036,105.63,57.28,0.73204,0.23813,3.2037,0.045271,0.52024
0.086115,0.0087377,0.037622,0.054332,0.0078948,0.063093,0.034331,0.0021119,0.084328,0.0015783,0.041474,0.039137,0.0032547,0.082901,0.047454,0.0090627,0.25276,0.27634,0.34469,135.13,1.4419,0.86018,0.59153,242.09,196.61,0.020989,0.93401,0.51283,0.24373,0.7621
0.078319,0.0021537,0.088447,0.096634,0.0027667,0.099728,0.01552,0.0087506,0.074141,0.001604,0.047234,0.059947,0.0021562,0.042481,0.031236,0.0087071,0.2267,0.37912,4.8523,91.588,0.63091,0.70995,0.65862,147.58,137.56,0.83438,0.23447,1.4939,0.053203,0.11427
0.071268,0.0099914,0.036369,0.040159,0.0053347,0.089422,0.059152,0.0050432,0.045025,0.0049444,0.074627,0.088293,0.0076652,0.022603,0.049813,0.0042108,0.94865,0.80982,4.0322,128.17,217.04,0.82519,4.9572,59.644,214.53,0.89291,0.26021,3.8272,0.2331,0.65313
0.045421,0.0056737,0.032949,0.090883,0.0024714,0.024328,0.060823,0.0077974,0.011053,0.00997,0.060706,0.048331,0.0057208,0.071853,0.041397,0.0086157,0.20298,0.56428,3.9828,142,20.351,0.12271,0.84798,154.67,88.591,0.15303,0.55511,1.5546,0.67746,0.58974
0.062137,0.0071644,0.063969,0.012926,0.0091396,0.047492,0.052326,0.0068424,0.028639,0.0050151,0.041507,0.062971,0.0018513,0.051915,0.071708,0.0090438,0.85824,0.31164,4.7053,247.2,184.89,0.63028,3.5291,229.62,112.36,0.1178,0.26998,3.8483,0.31197,0.60304
0.088321,0.0061764,0.065984,0.070421,0.0034903,0.069077,0.037668,0.0029014,0.023335,0.0027018,0.036198,0.071054,0.0061587,0.057796,0.023504,0.0017303,0.58263,0.22186,4.6631,64.416,174.57,0.24027,3.0819,247.51,185.82,0.038029,0.15872,4.6244,0.033573,0.85968
0.037799,0.0038049,0.082949,0.051153,0.0015737,0.055595,0.023627,0.0037862,0.064554,0.0020051,0.05361,0.013109,0.0068249,0.060229,0.046151,0.0074657,0.54885,0.89304,4.2353,200.9,51.634,0.074874,3.139,84.955,114.08,0.23963,0.25978,4.646,0.75628,0.12176
0.064054,0.0049025,0.016897,0.065124,0.0065353,0.012826,0.05164,0.0050315,0.092592,0.0034626,0.087492,0.018541,0.0094714,0.066292,0.010556,0.0035177,0.58351,0.28778,0.26005,117.67,180.37,0.91682,0.099959,145.33,115.33,0.86533,0.84969,2.7316,0.15243,0.73604
0.089569,0.0012501,0.019234,0.068099,0.0043023,0.090229,0.086356,0.0075935,0.068776,0.001055,0.09012,0.078601,0.001697,0.090587,0.077693,0.0095873,0.98702,0.47024,0.43646,217.67,103.44,0.85222,4.4513,179.92,22.194,0.30668,0.12612,1.3029,0.92392,0.99434
0.095892,0.0080836,0.094227,0.069091,0.0086011,0.065038,0.07134,0.0088754,0.033353,0.0032696,0.058024,0.068578,0.0059855,0.018329,0.050691,0.0051982,0.39748,0.83106,4.9499,129.2,103.28,0.83748,0.41467,80.384,1.7023,0.87552,0.77564,4.3564,0.35218,0.15899
0.090407,0.0034995,0.067835,0.019927,0.0078894,0.045454,0.065229,0.0020177,0.089128,0.001835,0.096626,0.024574,0.0094126,0.076535,0.046846,0.0094858,0.38747,0.75145,4.6806,73.75,211.87,0.078758,4.4169,149.15,169.52,0.66105,0.025467,3.7042,0.74249,0.48342
0.03621,0.0043744,0.056613,0.09466,0.0088358,0.048997,0.074418,0.0081728,0.070467,0.0080492,0.091582,0.095838,0.00116,0.089904,0.040097,0.004841,0.32427,0.6549,3.4749,53.415,59.203,0.21442,0.66606,104.07,45.85,0.55813,0.61849,1.1168,0.97262,0.40985
0.05741,0.0034704,0.076067,0.099677,0.0062455,0.069311,0.062867,0.0015745,0.046618,0.0096093,0.043658,0.041089,0.0078981,0.011016,0.045895,0.0079291,0.9415,0.87563,3.847,116.95,48.559,0.35036,3.5839,165.76,110.55,0.90987,0.27165,3.703,0.54409,0.92416
0.033864,0.0085581,0.078584,0.06838,0.0048021,0.040308,0.049802,0.0044757,0.063567,0.007213,0.024421,0.097353,0.0095304,0.0808,0.045454,0.0075412,0.12527,0.85691,2.6872,159.68,177.31,0.30175,0.10943,231.98,201.34,0.50665,0.026255,2.0883,0.34506,0.043159
0.085631,0.0014682,0.054139,0.048912,0.0021004,0.038443,0.057704,0.0039096,0.038329,0.0019928,0.09615,0.015265,0.0082856,0.034201,0.097831,0.0060998,0.64737,0.53412,3.8503,202.67,203.05,0.60161,0.51453,210.27,184.79,0.96703,0.40716,1.5094,0.80897,0.16958
0.063916,0.006165,0.011211,0.012902,0.002126,0.014257,0.072128,0.007554,0.059439,0.0090358,0.063579,0.024949,0.0087604,0.098472,0.051406,0.0071725,0.91543,0.52259,4.3238,198.6,175.41,0.96947,4.0768,119.02,164.54,0.43736,0.70519,0.45711,0.33941,0.31215
0.086473,0.0049701,0.083411,0.099631,0.0091865,0.038993,0.027258,0.0019217,0.095422,0.0096603,0.04199,0.01224,0.0011149,0.080682,0.030759,0.0040923,0.9214,0.72421,3.6974,133.84,95.099,0.24187,2.9585,196.36,236.72,0.32339,0.9316,3.9471,0.8997,0.80192
0.044631,0.0052327,0.096879,0.026348,0.0019854,0.034244,0.07181,0.0098247,0.049174,0.0045681,0.020305,0.07169,0.0045896,0.071003,0.03964,0.0069874,0.93704,0.7821,4.5889,139.32,41.377,0.45503,1.2809,123.14,36.134,0.10539,0.059698,4.3743,0.78429,0.26519
0.067788,0.0021983,0.027755,0.027633,0.0027695,0.062222,0.081603,0.0085167,0.061974,0.0086818,0.096116,0.056637,0.0069781,0.091861,0.066742,0.003895,0.36142,0.12813,0.26921,165,62.415,0.24626,0.081256,158.42,173.83,0.79977,0.0717,0.54361,0.20769,0.021899
0.049202,0.0031125,0.070462,0.097632,0.0054352,0.031604,0.011308,0.0080869,0.068164,0.0060583,0.010609,0.082776,0.0021622,0.035142,0.066738,0.0018746,0.54321,0.24618,4.6414,55.804,225.77,0.99454,4.3409,162.26,193.4,0.84708,0.23738,1.4473,0.077294,0.17379
0.022713,0.0023803,0.027593,0.065959,0.0098205,0.010757,0.052819,0.0052349,0.045538,0.0020538,0.068353,0.098679,0.0095804,0.079025,0.024131,0.0015582,0.542,0.70671,4.4482,51.434,111.85,0.79723,1.1946,242.33,25.095,0.62195,0.12223,3.7063,0.43068,0.066665
0.060771,0.0046268,0.093514,0.019991,0.0034778,0.021256,0.099029,0.0011362,0.088146,0.0058419,0.027211,0.079739,0.0081083,0.017211,0.010914,0.0050693,0.38797,0.39847,2.0398,144.04,91.91,0.84655,4.8489,76.279,36.54,0.096892,0.073563,1.6264,0.74397,0.77051
0.07521,0.0086344,0.092666,0.058453,0.007881,0.054784,0.050587,0.0028584,0.075208,0.0085404,0.075716,0.075725,0.0047121,0.038962,0.033995,0.00673,0.73699,0.48943,4.3972,71.223,195.37,0.78503,2.6124,186.14,90.189,0.27595,0.17952,1.9799,0.17048,0.9676
0.030665,0.001599,0.036727,0.045443,0.0047541,0.073918,0.068035,0.0036735,0.01107,0.0059418,0.047252,0.014129,0.0043988,0.058241,0.05609,0.0012825,0.16562,0.67044,3.8959,243.09,136.4,0.30022,1.9319,171.68,117.95,0.22214,0.87317,2.6639,0.75415,0.38864
0.013986,0.0051548,0.056477,0.073685,0.0074685,0.07562,0.081703,0.0070158,0.051687,0.0050009,0.035065,0.096918,0.0038377,0.094192,0.077871,0.0042408,0.12693,0.1042,4.8285,236.66,103.14,0.96857,4.0115,152.52,212.98,0.32183,0.85094,2.6289,0.38876,0.82712
0.032552,0.001278,0.021846,0.03988,0.0086039,0.080034,0.070407,0.0079262,0.065051,0.0093285,0.024367,0.063286,0.003346,0.053444,0.038362,0.0025762,0.44905,0.54725,2.527,156.38,112.68,0.98646,4.4745,118.92,185.1,0.29303,0.85558,3.8452,0.050445,0.64967
0.01413,0.0018247,0.01958,0.023214,0.0087108,0.088026,0.044986,0.0047076,0.020839,0.0098915,0.043351,0.097764,0.006413,0.027193,0.047484,0.0029308,0.44137,0.44777,2.1119,95.131,186.8,0.21124,0.29936,50.73,72.927,0.44859,0.55044,4.7225,0.44585,0.73291
0.070731,0.0020357,0.061014,0.086672,0.0035148,0.083273,0.061986,0.0028938,0.011628,0.005069,0.017194,0.027322,0.0018722,0.067596,0.032522,0.0084635,0.21042,0.58119,3.2067,199.66,4.5358,0.68751,0.011514,154.71,179.69,0.95426,0.43188,0.39038,0.0081942,0.42141
0.087643,0.0039538,0.066943,0.063028,0.0047384,0.02965,0.01088,0.0015117,0.017604,0.00477,0.023201,0.09369,0.0079613,0.057338,0.076669,0.0052189,0.60224,0.72556,4.5502,225.82,132.77,0.44502,3.6838,153.95,138.23,0.3874,0.8914,4.4143,0.22796,0.64422
0.013172,0.0030954,0.024036,0.082713,0.0060546,0.032619,0.043938,0.0039757,0.06219,0.0063556,0.083992,0.058365,0.0066439,0.053978,0.040102,0.0057091,0.74522,0.80643,1.6343,94.589,100.26,0.25589,2.3425,125.07,140.36,0.070808,0.085005,3.819,0.43726,0.32804
0.081265,0.0084621,0.013919,0.043403,0.0074303,0.054415,0.0817,0.0087884,0.083022,0.0040551,0.051985,0.090527,0.0086698,0.039392,0.070973,0.0094302,0.46042,0.15552,1.7057,133.73,61.173,0.4349,1.0971,144.11,238.8,0.91166,0.61566,3.7743,0.80043,0.017023
0.097117,0.0082458,0.09128,0.068032,0.0034218,0.030378,0.033232,0.0065128,0.088523,0.0049398,0.092326,0.078625,0.0090723,0.025492,0.031807,0.007244,0.99449,0.91314,4.9065,149.61,39.792,0.74412,3.4265,228.75,90.777,0.54637,0.36071,3.4176,0.74676,0.10248
0.086829,0.0098975,0.03097,0.054933,0.0020694,0.033314,0.089905,0.0075654,0.085819,0.0016385,0.025776,0.019088,0.0069023,0.010511,0.072676,0.0062382,0.87591,0.6413,3.0474,179.34,115.54,0.078127,4.9819,112.04,26.536,0.2901,0.70281,0.49817,0.16559,0.75841
0.096879,0.0064614,0.052267,0.099278,0.0093904,0.031405,0.034575,0.0033833,0.06131,0.002617,0.080393,0.04602,0.0048177,0.072342,0.031183,0.0098988,0.76578,0.74081,4.4443,234.91,184.57,0.90213,4.6252,197.75,78.16,0.52922,0.67103,0.16849,0.68319,0.52055
0.033862,0.0082054,0.050282,0.074626,0.0059195,0.017447,0.011189,0.0021519,0.093689,0.0097419,0.014444,0.017656,0.0048655,0.048484,0.064812,0.0081729,0.32136,0.22162,1.7642,118.9,231.08,0.37567,3.2895,137.72,124.39,0.96582,0.99629,1.3495,0.1943,0.83222
0.035446,0.0075858,0.098985,0.068218,0.0066117,0.020233,0.045428,0.0097033,0.053473,0.0059797,0.033236,0.022017,0.0051391,0.095516,0.05467,0.0086296,0.57269,0.6513,1.865,68.015,227.97,0.53611,3.7932,127.39,210.97,0.70314,0.20305,2.8225,0.86133,0.56329
0.061993,0.0079369,0.030594,0.084784,0.0013675,0.092174,0.058048,0.0045022,0.088392,0.0051699,0.074969,0.014468,0.0047565,0.086489,0.036336,0.0063486,0.74532,0.81932,2.2394,128.02,6.0198,0.88638,2.647,194.29,130.32,0.94743,0.48589,4.4948,0.068517,0.61799
0.071856,0.0057434,0.022414,0.043901,0.0078151,0.024124,0.025045,0.0030957,0.073322,0.0044743,0.036398,0.061175,0.0036627,0.019219,0.031922,0.0071077,0.83534,0.82612,2.2902,91.679,218.86,0.56249,1.7023,170.13,119.05,0.25034,0.066183,0.50212,0.97087,0.60414
0.056833,0.0047216,0.041478,0.014624,0.0055915,0.048747,0.057186,0.0099163,0.011307,0.006473,0.046806,0.023755,0.0082633,0.062714,0.020311,0.0084648,0.32686,0.14099,1.6154,227.83,151.55,0.20286,0.20514,117.93,53.736,0.565,0.15804,1.1938,0.257,0.1244
0.040772,0.006924,0.05964,0.011892,0.0061891,0.097981,0.072167,0.0046151,0.033515,0.0052612,0.035809,0.0149,0.0010758,0.085128,0.051219,0.0019589,0.30418,0.36374,1.3574,245.29,113.03,0.47171,3.0897,199.32,42.372,0.5316,0.85322,1.5028,0.87687,0.93354
0.035759,0.0030892,0.089375,0.070647,0.0079083,0.037912,0.073043,0.0099961,0.096671,0.0072655,0.022731,0.046043,0.0086842,0.051137,0.02711,0.0029916,0.48794,0.21893,0.35342,216.26,79.848,0.72385,3.365,197.06,236.56,0.85586,0.019368,0.47282,0.082471,0.77287
0.080573,0.0085929,0.021475,0.038662,0.0094691,0.031963,0.069869,0.0088701,0.023952,0.0071004,0.095468,0.05243,0.0047748,0.097336,0.014576,0.0028016,0.67589,0.1017,3.0458,136.96,21.133,0.53573,0.84077,145.21,197.71,0.37751,0.18175,2.6946,0.23309,0.80672
0.098007,0.0027056,0.041575,0.073159,0.0038131,0.087407,0.062266,0.0068091,0.08885,0.0070077,0.047914,0.028378,0.002824,0.087675,0.020091,0.0085831,0.88816,0.29871,4.2983,207.7,231.67,0.39749,3.0522,236,111.2,0.94041,0.56658,2.4656,0.50245,0.13606
0.041999,0.0081717,0.025227,0.010264,0.0061735,0.098703,0.095763,0.0062241,0.04338,0.007636,0.091038,0.026467,0.0058091,0.093776,0.089326,0.0079785,0.23313,0.51051,1.4747,130.14,106.27,0.74415,4.1101,129.24,43.045,0.024452,0.35398,3.7335,0.95208,0.72471
0.022308,0.0058834,0.098147,0.096129,0.0019816,0.011506,0.033241,0.002122,0.034623,0.0026625,0.080106,0.079609,0.0025944,0.034997,0.09861,0.0091437,0.97013,0.12576,4.9187,206.46,133.81,0.4043,1.4616,50.729,119.18,0.59294,0.91192,4.0813,0.5188,0.18955
0.074711,0.0094813,0.094331,0.016155,0.0085573,0.02357,0.011086,0.0093389,0.071042,0.0036812,0.092977,0.064603,0.0066535,0.094522,0.09092,0.0019444,0.41196,0.88489,1.9803,227.82,60.732,0.29351,1.043,145.76,228.03,0.54246,0.81505,0.30671,0.71633,0.41031
0.030704,0.0066172,0.037993,0.074668,0.001535,0.041407,0.070421,0.0038054,0.090614,0.0038565,0.060428,0.091985,0.0037834,0.049781,0.064023,0.0089335,0.65471,0.17092,4.2453,115.58,138.59,0.78494,3.6842,183.74,98.034,0.20548,0.51139,4.7959,0.64417,0.28614
0.013764,0.008216,0.012463,0.050805,0.0018815,0.03109,0.049398,0.0094055,0.011054,0.008678,0.080092,0.064927,0.009064,0.023496,0.089902,0.0069786,0.53734,0.66009,1.6307,51.928,183.84,0.24489,4.9442,215.36,90.96,0.063613,0.3697,0.28075,0.5125,0.76736
0.08198,0.0097786,0.078637,0.030938,0.0076476,0.071446,0.023076,0.0049699,0.050459,0.0087735,0.015017,0.048401,0.004311,0.047709,0.091481,0.0062862,0.43505,0.19098,4.8399,80.002,232.77,0.98602,3.49,98.836,41.419,0.15624,0.4598,3.9491,0.1064,0.95301
0.084247,0.0021161,0.014861,0.021052,0.0047088,0.024924,0.052538,0.0071404,0.025759,0.0048764,0.076821,0.044168,0.008677,0.092872,0.078641,0.0068573,0.69538,0.4902,3.0666,193.94,214.65,0.68338,0.28103,107.14,143.42,0.022523,0.83935,1.4487,0.34556,0.56314
0.051647,0.0093948,0.083421,0.041317,0.0089893,0.032165,0.083429,0.0075959,0.035894,0.0097797,0.036241,0.094979,0.0059979,0.04745,0.076099,0.0087056,0.36996,0.5746,4.6039,147.03,214.79,0.57626,4.0046,166.05,86.389,0.60419,0.10151,2.374,0.72752,0.26809
0.059748,0.0022132,0.026613,0.072556,0.0022132,0.066347,0.028771,0.008725,0.042437,0.0078989,0.01224,0.099763,0.0071441,0.060197,0.057408,0.0016012,0.61034,0.85048,1.8297,156.77,188.21,0.052549,4.0292,61.76,14.82,0.5594,0.20374,1.7816,0.63926,0.98527
0.035777,0.0010701,0.044054,0.022921,0.0037055,0.067148,0.010821,0.0030159,0.078359,0.0041507,0.011881,0.027849,0.0035379,0.022742,0.073578,0.0059647,0.70303,0.17023,0.084366,224.6,219.78,0.16414,2.0339,228.84,5.2408,0.60051,0.37828,1.4327,0.85207,0.52524
0.058955,0.0028919,0.050418,0.081119,0.0088398,0.027167,0.03712,0.0093221,0.052546,0.0040855,0.035178,0.099205,0.0047529,0.079787,0.037503,0.0094909,0.72022,0.61688,2.5632,65.802,83.606,0.52943,4.0388,177.36,152.27,0.23238,0.26449,4.268,0.91875,0.53411
0.088708,0.0090002,0.05753,0.078052,0.0067844,0.078506,0.081851,0.0097819,0.05133,0.0056955,0.057891,0.095363,0.0060386,0.095006,0.068457,0.0072624,0.29157,0.33413,4.4565,51.401,216.52,0.9047,4.59,142.95,249.33,0.82637,0.040303,3.3032,0.45235,0.43768
0.051562,0.0072894,0.076428,0.055502,0.0080211,0.063948,0.030194,0.0027989,0.033824,0.0073473,0.077619,0.03398,0.0085081,0.081348,0.041697,0.0015662,0.51151,0.89683,0.47388,177.81,61.923,0.13248,2.2735,151.59,41.439,0.29856,0.44466,1.6429,0.39087,0.32218
0.087423,0.0077647,0.05343,0.091612,0.0059497,0.0149,0.084641,0.0026402,0.025081,0.0079493,0.023831,0.019454,0.0016523,0.052926,0.068524,0.0039247,0.63171,0.27094,2.6172,218.34,218.03,0.3325,3.2754,138.52,167.15,0.076576,0.6519,2.6166,0.22552,0.50156
0.015307,0.0029402,0.018947,0.040926,0.0042082,0.016478,0.031249,0.008793,0.08207,0.0097318,0.096096,0.045241,0.0096955,0.061134,0.028129,0.008617,0.12264,0.1502,2.9357,183.97,94.801,0.095009,1.4137,75.951,212.04,0.27165,0.92146,4.3727,0.92106,0.1615
0.072681,0.0083664,0.034233,0.078745,0.0055237,0.09728,0.077015,0.0079985,0.081338,0.0010156,0.02622,0.070298,0.0027322,0.089569,0.063208,0.0050524,0.21952,0.5578,1.9933,90.55,225.09,0.35354,0.1404,206.11,116.34,0.89522,0.33073,3.2862,0.64461,0.021122
0.063124,0.0090347,0.087637,0.065291,0.0049929,0.038878,0.013278,0.0061804,0.030768,0.0084602,0.045887,0.044322,0.009677,0.065706,0.05029,0.0018053,0.5904,0.38859,2.9658,182.74,93.546,0.1103,4.7863,88.545,44.602,0.34938,0.64075,4.7478,0.36723,0.58544
0.084871,0.0010441,0.054484,0.070934,0.0057582,0.062672,0.029023,0.008675,0.048268,0.0075483,0.058748,0.07841,0.0097461,0.079276,0.038444,0.0063101,0.69494,0.89301,1.4514,105.43,19.355,0.62748,3.7762,212.1,113.89,0.15468,0.70513,3.087,0.88496,0.27382
0.081135,0.0020763,0.080937,0.060402,0.006854,0.080018,0.034686,0.0078429,0.094393,0.0091925,0.024032,0.049246,0.0079097,0.020393,0.071224,0.0051805,0.98627,0.92946,2.3838,90.888,57.135,0.98373,3.0781,233.55,90.464,0.63659,0.9856,0.21134,0.63013,0.60332
0.030844,0.0042342,0.035711,0.033155,0.0093535,0.08366,0.024233,0.0018763,0.074401,0.0052898,0.093394,0.061807,0.0050495,0.026832,0.024846,0.0053176,0.33814,0.45298,0.55751,154.26,219.78,0.65102,4.4605,101.01,110.99,0.64368,0.50805,1.3757,0.80546,0.65671
0.069294,0.0090251,0.093122,0.096355,0.0010197,0.034993,0.074866,0.0017377,0.018365,0.0068071,0.02747,0.038241,0.0090528,0.036777,0.073432,0.0055602,0.18866,0.3491,0.6165,75.615,50.259,0.7257,0.40483,236.47,116.02,0.90378,0.29017,0.32034,0.74525,0.20799
0.072521,0.0072043,0.078724,0.095794,0.0047311,0.073625,0.056782,0.0048788,0.093989,0.004349,0.054992,0.058202,0.0077494,0.083155,0.09138,0.0027887,0.86304,0.35743,3.887,136.2,232.43,0.30339,4.4773,128.26,92.413,0.37654,0.187,3.3904,0.46351,0.95973
0.01884,0.0027289,0.057762,0.030791,0.0077257,0.059306,0.093529,0.008251,0.044052,0.0048072,0.026367,0.084096,0.0024941,0.046253,0.05304,0.0051687,0.11962,0.247,3.2781,204.47,103.43,0.48503,4.2654,118.51,30.181,0.73503,0.78804,3.232,0.32864,0.45049
0.028541,0.0035132,0.07135,0.056044,0.0082697,0.027201,0.055539,0.0030223,0.026955,0.0083238,0.046096,0.021832,0.0085953,0.056166,0.010578,0.0067859,0.92756,0.59047,3.0583,138.98,30.404,0.015765,2.967,123.05,39.212,0.49151,0.43655,4.6442,0.52251,0.088191
0.045724,0.0087909,0.022248,0.054476,0.0048057,0.029099,0.087253,0.00678,0.062208,0.0022656,0.071052,0.069204,0.0024374,0.095922,0.040186,0.00851,0.53637,0.75794,1.3532,141.31,116.4,0.48651,3.687,124.6,227.64,0.94482,0.056396,1.2058,0.44243,0.93637
0.089921,0.0038755,0.086281,0.057234,0.0077263,0.027114,0.07188,0.0037594,0.066339,0.0031906,0.015658,0.078236,0.00179,0.010053,0.041598,0.0056319,0.29367,0.76287,2.3741,161.15,188.47,0.91729,1.8475,153.94,56.21,0.89548,0.91801,1.7735,0.87334,0.96856
0.079106,0.0078177,0.041892,0.087268,0.0067891,0.047814,0.029753,0.0060099,0.048766,0.0096869,0.09963,0.057389,0.007063,0.010978,0.068086,0.0063213,0.53592,0.83164,1.1819,223.56,155.06,0.7286,0.23247,190.36,164.04,0.17437,0.10327,1.6309,0.0072944,0.75101
0.073085,0.0028031,0.076607,0.071528,0.0093575,0.04706,0.072862,0.0089655,0.079283,0.0036119,0.036814,0.026639,0.0069396,0.027468,0.089592,0.0063522,0.18962,0.2639,0.51036,165.89,156.16,0.54512,1.4483,107.74,221.16,0.85086,0.66318,2.704,0.93518,0.73828
0.046529,0.0091286,0.030888,0.048179,0.0084839,0.038296,0.057223,0.0044544,0.020399,0.0026107,0.070868,0.014708,0.0060776,0.058278,0.034878,0.0078318,0.16604,0.43075,4.7377,127.63,220.95,0.92335,1.7738,223.21,83.336,0.83709,0.22305,3.7957,0.18937,0.37467
0.016879,0.0040525,0.023539,0.048274,0.0058224,0.047975,0.07407,0.0079865,0.095054,0.0011599,0.087017,0.048136,0.0075769,0.086307,0.071716,0.007611,0.36894,0.91122,4.1596,182.97,238.43,0.96549,4.4035,214.95,114.89,0.4763,0.5154,4.0944,0.90264,0.96531
0.02666,0.006559,0.015574,0.092874,0.0030775,0.079352,0.026884,0.0093668,0.017794,0.007811,0.026918,0.035478,0.0077719,0.010228,0.058541,0.0064686,0.41916,0.92589,2.2107,84.177,192.69,0.051254,1.0358,122.25,212.92,0.87374,0.15271,3.0179,0.46431,0.40815
0.06397,0.0095504,0.076821,0.014458,0.0033198,0.084539,0.061545,0.0041624,0.025731,0.0033475,0.087299,0.03699,0.001667,0.087757,0.013847,0.0059715,0.20267,0.75665,2.4376,64.248,168.09,0.74602,1.6649,180.33,221.18,0.84011,0.24526,2.5642,0.89148,0.10808
0.060543,0.004814,0.094258,0.088381,0.0012939,0.043848,0.055099,0.0059326,0.04514,0.0053875,0.072951,0.050465,0.0067687,0.025326,0.037434,0.0034329,0.57601,0.34862,1.1703,180.21,240.99,0.82511,2.7664,125.61,138.12,0.29943,0.17725,4.9903,0.11548,0.38206
0.034173,0.0017735,0.047131,0.039363,0.0082876,0.022464,0.087489,0.0060803,0.069227,0.0096199,0.010857,0.036053,0.0022348,0.01619,0.03941,0.0040392,0.5644,0.64934,2.5368,133.72,25.403,0.12727,1.5697,140.92,202.96,0.060331,0.074101,2.0797,0.5737,0.43499
0.030991,0.0032765,0.097874,0.019321,0.0071287,0.012209,0.093019,0.0032638,0.060553,0.0058191,0.09937,0.072735,0.0074945,0.084838,0.096181,0.0082686,0.21378,0.9433,4.1715,132.84,177.62,0.61902,3.7799,176.64,176.78,0.071239,0.79955,1.7929,0.49078,0.198
0.072718,0.007781,0.040436,0.078544,0.0036225,0.079353,0.022712,0.0054265,0.04773,0.0019795,0.03435,0.096161,0.0035768,0.03687,0.058944,0.0035461,0.82781,0.79032,0.32088,195.31,79.375,0.11818,4.7495,171.59,105.95,0.19957,0.39429,0.94673,0.56309,0.83539
0.06606,0.0082146,0.042461,0.028795,0.0055296,0.046589,0.088571,0.0055282,0.017258,0.0072465,0.084035,0.075151,0.0083728,0.031995,0.023246,0.0068229,0.72783,0.37334,4.604,126.98,159.54,0.67438,4.7632,68.833,17.825,0.89779,0.14699,3.4543,0.99484,0.61499
0.017457,0.0054121,0.015704,0.077697,0.0086376,0.048149,0.078626,0.0064605,0.074552,0.0038743,0.072932,0.021782,0.0076312,0.047102,0.041389,0.0054873,0.21649,0.58575,3.8138,115.47,52.984,0.53217,4.9065,138.39,29.047,0.5846,0.86915,3.8046,0.90217,0.13857
0.075085,0.0039153,0.088518,0.018963,0.0053334,0.041412,0.028459,0.0038824,0.090423,0.0043846,0.082806,0.052596,0.0067931,0.062335,0.04142,0.0015765,0.47154,0.59356,1.058,164.79,113.54,0.83989,3.5349,208.69,100.91,0.8769,0.12135,1.946,0.53835,0.45622
0.06477,0.0054908,0.064267,0.016236,0.0042436,0.090405,0.010128,0.0050238,0.07944,0.0029926,0.03508,0.06249,0.0092625,0.092501,0.069729,0.0059318,0.7183,0.68855,3.783,149.38,125.72,0.20995,3.026,209.4,5.2506,0.44989,0.92189,0.12649,0.099091,0.80725
0.061662,0.0046459,0.061117,0.051936,0.0058655,0.059093,0.095175,0.0059389,0.06288,0.0045536,0.017644,0.058916,0.0076333,0.083163,0.042766,0.0082195,0.53974,0.36304,4.9538,80.308,180.22,0.39922,2.9178,101.66,71.741,0.80038,0.54276,2.4316,0.42607,0.44527
0.079662,0.0059523,0.034783,0.092226,0.0046727,0.049139,0.077931,0.0058778,0.030661,0.0090872,0.012017,0.016646,0.0071614,0.058545,0.099686,0.0096985,0.66405,0.44041,3.2585,103.33,135.01,0.68519,2.8487,212.35,168.93,0.32402,0.025901,0.26963,0.17178,0.35037
0.04047,0.0028192,0.078673,0.055689,0.0016661,0.045825,0.091093,0.0032576,0.066995,0.009313,0.028129,0.063387,0.0048765,0.017844,0.043584,0.0034662,0.81091,0.81403,1.937,96.575,38.526,0.92754,2.3957,241.26,138.74,0.034693,0.072291,2.3088,0.86655,0.82313
0.010396,0.0064444,0.064704,0.096306,0.0074813,0.045455,0.011602,0.0086101,0.017255,0.0061873,0.039402,0.06155,0.0078792,0.083173,0.042399,0.0020254,0.94937,0.54226,1.9753,147.25,30.481,0.37873,1.285,227.37,89.7,0.11072,0.12475,3.6217,0.93255,0.80277
0.090551,0.0013541,0.056796,0.04005,0.0045308,0.082039,0.057295,0.0053849,0.032702,0.0015719,0.048935,0.077772,0.0044226,0.08364,0.071971,0.0064172,0.82169,0.94339,4.5322,173.52,133.72,0.88258,2.1105,87.259,3.1804,0.31972,0.65454,3.18,0.76469,0.18611
0.092093,0.0060801,0.018448,0.04912,0.0066282,0.014559,0.084865,0.0082493,0.067204,0.0030556,0.063604,0.017413,0.0026907,0.056528,0.044845,0.0055784,0.21968,0.77359,2.9467,136.73,124.14,0.16513,2.5695,73.216,176.73,0.15939,0.5933,0.92252,0.43831,0.45887
0.047484,0.0094987,0.034397,0.032519,0.0053687,0.022151,0.068938,0.004417,0.03393,0.0063633,0.015937,0.041706,0.0048378,0.031566,0.026356,0.0095701,0.8815,0.62184,4.639,220.63,73.506,0.56142,3.7477,103.1,204.88,0.41119,0.28676,1.5112,0.83865,0.76108
0.082638,0.0049827,0.017083,0.098183,0.004151,0.037843,0.093637,0.0026471,0.096506,0.0074888,0.085253,0.017038,0.0074902,0.064924,0.09228,0.0095293,0.56793,0.27923,1.1617,79.67,209.85,0.95196,1.3308,240.52,12.416,0.8092,0.11699,1.7907,0.50203,0.35102
0.053251,0.0078694,0.013114,0.061322,0.0055175,0.061068,0.044106,0.0056893,0.074232,0.0092301,0.045695,0.089382,0.0097799,0.034125,0.087739,0.001423,0.23233,0.62373,2.1725,237.31,27.652,0.046192,0.44074,68.564,91.88,0.42121,0.48414,1.9787,0.70608,0.086413
0.015399,0.0048526,0.030005,0.097284,0.0043832,0.042893,0.036497,0.002579,0.041843,0.0051535,0.080004,0.023098,0.0031437,0.030678,0.094406,0.0044964,0.10487,0.58548,2.4748,117.31,40.082,0.41969,3.133,181.97,1.3333,0.5606,0.90852,4.7278,0.03368,0.40572
0.04195,0.0062415,0.096816,0.047649,0.0064631,0.030707,0.082868,0.0016673,0.035193,0.0024923,0.014326,0.085209,0.0082877,0.034524,0.065938,0.0094022,0.40393,0.27838,1.8378,153.54,129.64,0.52934,2.2337,63.612,223.48,0.68966,0.085416,2.1101,0.40602,0.52915
0.030736,0.0017693,0.036327,0.026578,0.0022728,0.073626,0.09221,0.0097909,0.010969,0.0041039,0.015431,0.038255,0.0067129,0.075109,0.033196,0.0099921,0.93459,0.80255,3.2541,243.83,38.446,0.16347,2.5227,230.61,209.64,0.86125,0.07862,3.9788,0.53436,0.76912
0.015168,0.0025059,0.05164,0.033969,0.0063987,0.031561,0.081336,0.0031925,0.0809,0.0083035,0.02102,0.050268,0.0014627,0.03008,0.01198,0.0081475,0.73482,0.70338,1.0838,116.05,58.055,0.16806,3.862,241.89,9.7168,0.84384,0.082815,2.2399,0.27635,0.53789
0.07112,0.0059664,0.071246,0.095328,0.008073,0.080821,0.069115,0.003245,0.09828,0.0022848,0.027751,0.0715,0.0087259,0.045027,0.04376,0.0042939,0.35651,0.15951,4.1723,249.68,226.73,0.93521,4.4916,241.18,194,0.40502,0.45282,1.7418,0.20966,0.93624
0.070016,0.0020161,0.027919,0.016044,0.0075805,0.067559,0.056346,0.0084746,0.016762,0.0077544,0.038748,0.088269,0.0067213,0.053288,0.075019,0.0063278,0.19322,0.15998,0.68603,54.779,86.709,0.65287,1.3844,223.26,233.75,0.055748,0.54663,4.7342,0.4826,0.9201
0.010855,0.0077966,0.061417,0.098317,0.0042584,0.072496,0.077084,0.008666,0.052049,0.0079659,0.075313,0.035609,0.0036655,0.049253,0.076081,0.0046164,0.40222,0.60708,0.36193,217.57,135.66,0.12554,0.31297,73.852,34.478,0.2231,0.16898,0.90114,0.25189,0.63202
0.040813,0.0090713,0.014949,0.096514,0.0089648,0.065155,0.014691,0.0013192,0.013459,0.0049502,0.059688,0.030675,0.0080549,0.012649,0.026345,0.005539,0.6197,0.63567,0.56719,226.91,148.15,0.65582,4.6259,160.5,11.411,0.5315,0.064394,3.5171,0.65605,0.35944
0.095084,0.0026016,0.069143,0.011234,0.0067454,0.023805,0.016706,0.0050323,0.05535,0.0018395,0.049179,0.058524,0.0070234,0.095817,0.018875,0.0036729,0.79392,0.74731,2.7882,145.74,77.651,0.46799,4.2233,200.75,87.319,0.819,0.22899,3.9378,0.73165,0.43958
0.031568,0.0050766,0.014658,0.09565,0.0049401,0.033874,0.033885,0.0018435,0.072825,0.0044947,0.038205,0.04419,0.005391,0.092472,0.025121,0.0025305,0.57822,0.51765,1.4982,201.82,45.824,0.78412,2.9018,77.638,6.0249,0.74292,0.089622,4.2055,0.12645,0.47767
0.019149,0.0059462,0.092698,0.057967,0.0029978,0.0457,0.087547,0.0099386,0.081071,0.0013201,0.012203,0.019072,0.0098444,0.042799,0.055954,0.0049434,0.61283,0.94104,0.052896,86.692,1.2207,0.26868,4.3795,189.71,86.434,0.22853,0.28952,2.9409,0.51888,0.13392
0.054283,0.0022946,0.027144,0.081111,0.0084833,0.079829,0.062533,0.0064859,0.075475,0.0094096,0.092719,0.088048,0.0074571,0.047318,0.0561,0.0041063,0.10866,0.6646,0.7683,133.64,184,0.47868,1.9711,206.53,139.89,0.61383,0.25003,3.4447,0.82854,0.26952
0.013494,0.0091803,0.081171,0.095474,0.0078588,0.010846,0.090793,0.0052663,0.068832,0.0077536,0.02757,0.04821,0.0021366,0.056308,0.064906,0.0077911,0.22461,0.60035,2.8593,141.37,226.78,0.23932,1.3383,209.79,245.67,0.81457,0.88345,2.6362,0.4233,0.02312
0.025435,0.0087223,0.034868,0.027671,0.0010224,0.051531,0.043452,0.0026558,0.097885,0.006265,0.06973,0.022646,0.0089551,0.055317,0.048671,0.0059702,0.55407,0.72853,0.54956,246.24,165.4,0.15622,3.483,82.291,200.1,0.092902,0.23414,0.41975,0.12041,0.11942
0.079788,0.0035845,0.088388,0.044089,0.0094631,0.058769,0.041049,0.0021159,0.032631,0.0067724,0.023336,0.047445,0.005446,0.069729,0.083286,0.0085741,0.76726,0.3258,3.5738,223.03,33.197,0.23412,1.8056,213.22,161.85,0.76817,0.4745,4.2497,0.74473,0.27999
0.091488,0.0033441,0.021367,0.086268,0.0023129,0.062997,0.046608,0.005861,0.051048,0.0026649,0.030083,0.049221,0.0099958,0.032936,0.099743,0.0018623,0.11033,0.42188,4.1297,215.66,186.4,0.94327,3.8169,197.86,204.98,0.24039,0.29203,4.5678,0.56893,0.76342
0.094603,0.0039513,0.036038,0.06668,0.0087185,0.053739,0.052421,0.00903,0.016462,0.0027265,0.028267,0.028087,0.0053163,0.053211,0.052624,0.0015762,0.91226,0.50955,3.2861,179.65,200.81,0.15508,1.6585,166.65,96.152,0.073335,0.73772,0.89218,0.92344,0.077625
0.068571,0.0076955,0.074172,0.039177,0.0090165,0.035006,0.095415,0.0054703,0.0928,0.0056421,0.079978,0.016118,0.0043814,0.057082,0.036917,0.0076219,0.64764,0.80866,1.3007,232.36,199.96,0.51242,1.8657,170.02,137.24,0.095726,0.67425,4.4587,0.74378,0.63666
0.068541,0.0023388,0.07858,0.074769,0.0092174,0.046519,0.094308,0.0042931,0.099685,0.0061779,0.04208,0.097954,0.0053476,0.067989,0.01289,0.003945,0.60166,0.9121,4.9841,51.389,193.69,0.52534,0.76456,55.264,163.85,0.29509,0.3088,2.6155,0.72986,0.37485
0.081394,0.0073989,0.07379,0.02368,0.0091332,0.087617,0.035239,0.0044633,0.045615,0.0071294,0.068941,0.077019,0.0020813,0.061043,0.07682,0.0069603,0.94417,0.69598,4.6755,105.65,44.663,0.53096,4.2807,191.71,197.19,0.22556,0.33201,1.0544,0.04465,0.33369
0.071875,0.0016902,0.072435,0.09088,0.003148,0.050686,0.082789,0.0098955,0.012205,0.0040614,0.014218,0.059366,0.0071966,0.056526,0.013094,0.0030654,0.56193,0.41023,3.9105,50.606,110.8,0.41481,1.8176,77.863,73.287,0.15642,0.12122,4.3164,0.80248,0.57823
0.073445,0.0086862,0.090976,0.085192,0.0094209,0.07743,0.046163,0.001543,0.088535,0.0038579,0.013969,0.091929,0.0077282,0.057379,0.024436,0.0037424,0.83459,0.98127,2.9609,77.831,203.24,0.16606,1.4543,234.94,28.9,0.58194,0.81368,1.4601,0.58345,0.97153
0.051875,0.0063083,0.073599,0.057912,0.009535,0.063951,0.092815,0.0051731,0.038463,0.0093158,0.013436,0.026181,0.0045049,0.041383,0.011482,0.0024368,0.68104,0.60434,1.4686,158.26,90.986,0.67387,4.7215,234.83,51.024,0.18765,0.44597,4.6493,0.66985,0.84369
0.070657,0.0074329,0.080626,0.035314,0.0097951,0.03951,0.061431,0.0030279,0.087149,0.0042405,0.062855,0.046135,0.0075601,0.08982,0.038096,0.0049629,0.54886,0.40846,3.0499,85.375,201.17,0.97551,1.92,109.55,249.18,0.011819,0.8516,4.6468,0.37013,0.96832
0.012846,0.0020767,0.039893,0.056027,0.0098872,0.044218,0.095717,0.0069831,0.086618,0.0033011,0.069902,0.029736,0.0086779,0.077585,0.070817,0.0070486,0.79475,0.65626,0.45565,63.071,202.54,0.81984,4.4281,158.76,154.91,0.011564,0.43796,1.9076,0.39137,0.19889
0.083852,0.0068529,0.027147,0.069364,0.0083859,0.098784,0.027443,0.0086139,0.072027,0.007388,0.097261,0.082635,0.009068,0.076361,0.037844,0.0010672,0.69276,0.27333,1.3082,209.13,215.93,0.8767,1.9669,92.081,183.89,0.50477,0.34919,0.18329,0.14925,0.039789
0.05282,0.0083568,0.052738,0.03333,0.0031293,0.081491,0.036525,0.0060759,0.091446,0.0065915,0.028036,0.042501,0.0033006,0.048819,0.067045,0.0089031,0.47699,0.71802,2.2541,179.42,46.839,0.15182,1.7266,202.8,217.55,0.29083,0.074455,3.06,0.9775,0.26657
0.057744,0.0016253,0.082378,0.061971,0.0043647,0.048699,0.07928,0.0078422,0.088584,0.0035737,0.040018,0.040836,0.0059766,0.087235,0.031857,0.001856,0.38708,0.77096,1.2822,235.09,141.18,0.86755,0.51031,177.32,164.71,0.52552,0.16838,2.9823,0.079336,0.13711
0.059961,0.0062389,0.038215,0.039381,0.0091922,0.085959,0.025872,0.0071519,0.085615,0.0076458,0.05963,0.077159,0.0069466,0.013851,0.052434,0.0045775,0.90719,0.99878,1.132,101.56,123.4,0.64351,4.0645,159.12,4.7704,0.9361,0.6538,0.62135,0.27338,0.83526
0.038521,0.0031876,0.038887,0.044751,0.0012928,0.040372,0.011678,0.0061692,0.082172,0.0074626,0.071763,0.073572,0.0072508,0.057252,0.066236,0.0071582,0.23283,0.26566,0.066451,75.013,155.63,0.67477,0.69338,230.28,191.9,0.30185,0.94638,4.6675,0.17575,0.31069
0.064497,0.0043996,0.023149,0.055162,0.0028722,0.017829,0.09217,0.0036319,0.060098,0.0014464,0.08821,0.063315,0.009644,0.051024,0.073343,0.0023801,0.61,0.12642,1.0192,72.433,202.49,0.81029,1.4317,208.54,181.54,0.12664,0.94365,0.29732,0.49891,0.20355
0.058228,0.0091379,0.06986,0.01115,0.0037998,0.071563,0.010003,0.0028367,0.077719,0.0049148,0.021161,0.036555,0.0047414,0.085973,0.092036,0.008008,0.50086,0.30765,2.7446,58.12,186.72,0.8241,0.31869,181.35,140.27,0.77052,0.58381,3.0014,0.13719,0.82371
0.066855,0.0057903,0.066885,0.04973,0.0081207,0.011107,0.050569,0.0036149,0.092393,0.0087148,0.022943,0.048541,0.0078586,0.089784,0.043205,0.0021073,0.73369,0.20044,4.5168,181.27,104.9,0.26607,4.922,63.238,210.8,0.6028,0.37918,2.1482,0.7357,0.60558
0.033541,0.0094352,0.042438,0.011435,0.0039567,0.068174,0.047582,0.0048066,0.046415,0.0074198,0.017425,0.030977,0.0018104,0.09144,0.022805,0.0036088,0.94265,0.62883,3.4191,100.52,103.34,0.65739,0.20143,146.92,177.31,0.49627,0.51444,4.0163,0.27344,0.72399
0.099189,0.007872,0.04719,0.019203,0.0072182,0.042345,0.027124,0.0022638,0.018113,0.0027535,0.059119,0.036744,0.0062436,0.051991,0.038092,0.0068675,0.9545,0.32989,1.7779,161.15,144.33,0.86383,1.0677,97.71,244.5,0.3883,0.77391,3.8155,0.21757,0.32927
0.021129,0.007025,0.04189,0.065058,0.0051249,0.039209,0.031188,0.0055198,0.094249,0.0099099,0.028696,0.046053,0.001858,0.076909,0.095998,0.0094731,0.3345,0.1905,1.3188,101.03,115.83,0.5789,2.4113,152.76,153.75,0.28398,0.045572,4.3689,0.42752,0.027973
0.020642,0.009335,0.019018,0.026061,0.0095588,0.048313,0.063931,0.0058875,0.062617,0.0066539,0.030911,0.094533,0.0073077,0.027007,0.097213,0.0069496,0.33259,0.63793,4.2763,167.43,147.55,0.636,1.9917,195.21,202.6,0.27032,0.66932,4.7522,0.25186,0.84739
0.052925,0.0038529,0.037843,0.074245,0.0081485,0.03229,0.06279,0.0039023,0.031028,0.008812,0.060689,0.066749,0.0085941,0.023413,0.014854,0.0069677,0.39397,0.75263,0.65631,170.17,91.233,0.30802,2.2315,243.64,172.69,0.74304,0.37823,0.76515,0.38918,0.66498
0.094285,0.0088748,0.0171,0.094884,0.0029882,0.084637,0.043655,0.0093078,0.040962,0.0023391,0.079824,0.091396,0.0082872,0.075682,0.090664,0.0073314,0.58802,0.65065,1.6059,59.622,134,0.39153,0.032908,63.096,244.46,0.89946,0.0011868,1.899,0.64517,0.026037
0.022007,0.0034446,0.01256,0.074767,0.0086272,0.076775,0.060559,0.0031559,0.055801,0.0072549,0.021128,0.083976,0.0045714,0.084632,0.030567,0.0066072,0.3991,0.72627,1.1204,225.2,18.714,0.50385,3.3038,220.22,21.571,0.91164,0.72114,4.9419,0.52451,0.48936
0.016452,0.0050661,0.032598,0.029755,0.0086536,0.033903,0.015659,0.0037329,0.080046,0.0063019,0.029596,0.033024,0.0041617,0.098076,0.06867,0.0023883,0.88826,0.56933,1.1044,169.73,89.443,0.22381,1.7193,72.621,247.98,0.47088,0.43918,1.6538,0.80467,0.57801
0.096819,0.0059374,0.04221,0.020454,0.0085004,0.057149,0.011748,0.0080123,0.023474,0.0023878,0.085003,0.044717,0.00718,0.033981,0.07372,0.0076323,0.62675,0.67857,4.2591,164.75,157.3,0.35886,0.99955,180.06,47.727,0.75345,0.88784,2.598,0.78536,0.59206
0.09622,0.0016661,0.089905,0.034672,0.0062358,0.072472,0.012666,0.0020989,0.058928,0.005822,0.04068,0.021281,0.0030414,0.04712,0.046733,0.0073904,0.37641,0.67692,0.54731,83.907,125.42,0.6798,4.2123,130.31,136.15,0.61753,0.56721,0.60142,0.91979,0.28052
0.025826,0.0037231,0.06977,0.056603,0.0057748,0.035497,0.017729,0.0060726,0.044629,0.0027435,0.034367,0.082966,0.0024164,0.099046,0.028796,0.0078604,0.41216,0.11648,3.6133,52.479,149.29,0.92379,4.5726,80.376,203.62,0.62309,0.8932,3.9307,0.28938,0.12817
0.010413,0.0022401,0.072637,0.095164,0.0016303,0.088418,0.064814,0.0089935,0.024513,0.007667,0.090179,0.09629,0.00346,0.023618,0.086802,0.0071954,0.44329,0.75213,4.9262,164.36,155.96,0.94787,2.5125,204.2,229.51,0.61158,0.52108,4.1873,0.55868,0.18003
0.037977,0.0023368,0.041042,0.024947,0.0087072,0.082708,0.030924,0.0087413,0.092844,0.0036193,0.090625,0.054482,0.0037361,0.082652,0.080953,0.0053652,0.98363,0.4122,2.1136,172.84,194.38,0.42429,2.5798,220.12,116.24,0.35319,0.64307,1.0543,0.31747,0.93936
0.025002,0.0099902,0.079042,0.097637,0.0098345,0.071736,0.07976,0.0026967,0.024466,0.0096239,0.087918,0.011573,0.0087546,0.06938,0.030451,0.0050024,0.40638,0.76131,3.2382,149.1,134.58,0.9953,2.9366,104.79,159.9,0.55211,0.10031,3.5311,0.56385,0.34616
0.050074,0.0064598,0.027227,0.029236,0.0015875,0.019617,0.062733,0.0072221,0.045649,0.0083134,0.05746,0.090026,0.0027888,0.027951,0.03449,0.0077347,0.72591,0.44508,4.7599,177.42,22.712,0.88068,2.048,63.23,72.41,0.14083,0.42735,2.2033,0.82162,0.24311
0.014377,0.0015323,0.01734,0.064517,0.0025394,0.049103,0.031247,0.0022946,0.023408,0.0030107,0.051547,0.096904,0.001264,0.069869,0.092189,0.0081793,0.96568,0.47446,0.99529,239.13,62.409,0.50614,4.1052,217.68,7.853,0.76921,0.029459,1.4399,0.92459,0.45685
0.098143,0.0095673,0.013981,0.023238,0.0074519,0.068447,0.098754,0.0062263,0.075563,0.0028344,0.059237,0.066351,0.0020383,0.080937,0.015305,0.0098672,0.35651,0.35999,1.8096,53.086,177.55,0.60674,3.393,173.46,230.53,0.65716,0.71082,2.8205,0.15716,0.45096
0.056881,0.0057706,0.011436,0.086246,0.0060636,0.033425,0.08464,0.0055324,0.098968,0.0094541,0.082522,0.050985,0.0030396,0.063421,0.08186,0.0047387,0.57241,0.43895,1.8258,75.16,172.76,0.030576,4.3709,155.76,85.17,0.5507,0.67328,2.9342,0.14012,0.22841
0.05455,0.0092826,0.011192,0.039077,0.0075985,0.084148,0.021468,0.001994,0.011523,0.001458,0.034894,0.058418,0.0093407,0.074077,0.085191,0.0056353,0.32194,0.69948,0.94435,244.39,55.954,0.8654,4.656,98.836,136.72,0.80633,0.84094,2.554,0.57617,0.067358
0.089783,0.0089063,0.04355,0.06369,0.0013629,0.056537,0.041995,0.0052696,0.091322,0.0083233,0.021853,0.043596,0.0044007,0.086571,0.041249,0.006976,0.34915,0.94683,1.2199,91.412,38.789,0.16313,4.0951,103.2,143.93,0.12422,0.87415,3.411,0.73232,0.50473
0.081664,0.0051419,0.079743,0.048318,0.0091957,0.099939,0.010905,0.0068104,0.040857,0.001106,0.078192,0.0898,0.0087391,0.034882,0.022981,0.008716,0.65436,0.14114,2.53,205.94,163.16,0.75807,4.5157,222.89,127.05,0.1391,0.6297,2.3806,0.54409,0.75127
0.034262,0.0046188,0.040504,0.050818,0.0051901,0.025187,0.064508,0.0037936,0.087486,0.0017716,0.020529,0.096055,0.0012903,0.066597,0.01693,0.0013397,0.64038,0.20372,3.654,221.43,184.61,0.98814,1.6261,100.67,72.791,0.78667,0.35452,4.2899,0.68339,0.51719
0.095288,0.0054021,0.075065,0.089935,0.0018401,0.023631,0.08657,0.0038353,0.096382,0.0074471,0.079248,0.086518,0.0035141,0.05672,0.081979,0.0020215,0.21216,0.37946,2.1697,87.754,125.91,0.69939,0.85154,237.45,63.82,0.86077,0.60977,1.596,0.10343,0.33941
0.07032,0.0012111,0.032545,0.01115,0.0098384,0.012034,0.043186,0.0023048,0.060397,0.009845,0.092278,0.083595,0.0043908,0.091605,0.099355,0.0072739,0.71747,0.27127,1.9828,136.14,22.272,0.073202,1.0595,224.38,112.08,0.15512,0.94055,2.3156,0.52335,0.92575
0.082552,0.0010177,0.062367,0.048639,0.0059971,0.061248,0.095896,0.0082795,0.021993,0.0062247,0.097719,0.062942,0.0041714,0.013976,0.03067,0.0077763,0.55611,0.18277,1.5185,100.6,96.301,0.60965,3.4846,93.924,219.59,0.65781,0.52873,1.5462,0.63968,0.071119
0.088356,0.0048487,0.093408,0.093786,0.0054072,0.081759,0.043959,0.0043604,0.061732,0.0014584,0.060584,0.03022,0.0020609,0.094221,0.073929,0.0028892,0.4109,0.14825,2.1965,132.3,165.81,0.98773,2.8667,59.391,242.44,0.52343,0.2631,3.0898,0.16744,0.043021
0.020128,0.0068635,0.059446,0.04519,0.0022474,0.014349,0.025715,0.0063941,0.053688,0.0068626,0.034314,0.029698,0.0069323,0.037104,0.073701,0.0047978,0.78229,0.50099,0.67492,196.85,145.74,0.32297,0.26132,231.52,12.6,0.015364,0.46421,3.8349,0.65736,0.053934
0.089542,0.0021009,0.086042,0.073458,0.0053154,0.034486,0.050081,0.0022717,0.011974,0.0039808,0.065605,0.038466,0.0066652,0.052151,0.040168,0.004652,0.27127,0.48717,0.92126,183.12,181.46,0.24872,1.1357,221.48,142.89,0.69944,0.81429,4.0511,0.19007,0.29613
0.080142,0.0090433,0.090079,0.041892,0.0089879,0.041624,0.023974,0.0081031,0.051738,0.0027662,0.051948,0.076384,0.006046,0.020197,0.085964,0.0026325,0.83203,0.10787,2.7758,51.649,75.166,0.19675,4.3377,162.06,56.334,0.7664,0.51659,3.666,0.07107,0.43873
0.068858,0.0069356,0.090821,0.098804,0.0077178,0.070653,0.025289,0.0068485,0.057524,0.0019684,0.02186,0.051928,0.0070763,0.056301,0.010459,0.004866,0.95859,0.82299,1.3198,190.78,244.11,0.465,1.7794,129.53,52.906,0.50978,0.45096,4.4659,0.7979,0.27107
0.024309,0.0049724,0.058124,0.0205,0.0080857,0.090691,0.063683,0.007777,0.056307,0.0058113,0.047558,0.03374,0.0036015,0.098231,0.059419,0.0065569,0.25622,0.32688,2.4195,97.367,0.43904,0.2217,3.4735,145.83,147.66,0.9109,0.1855,0.016844,0.30292,0.45499
0.09416,0.0060651,0.083293,0.03813,0.0092627,0.042141,0.098766,0.0083711,0.09087,0.0010502,0.072445,0.042183,0.0022582,0.075014,0.017389,0.0094657,0.23064,0.16265,0.44735,178.77,241.86,0.31287,2.6233,172.2,133.54,0.16121,0.19748,1.798,0.18175,0.94533
0.03212,0.005559,0.087146,0.079426,0.0030221,0.096195,0.045865,0.0080511,0.023656,0.0016147,0.090356,0.033659,0.003812,0.014812,0.029337,0.0070488,0.41978,0.93605,4.6741,121.05,38.498,0.41593,1.5038,182.81,170.55,0.22996,0.47461,4.6473,0.90499,0.8051
0.067047,0.0014045,0.056647,0.092134,0.0063144,0.099863,0.073867,0.0060829,0.086634,0.0034948,0.013521,0.033259,0.0019064,0.077984,0.091775,0.0024752,0.63738,0.79875,1.0339,136.24,148.7,0.38391,2.2155,129.08,194.15,0.019188,0.069091,2.5305,0.14925,0.75025
0.033638,0.0097587,0.072596,0.010378,0.0090894,0.054077,0.035672,0.0087331,0.027959,0.0098592,0.099351,0.014886,0.0041474,0.063792,0.091916,0.0030311,0.47318,0.51083,1.6117,215.33,30.51,0.8926,3.0165,164.92,180.69,0.81263,0.12111,1.2554,0.73467,0.40478
0.054991,0.0073887,0.049981,0.052279,0.0037242,0.057197,0.059146,0.0059481,0.041799,0.0044986,0.096969,0.067682,0.005476,0.07682,0.014724,0.0069916,0.58419,0.70226,1.8962,82.67,1.6238,0.96792,2.3411,177.1,140.18,0.93503,0.029436,0.78765,0.94534,0.85859
0.083386,0.0043353,0.095537,0.082106,0.004381,0.072595,0.038464,0.0088675,0.013836,0.0063134,0.073249,0.089997,0.0039596,0.025727,0.035779,0.0088782,0.54579,0.37513,2.9532,117.32,52.095,0.29966,2.2967,135.7,168.21,0.094594,0.11039,0.96001,0.62059,0.56197
0.09267,0.0054105,0.041522,0.075388,0.0062869,0.070015,0.045968,0.0077326,0.023524,0.0062796,0.069263,0.078654,0.0095624,0.095857,0.042479,0.0088471,0.48502,0.64226,4.202,201.58,132.45,0.14954,2.8937,86.623,84.125,0.65192,0.68497,0.94369,0.55373,0.68629
0.024625,0.0092681,0.098478,0.078253,0.0094494,0.064283,0.05675,0.0082688,0.030732,0.0040089,0.062926,0.089584,0.001264,0.019769,0.098709,0.0092179,0.2935,0.70171,2.3923,194.2,107.12,0.99136,2.1332,207.09,243.84,0.11402,0.58303,1.7124,0.3272,0.89682
0.054301,0.0056774,0.061342,0.045549,0.0010188,0.045069,0.06399,0.0052655,0.082664,0.006771,0.098854,0.095174,0.0077456,0.026711,0.079856,0.0069507,0.44119,0.96151,2.7143,58.283,209.78,0.79238,1.1771,155.15,217.55,0.63877,0.51086,1.4854,0.41991,0.89441
0.099757,0.0066811,0.042316,0.0816,0.0089302,0.044511,0.020713,0.0099614,0.053068,0.0023996,0.084183,0.036674,0.0099179,0.087327,0.046775,0.002513,0.86763,0.89321,4.8103,80.332,185.07,0.18374,4.4586,243.34,207.21,0.29878,0.93615,4.6415,0.46978,0.63371
0.06612,0.004366,0.034862,0.047335,0.0075139,0.073303,0.098625,0.0014353,0.055003,0.0069495,0.035641,0.023831,0.0070991,0.039734,0.042443,0.0060087,0.12118,0.12626,1.2908,125.56,112.83,0.15618,4.9343,116.07,237.01,0.88538,0.69752,1.953,0.024129,0.54574
0.049482,0.0072519,0.038371,0.020728,0.0024313,0.044655,0.064878,0.0039643,0.073475,0.0074693,0.035475,0.018006,0.0095215,0.030189,0.021716,0.0083347,0.57489,0.72367,1.3346,119.39,63.086,0.017164,1.96,133.02,65.122,0.35386,0.014006,3.1919,0.26245,0.80557
0.040567,0.0024565,0.091413,0.069514,0.0093866,0.08841,0.075706,0.0073192,0.020405,0.0033663,0.087852,0.055521,0.0064409,0.047565,0.071032,0.0094751,0.57218,0.32753,4.2593,117.57,209.49,0.15164,4.3629,50.822,160.28,0.73623,0.69964,4.5927,0.34013,0.8483
0.034973,0.0030243,0.084048,0.060605,0.0056778,0.012573,0.082649,0.0083796,0.058297,0.0050897,0.054757,0.089746,0.0079254,0.095606,0.067291,0.001215,0.4604,0.13866,0.12756,120.15,74.825,0.077434,0.74964,79.587,17.441,0.99883,0.46239,1.5578,0.52771,0.85951
0.015168,0.0019028,0.08592,0.048661,0.0037522,0.011594,0.014182,0.0062135,0.056835,0.0085019,0.045677,0.012968,0.0068795,0.029227,0.088432,0.0081158,0.10818,0.36615,2.6571,220.06,117.25,0.75876,2.1847,141.53,114.98,0.10495,0.79151,2.866,0.27716,0.26132
0.081414,0.0043487,0.04888,0.051952,0.0089995,0.039674,0.068945,0.0098505,0.096132,0.0056816,0.063434,0.063303,0.0035611,0.048875,0.032135,0.0068001,0.894,0.18385,0.96565,223.14,228.85,0.66703,1.4916,67.223,31.335,0.45362,0.44177,1.7763,0.086612,0.8893
0.055088,0.0062806,0.033895,0.087911,0.0079826,0.071106,0.023019,0.0083903,0.026146,0.0085369,0.0677,0.047949,0.0066721,0.01289,0.036992,0.0045341,0.95199,0.72815,1.4624,224.82,236.62,0.094357,4.3845,62.119,12.302,0.28473,0.28029,0.62581,0.47555,0.14675
0.091543,0.0073817,0.079401,0.095994,0.006503,0.097104,0.055733,0.0046828,0.058107,0.0072506,0.051277,0.091823,0.0071839,0.098842,0.053537,0.001357,0.96915,0.36142,4.953,100.34,100.4,0.34795,1.7038,107.68,221.18,0.72082,0.77944,4.9128,0.55949,0.15571
0.075391,0.00721,0.066572,0.017593,0.0078974,0.081757,0.016993,0.0078376,0.085466,0.0027735,0.051084,0.044389,0.0027119,0.055006,0.014404,0.004792,0.35351,0.14658,3.3878,140.07,161.74,0.34585,2.1888,76.028,145.08,0.10263,0.10308,1.8844,0.5314,0.44832
0.072237,0.0095881,0.028942,0.057624,0.0045748,0.062527,0.060592,0.0055279,0.070357,0.0014178,0.092096,0.010736,0.0040563,0.048069,0.086909,0.0042047,0.35227,0.13851,3.4297,99.169,161.89,0.50573,1.8257,148.64,56.869,0.06705,0.76113,0.21704,0.31503,0.3524
0.022432,0.0015425,0.051515,0.016731,0.0070079,0.074781,0.027958,0.0050564,0.058425,0.0085049,0.059707,0.051581,0.0097815,0.030983,0.050322,0.0098768,0.16153,0.98507,4.3533,164.14,245.14,0.090364,0.048344,52.758,179.32,0.73504,0.37299,0.77571,0.30826,0.1755
0.036391,0.0051453,0.077138,0.083358,0.0033499,0.096286,0.038571,0.002818,0.026979,0.0018521,0.060828,0.07253,0.002199,0.015781,0.012581,0.0036698,0.23228,0.14358,1.2644,120.34,73.34,0.54688,0.75385,115.72,233.61,0.2453,0.71303,1.8065,0.50741,0.26207
0.066472,0.0014547,0.07811,0.011012,0.0063825,0.033932,0.087853,0.0012674,0.021858,0.0052814,0.036416,0.013428,0.0082242,0.094002,0.020219,0.0038787,0.75479,0.4988,0.1331,55.423,213.47,0.33287,1.9097,181.55,105.89,0.2521,0.89654,4.6214,0.79984,0.16794
0.091627,0.0029022,0.05992,0.034243,0.0045545,0.018996,0.024627,0.0038879,0.020793,0.0024726,0.023043,0.016676,0.0082667,0.078423,0.088894,0.0059365,0.78766,0.61333,4.4772,59.003,54.295,0.11841,4.237,151.03,107.57,0.70783,0.36543,1.467,0.94043,0.23169
0.04747,0.0071393,0.084534,0.074118,0.0076206,0.025906,0.080483,0.0029719,0.067391,0.0039163,0.038893,0.035697,0.00887,0.070926,0.094374,0.0038247,0.97046,0.65353,1.9978,56.14,117.96,0.13592,2.6709,216.61,154.67,0.24124,0.63453,3.3237,0.17726,0.60728
0.046383,0.0015092,0.027178,0.089752,0.0040793,0.043539,0.075926,0.009321,0.024902,0.0018834,0.064861,0.078693,0.0065895,0.082416,0.02129,0.0075043,0.71298,0.40989,1.5656,202.17,72.271,0.40955,4.0164,119.13,167.86,0.6068,0.58173,1.4017,0.94669,0.021866
0.084855,0.0034929,0.052304,0.076899,0.0028088,0.087972,0.050154,0.0080593,0.068301,0.00991,0.074728,0.020707,0.0094265,0.027237,0.061837,0.0036159,0.43973,0.91912,3.5316,57.51,35.917,0.34715,0.88505,101.57,73.517,0.10105,0.67479,0.57798,0.19129,0.57597
0.020095,0.0045714,0.097653,0.05454,0.0048493,0.033966,0.097101,0.0044172,0.016382,0.0090454,0.090457,0.010425,0.0030397,0.071685,0.036121,0.001774,0.49175,0.26238,4.1494,159.66,176.24,0.30559,3.5623,126.59,71.487,0.90289,0.70824,4.2837,0.49813,0.23561
0.042543,0.0084165,0.057317,0.027576,0.0036337,0.061654,0.010828,0.0032399,0.09525,0.0043658,0.037619,0.094899,0.0048488,0.031948,0.017738,0.0083561,0.42749,0.37379,2.274,249.33,120.88,0.86969,3.4065,128.14,8.5426,0.513,0.41256,1.286,0.49016,0.41862
0.045634,0.0059243,0.039807,0.038259,0.0049943,0.019684,0.062997,0.0037997,0.047017,0.0012644,0.091814,0.083892,0.0084766,0.046221,0.096998,0.0075734,0.41612,0.75649,3.2853,135.67,66.027,0.95187,1.2687,97.195,94.795,0.62876,0.72222,0.83588,0.90149,0.63834
0.057972,0.0036587,0.033099,0.040037,0.0040297,0.040422,0.045002,0.0090944,0.066026,0.0039683,0.059694,0.051515,0.0031859,0.021082,0.077162,0.0037303,0.26319,0.16818,1.8321,106.16,168.18,0.48145,3.6296,246.66,175.02,0.67553,0.86234,2.5845,0.81223,0.075211
0.099879,0.0066132,0.096836,0.025861,0.0057438,0.015466,0.095329,0.0087031,0.026079,0.004585,0.020795,0.099727,0.0084691,0.062458,0.02195,0.009427,0.84634,0.17479,4.9834,128.93,17.355,0.54957,0.81264,191.51,32.083,0.28805,0.49623,1.2907,0.71866,0.0065157
0.062333,0.0010016,0.073203,0.099381,0.0097865,0.06889,0.030701,0.0046334,0.064061,0.0088385,0.014118,0.040623,0.0034799,0.025826,0.03599,0.0064901,0.84623,0.75499,0.98219,220.4,167.32,0.20341,1.2651,110.93,18.559,0.36161,0.042705,3.3481,0.57684,0.19287
0.09985,0.0011694,0.06929,0.067275,0.0018512,0.061425,0.049672,0.006469,0.062344,0.0055598,0.013825,0.036284,0.0044524,0.043869,0.067843,0.0069599,0.41535,0.31012,3.2444,208.61,58.126,0.55453,1.7144,87.73,22.445,0.14537,0.68703,0.75051,0.40732,0.34752
0.062115,0.0043652,0.048341,0.072584,0.0015146,0.053812,0.092761,0.0053006,0.012766,0.0038742,0.013423,0.025426,0.0049483,0.058137,0.06374,0.008355,0.13974,0.46129,0.27851,219.07,54.312,0.1719,4.7659,129.19,156.02,0.54669,0.61674,2.3303,0.45378,0.83435
0.093912,0.0085316,0.089219,0.019686,0.0040153,0.029547,0.079196,0.0086398,0.098203,0.0073622,0.034936,0.027056,0.002257,0.054254,0.0709,0.0019462,0.57607,0.91926,1.5341,86.552,240.6,0.96094,1.9053,207.05,154.32,0.24083,0.16857,0.88153,0.44857,0.39296
0.031736,0.005995,0.066327,0.058234,0.0040094,0.059632,0.050602,0.0080492,0.062447,0.0049963,0.095595,0.066301,0.003778,0.094737,0.083298,0.0022853,0.99127,0.15031,1.8242,153.01,227.35,0.16936,4.3104,95.486,84.422,0.5334,0.58678,4.2548,0.72396,0.55794
0.066669,0.0010935,0.058254,0.068042,0.0054523,0.012056,0.094359,0.0044241,0.06648,0.0099699,0.055842,0.069255,0.0079517,0.038641,0.087024,0.0017666,0.19265,0.31398,2.2885,145.06,245.79,0.50841,2.8961,184.63,166.69,0.96809,0.76311,4.253,0.16544,0.098148
0.021525,0.0079726,0.074807,0.033308,0.0049525,0.093752,0.036243,0.0039559,0.034351,0.0029577,0.083934,0.088207,0.0013108,0.016441,0.024617,0.0073603,0.84794,0.2051,0.63799,209.93,212.14,0.60242,2.6483,129.43,91.932,0.018039,0.32848,4.9513,0.80177,0.13771
0.032396,0.0088848,0.084226,0.083882,0.0089239,0.016248,0.029338,0.0083168,0.039106,0.0042336,0.081124,0.084329,0.004169,0.090675,0.075212,0.0086093,0.89032,0.80714,4.2414,171.85,139.79,0.82392,4.9639,179.66,245.18,0.46381,0.073239,4.2449,0.77785,0.93316
0.033215,0.0078072,0.033374,0.056697,0.0040512,0.079293,0.05281,0.0044838,0.052817,0.0094941,0.068191,0.01274,0.0075247,0.066634,0.079452,0.0037537,0.81322,0.77434,4.6846,219.78,244.51,0.39185,1.9601,62.706,127.92,0.7393,0.52995,0.21418,0.67886,0.66158
0.024275,0.0034367,0.026015,0.011578,0.0035884,0.098279,0.070448,0.0081024,0.079256,0.0065296,0.024135,0.032087,0.0046766,0.098636,0.089467,0.0038098,0.81564,0.41877,2.8352,206.4,225.27,0.75891,3.5846,129.88,88.188,0.89041,0.0013402,2.6953,0.42992,0.071683
0.072952,0.0094977,0.083459,0.026049,0.0081359,0.077314,0.097229,0.0059929,0.086185,0.0069737,0.046757,0.080922,0.0084312,0.067913,0.088794,0.003093,0.47902,0.92274,1.4033,90.81,27.069,0.72562,0.41316,228.31,172.29,0.89204,0.64293,3.3088,0.36959,0.89188
0.092121,0.0013028,0.09026,0.040778,0.0084421,0.038133,0.071086,0.0058835,0.093482,0.0052569,0.073474,0.045827,0.0011661,0.094049,0.096131,0.0051759,0.67036,0.96233,1.7128,99.71,128.84,0.97595,0.36425,224.16,156.94,0.63189,0.34858,3.6019,0.90952,0.82001
0.040126,0.0026022,0.023683,0.020921,0.0024326,0.076316,0.090444,0.0057748,0.077319,0.004964,0.050194,0.018961,0.0078825,0.091548,0.030678,0.0044308,0.96385,0.80788,3.0264,202.27,141.85,0.66068,1.9837,130.17,249.12,0.66743,0.25934,3.0626,0.62322,0.73206
0.01753,0.0036754,0.088525,0.069464,0.001135,0.041339,0.061,0.0045495,0.087014,0.0048655,0.032648,0.041613,0.0078259,0.067634,0.077883,0.0027912,0.56434,0.36686,2.0113,208.78,163.88,0.68746,1.8164,121.13,243.82,0.76104,0.087102,4.3765,0.358,0.20225
0.063392,0.0030368,0.03456,0.033201,0.0051018,0.086453,0.052472,0.0082225,0.056314,0.0019563,0.014018,0.079718,0.0039327,0.051577,0.082735,0.007458,0.22728,0.66783,1.9547,238.06,86.297,0.73722,3.8815,203.64,190.87,0.64373,0.62634,3.8497,0.39725,0.55982
0.019868,0.0026173,0.06512,0.053286,0.0090121,0.077562,0.032287,0.0028226,0.06935,0.0058553,0.096275,0.068895,0.004164,0.035837,0.050241,0.0081469,0.33823,0.34222,2.261,197.38,221.74,0.25465,4.3173,204.76,219.66,0.48825,0.64219,4.8997,0.77074,0.2088
0.056273,0.0047374,0.055963,0.098352,0.0037684,0.047756,0.034466,0.0016869,0.02899,0.0088483,0.075547,0.011632,0.0061817,0.090897,0.063181,0.0057655,0.16989,0.25001,3.4085,165.73,230.62,0.99037,1.0414,157.09,246.92,0.17552,0.32696,1.0314,0.67442,0.052298
0.016327,0.0020146,0.062517,0.086456,0.0099248,0.014265,0.059639,0.0075025,0.0312,0.0083466,0.082257,0.023672,0.0067004,0.024992,0.050813,0.0012081,0.28007,0.57436,1.079,120.99,6.422,0.94583,2.0549,64.565,209.97,0.56244,0.053169,4.946,0.51978,0.30691
0.084242,0.0077324,0.088521,0.065914,0.0023726,0.028871,0.012695,0.0017673,0.067391,0.0051648,0.052439,0.075233,0.0011359,0.035634,0.072843,0.003235,0.56327,0.3716,1.7103,65.323,17.962,0.55808,2.6669,100.21,237.46,0.65574,0.7361,1.5046,0.611,0.41795
0.098197,0.0040096,0.050027,0.040334,0.0028449,0.086014,0.028868,0.0069074,0.063602,0.0056359,0.081349,0.040086,0.0085623,0.062176,0.078489,0.0082301,0.73604,0.5528,3.4857,114.09,120.47,0.9261,0.4531,182.31,87.715,0.16182,0.99888,4.9815,0.31511,0.38357
0.042954,0.0080456,0.041897,0.051432,0.0093796,0.089766,0.092053,0.0045867,0.091419,0.0051081,0.018639,0.04607,0.0011636,0.099435,0.079581,0.0079616,0.77307,0.19297,4.6172,162.77,20.482,0.84756,4.3194,144.65,133.57,0.82366,0.57969,2.8502,0.28833,0.87811
0.05759,0.0021889,0.034758,0.039349,0.0056537,0.09142,0.091369,0.0035249,0.092506,0.0027499,0.047527,0.075851,0.0025409,0.011888,0.019024,0.0090554,0.89576,0.59576,3.4326,168.24,206.83,0.067832,0.89802,226.35,93.948,0.47978,0.59003,1.9435,0.80603,0.94935
0.057485,0.0055474,0.026809,0.034702,0.0021081,0.043368,0.052504,0.0057774,0.051217,0.0087458,0.017568,0.046458,0.0019398,0.011651,0.071958,0.0038096,0.55331,0.10553,3.1834,68.59,239.28,0.54711,0.42237,193.77,157.94,0.062382,0.83825,2.4638,0.41559,0.48125
0.030696,0.0042389,0.090986,0.054488,0.0042985,0.039933,0.021185,0.0090745,0.052041,0.001157,0.079343,0.082043,0.0053419,0.02349,0.079599,0.0015118,0.47284,0.37499,3.5953,172,237.36,0.39794,0.61482,240.38,249.57,0.10186,0.44431,0.92881,0.77926,0.47607
0.092657,0.0080933,0.069272,0.034646,0.0034301,0.070526,0.017075,0.0076026,0.025402,0.0040785,0.033293,0.033044,0.004284,0.046742,0.063065,0.0044149,0.75137,0.96639,1.8479,217.99,173.66,0.67436,3.1256,246.43,140.75,0.26033,0.67606,0.93684,0.43069,0.46373
0.029315,0.0070762,0.049269,0.086741,0.0083032,0.017276,0.052609,0.008946,0.025798,0.0033778,0.066227,0.034217,0.004306,0.011194,0.047923,0.006977,0.80527,0.50737,3.1462,136.63,185.07,0.97491,2.9731,87.733,10.488,0.17187,0.22247,4.3255,0.80408,0.79942
0.043948,0.0076712,0.013772,0.035747,0.0061452,0.047809,0.011561,0.0069521,0.084771,0.0023247,0.02306,0.022588,0.0053712,0.010143,0.098374,0.0031597,0.37879,0.48879,3.3379,156.74,75.638,0.22329,4.4451,86.018,194.47,0.43933,0.30495,3.2427,0.096985,0.36307
0.078945,0.0082705,0.024986,0.028139,0.0047944,0.08552,0.069222,0.0047075,0.022824,0.0095543,0.032645,0.061572,0.0047878,0.038342,0.076402,0.0094488,0.89485,0.70915,0.49886,100.67,169.2,0.28343,2.3579,122.04,35.759,0.018476,0.00074373,4.9963,0.37239,0.73587
0.067212,0.0090753,0.066105,0.058795,0.0080226,0.017411,0.077684,0.0038391,0.083862,0.0038685,0.061865,0.06323,0.0039344,0.031468,0.011761,0.0049173,0.8512,0.32735,1.0957,238.72,225.54,0.97712,3.2683,168.05,52.021,0.10976,0.26001,1.2537,0.27422,0.93897
0.082267,0.0043717,0.074547,0.028407,0.0081997,0.028931,0.022,0.0045362,0.07095,0.0085765,0.010759,0.03564,0.0047877,0.042328,0.03282,0.0061388,0.46783,0.39762,0.80923,222.09,7.6727,0.28326,2.6293,234.94,88.427,0.82036,0.55669,4.9666,0.83978,0.83322
0.05563,0.0084003,0.011178,0.011005,0.007606,0.087745,0.022256,0.008438,0.035849,0.0069266,0.014154,0.043899,0.0072747,0.077923,0.044282,0.0052339,0.79653,0.11694,1.0054,120,136.39,0.48914,3.837,50.551,82.195,0.39843,0.76204,3.9268,0.60936,0.91888
0.016215,0.0079528,0.072498,0.043969,0.00386,0.084284,0.079604,0.004564,0.078702,0.0040117,0.093175,0.045819,0.0022947,0.091691,0.061972,0.0088736,0.46532,0.93214,4.2762,143.79,233.71,0.77792,0.44308,234.97,145.76,0.11706,0.074135,2.6984,0.95265,0.80843
0.046533,0.0062333,0.090795,0.085628,0.0045631,0.06167,0.014743,0.0051039,0.069495,0.0013296,0.073697,0.077012,0.0091678,0.032736,0.031968,0.0086821,0.25298,0.44475,2.783,70.878,105.54,0.29677,1.2045,85.131,93.513,0.95531,0.16931,1.8997,0.64791,0.44106
0.037721,0.0052984,0.074207,0.072431,0.0043575,0.014701,0.044813,0.006722,0.015612,0.0055529,0.047092,0.048797,0.0083015,0.057028,0.089546,0.0035163,0.52901,0.4915,2.1876,195.15,243.04,0.85346,2.3456,56.362,240.96,0.020691,0.1284,4.4923,0.10874,0.3335
0.090337,0.0071894,0.041802,0.01027,0.0047347,0.044524,0.031408,0.0070272,0.095303,0.0064833,0.082241,0.090576,0.0034381,0.043362,0.06888,0.0049636,0.76184,0.45639,2.2224,70.784,245.33,0.9463,2.3652,141.59,241.56,0.49452,0.53262,1.9975,0.62802,0.11903
0.045788,0.0095663,0.024923,0.034525,0.0011972,0.013935,0.096356,0.0028767,0.097187,0.0069883,0.081854,0.055026,0.0091451,0.090539,0.082686,0.0041536,0.44188,0.10022,0.684,212.31,12.992,0.59968,1.5344,236.26,105.38,0.18235,0.78339,0.22435,0.58115,0.44598
0.073039,0.0092107,0.088307,0.042544,0.0076152,0.046422,0.045914,0.0032438,0.031498,0.001785,0.086783,0.091723,0.006257,0.088258,0.042008,0.0017838,0.24258,0.63534,0.76362,176.62,122.98,0.66757,0.035723,84.739,95.079,0.92175,0.028406,0.19383,0.13198,0.24473
0.014656,0.008267,0.02385,0.048137,0.0061827,0.034461,0.080158,0.0071216,0.033837,0.0025423,0.077416,0.010448,0.0027878,0.047309,0.027884,0.0090641,0.50325,0.24211,3.862,79.813,159.58,0.27639,4.0079,118.36,156.45,0.05084,0.88853,1.9098,0.72317,0.12249
0.017268,0.0074171,0.083648,0.073862,0.0089955,0.054377,0.049898,0.0069571,0.066163,0.0099524,0.087747,0.031934,0.0070145,0.070958,0.047641,0.0059069,0.66244,0.97701,4.8922,88.227,215.14,0.05545,1.4539,143.03,49.669,0.82829,0.020723,4.8767,0.48014,0.76343
0.020906,0.0036481,0.068388,0.044237,0.0039444,0.097923,0.096515,0.006387,0.031199,0.0061484,0.039459,0.078268,0.0085433,0.069567,0.070944,0.0097457,0.75901,0.6916,2.1435,83.106,11.411,0.87078,3.3496,216.36,202.53,0.76738,0.54949,1.0077,0.45441,0.52181
0.098928,0.0081229,0.068854,0.090813,0.0067099,0.063089,0.051441,0.004299,0.079182,0.0098451,0.045848,0.046936,0.0031062,0.076249,0.023692,0.0075484,0.27261,0.58786,2.5098,219.94,14.841,0.24948,0.68544,82.463,185.94,0.28366,0.19151,3.308,0.43536,0.23388
0.048497,0.0030734,0.040894,0.066935,0.0058711,0.016736,0.034782,0.0059339,0.022734,0.0031209,0.032012,0.017655,0.0068775,0.046451,0.068087,0.0018733,0.43682,0.41234,4.9902,121.58,187.8,0.66678,0.32367,240,64.427,0.84687,0.53692,3.5619,0.060236,0.48278
0.072335,0.0091267,0.026243,0.094443,0.0076979,0.023982,0.03199,0.0037455,0.098324,0.0063833,0.052556,0.036027,0.0019311,0.060155,0.057283,0.0078256,0.35908,0.95852,1.9899,78.249,36.156,0.87319,2.0598,111.3,61.06,0.64595,0.39201,0.072373,0.1733,0.83921
0.059083,0.004057,0.044376,0.069243,0.0032277,0.024762,0.069693,0.0035533,0.052973,0.0093032,0.081741,0.038783,0.0070649,0.04383,0.072989,0.0091044,0.62911,0.7899,3.5721,94.106,152.69,0.1668,0.99258,174.68,206.31,0.7255,0.086284,2.2104,0.52546,0.79347
0.031538,0.0022742,0.098909,0.055961,0.0086594,0.023975,0.03708,0.0082174,0.049908,0.0020532,0.021924,0.011707,0.0039457,0.07392,0.084222,0.0058764,0.55261,0.85416,2.9193,137.52,128.17,0.62061,1.2744,96.5,64.434,0.39754,0.41069,1.4882,0.93682,0.52393
0.02018,0.0076228,0.050276,0.092139,0.0053854,0.090522,0.044147,0.0090092,0.031952,0.004549,0.081156,0.048511,0.0087533,0.042057,0.062097,0.002342,0.43903,0.85947,4.6678,88.521,51.913,0.78785,3.9799,64.637,30.591,0.24643,0.26004,3.1273,0.40347,0.39871
0.081773,0.0016761,0.074854,0.04015,0.0096816,0.022707,0.027254,0.0069811,0.07856,0.0081247,0.089343,0.04589,0.0059879,0.075379,0.031292,0.0086126,0.97892,0.99315,3.4134,144.34,28.166,0.64425,2.0525,236.78,178.48,0.91503,0.19248,1.6969,0.56813,0.0073044
0.081436,0.0061306,0.080563,0.062199,0.0045389,0.028837,0.09838,0.0064736,0.072481,0.0091533,0.018064,0.081279,0.0086783,0.033899,0.048363,0.0091761,0.22511,0.79728,4.646,151.1,62.866,0.34112,4.3743,104.87,206.34,0.44127,0.35353,4.1327,0.18741,0.67523
0.02058,0.0064331,0.026828,0.041866,0.003,0.058184,0.014357,0.0013054,0.056045,0.0025941,0.01672,0.041431,0.0090759,0.030742,0.098841,0.0066769,0.55064,0.4519,1.0027,246.97,27.472,0.51011,0.4499,73.415,241.34,0.69554,0.15677,1.5608,0.59187,0.019828
0.035814,0.0023655,0.04582,0.073671,0.0068119,0.078391,0.035855,0.0024014,0.047835,0.0020339,0.050858,0.045519,0.0025897,0.099222,0.02265,0.0042133,0.70172,0.23171,4.7302,138.18,249.76,0.2651,0.49106,107.07,148.66,0.073378,0.55373,3.5678,0.81793,0.10113
0.059482,0.006202,0.013737,0.074768,0.0050509,0.044657,0.095281,0.0072828,0.01602,0.0012776,0.056256,0.017348,0.0048538,0.077844,0.049416,0.0015594,0.86757,0.34822,2.1462,192.04,113.73,0.38799,1.2803,54.084,159.16,0.86246,0.20278,0.34216,0.42658,0.88206
0.030289,0.0099008,0.055442,0.077384,0.0026288,0.065102,0.065718,0.009284,0.092895,0.0038686,0.088393,0.081897,0.0080565,0.080934,0.074152,0.0052201,0.95089,0.758,1.0702,237.63,219.86,0.65529,0.2147,156.18,241.38,0.89475,0.2631,0.081308,0.21738,0.60511
0.076629,0.0020386,0.076685,0.064404,0.0024242,0.014765,0.045801,0.0058135,0.038156,0.0087356,0.035606,0.053029,0.0037862,0.02818,0.012506,0.0049813,0.85261,0.19717,1.4965,88.884,80.224,0.025072,0.36492,99.684,141.65,0.96494,0.0020463,3.8536,0.95332,0.53242
0.01525,0.0014354,0.056958,0.023213,0.0065756,0.049134,0.026982,0.0090298,0.099618,0.0040115,0.077003,0.013912,0.009973,0.07617,0.077383,0.0019392,0.56456,0.17834,0.41117,84.09,132.5,0.11903,1.724,246.31,16.205,0.78567,0.81556,3.3682,0.44187,0.51968
0.064568,0.0011479,0.073367,0.041393,0.0049031,0.033426,0.021273,0.0015904,0.06686,0.0052816,0.097214,0.073284,0.0020353,0.066559,0.049036,0.0036991,0.96011,0.23371,1.1933,181.11,179.45,0.3084,3.6502,92.6,12.771,0.19716,0.11324,0.61577,0.17118,0.75886
0.048174,0.0037959,0.075668,0.012217,0.0067406,0.055065,0.073612,0.0048835,0.039132,0.0094965,0.08711,0.093504,0.0059884,0.095799,0.083537,0.005711,0.67151,0.45192,1.5018,192.06,42.31,0.30089,2.804,99.589,212.58,0.18619,0.16342,3.8537,0.58115,0.72411
0.071512,0.0064556,0.097024,0.039146,0.0062335,0.099054,0.075321,0.0038364,0.024472,0.0013029,0.072998,0.051974,0.0052438,0.058845,0.081751,0.0031431,0.33052,0.44782,2.6545,55.542,38.703,0.70022,3.3186,105.24,220.6,0.29956,0.57583,0.495,0.64805,0.87523
0.089087,0.0095823,0.078195,0.058236,0.0013277,0.033216,0.097661,0.0058352,0.082638,0.006686,0.030503,0.069635,0.0083093,0.028417,0.051039,0.0015951,0.80715,0.80528,0.53541,223.21,125.64,0.05507,0.91851,206.62,236.54,0.31283,0.52798,2.2404,0.3305,0.25692
0.099249,0.003169,0.060219,0.015203,0.0078229,0.081508,0.050515,0.0073665,0.089394,0.0083165,0.014042,0.089718,0.0064862,0.078544,0.047558,0.0096564,0.18438,0.20306,2.3473,114.57,17.124,0.47256,1.7657,132.11,230.83,0.022284,0.76968,3.4259,0.69369,0.97978
0.021118,0.0061648,0.068188,0.05029,0.0061524,0.04638,0.093996,0.0041169,0.063101,0.0055803,0.040161,0.025776,0.0037869,0.077909,0.093238,0.0072287,0.70682,0.62561,3.1543,187.86,226.33,0.4571,0.69784,152.37,94.926,0.88514,0.637,3.9563,0.4325,0.67425
0.066969,0.0054386,0.037977,0.023701,0.0015137,0.076045,0.056004,0.0010414,0.027061,0.0097375,0.091763,0.081985,0.0054392,0.01511,0.059349,0.0070085,0.63841,0.25767,4.2895,149.27,145.01,0.52118,3.9031,151.32,217.85,0.78677,0.29446,1.332,0.54328,0.034364
0.096353,0.0053932,0.050938,0.074674,0.0030335,0.040194,0.064856,0.0021205,0.031407,0.008814,0.074258,0.059931,0.0045261,0.039165,0.018341,0.0011655,0.26086,0.2606,3.7362,208.93,183.09,0.41506,2.6509,63.217,144.03,0.38451,0.76326,0.26953,0.62374,0.75087
0.083586,0.0024073,0.028815,0.073296,0.0010532,0.010102,0.068542,0.0052253,0.058706,0.0031492,0.097206,0.080817,0.0024823,0.060603,0.075536,0.0063228,0.58155,0.37811,0.81722,232.05,83.689,0.72368,2.0547,201.3,46.922,0.64029,0.21647,3.9739,0.4686,0.81757
0.089947,0.0028448,0.032398,0.06826,0.0064917,0.02983,0.024831,0.0044411,0.090144,0.004098,0.011628,0.097475,0.0071296,0.035148,0.040884,0.0045792,0.77191,0.91941,0.17164,203.56,99.519,0.72005,0.92157,159.66,248.22,0.81025,0.88034,1.2591,0.5839,0.8794
0.046546,0.0052278,0.096522,0.013292,0.0073076,0.07359,0.066671,0.0025905,0.064762,0.0014183,0.039742,0.021088,0.0088647,0.064314,0.084113,0.0088884,0.29469,0.24798,1.7318,67.502,154.18,0.13755,4.5955,237.05,223.11,0.075281,0.15367,1.1244,0.1025,0.070831
0.043449,0.0046325,0.092464,0.088375,0.004842,0.08932,0.089488,0.0084186,0.025436,0.0061097,0.05573,0.018002,0.0099615,0.021345,0.045853,0.0052572,0.63333,0.135,4.0627,116.25,103.45,0.62603,3.45,191.62,5.2585,0.87297,0.67113,1.9622,0.45012,0.68645
0.058561,0.0048603,0.017433,0.051179,0.0098221,0.096334,0.094297,0.0084089,0.049947,0.006263,0.054053,0.062127,0.0041681,0.04064,0.091011,0.0042629,0.6716,0.61081,4.8496,137.79,168.12,0.11175,4.0662,60.986,105.79,0.95042,0.27045,0.074643,0.25582,0.445
0.062853,0.0078204,0.017804,0.080289,0.0083112,0.011476,0.030764,0.0023995,0.084856,0.0012975,0.061225,0.089275,0.006046,0.060594,0.053581,0.0076517,0.47569,0.1828,2.4973,174.6,227.81,0.82726,1.9863,197.33,208.44,0.13941,0.076668,0.99789,0.15001,0.18481
0.092158,0.004708,0.067725,0.0792,0.0042108,0.08228,0.064886,0.0070372,0.085163,0.0085315,0.096113,0.049196,0.001454,0.039421,0.034716,0.0099044,0.71903,0.2928,1.9638,109.88,222.04,0.87117,0.79835,56.171,162.79,0.61418,0.73931,1.8787,0.31236,0.65074
0.038362,0.0062673,0.082619,0.061366,0.0014402,0.020979,0.097436,0.0018349,0.071711,0.0069288,0.094616,0.063098,0.005015,0.056258,0.069511,0.0054268,0.63306,0.51438,2.5294,66.332,33.792,0.94043,4.481,103.47,104.99,0.15481,0.084337,2.9929,0.30824,0.31383
0.03757,0.0079652,0.090931,0.060576,0.0089187,0.043007,0.084339,0.0011937,0.087197,0.0093033,0.011171,0.092472,0.0098415,0.05718,0.065715,0.0020926,0.15057,0.28893,3.5824,223.51,185.44,0.12526,3.1858,193.95,187.56,0.90929,0.46565,3.7443,0.90017,0.21226
0.064697,0.0040488,0.049308,0.010757,0.0064804,0.0768,0.079816,0.0079153,0.066325,0.009435,0.059071,0.024951,0.0029277,0.072715,0.069509,0.005576,0.75096,0.2297,4.6258,196.86,63.634,0.34038,1.2539,77.962,17.012,0.66696,0.58838,0.81361,0.30604,0.63337
0.078804,0.0055648,0.079281,0.099188,0.0015988,0.021072,0.043666,0.0096146,0.042982,0.0011967,0.027202,0.093262,0.0049283,0.026471,0.070168,0.0025559,0.83536,0.27647,0.31754,54.794,92.249,0.083209,3.6999,245.35,88.823,0.096043,0.42072,1.9252,0.70381,0.042004
0.02955,0.0093972,0.059365,0.041654,0.0030631,0.054597,0.010814,0.0049551,0.035562,0.0017996,0.053747,0.060943,0.0059733,0.023381,0.030164,0.0017995,0.20141,0.10091,1.8698,202.04,132.85,0.45456,0.61057,195.95,239.4,0.083088,0.14462,0.23811,0.15238,0.84633
0.050634,0.0018309,0.074941,0.078703,0.0067991,0.029367,0.068583,0.0041276,0.091263,0.0026799,0.011882,0.063377,0.0030174,0.074397,0.026145,0.0091202,0.415,0.68918,3.6011,176.4,164.44,0.65092,3.747,198.41,234.96,0.90241,0.23719,3.712,0.079355,0.61131
0.08662,0.0058849,0.042897,0.030522,0.0043051,0.075277,0.036568,0.001873,0.07512,0.0091304,0.070213,0.07475,0.0019963,0.062911,0.067723,0.0034235,0.16151,0.78236,2.1096,175.14,89.311,0.036766,2.9004,157.61,110.85,0.20644,0.49096,3.0726,0.64651,0.50566
0.065057,0.0088201,0.097001,0.047944,0.0059621,0.072208,0.031593,0.0065893,0.02849,0.0087396,0.014148,0.091587,0.0070197,0.0228,0.011067,0.003526,0.37397,0.41389,1.8592,195.33,132.05,0.75574,4.5544,207.92,19.99,0.22753,0.95515,4.965,0.73603,0.83314
0.052886,0.0058672,0.053582,0.057436,0.0077064,0.054296,0.095248,0.0044287,0.028258,0.0060056,0.026252,0.090018,0.0072773,0.060134,0.093771,0.0057839,0.19849,0.46432,0.79966,169.83,76.931,0.31002,2.8491,231.74,92.33,0.68318,0.1105,4.0097,0.29427,0.74824
0.036048,0.0054163,0.024007,0.029607,0.0060964,0.05356,0.089497,0.0015755,0.022858,0.0031868,0.04185,0.022216,0.005365,0.035815,0.048193,0.0017287,0.98176,0.39238,3.189,245.21,159.19,0.41876,1.9227,245.28,12.093,0.54023,0.51787,4.2985,0.80212,0.99101
0.026583,0.0094662,0.031149,0.041758,0.0093432,0.059043,0.072553,0.0054992,0.046103,0.0089283,0.088939,0.032125,0.0040928,0.071931,0.018115,0.006132,0.43894,0.52356,1.5908,219.95,2.3753,0.77333,3.5844,174.8,99.428,0.42146,0.22506,3.4072,0.65984,0.067647
0.023988,0.0073455,0.030875,0.059748,0.0045913,0.01476,0.011065,0.0080561,0.017422,0.0068086,0.031819,0.04292,0.0096192,0.068385,0.015822,0.0045207,0.43325,0.21501,1.6425,222.12,67.125,0.91661,2.1999,186.32,115.6,0.089266,0.95087,0.94245,0.47896,0.052153
0.063455,0.0030636,0.074469,0.067468,0.0022135,0.085647,0.0535,0.0040496,0.074487,0.0037358,0.090761,0.040934,0.0078471,0.020509,0.080014,0.0038964,0.7628,0.26744,0.63095,248.99,83.942,0.41556,4.0429,114.6,153.36,0.49067,0.18298,2.1992,0.5911,0.81108
0.012688,0.001588,0.07098,0.049562,0.0021386,0.041293,0.044809,0.0034104,0.067983,0.0052193,0.089121,0.086963,0.0075701,0.041071,0.038266,0.0037291,0.54501,0.92718,1.3085,227.62,23.086,0.055187,4.5383,140.96,89.012,0.38282,0.6571,2.1676,0.59284,0.78751
0.054387,0.0065885,0.020992,0.027067,0.0065305,0.03738,0.040274,0.0011251,0.077885,0.00401,0.073493,0.073381,0.0067,0.047471,0.058565,0.004216,0.28565,0.88767,4.5974,184.82,238.14,0.65108,3.7292,209.53,198.4,0.26064,0.11254,3.3847,0.64454,0.76874
0.01479,0.0031299,0.03908,0.043913,0.0052102,0.097976,0.013851,0.0019675,0.027623,0.0042649,0.023817,0.069912,0.0050316,0.090449,0.036359,0.0039179,0.15573,0.65817,1.3731,174.76,223.73,0.10561,3.1053,206.71,248.43,0.68934,0.57251,3.5113,0.51293,0.28208
0.027511,0.0053385,0.052264,0.046193,0.0060471,0.04268,0.093804,0.0068624,0.033802,0.0078215,0.099063,0.057176,0.0053318,0.036808,0.053229,0.0095487,0.56559,0.53934,3.6168,233.13,237.32,0.43726,0.7555,167.68,224.04,0.16219,0.81241,2.5334,0.81848,0.59608
0.062431,0.0013953,0.02794,0.033947,0.0061813,0.06366,0.054428,0.0098677,0.01578,0.0013173,0.016621,0.086179,0.0017473,0.059011,0.051489,0.0015233,0.70861,0.68516,4.1786,231.45,44.664,0.39527,0.93972,210.58,31.599,0.92463,0.6045,4.1724,0.01815,0.11119
0.039008,0.008878,0.074746,0.075961,0.0020561,0.049026,0.03408,0.0043211,0.058678,0.0090937,0.030921,0.022796,0.0054755,0.046105,0.038107,0.0049503,0.60026,0.42822,0.75096,191.33,60.086,0.9327,2.2721,225.93,113.82,0.62455,0.85601,0.88878,0.97312,0.6828
0.011457,0.0076251,0.011914,0.037775,0.0047088,0.072176,0.072491,0.0097726,0.057833,0.0027902,0.099031,0.048921,0.0029349,0.075847,0.074451,0.0018988,0.454,0.8175,0.071042,140.09,157.7,0.73114,3.6506,212.14,6.5747,0.79214,0.15989,1.3737,0.50597,0.7116
0.029754,0.0086837,0.03142,0.053206,0.0048453,0.058565,0.047342,0.0022419,0.036072,0.0097897,0.064439,0.022052,0.0060546,0.077052,0.067493,0.0066365,0.5681,0.9101,4.1178,146.75,142.9,0.675,4.0073,248.5,244.06,0.074664,0.7374,3.1554,0.091398,0.88566
