0.090808,0.0015502,0.097444,0.0073129,0.77417,0.84081,4.9157,70.206,224.64,0.56342,1.1102,106.04,179.77,0.17362,0.24097,4.551
0.099855,0.0089909,0.062301,0.0085728,0.93623,0.44267,0.8729,117.21,24.876,0.67561,4.7637,97.27,210.76,0.4538,0.65211,0.57593
0.032145,0.0091701,0.097155,0.0070862,0.94709,0.2408,0.64168,93.809,8.4158,0.58471,3.9089,70.135,247.4,0.63688,0.62891,2.2218
0.093562,0.0041376,0.076229,0.0092657,0.58478,0.57425,3.2497,87.83,218.47,0.44202,2.7958,113.72,53.007,0.47782,0.15966,3.6131
0.059359,0.0052475,0.026977,0.0090588,0.70057,0.35255,4.2903,147.47,19.189,0.63938,4.1165,131.25,119.63,0.39634,0.7571,0.6111
0.092229,0.0076465,0.088028,0.0070191,0.38414,0.71755,3.865,55.346,178.58,0.48097,1.0138,65.298,248.28,0.96991,0.33184,4.9167
0.077932,0.0010683,0.098927,0.0039268,0.76319,0.31587,4.985,222.71,199.7,0.11221,4.8594,227.77,176.69,0.55243,0.23628,1.7907
0.045332,0.0070503,0.040666,0.0099537,0.7292,0.4218,4.5384,85.677,180.53,0.32535,4.0693,61.519,237.29,0.52334,0.71078,1.2487
0.033888,0.0016334,0.06835,0.0028678,0.27002,0.24789,1.6076,98.962,1.9313,0.69288,3.3358,233.24,247.58,0.4311,0.32727,2.4312
0.088095,0.0040734,0.088864,0.0016231,0.90483,0.10228,4.9337,85.83,202.88,0.098551,3.6448,65.223,249.76,0.5015,0.39014,2.4637
0.094084,0.0048283,0.086539,0.0094745,0.79387,0.46599,4.7195,98.486,217.1,0.44052,0.19153,227.88,94.038,0.3917,0.43211,3.6216
0.074897,0.0099971,0.094009,0.004026,0.57691,0.35166,1.4781,59.65,173.84,0.13028,4.4113,152.82,79.772,0.56743,0.79879,2.871
0.084677,0.0043568,0.070699,0.0057349,0.60424,0.75955,2.7937,53.252,188.08,0.39375,2.8437,237.48,139.57,0.24773,0.54287,3.5551
0.093939,0.001343,0.095592,0.0039766,0.21007,0.12709,1.5855,187.59,135,0.31407,1.9891,55.391,186.68,0.3685,0.91784,0.50406
0.057812,0.0013041,0.02092,0.0065433,0.88955,0.74937,0.73948,209.97,67.995,0.47318,2.8301,194.95,32.107,0.51414,0.13927,1.8194
0.028911,0.0026207,0.013655,0.0096784,0.88837,0.24913,4.5891,50.437,237.99,0.43485,4.9864,142.73,232.04,0.76653,0.90151,4.64
0.036569,0.0093864,0.089915,0.0055332,0.85712,0.30773,1.3219,147.16,90.445,0.44226,4.8909,72.81,247.86,0.64659,0.27628,2.3397
0.089129,0.0063169,0.077787,0.0087263,0.20299,0.14333,3.7584,56.734,233.06,0.41603,4.8225,249.82,238.11,0.87257,0.94271,3.2474
0.086933,0.0094633,0.082187,0.0082244,0.31653,0.75935,2.8431,78.096,21.137,0.91842,2.6718,156.29,146.44,0.35504,0.065041,2.6082
0.054921,0.0029659,0.049727,0.0098163,0.77123,0.36719,4.9529,92.111,243.01,0.5266,4.4566,129.04,0.37737,0.38925,0.42599,4.1861
0.092035,0.0095685,0.016766,0.0041419,0.78252,0.71472,1.5608,188.96,1.6525,0.41558,1.6831,62.123,228.6,0.3527,0.012119,4.0789
0.091356,0.0081666,0.086381,0.0092084,0.87325,0.93226,2.1094,108.26,179.38,0.85813,4.9195,104.73,249.27,0.34343,0.14001,0.70601
0.090974,0.0090332,0.032252,0.0063095,0.93311,0.86257,4.4232,108.7,187.42,0.5254,2.4302,81.046,32.234,0.22551,0.85604,4.5233
0.098068,0.0084773,0.056193,0.0077085,0.53499,0.15339,2.2758,97.151,242.06,0.327,0.033548,225.77,38.184,0.72685,0.63867,3.9333
0.050314,0.008116,0.086784,0.0017379,0.63989,0.45239,3.9418,96.198,105.63,0.5577,4.9766,97.594,163,0.97582,0.82988,3.7449
0.031151,0.0059458,0.098365,0.0092574,0.87885,0.26201,3.2506,81.695,62.116,0.10507,3.8551,79.208,248.22,0.54364,0.69906,2.2991
0.017018,0.0066163,0.0655,0.0017831,0.44105,0.46017,4.9559,84.051,247.2,0.62771,1.9441,50.74,213.86,0.19508,0.13979,1.217
0.035578,0.0095996,0.056584,0.0038634,0.68747,0.88982,2.1442,196.52,182.34,0.98534,1.828,234.2,161.72,0.46867,0.66894,0.92396
0.080106,0.0030651,0.08971,0.0011728,0.2072,0.45784,3.6819,60.419,247.12,0.45264,2.2389,157.75,52.416,0.88293,0.46717,4.3178
0.082211,0.0092578,0.062753,0.006356,0.52479,0.35395,2.7622,62.061,221.11,0.36518,0.13126,50.191,232.49,0.46859,0.92595,4.3052
0.098142,0.0075237,0.06535,0.0015388,0.37533,0.64129,2.8416,223.68,124.49,0.35959,4.1837,167.91,132.83,0.26083,0.88514,4.6514
0.093422,0.009956,0.054936,0.0050038,0.82391,0.30702,2.8861,79.975,247.05,0.34286,4.8928,157.86,215.34,0.98495,0.70696,3.0118
0.063782,0.0097568,0.050917,0.0036285,0.62046,0.67466,3.949,110.94,229.56,0.17404,4.6912,80.89,246.18,0.68336,0.1434,3.1449
0.093781,0.0017547,0.071389,0.0027926,0.84668,0.95531,4.9548,161.63,183.81,0.41781,3.4544,140.6,174.33,0.095869,0.25642,4.4718
0.082676,0.0093794,0.097813,0.0055883,0.34344,0.73946,2.3101,89.286,55.178,0.25971,1.0957,134.64,65.692,0.59566,0.70355,1.8092
0.045928,0.0035556,0.066238,0.0011753,0.78714,0.18797,3.7195,245.97,20.909,0.58343,4.3826,231.09,108.63,0.33652,0.73562,0.95595
0.094859,0.0016679,0.094756,0.0084709,0.94922,0.12629,4.9805,50.09,195.76,0.12269,4.0786,180.35,249.77,0.51714,0.76379,2.3389
0.029289,0.0023993,0.061012,0.0068699,0.4213,0.61284,4.4556,87.592,135.87,0.1491,4.7981,245.69,246.84,0.62411,0.3967,2.636
0.025341,0.0016778,0.07238,0.0048391,0.95891,0.18265,4.9854,58.102,232.99,0.78505,3.0581,55.485,245.88,0.3815,0.062275,1.6747
0.04122,0.0099657,0.098073,0.0075978,0.13018,0.27639,3.6645,156.61,106.16,0.54262,3.0179,247.8,101.5,0.54854,0.70026,4.1601
0.065573,0.0083495,0.090921,0.0018349,0.98502,0.13405,4.2302,113.24,233.85,0.071697,3.0443,54.157,249.44,0.69915,0.39561,2.3318
0.049216,0.0081312,0.099613,0.0034237,0.97938,0.34479,4.7349,75.623,9.0946,0.54333,2.8835,60.386,246.45,0.39393,0.33559,2.3433
0.078675,0.0077749,0.035963,0.0010746,0.2916,0.37544,2.0783,153.36,222.49,0.35632,4.9186,230.96,230.64,0.87255,0.24422,3.6537
0.035668,0.0084436,0.024743,0.0056835,0.78406,0.43051,4.5928,50.303,249.62,0.46445,4.975,80.626,195.29,0.9665,0.96121,3.1706
0.091458,0.0093484,0.055881,0.0020592,0.8821,0.25733,4.6016,51.531,232.14,0.54046,1.1686,71.702,237.23,0.79325,0.90673,4.2193
0.07145,0.0013227,0.066461,0.001224,0.98068,0.36617,0.56006,51.436,0.49832,0.44576,2.247,74.53,249.72,0.38059,0.31873,2.537
0.019384,0.0063754,0.081996,0.004909,0.78702,0.29639,4.6227,85.209,34.638,0.037811,4.4811,66.357,224.58,0.53913,0.76724,2.0858
0.017513,0.007529,0.047599,0.0015795,0.99451,0.87839,4.531,58.062,100.01,0.11976,4.8764,92.117,249.1,0.49989,0.75541,2.7257
0.044409,0.0010363,0.077435,0.0021304,0.89758,0.87379,4.3285,178.15,92.824,0.80009,3.6086,247.44,103.24,0.51,0.58092,0.3587
0.092689,0.0043517,0.056723,0.0018318,0.19428,0.25391,1.875,100.12,246.32,0.22047,0.59299,207.87,142.25,0.073118,0.14273,3.0628
0.074332,0.0029457,0.053358,0.0011411,0.25011,0.69877,4.5223,75.009,233.81,0.42068,4.384,134.68,50.008,0.17676,0.046907,0.54793
0.094857,0.0027509,0.058653,0.0097367,0.6665,0.94727,4.0902,71.038,195.58,0.44412,2.2135,192.7,128.69,0.23073,0.36299,4.5679
0.061814,0.0012308,0.072696,0.006,0.97498,0.17742,4.9986,74.102,3.8436,0.60836,2.9178,55.885,242.91,0.45902,0.34246,2.3275
0.026742,0.0013915,0.021663,0.0045507,0.93773,0.33988,1.7901,112.64,183.48,0.90681,2.6756,167.73,235.56,0.35949,0.07965,2.3894
0.012,0.0095231,0.080726,0.0075403,0.23964,0.35893,4.082,70.416,61.436,0.58965,2.7868,56.342,241.92,0.27713,0.27836,1.7562
0.06922,0.0046149,0.014528,0.0096517,0.14741,0.89287,4.0164,51.099,244.13,0.52379,3.4654,50.317,214.18,0.15724,0.84698,0.45491
0.051278,0.0080643,0.083405,0.0097051,0.64781,0.57829,0.73309,228.1,230.67,0.43112,4.1482,186.72,242.94,0.56261,0.07229,2.4198
0.027999,0.0031837,0.088024,0.0017087,0.31865,0.18431,4.2309,146.44,236.4,0.69032,2.7307,88.99,249.98,0.20747,0.81458,0.047067
0.097999,0.005012,0.098033,0.0097881,0.57122,0.34769,3.2299,53.272,247.82,0.38163,2.7665,102.96,125.65,0.42885,0.63431,3.8437
0.072422,0.0090387,0.064665,0.0042649,0.71065,0.38962,4.8601,66.397,80.375,0.65365,4.3543,69.828,3.4122,0.28235,0.37024,4.5589
0.077268,0.0066648,0.099701,0.0071965,0.64485,0.58877,4.0557,64.257,245.99,0.36883,4.1115,56.141,248.98,0.23667,0.80034,1.0349
0.09015,0.0093173,0.013814,0.0078333,0.94256,0.46103,3.305,50.765,246.56,0.41118,4.987,68.038,246.45,0.76857,0.81067,1.8694
0.057327,0.0099622,0.022494,0.0039822,0.82751,0.43077,4.489,100.97,238.95,0.61936,2.4389,196.52,52.584,0.2635,0.17855,3.8348
0.046604,0.0023508,0.030066,0.0095499,0.86494,0.12381,2.0862,92.341,248.1,0.20631,2.8385,84.02,95.548,0.025987,0.69429,4.8427
0.060128,0.0012232,0.062471,0.0084564,0.73979,0.76556,4.1396,165.87,56.528,0.36612,1.812,199.37,112.86,0.97672,0.66098,2.5367
0.075757,0.0092014,0.0704,0.0066622,0.337,0.3924,4.5843,51.409,237.92,0.42892,4.035,146.46,181.39,0.89979,0.99006,3.469
0.098916,0.0045292,0.078994,0.00952,0.3665,0.44876,4.4918,75.319,242.49,0.34878,1.5909,55.679,17.563,0.33462,0.38351,4.3506
0.08061,0.00184,0.056864,0.0026468,0.81414,0.56369,4.5839,55.913,228.68,0.54867,4.9706,159.83,246.13,0.90858,0.73929,4.1643
0.016824,0.0074412,0.068017,0.0098965,0.63944,0.87192,4.1985,51.763,244.98,0.59445,2.3403,50.701,207.84,0.38722,0.076199,1.9941
0.099326,0.0025751,0.013273,0.0040961,0.33172,0.77377,2.0659,217.51,102.87,0.37018,0.6535,249.54,223.71,0.098706,0.074138,1.8727
0.077174,0.0043906,0.058697,0.0090162,0.68619,0.95812,3.4404,66.579,224.32,0.39193,3.8185,231.81,152.09,0.36041,0.53488,4.5405
0.092,0.0053104,0.077459,0.0010036,0.46898,0.5627,1.7586,63.57,237.46,0.25577,0.44528,158.83,0.9801,0.68575,0.38484,3.7425
0.048522,0.0095386,0.037736,0.0091836,0.66812,0.62538,3.2599,155.98,55.238,0.1935,4.9918,68.213,19.967,0.94082,0.12522,3.9996
0.095058,0.0018103,0.09304,0.0066479,0.78878,0.30742,3.1516,51.537,145.61,0.36403,0.0010096,117.62,150.93,0.96427,0.97292,4.6583
0.015158,0.0090041,0.086683,0.0080761,0.9703,0.21361,4.8322,217.95,247.33,0.12349,4.3828,185.36,249.96,0.59528,0.71307,2.1384
0.031825,0.0016331,0.097067,0.0077384,0.14211,0.88073,4.3786,210.47,137.66,0.80084,3.6949,50.048,152.86,0.55851,0.84198,0.2111
0.026036,0.0096143,0.0638,0.0065521,0.99658,0.52472,0.5029,98.598,20.653,0.79769,2.5262,57.062,244.35,0.25891,0.24376,2.5378
0.054459,0.0094315,0.074854,0.0026506,0.80314,0.5094,4.9853,73.551,228.91,0.46834,4.3767,79.264,141.15,0.73755,0.75566,1.8068
0.079374,0.0065304,0.092434,0.0056627,0.86703,0.25425,4.3292,68.468,223.07,0.4327,2.7646,240.1,29.66,0.27654,0.88293,4.3021
0.059713,0.0090176,0.03116,0.0074439,0.86435,0.23418,0.99179,150.59,202.16,0.055463,2.0532,213.88,193,0.077153,0.34657,4.2153
0.094871,0.0072166,0.029457,0.0076597,0.40399,0.80375,3.1049,160.09,201.23,0.46122,0.12536,240.11,135.75,0.27405,0.073414,4.4499
0.068301,0.0092992,0.033056,0.0074918,0.91505,0.74889,4.908,120.67,68.984,0.46936,3.4856,172.63,82.28,0.56336,0.55279,2.2945
0.060126,0.0025844,0.056468,0.0010516,0.75242,0.54765,4.4597,239.46,60.105,0.29114,3.9493,95.351,61.096,0.71585,0.41669,1.0125
0.062256,0.0096431,0.073638,0.0081341,0.74796,0.86451,4.6116,65.359,243.83,0.49255,2.1424,101.09,244.58,0.47138,0.72643,4.4681
0.085164,0.0095076,0.081892,0.0075198,0.25004,0.65958,4.2253,87.618,151.81,0.31347,4.5472,129.52,40.907,0.64791,0.47823,2.8029
0.086739,0.0010624,0.059222,0.0046824,0.26645,0.5114,3.448,132.89,155.66,0.46066,2.6022,237.19,236.86,0.68714,0.49931,2.185
0.099201,0.0058945,0.050866,0.0099789,0.83268,0.82991,4.9906,50.918,240.88,0.52661,4.9784,173.38,129.35,0.77079,0.63416,2.9441
0.098651,0.0063789,0.096922,0.009544,0.7294,0.83145,4.9979,72.786,239.56,0.62409,0.65707,184.13,127.22,0.85048,0.2858,3.3789
0.066858,0.0089708,0.0745,0.0090613,0.75629,0.72933,2.9197,175.64,200.47,0.27291,4.1304,105.72,92.55,0.063435,0.54348,3.6657
0.087061,0.0093545,0.068068,0.0085039,0.54667,0.66788,2.7757,50.085,249.44,0.4105,1.7139,197.07,156.81,0.4685,0.51951,4.7418
0.080693,0.0041902,0.082883,0.0097475,0.97449,0.86698,4.2065,81.327,176.36,0.16772,4.6896,58.722,249.91,0.78291,0.22819,2.9541
0.080454,0.0025174,0.083683,0.0091598,0.7867,0.37974,4.4952,53.582,249.22,0.50756,3.2405,208.65,141.68,0.54936,0.58096,3.993
0.080246,0.0049263,0.043921,0.0094698,0.98179,0.58483,4.928,74.26,231.31,0.39242,4.8904,128.9,6.3878,0.47878,0.39084,4.1075
0.014176,0.0059477,0.030624,0.0090362,0.78255,0.20446,4.5119,90.608,181.81,0.23556,4.9327,55.718,249.26,0.61546,0.92056,2.8431
0.041755,0.0042988,0.043133,0.0098925,0.13241,0.8751,4.3006,84.683,185.47,0.28648,4.9867,240.55,249.8,0.822,0.19202,4.0486
0.04213,0.0099621,0.025709,0.0095722,0.74233,0.59673,4.3307,103.94,239.56,0.34501,4.9984,194.45,231.24,0.79737,0.29147,3.3029
0.021676,0.0042847,0.07973,0.0010554,0.74773,0.16961,3.4988,150.62,215.3,0.098447,4.1238,58.004,225.8,0.48497,0.46363,2.4538
0.098402,0.0096879,0.039699,0.0024678,0.79955,0.60107,4.7707,53.916,211.55,0.71396,3.8727,71.467,240.57,0.46452,0.26639,1.0279
0.047418,0.0012379,0.03839,0.0023202,0.68046,0.8725,4.2186,58.368,249.39,0.3472,3.7688,68.565,249.34,0.31642,0.72207,2.7339
0.093459,0.0097095,0.083025,0.0082978,0.90426,0.8195,4.9118,140.56,179.18,0.78001,4.7406,53.998,249.5,0.43416,0.82873,0.47562
0.080442,0.0010554,0.093896,0.0081108,0.93919,0.24358,3.514,139.62,152.53,0.11636,3.4469,57.351,191.57,0.5802,0.77884,0.93429
0.048988,0.0066745,0.079998,0.0016507,0.14109,0.43849,0.832,122.52,182.54,0.090715,2.2477,146.4,199.5,0.15275,0.31834,4.2268
0.093115,0.0018731,0.097171,0.0032007,0.87683,0.93182,1.3481,120.09,148.07,0.18481,4.5572,69.297,208.6,0.47206,0.86486,0.5632
0.068542,0.0092963,0.026626,0.0010964,0.69267,0.49035,1.6427,64.398,208.7,0.18172,0.6186,192.34,136.02,0.20809,0.92732,3.0001
0.044221,0.0034372,0.061632,0.0030929,0.95178,0.89644,4.399,216.71,219.5,0.60791,4.2758,242.96,126.08,0.66174,0.75146,0.30035
0.077611,0.0092532,0.084729,0.0081765,0.44545,0.80518,2.7318,58.5,200.47,0.33179,4.767,92.756,141.06,0.70947,0.56729,3.1052
0.096305,0.0037733,0.047946,0.0092097,0.22107,0.93627,4.3615,52.833,245.24,0.45981,2.5669,154.05,243.68,0.3237,0.54261,4.0985
0.063597,0.0010963,0.039536,0.0052845,0.89722,0.73307,4.7041,51.739,231.71,0.42843,0.086909,249.77,187.18,0.30271,0.87462,3.3441
0.093977,0.0064465,0.097531,0.0013423,0.90882,0.70807,4.9955,63.841,217.3,0.35847,4.9954,190.54,233.28,0.71561,0.47747,3.0003
0.094341,0.0077732,0.064254,0.0049044,0.77512,0.20464,4.3281,52.486,204.37,0.54541,3.5341,92.062,192.39,0.27035,0.60531,3.4731
0.046767,0.0081253,0.092289,0.007859,0.77374,0.43275,3.4382,116.02,207.6,0.44108,1.3902,249.69,115.61,0.37812,0.58649,4.6185
0.089752,0.0042711,0.041686,0.0017538,0.75655,0.50433,3.7676,51.465,168.97,0.42534,1.3062,108.98,218.01,0.46017,0.883,4.2935
0.084186,0.002259,0.039059,0.0011033,0.91961,0.99097,3.426,50.417,195.27,0.43741,2.528,63.942,106.25,0.32953,0.79118,3.1721
0.010967,0.0020335,0.010846,0.0042905,0.79369,0.18425,1.87,165.63,73.587,0.031363,4.5924,202.08,243.96,0.57632,0.51231,2.759
0.077187,0.009831,0.070131,0.0047149,0.86369,0.58404,3.402,51.874,245.18,0.51075,4.3297,99.307,19.346,0.091226,0.54991,4.0275
0.019273,0.0068518,0.093618,0.0013262,0.85471,0.72431,1.5667,71.043,33.794,0.16097,4.7357,59.152,212.74,0.58991,0.63952,2.2701
0.014357,0.0017786,0.047919,0.0051704,0.27404,0.9535,4.9388,153.92,248.83,0.51577,4.0348,151.13,225.5,0.32046,0.39365,0.19467
0.026712,0.0072111,0.087272,0.0091003,0.68207,0.16836,0.69187,164.41,7.3101,0.18357,3.7607,54.071,244.16,0.46971,0.32881,1.9501
0.083806,0.0067942,0.095319,0.0095955,0.20016,0.6554,2.7603,68.902,225.2,0.49967,4.9077,137.52,20.515,0.65456,0.14841,4.4457
0.010867,0.0038315,0.04385,0.0057942,0.55532,0.67966,4.1691,134.48,210.83,0.48081,0.63712,133.89,191.43,0.42211,0.72715,3.8075
0.087236,0.0091338,0.012671,0.0055692,0.71692,0.26763,3.5589,74.46,114.16,0.38767,0.23934,171.85,209.37,0.84548,0.36914,4.1171
0.083864,0.0056863,0.088625,0.0090064,0.61632,0.3202,4.048,106.46,169.59,0.37916,3.5341,92.159,108.68,0.50047,0.60642,3.8401
0.054744,0.0092961,0.068816,0.0055628,0.18604,0.97013,4.5126,94.009,171.28,0.53667,3.9484,56.513,80.484,0.2417,0.0068386,1.6937
0.063341,0.0061988,0.086528,0.0098608,0.82753,0.31718,1.6521,126.47,40.501,0.93644,3.2207,140.77,249.26,0.34463,0.13892,2.3163
0.015111,0.0015765,0.057304,0.006172,0.91839,0.55366,0.048367,162.8,8.3863,0.98937,4.0365,212.82,231.74,0.54656,0.46433,2.3343
0.028472,0.0096684,0.05331,0.0067413,0.74462,0.82113,2.1259,234.46,46.568,0.63317,3.4742,89.163,131.72,0.25822,0.72047,0.46285
0.051894,0.0097701,0.082119,0.0059971,0.76415,0.69716,4.3935,53.745,206.07,0.49675,1.0857,245.78,245.67,0.3823,0.91535,4.38
0.051488,0.0093612,0.073355,0.002927,0.97513,0.1331,4.6205,70.755,246.79,0.11304,3.2588,50.007,248.7,0.72622,0.7279,2.3496
0.072845,0.0048078,0.092264,0.0098487,0.89407,0.53723,3.3125,50.009,165.67,0.088779,4.8557,157.52,249.67,0.5853,0.49775,2.5315
0.08094,0.0091145,0.033484,0.0016279,0.72492,0.46281,4.3702,53.24,224.57,0.3842,0.75854,71.858,150.26,0.083371,0.69982,4.0818
0.039616,0.0052994,0.01033,0.0088051,0.37008,0.67641,3.8411,115.34,201.78,0.48503,4.9343,148.99,19.226,0.88303,0.48472,3.2119
0.030239,0.0091333,0.098353,0.0026313,0.66904,0.14719,4.7736,166.65,245.64,0.088631,3.0614,75.472,242,0.52516,0.41164,2.255
0.099312,0.0044636,0.083914,0.0031477,0.31221,0.29647,4.9434,74.393,200.35,0.3387,2.9063,115.29,214.53,0.58848,0.27284,3.4831
0.074607,0.0017457,0.091049,0.007355,0.79334,0.92184,4.2664,51.814,193.74,0.4484,4.6521,103.46,35.622,0.74556,0.87644,2.4436
0.089365,0.0066985,0.099623,0.0035863,0.90744,0.62238,4.7036,55.615,236.03,0.53525,4.8785,159.46,24.367,0.50414,0.84274,3.6019
0.061546,0.0028299,0.010759,0.0077547,0.65819,0.57185,4.0519,215.32,249.13,0.48086,3.0313,217.44,138.82,0.46733,0.45772,3.6498
0.04423,0.0091034,0.075956,0.0038705,0.823,0.89045,2.6343,247.73,191.8,0.52989,3.829,63.412,179.86,0.46289,0.91948,0.47034
0.043487,0.0028996,0.017616,0.0019663,0.68789,0.47452,4.7979,102.1,200.49,0.39752,4.8556,189.66,239.03,0.85976,0.30157,3.1588
0.048185,0.001013,0.067001,0.0082552,0.89771,0.39242,4.8764,50.574,129.06,0.20686,4.7026,107.32,249.54,0.775,0.7904,2.6334
0.014381,0.0081785,0.098083,0.0091279,0.89478,0.18368,4.7867,56.02,247.94,0.51499,3.0224,55.594,248.36,0.35461,0.30873,1.5347
0.089282,0.0043124,0.022197,0.0016289,0.69117,0.64936,1.2148,59.551,188.26,0.13015,3.669,206.42,127.92,0.46793,0.46578,3.0295
0.097634,0.0011362,0.06105,0.0013587,0.95259,0.18007,4.035,86.658,245.41,0.50209,4.7005,128.34,249.99,0.36309,0.27454,2.8856
0.086758,0.0066566,0.095904,0.0066177,0.98204,0.18012,2.7637,64.18,247.16,0.35522,1.2762,158.35,18.188,0.49034,0.73548,4.8072
0.052052,0.0075944,0.080608,0.0059518,0.23175,0.95389,4.9561,85.107,86.89,0.45335,4.1556,160.66,136.11,0.19805,0.67635,0.31689
0.072566,0.0045282,0.088705,0.0027979,0.96874,0.68053,4.8736,95.931,151.34,0.54908,4.6417,209.13,241.35,0.028714,0.77147,3.6128
0.095557,0.0090734,0.034683,0.0074064,0.44779,0.46172,4.8605,83.563,200.79,0.37915,2.3977,228.97,70.293,0.077446,0.32974,4.7581
0.097975,0.0033948,0.010441,0.0093843,0.80944,0.36937,4.5036,235.53,137.91,0.55864,0.64376,190.17,22.034,0.9579,0.72575,3.4759
0.09518,0.0023107,0.092411,0.0091182,0.99125,0.67827,3.008,56.768,241.97,0.44833,1.2552,198.65,31.45,0.69043,0.43634,4.4883
0.03586,0.0041284,0.01239,0.0010006,0.45255,0.46172,3.8261,54.748,247.6,0.37366,4.3587,249.64,249.92,0.62503,0.62282,4.0602
0.085446,0.0019301,0.086923,0.007532,0.87467,0.14781,4.5005,51.878,242.26,0.54133,2.7491,152.79,160.14,0.26613,0.98918,3.3317
0.082189,0.0090031,0.02844,0.0045953,0.57575,0.50697,4.5055,72.519,216.08,0.41326,0.65794,192.09,126.24,0.20064,0.83639,3.2834
0.074547,0.0073939,0.087432,0.0012063,0.36233,0.54729,4.3179,63.882,239.8,0.47126,2.688,58.473,235.3,0.16491,0.59453,0.67771
0.073903,0.0012652,0.077551,0.0086928,0.8705,0.68567,4.9055,90.314,128.55,0.6294,4.9939,202.79,195.63,0.79526,0.39479,4.8325
0.065707,0.0011563,0.030116,0.0088604,0.7265,0.45135,1.6932,248.4,180.35,0.19655,0.91971,215.86,30.136,0.33152,0.61823,3.2019
0.095852,0.009381,0.014075,0.0063259,0.94225,0.26228,4.1158,51.655,247.13,0.50933,1.246,244.64,176.94,0.1387,0.67717,3.8696
0.099495,0.006541,0.093214,0.0065619,0.95611,0.99601,0.092068,243.72,175.46,0.97187,1.8589,202.67,155.31,0.45525,0.032946,2.4437
0.076664,0.0033246,0.010325,0.0050869,0.95856,0.75696,3.2881,53.493,230.81,0.32168,2.4919,225.1,204.77,0.28247,0.73894,2.9958
0.07087,0.0066799,0.092691,0.0014418,0.83487,0.40252,4.6409,101.01,71.95,0.78562,0.45075,243.83,122.63,0.61714,0.054703,0.38984
0.086402,0.0092129,0.091803,0.0074772,0.74806,0.51787,1.275,63.245,1.2809,0.30119,4.0228,140.32,249.05,0.40323,0.24326,2.5796
0.098321,0.0095158,0.09031,0.0037546,0.95984,0.81494,2.9852,66.013,230.77,0.4439,4.9356,166.24,5.8838,0.22498,0.72909,4.9287
0.051518,0.0027452,0.099971,0.0046432,0.67466,0.15755,1.9954,109.36,222.76,0.26318,1.5068,107.54,100.42,0.24646,0.93622,4.2863
0.074677,0.0037637,0.082069,0.0014627,0.85521,0.98443,4.8761,50.11,249.16,0.49713,4.6036,207.79,63.979,0.81298,0.37649,3.208
0.096454,0.0072366,0.039062,0.009532,0.41452,0.63666,3.748,67.143,239.43,0.34098,3.3364,213.78,52.397,0.060388,0.21948,4.1581
0.088851,0.0086264,0.012263,0.001084,0.91507,0.25512,4.4147,55.495,235.77,0.45778,3.7323,227.63,91.117,0.52593,0.26309,3.4632
0.031688,0.0091078,0.075954,0.0045426,0.9951,0.467,4.9717,83.756,147.59,0.11101,4.906,247.14,243.93,0.66857,0.72435,2.3047
0.099063,0.0013908,0.052551,0.0050377,0.14598,0.53229,2.8371,122.89,140.34,0.36872,1.8841,103.15,22.414,0.75074,0.7671,4.2562
0.083164,0.0057831,0.045333,0.0011478,0.29409,0.28919,2.8137,247.71,112.56,0.289,2.5283,151.43,80.884,0.53185,0.24069,1.9016
0.089617,0.0045389,0.087401,0.00966,0.98983,0.67161,2.9635,246.6,32.672,0.81382,2.0834,79.465,231.24,0.37182,0.035479,2.3313
0.01813,0.0017909,0.015172,0.0068296,0.47467,0.48834,4.5058,169.25,131.3,0.29048,2.2238,75.768,113.47,0.96352,0.9523,1.313
0.085978,0.0088415,0.044609,0.0094673,0.8898,0.78558,4.3738,51.583,214.2,0.51841,1.3687,237.13,143.74,0.37704,0.53048,2.7881
0.047234,0.0065225,0.022766,0.0016842,0.68366,0.59036,1.7324,105.54,143.27,0.047365,4.7027,146.02,242.05,0.62483,0.16042,3.2156
0.015662,0.0014898,0.076611,0.0042617,0.93686,0.46175,4.7975,157.04,16.78,0.75969,3.4421,90.266,184.94,0.48751,0.36275,2.2324
0.059863,0.0096674,0.07282,0.0079626,0.44225,0.2683,2.9435,205.58,156.02,0.3176,0.012796,227.15,161.78,0.42815,0.27664,4.8993
0.052862,0.0058351,0.092216,0.0097182,0.58882,0.66818,2.0394,80.096,159.26,0.38953,4.3633,169.16,8.8286,0.39411,0.5807,3.9568
0.096493,0.0091941,0.075769,0.0028033,0.88211,0.35364,3.0633,50.67,247.15,0.34605,3.4683,89.041,218.4,0.038765,0.64087,3.3074
0.084675,0.0070352,0.03188,0.0095362,0.51884,0.41821,4.1959,236.91,210.65,0.49712,0.021606,235.68,69.898,0.99841,0.1189,4.7448
0.087306,0.0010805,0.091639,0.0063134,0.12594,0.99572,4.7317,51.841,214.8,0.49096,2.2175,79.088,153.53,0.28864,0.031292,1.2928
0.086193,0.0084337,0.073182,0.0095468,0.75407,0.63424,4.2898,57.755,159.62,0.42141,1.4941,190.21,22.089,0.48449,0.48083,4.1197
0.087209,0.0097762,0.059357,0.0085101,0.15014,0.54534,4.1006,68.605,235.68,0.3777,1.3045,80.719,223.03,0.15219,0.64434,0.042422
0.070659,0.0093017,0.095318,0.0065025,0.15731,0.34576,3.5079,73.145,163.28,0.3229,1.3723,107.01,76.153,0.49159,0.9266,1.4714
0.097524,0.0037384,0.063052,0.003212,0.40247,0.60741,2.7497,79.109,249.01,0.36045,0.36851,132.57,123.73,0.15787,0.41223,1.8301
0.062863,0.0076696,0.099711,0.0071773,0.84607,0.32595,0.067129,78.855,0.053919,0.74486,2.9618,234.34,249.53,0.44512,0.40384,2.2503
0.020332,0.0067242,0.045725,0.0010004,0.43565,0.58047,3.2021,219.84,237.68,0.63446,3.7209,57.48,5.1722,0.66097,0.15314,4.865
0.094941,0.0071638,0.069356,0.0055239,0.16392,0.55263,4.9552,56.287,249.77,0.48825,2.4392,50.922,213.15,0.21596,0.87507,0.569
0.078526,0.009562,0.084066,0.0098706,0.99366,0.92124,4.7219,206.69,215.23,0.69416,1.8719,208.59,158.38,0.18725,0.87734,2.0479
0.074392,0.0040555,0.066013,0.001063,0.56644,0.20146,4.9966,178.26,126.88,0.035246,4.3118,72.952,239.14,0.35563,0.092845,2.7372
0.08827,0.0037249,0.073046,0.0013684,0.60417,0.33971,3.579,120.73,93.118,0.33361,2.7593,57.952,229.43,0.30486,0.33259,1.1143
0.083389,0.0021443,0.054056,0.0019308,0.32096,0.53182,4.6072,212.51,34.075,0.62352,3.5492,111.15,69.951,0.51501,0.69349,0.23783
0.03092,0.0010913,0.055794,0.0064307,0.96547,0.69484,2.911,76.791,32.525,0.98946,1.6544,53.997,246.72,0.23741,0.1709,2.5315
0.04117,0.0093244,0.080174,0.0014157,0.64943,0.85211,4.8436,213.86,183.2,0.46011,4.9935,203.02,186.16,0.87585,0.34592,3.0998
0.096463,0.0089459,0.013644,0.0047968,0.65221,0.67124,4.6043,75.12,230.89,0.26055,4.973,145.19,246.09,0.73774,0.11507,3.8672
0.099618,0.0044393,0.091091,0.0042028,0.31144,0.82616,4.1826,69.574,222.44,0.42185,0.39759,239.67,68.134,0.53232,0.34166,4.6593
0.086378,0.0092657,0.044634,0.007279,0.87185,0.86518,3.2775,107.51,247.08,0.31912,4.7056,165.31,79.071,0.89992,0.35289,3.5217
0.077004,0.0080696,0.096683,0.0021725,0.95377,0.32379,4.9817,160.44,228.17,0.11665,3.8954,98.502,249.99,0.5654,0.17121,2.4247
0.066711,0.0099616,0.015467,0.003921,0.89426,0.82136,3.1681,133.15,86.215,0.43841,4.0463,233.94,33.283,0.38213,0.19337,2.8108
0.086471,0.0046856,0.082416,0.0051442,0.45197,0.37976,2.1984,61.208,197.93,0.36367,4.9199,181.37,249.62,0.81629,0.46719,4.9888
0.01012,0.0091254,0.028562,0.0061959,0.36984,0.14398,0.15899,114.58,127.01,0.87133,4.6303,184.97,238.3,0.46844,0.46104,2.4379
0.060752,0.0090265,0.068697,0.0031641,0.71512,0.98871,3.6482,153.79,238.11,0.43558,4.8428,115.58,139.08,0.72065,0.73488,1.7783
0.049972,0.0039566,0.093531,0.0053504,0.96365,0.77433,4.144,140,32.1,0.99721,1.8834,80.992,166.22,0.43416,0.086795,2.0631
0.024523,0.0091111,0.019912,0.0048034,0.57299,0.87078,0.77482,114.8,55.247,0.61367,4.3748,223.99,218.44,0.66546,0.21534,3.5196
0.073373,0.0024723,0.016881,0.007234,0.27506,0.8695,3.4469,52.289,247.25,0.42875,3.2334,136.43,69.359,0.95078,0.82057,4.2711
0.058963,0.0086051,0.096817,0.0067032,0.15075,0.88597,4.5085,194.66,84.534,0.51763,3.9004,129.96,202.58,0.37794,0.32357,0.18718
0.095423,0.0011771,0.077016,0.0058199,0.97,0.91148,4.0498,51.632,245.72,0.43541,1.9512,131.85,181.66,0.56933,0.45726,3.9048
0.09227,0.0044713,0.012569,0.0066687,0.45432,0.60871,3.118,80.784,168.84,0.3365,0.39169,129.64,117.19,0.48837,0.59039,1.5839
0.032016,0.0095678,0.087105,0.0057814,0.58773,0.88157,4.4424,140.07,3.9959,0.91192,1.9609,162.99,147.86,0.29162,0.12014,2.0721
0.062442,0.0091849,0.092694,0.0094332,0.97472,0.1464,0.027551,74.459,113.4,0.14938,2.6209,59.073,246.11,0.54371,0.27672,2.252
0.077247,0.0020676,0.036164,0.0079071,0.10034,0.71092,4.2753,51.501,241.07,0.46177,2.4673,158.44,174.51,0.53136,0.65348,2.7352
0.064206,0.0095153,0.071934,0.0042482,0.24725,0.46536,1.408,61.213,235.76,0.19035,3.7356,57.999,234.56,0.47625,0.71914,0.14712
0.013597,0.0093434,0.06562,0.0077184,0.10857,0.37627,4.3611,68.36,245.95,0.31898,4.4007,113.85,249.76,0.49972,0.75515,3.8078
0.087617,0.0018532,0.01644,0.0087754,0.5277,0.12387,4.4147,50.946,225.42,0.53367,3.9129,245.4,6.2149,0.34403,0.59793,4.7409
0.04088,0.0049815,0.026956,0.0011985,0.73334,0.73941,4.9699,74.678,155.85,0.025094,1.3682,115.38,247.7,0.25727,0.15306,2.8498
0.098226,0.0039058,0.071451,0.0096223,0.92071,0.35926,4.3747,77.621,206.95,0.43051,4.964,52.784,69.263,0.83443,0.42693,4.1075
0.094659,0.003825,0.084869,0.0063765,0.70386,0.7699,4.5528,121.89,58.032,0.75049,2.7037,104.85,191.96,0.32314,0.80166,0.57403
0.066951,0.0095316,0.047818,0.0088147,0.18238,0.82107,1.9253,233.71,200.68,0.29464,3.0567,64.505,26.766,0.80775,0.20638,2.0185
0.017824,0.0095161,0.096021,0.0034392,0.90289,0.45514,4.6342,134.61,159.43,0.19122,4.8839,112.89,247.05,0.56787,0.65694,2.463
0.076286,0.0091078,0.091638,0.0083751,0.8393,0.32407,4.2082,107.43,143.23,0.58798,3.3074,113.59,185.67,0.31801,0.29016,1.0535
0.081244,0.0087258,0.070086,0.0098753,0.19143,0.73,4.8666,125.5,153.26,0.49679,0.32154,220.5,31.323,0.13105,0.6858,2.3591
0.099634,0.0038429,0.020377,0.008003,0.18783,0.78585,4.2588,196.28,127.65,0.41405,1.8266,136.78,224.65,0.17208,0.34004,3.4295
0.092072,0.0075893,0.038409,0.0018705,0.82072,0.3924,4.3981,51.559,219.98,0.50245,4.9997,157.23,220.38,0.65068,0.6927,3.5174
0.080172,0.0092548,0.035772,0.0079973,0.65683,0.84843,3.0198,79.87,204.97,0.47263,3.3866,139.27,1.4479,0.50378,0.23891,3.4208
0.07628,0.0097938,0.089728,0.0078575,0.53089,0.743,3.3126,221.2,199.22,0.72317,2.6082,115.99,163.07,0.29673,0.69878,0.53643
0.074193,0.0018272,0.012048,0.0066325,0.23088,0.17599,4.8647,91.87,249.92,0.54152,1.9155,52.805,196.28,0.36065,0.82742,0.23497
0.072099,0.0097089,0.087696,0.0010134,0.74218,0.20043,3.3623,97.513,249.98,0.82067,4.493,57.878,215.35,0.33845,0.44518,0.6352
0.077163,0.0064807,0.032049,0.0011546,0.33548,0.84379,4.5348,225.57,190.68,0.31789,4.2093,221.59,108.74,0.97979,0.65386,2.5989
0.096771,0.0090546,0.049024,0.0051117,0.34601,0.41941,4.0187,123.08,190.72,0.1252,4.2106,134.86,249.45,0.60665,0.085118,3.0339
0.072806,0.0066536,0.061246,0.0093417,0.98538,0.10432,4.8216,71.088,246.46,0.12174,4.5832,54.35,245.27,0.59848,0.48076,2.4872
0.081033,0.0098925,0.029404,0.008249,0.28582,0.75945,3.1658,206.99,162.92,0.29938,4.1776,124.08,57.007,0.86848,0.24918,2.6086
0.082588,0.0031718,0.017226,0.0010648,0.93911,0.96479,4.0896,55.85,236.41,0.55463,3.8492,181.85,199.04,0.84445,0.37528,2.7935
0.071446,0.0030108,0.017847,0.0015462,0.63404,0.15322,3.7358,60.518,242.28,0.48888,2.3775,92.583,225.43,0.10888,0.58969,3.5033
0.080275,0.0055945,0.061659,0.0081826,0.85734,0.33261,3.8707,65.676,236.11,0.41952,4.5494,113.71,106.84,0.15607,0.49518,3.8029
0.084541,0.0090047,0.09436,0.0082981,0.38321,0.71772,4.623,132.56,79.777,0.82389,2.2427,57.936,231.55,0.37882,0.038352,2.7009
0.09454,0.0085453,0.027687,0.0095705,0.9811,0.82245,4.5853,91.512,192.63,0.54575,1.7243,225.95,220.79,0.27248,0.26569,4.2235
0.022427,0.0046855,0.072713,0.0092655,0.2172,0.24415,0.72808,92.053,0.37519,0.24058,1.7267,158.66,249.9,0.15393,0.30219,2.2987
0.069369,0.0065747,0.094617,0.0013899,0.8584,0.57298,0.2481,78.926,17.01,0.14812,3.1301,161.43,97.919,0.57096,0.20614,2.3599
0.089964,0.0095327,0.067402,0.0038442,0.65215,0.23822,3.9042,56.424,226.99,0.43328,4.7711,59.891,160.33,0.57315,0.6337,3.7874
0.097634,0.002998,0.094204,0.0095327,0.94134,0.74917,4.6483,54.386,209.56,0.53779,4.7261,241.68,25.013,0.78261,0.71558,4.2086
0.081491,0.0019557,0.094024,0.0084637,0.67794,0.89842,3.0393,104.06,236.24,0.35344,3.2974,242.29,83.466,0.5479,0.5355,3.7425
0.084844,0.0012803,0.06372,0.0085162,0.98762,0.98742,4.7995,51.472,249.69,0.47826,4.25,77.807,58.619,0.56024,0.82657,3.3362
0.069305,0.0097965,0.013181,0.0069724,0.2451,0.59579,3.1226,57.48,246.66,0.47101,0.70885,197.34,97.48,0.35577,0.15336,4.4627
0.018994,0.0076975,0.09593,0.004669,0.97707,0.33664,3.9681,119.16,154.79,0.078108,4.2481,115.98,209.23,0.54723,0.68366,2.0848
0.086644,0.0068519,0.095278,0.0092108,0.70187,0.91046,3.9747,137.13,120.5,0.45129,2.7007,73.853,64.609,0.72363,0.27128,2.4989
0.073659,0.0038163,0.047384,0.00104,0.94286,0.9139,4.4618,51.554,130.82,0.23749,4.7179,136.96,246.48,0.76615,0.34198,3.1376
0.087632,0.0077681,0.098693,0.0010483,0.36693,0.1885,3.844,51.849,249.57,0.40352,3.707,191.77,1.4205,0.39451,0.94897,4.9949
0.097068,0.0082159,0.085838,0.0091701,0.76811,0.41512,3.4003,61.643,242.9,0.44107,2.5155,236.94,134.93,0.43761,0.75168,3.804
0.098957,0.0083932,0.077216,0.0014449,0.96489,0.94509,0.055756,227.32,179.8,0.48719,2.2102,73.383,214.99,0.40684,0.02719,2.7038
0.089898,0.0044509,0.075477,0.0093236,0.65237,0.20467,3.8982,203.86,59.718,0.88524,1.8982,90.525,140.29,0.27979,0.7441,1.1552
0.099424,0.0059239,0.020346,0.005122,0.94291,0.5039,3.4734,50.24,246.65,0.51886,1.4902,178.91,107.17,0.3375,0.33676,3.5439
0.075552,0.0037289,0.084934,0.0092124,0.94527,0.43403,4.6299,55.132,201.26,0.54942,4.6565,204.29,156.12,0.52142,0.80135,4.1533
0.08677,0.0011295,0.088173,0.0029884,0.32428,0.65943,4.5523,58.839,83.236,0.045038,2.7944,170.93,248.41,0.37149,0.1669,2.725
0.014404,0.0011324,0.011503,0.0078781,0.14202,0.83349,4.3355,56.364,244.71,0.45122,3.6304,106.79,248.7,0.60106,0.88669,4.5809
0.08224,0.0044119,0.083702,0.0092996,0.69593,0.86076,4.9526,185.05,216.57,0.55288,4.7178,164.98,65.881,0.26662,0.14324,4.4594
0.087247,0.008055,0.080549,0.0011804,0.99656,0.69267,4.6067,60.346,215.31,0.34674,4.7542,50.127,119.43,0.75706,0.32011,3.8884
0.092435,0.0035334,0.074309,0.0097239,0.31908,0.78031,3.3603,61.371,144.58,0.41428,0.59179,150.24,170.56,0.20809,0.17848,3.4893
0.070556,0.00963,0.092156,0.0075859,0.73117,0.38906,4.7507,133.1,215.52,0.11986,4.6433,137.23,243.64,0.53158,0.17938,2.5389
0.08286,0.0016605,0.071532,0.0067044,0.13956,0.81441,3.7837,183.22,113.2,0.42865,0.62282,68.913,37.694,0.80589,0.15168,1.0317
0.096525,0.0040658,0.07433,0.0012106,0.83576,0.98064,4.6712,56.909,194.5,0.51286,4.5086,220.13,48.453,0.33905,0.43462,4.6674
0.017193,0.0048652,0.074158,0.0013104,0.85665,0.4793,4.1676,235.38,134.51,0.38159,2.396,53.026,113.76,0.22281,0.88,1.0235
0.044732,0.0086455,0.05364,0.0019078,0.30852,0.95187,4.8768,51.742,248.93,0.60365,4.687,158.52,167.03,0.67424,0.24954,4.3276
0.011479,0.0069186,0.08499,0.0013757,0.27306,0.1322,4.6283,60.929,122.27,0.89546,4.0243,52.54,241.36,0.56485,0.56801,2.212
0.094522,0.0094446,0.080667,0.0024447,0.54223,0.76672,3.9957,54.474,232.12,0.42066,4.8315,226.22,34.588,0.56973,0.46256,3.7797
0.092391,0.0090164,0.012172,0.008515,0.59193,0.74781,2.886,56.754,198.38,0.39048,4.0759,130.03,178.79,0.65714,0.94396,2.8795
0.011104,0.0070757,0.071466,0.0099259,0.95879,0.44573,4.936,202.86,157.39,0.097313,4.6744,244.61,249.22,0.54325,0.70457,2.2307
0.094332,0.0018929,0.053823,0.0025482,0.75372,0.63102,3.7074,63.536,227.35,0.38013,2.8119,243.06,225.61,0.76592,0.98181,3.2951
0.042419,0.0013983,0.030283,0.0094492,0.66944,0.80575,4.2839,59.978,203.43,0.13947,4.8445,233.72,249.94,0.65485,0.35811,2.9671
0.043539,0.008824,0.059924,0.0097857,0.54535,0.74598,3.0396,182.7,127.88,0.84588,2.4207,178.31,150.29,0.28974,0.11532,1.2665
0.098072,0.0058902,0.071303,0.0094489,0.93849,0.91128,3.874,55.729,153.21,0.50242,3.2428,180.62,33.129,0.77448,0.26012,3.4702
0.084397,0.004541,0.085145,0.0019039,0.84993,0.75426,4.5723,62.898,228.01,0.50621,0.82621,181.69,10.733,0.93129,0.99528,4.651
0.098614,0.0018526,0.075004,0.0070009,0.64209,0.83638,3.7408,64.414,217.33,0.36279,4.6614,222.72,103.46,0.36181,0.8375,4.9576
0.087709,0.0016271,0.080634,0.0073179,0.69718,0.51327,2.2822,109.61,247.46,0.81031,3.4189,87.756,68.489,0.40099,0.75007,0.1949
0.071444,0.0024773,0.045969,0.0095843,0.79708,0.94753,3.5503,71.552,153.31,0.18006,4.9727,232.25,249.15,0.78558,0.26357,3.0273
0.013147,0.0018385,0.049611,0.0035753,0.40618,0.71461,3.5239,203.84,238.99,0.43139,2.2387,113.24,227.34,0.36628,0.9757,0.82916
0.096493,0.0071679,0.037866,0.0012491,0.86012,0.4431,4.631,55.243,244.75,0.51753,4.6312,235.19,141.73,0.3871,0.91483,3.412
0.049584,0.00912,0.097101,0.0043284,0.97596,0.21436,4.9613,64.766,79.412,0.059696,3.5136,69.715,245.38,0.50711,0.64091,2.2863
0.07895,0.0096647,0.096795,0.0080553,0.50292,0.24781,2.8262,148.87,126.29,0.99126,3.1216,189.24,168.66,0.53103,0.90459,0.46763
0.099986,0.0029853,0.051611,0.0056688,0.89837,0.91593,4.6389,175.26,115.18,0.56385,4.9995,212.16,126.08,0.39272,0.82635,1.3487
0.095672,0.0036048,0.058546,0.0091459,0.96149,0.36545,4.9808,57.582,227.21,0.59421,0.53818,228.89,224.76,0.3537,0.60604,3.0779
0.089723,0.0027749,0.011939,0.0019769,0.99907,0.36075,3.8393,51.537,232.79,0.46136,3.8562,248.02,249.73,0.96192,0.60735,4.392
0.045725,0.007916,0.027306,0.0010676,0.63833,0.97825,4.7385,92.607,220.53,0.22388,4.8042,74.034,249.44,0.62579,0.1569,4.1741
0.039849,0.0094342,0.090832,0.0021406,0.69723,0.81673,4.8106,66.299,233.3,0.68843,2.2122,118.94,125.6,0.31674,0.32341,3.2378
0.07566,0.0093302,0.076286,0.0091555,0.66605,0.84871,3.8498,78.509,249.04,0.41198,4.457,230.28,6.9471,0.0243,0.50647,4.6043
0.090039,0.0037018,0.081684,0.0092523,0.84187,0.93023,4.5515,57.134,246.07,0.47978,3.2863,144.03,239.95,0.17604,0.39327,4.1665
0.059199,0.0022366,0.041473,0.0054542,0.99921,0.3408,4.5071,97.621,135.77,0.83951,2.2299,163.83,185.09,0.25204,0.28071,1.0755
0.092718,0.0012141,0.026069,0.004019,0.92445,0.44696,2.676,53.218,170.18,0.25353,2.0963,243.94,240.66,0.79347,0.63847,4.7065
0.021068,0.0094559,0.032418,0.0028616,0.40811,0.99124,4.6302,91.515,127.08,0.17231,4.9955,110.57,249.96,0.70581,0.30593,3.5649
0.053669,0.0072595,0.067689,0.0019465,0.72358,0.92563,3.3416,58.088,227.94,0.37628,3.6639,141.54,8.5811,0.52541,0.82706,3.1236
0.088664,0.0098943,0.097818,0.0025048,0.99551,0.13348,4.5383,71.237,118.86,0.79413,3.9792,74.138,237.81,0.31427,0.18312,1.1095
0.098978,0.007565,0.09286,0.0010475,0.28934,0.87543,4.7219,53.486,216.24,0.41679,4.6056,66.479,71.725,0.93953,0.85105,2.1098
0.050341,0.0013837,0.077343,0.0075193,0.97416,0.47891,3.4512,245.05,231.9,0.54851,3.7884,123.93,65.259,0.26138,0.35857,2.2353
0.022343,0.0086838,0.091278,0.0010323,0.18331,0.14098,1.823,136.47,20.746,0.043715,2.0236,143.98,122.89,0.45516,0.031165,0.54854
0.085204,0.0092998,0.089844,0.0064627,0.82475,0.30769,3.0195,70.638,239.03,0.40322,0.73031,94.767,8.3949,0.27433,0.37099,4.0908
0.098434,0.0011667,0.099335,0.0032106,0.45434,0.77621,4.9037,146.09,124.78,0.45298,1.0137,137.04,109.45,0.61828,0.38518,2.9364
0.09747,0.0093987,0.039385,0.0089734,0.40615,0.15436,3.6548,62.182,238.66,0.33914,0.10341,101.86,85.497,0.96733,0.85652,4.9185
0.0486,0.0010881,0.030479,0.0085535,0.93567,0.78117,3.6071,51.337,242.97,0.31366,2.8649,241.75,35.634,0.68442,0.92254,3.4274
0.078043,0.0049414,0.063684,0.0061532,0.50745,0.8577,4.644,70.967,202.02,0.5625,1.3007,79.832,151.14,0.37645,0.25676,3.4792
0.091523,0.0080982,0.082976,0.0096966,0.57489,0.46803,4.3136,139.95,42.312,0.16242,4.7821,79.531,147.78,0.43366,0.58611,0.27166
0.078099,0.0096448,0.0932,0.0023877,0.55104,0.2344,4.7319,132.13,120.3,0.61601,3.2941,67.763,247.59,0.3714,0.82923,0.66961
0.097833,0.0094806,0.074665,0.0044958,0.70429,0.38748,3.3674,102.09,221.92,0.38825,1.0428,193.61,69.994,0.50531,0.47459,4.1581
0.045019,0.0047018,0.057883,0.0096083,0.82435,0.5499,4.29,53.258,205.79,0.42846,0.7529,244.7,240.95,0.57458,0.74309,4.2872
0.01034,0.0048292,0.087856,0.0084516,0.95604,0.9702,0.28564,97.491,84.07,0.46924,3.925,80.352,249.34,0.56163,0.67082,2.4475
0.084148,0.0098236,0.042168,0.0035189,0.90652,0.89244,4.7747,191.61,235.23,0.13729,4.0564,163,248.53,0.63501,0.063891,2.8544
0.096081,0.0075771,0.08573,0.0069007,0.53178,0.4274,3.4107,78.725,225.06,0.36318,4.6266,100.79,220.99,0.50909,0.90182,1.1896
0.073281,0.0050225,0.051285,0.0086169,0.84073,0.58867,4.3028,67.645,194.65,0.41778,4.968,104.33,37.218,0.92602,0.72105,3.0451
0.089962,0.0080427,0.071301,0.004195,0.77971,0.99972,3.9748,61.817,206.82,0.38557,4.6637,180.11,38.579,0.93921,0.94525,3.0494
0.016224,0.0019621,0.048825,0.0041138,0.5195,0.56301,4.5938,59.985,97.54,0.68323,3.9184,53.118,241.34,0.40809,0.17235,2.0617
0.018347,0.0090675,0.09524,0.0062707,0.93413,0.13069,4.8165,223.55,230.36,0.013111,1.8385,70.85,246.21,0.20601,0.41496,2.1292
0.091022,0.0093776,0.095606,0.0090125,0.53327,0.44997,3.5318,142.8,241.17,0.35335,4.4406,104.04,216.37,0.50918,0.50072,0.94887
0.065368,0.0089451,0.075387,0.001346,0.49439,0.88653,3.1264,59.411,248.45,0.2894,2.7548,226.24,241.72,0.47541,0.54654,2.6142
0.034609,0.0017931,0.034855,0.0044201,0.3297,0.44948,4.1392,53.366,92.355,0.42777,1.7631,137.59,118.4,0.1476,0.5643,4.1381
0.077301,0.0033954,0.078598,0.0098246,0.22702,0.77223,2.3031,71.335,46.803,0.67202,4.32,52.778,247.47,0.47139,0.065067,2.828
0.037515,0.002532,0.084425,0.0016143,0.33955,0.78262,2.6483,138.56,80.929,0.67238,3.5537,196.83,52.56,0.48518,0.38669,0.73032
0.07889,0.0065443,0.045669,0.009755,0.98004,0.87125,4.4149,58.419,242.83,0.54992,4.2478,186.89,182.11,0.17674,0.50496,4.5531
0.06401,0.0030512,0.089894,0.0066043,0.96204,0.43142,4.8162,79.613,132.19,0.46713,4.7589,248.54,141.77,0.20975,0.86857,3.2322
0.089927,0.0054043,0.08877,0.00765,0.92845,0.69234,3.6373,75.675,228.3,0.46912,3.6194,103.76,26.734,0.075213,0.74851,4.0824
0.099997,0.0078715,0.097409,0.0082785,0.75567,0.34723,3.4349,50.772,191.7,0.34545,4.9797,126.53,241.78,0.87041,0.74571,2.8752
0.09482,0.0015139,0.064307,0.0011934,0.91412,0.79789,1.5346,53.726,239.48,0.1871,3.4834,194.85,76.429,0.18469,0.84794,4.2272
0.050012,0.0064886,0.070088,0.0011058,0.19136,0.80893,4.6036,55.209,121.16,0.66715,2.3361,72.3,149.35,0.25822,0.2371,0.72929
0.04222,0.0090862,0.087699,0.0045892,0.22909,0.40602,3.7033,148.21,218.59,0.35819,1.4503,241.39,215.19,0.28336,0.33753,3.5903
0.087782,0.0017389,0.047808,0.0077701,0.83265,0.9022,4.6793,187.03,156.68,0.4108,0.98593,147.32,222.07,0.28863,0.96413,1.4374
0.086167,0.0094618,0.079107,0.0082444,0.81214,0.36988,2.2095,149.88,212.84,0.30794,1.2713,110.88,59.715,0.03236,0.14351,3.0153
0.081945,0.0091599,0.088426,0.0044982,0.87964,0.21871,1.1729,174.32,5.4717,0.41092,2.4806,78.182,137.69,0.45026,0.10353,2.3407
