0.025625,0.001,0.0725,0.04125,0.001,0.0725,0.01,0.001,0.01,0.001,0.01,0.01,0.001,0.01,0.01,0.001,0.1,0.1,0.79688,90.219,0.5,0.01,0,50,0,0.01,0,0,0,0.125
0.090069,0.0011789,0.036663,0.047181,0.00737,0.088344,0.016686,0.0031783,0.051191,0.0069614,0.093621,0.018241,0.00822,0.036516,0.012667,0.0055211,0.36431,0.1251,3.202,202.01,35.542,0.57034,3.5869,145.59,73.454,0.72781,0.52941,2.6315,0.13029,0.6397
0.07482,0.0063114,0.084199,0.079485,0.0084396,0.090699,0.052436,0.0099101,0.083537,0.0041935,0.03693,0.096007,0.0031945,0.094809,0.08791,0.005014,0.99259,0.55977,4.8101,209.03,151.13,0.91877,1.6359,56.997,17.24,0.68147,0.25536,0.69943,0.73236,0.23918
0.025625,0.001,0.0725,0.04125,0.001,0.0725,0.01,0.001,0.01,0.001,0.01,0.01,0.001,0.01,0.01,0.001,0.1,0.1,0.79688,90.219,0.5,0.01,0,50,0,0.01,0,0,0,0.125
0.025625,0.001,0.0725,0.04125,0.001,0.0725,0.01,0.001,0.01,0.001,0.01,0.01,0.001,0.01,0.01,0.001,0.1,0.1,0.79688,90.219,0.5,0.01,0,50,0,0.01,0,0,0,0.125
0.025625,0.001,0.0725,0.04125,0.001,0.0725,0.01,0.001,0.01,0.001,0.01,0.01,0.001,0.01,0.01,0.001,0.1,0.1,0.79688,90.219,0.5,0.01,0,50,0,0.01,0,0,0,0.125
0.070621,0.0030402,0.060645,0.03037,0.0094051,0.089574,0.045466,0.0094089,0.076374,0.0042806,0.097412,0.073963,0.0049417,0.074713,0.049709,0.0070111,0.45407,0.97089,3.3561,221.27,16.583,0.069132,2.0952,200.74,8.8138,0.47633,0.58859,3.9372,0.29242,0.60234
0.033143,0.0086123,0.011531,0.093618,0.0098346,0.05724,0.094924,0.0065385,0.099143,0.005164,0.074842,0.016357,0.0066139,0.048269,0.09188,0.0028227,0.59735,0.70312,4.2018,208.64,232.6,0.99332,3.6673,90.421,0.63438,0.41996,0.9668,2.605,0.0914,0.84221
0.025625,0.001,0.0725,0.04125,0.001,0.0725,0.01,0.001,0.01,0.001,0.01,0.01,0.001,0.01,0.01,0.001,0.1,0.1,0.79688,90.219,0.5,0.01,0,50,0,0.01,0,0,0,0.125
0.025625,0.001,0.0725,0.04125,0.001,0.0725,0.01,0.001,0.01,0.001,0.01,0.01,0.001,0.01,0.01,0.001,0.1,0.1,0.79688,90.219,0.5,0.01,0,50,0,0.01,0,0,0,0.125
0.043372,0.0019447,0.092022,0.048036,0.0032383,0.058124,0.030987,0.0092533,0.099905,0.0021523,0.067281,0.023625,0.0079753,0.024216,0.066757,0.0054351,0.94576,0.36692,1.0088,208.74,1.9893,0.90454,0.45674,223.21,31.392,0.08863,0.77021,1.355,0.77406,0.088294
0.096271,0.0046278,0.076478,0.06895,0.0046436,0.08106,0.06078,0.0032302,0.032324,0.008974,0.084189,0.017081,0.0055333,0.097637,0.055212,0.0023131,0.92202,0.39787,1.5817,190.29,203.24,0.061281,3.8158,200.31,113.98,0.95508,0.70171,0.97327,0.6153,0.12494
0.025625,0.001,0.0725,0.04125,0.001,0.0725,0.01,0.001,0.01,0.001,0.01,0.01,0.001,0.01,0.01,0.001,0.1,0.1,0.79688,90.219,0.5,0.01,0,50,0,0.01,0,0,0,0.125
0.05326,0.0075406,0.062267,0.068547,0.009917,0.094072,0.019911,0.0074103,0.071199,0.003397,0.034081,0.086016,0.0047919,0.077643,0.099458,0.0018784,0.39419,0.21189,0.18492,242.24,157.03,0.95485,0.39462,198.05,2.9817,0.63503,0.066695,1.1313,0.13298,0.28575
0.020443,0.0082633,0.072466,0.07202,0.0083784,0.033146,0.060756,0.0012044,0.060241,0.0089671,0.0811,0.052739,0.0077944,0.078673,0.021679,0.0090483,0.95103,0.33575,0.10551,210.46,168.24,0.81828,1.6492,68.804,82.429,0.33216,0.61373,3.21,0.032126,0.8048
0.025625,0.001,0.0725,0.04125,0.001,0.0725,0.01,0.001,0.01,0.001,0.01,0.01,0.001,0.01,0.01,0.001,0.1,0.1,0.79688,90.219,0.5,0.01,0,50,0,0.01,0,0,0,0.125
0.013092,0.0034968,0.095394,0.013251,0.0051108,0.01329,0.039957,0.0082305,0.062374,0.0029287,0.057821,0.026406,0.0074074,0.04366,0.037926,0.0039889,0.15869,0.2323,1.617,210.88,38.274,0.23523,3.5693,151.5,154.97,0.0184,0.97673,1.7815,0.40594,0.1933
0.025625,0.001,0.0725,0.04125,0.001,0.0725,0.01,0.001,0.01,0.001,0.01,0.01,0.001,0.01,0.01,0.001,0.1,0.1,0.79688,90.219,0.5,0.01,0,50,0,0.01,0,0,0,0.125
0.025625,0.001,0.0725,0.04125,0.001,0.0725,0.01,0.001,0.01,0.001,0.01,0.01,0.001,0.01,0.01,0.001,0.1,0.1,0.79688,90.219,0.5,0.01,0,50,0,0.01,0,0,0,0.125
0.025625,0.001,0.0725,0.04125,0.001,0.0725,0.01,0.001,0.01,0.001,0.01,0.01,0.001,0.01,0.01,0.001,0.1,0.1,0.79688,90.219,0.5,0.01,0,50,0,0.01,0,0,0,0.125
0.038386,0.0048614,0.098036,0.098584,0.0098481,0.094895,0.067536,0.0095401,0.04487,0.0038299,0.090684,0.055092,0.0081444,0.097302,0.059147,0.0047344,0.90275,0.56616,0.24861,187.64,27.423,0.86243,3.9974,221.08,218.88,0.33984,0.91741,4.2065,0.73413,0.17721
0.076662,0.0022913,0.083213,0.080922,0.0014854,0.066514,0.039101,0.0065729,0.035692,0.0089609,0.039283,0.032236,0.0054107,0.035641,0.015755,0.0086451,0.41816,0.28119,4.5982,155.68,13.115,0.16446,0.1445,209.21,129.53,0.80509,0.10283,2.0393,0.61468,0.115
0.025625,0.001,0.0725,0.04125,0.001,0.0725,0.01,0.001,0.01,0.001,0.01,0.01,0.001,0.01,0.01,0.001,0.1,0.1,0.79688,90.219,0.5,0.01,0,50,0,0.01,0,0,0,0.125
0.025625,0.001,0.0725,0.04125,0.001,0.0725,0.01,0.001,0.01,0.001,0.01,0.01,0.001,0.01,0.01,0.001,0.1,0.1,0.79688,90.219,0.5,0.01,0,50,0,0.01,0,0,0,0.125
0.025625,0.001,0.0725,0.04125,0.001,0.0725,0.01,0.001,0.01,0.001,0.01,0.01,0.001,0.01,0.01,0.001,0.1,0.1,0.79688,90.219,0.5,0.01,0,50,0,0.01,0,0,0,0.125
0.025625,0.001,0.0725,0.04125,0.001,0.0725,0.01,0.001,0.01,0.001,0.01,0.01,0.001,0.01,0.01,0.001,0.1,0.1,0.79688,90.219,0.5,0.01,0,50,0,0.01,0,0,0,0.125
0.050392,0.0097374,0.055459,0.022779,0.0093162,0.059915,0.051754,0.0039745,0.087042,0.0084566,0.061572,0.091053,0.0079247,0.078267,0.031277,0.0021532,0.51816,0.23584,0.36045,185.08,35.689,0.15093,3.954,100.57,126.14,0.64242,0.24439,3.5897,0.3396,0.26268
0.025625,0.001,0.0725,0.04125,0.001,0.0725,0.01,0.001,0.01,0.001,0.01,0.01,0.001,0.01,0.01,0.001,0.1,0.1,0.79688,90.219,0.5,0.01,0,50,0,0.01,0,0,0,0.125
0.025625,0.001,0.0725,0.04125,0.001,0.0725,0.01,0.001,0.01,0.001,0.01,0.01,0.001,0.01,0.01,0.001,0.1,0.1,0.79688,90.219,0.5,0.01,0,50,0,0.01,0,0,0,0.125
0.025625,0.001,0.0725,0.04125,0.001,0.0725,0.01,0.001,0.01,0.001,0.01,0.01,0.001,0.01,0.01,0.001,0.1,0.1,0.79688,90.219,0.5,0.01,0,50,0,0.01,0,0,0,0.125
0.025625,0.001,0.0725,0.04125,0.001,0.0725,0.01,0.001,0.01,0.001,0.01,0.01,0.001,0.01,0.01,0.001,0.1,0.1,0.79688,90.219,0.5,0.01,0,50,0,0.01,0,0,0,0.125
0.025625,0.001,0.0725,0.04125,0.001,0.0725,0.01,0.001,0.01,0.001,0.01,0.01,0.001,0.01,0.01,0.001,0.1,0.1,0.79688,90.219,0.5,0.01,0,50,0,0.01,0,0,0,0.125
0.025625,0.001,0.0725,0.04125,0.001,0.0725,0.01,0.001,0.01,0.001,0.01,0.01,0.001,0.01,0.01,0.001,0.1,0.1,0.79688,90.219,0.5,0.01,0,50,0,0.01,0,0,0,0.125
0.034311,0.0091093,0.08125,0.021884,0.0090373,0.071513,0.096193,0.0045559,0.097068,0.0071076,0.045977,0.099083,0.0039962,0.035885,0.061799,0.0045276,0.35746,0.75614,0.25176,240.58,31.295,0.95194,4.8842,207.52,188.19,0.032724,0.09542,4.1465,0.58878,0.11898
0.056744,0.0021002,0.054633,0.077506,0.0036904,0.05268,0.082938,0.0071954,0.068478,0.0024709,0.013201,0.064733,0.0010106,0.028741,0.07236,0.0060391,0.79225,0.35087,0.47091,219.32,125.31,0.44192,0.13775,135.56,28.451,0.92607,0.011469,3.3439,0.029805,0.35992
0.025625,0.001,0.0725,0.04125,0.001,0.0725,0.01,0.001,0.01,0.001,0.01,0.01,0.001,0.01,0.01,0.001,0.1,0.1,0.79688,90.219,0.5,0.01,0,50,0,0.01,0,0,0,0.125
0.025625,0.001,0.0725,0.04125,0.001,0.0725,0.01,0.001,0.01,0.001,0.01,0.01,0.001,0.01,0.01,0.001,0.1,0.1,0.79688,90.219,0.5,0.01,0,50,0,0.01,0,0,0,0.125
0.036637,0.0011376,0.040362,0.076653,0.0033877,0.072913,0.057926,0.0046873,0.018143,0.0053597,0.081578,0.040809,0.0092083,0.029402,0.050291,0.0011964,0.54454,0.47487,4.8237,216.69,4.9004,0.86726,0.68709,239.06,119.31,0.3025,0.95653,2.9588,0.061988,0.11651
0.064821,0.0066775,0.031438,0.039057,0.0086706,0.064782,0.076052,0.0081477,0.053994,0.0094804,0.071092,0.024564,0.0079674,0.052772,0.070946,0.0015721,0.72225,0.86919,0.9874,193.01,13.562,0.63616,1.028,180.32,182.46,0.16588,0.09263,4.6784,0.17423,0.68266
0.097444,0.0067827,0.096575,0.081293,0.0023279,0.01683,0.02932,0.0076627,0.026185,0.0095038,0.054188,0.091877,0.005151,0.061935,0.094269,0.0069454,0.21875,0.69738,0.14663,119.51,9.0342,0.79526,2.6267,223.89,162.3,0.70422,0.4284,1.2543,0.098145,0.41272
0.025625,0.001,0.0725,0.04125,0.001,0.0725,0.01,0.001,0.01,0.001,0.01,0.01,0.001,0.01,0.01,0.001,0.1,0.1,0.79688,90.219,0.5,0.01,0,50,0,0.01,0,0,0,0.125
0.025625,0.001,0.0725,0.04125,0.001,0.0725,0.01,0.001,0.01,0.001,0.01,0.01,0.001,0.01,0.01,0.001,0.1,0.1,0.79688,90.219,0.5,0.01,0,50,0,0.01,0,0,0,0.125
0.059451,0.0080019,0.095425,0.01225,0.008291,0.063568,0.095043,0.0043151,0.096614,0.0093088,0.015469,0.074711,0.0013524,0.057629,0.065392,0.0079396,0.70446,0.67617,0.22541,208.03,231.88,0.94752,3.0177,244,117.63,0.79679,0.28829,0.63066,0.13814,0.57146
0.016913,0.0011604,0.089207,0.049148,0.0074245,0.087025,0.078675,0.0089141,0.031783,0.0082919,0.058392,0.079002,0.0032855,0.085976,0.050034,0.0084674,0.73477,0.57462,0.22131,145.26,140.13,0.15877,4.4665,212.21,7.8767,0.93589,0.36319,0.68215,0.16686,0.406
0.05168,0.0095756,0.039445,0.043073,0.0041883,0.081255,0.046203,0.0072032,0.031559,0.0022458,0.028844,0.062018,0.0039264,0.058481,0.080767,0.0018483,0.66461,0.8656,2.6091,233.79,27.232,0.62354,2.3816,200.03,112.18,0.33786,0.79769,0.77376,0.81256,0.023785
0.025625,0.001,0.0725,0.04125,0.001,0.0725,0.01,0.001,0.01,0.001,0.01,0.01,0.001,0.01,0.01,0.001,0.1,0.1,0.79688,90.219,0.5,0.01,0,50,0,0.01,0,0,0,0.125
0.02151,0.0056663,0.0941,0.088043,0.0060066,0.096737,0.081362,0.0066966,0.074267,0.0051134,0.084183,0.063183,0.008628,0.094432,0.045917,0.0062258,0.837,0.607,0.066318,185.48,116.46,0.78771,4.9908,84.914,166.87,0.12348,0.40857,2.5612,0.28648,0.68475
0.025625,0.001,0.0725,0.04125,0.001,0.0725,0.01,0.001,0.01,0.001,0.01,0.01,0.001,0.01,0.01,0.001,0.1,0.1,0.79688,90.219,0.5,0.01,0,50,0,0.01,0,0,0,0.125
0.022252,0.0069503,0.080486,0.085766,0.0099975,0.088726,0.075861,0.0043603,0.027295,0.0073373,0.055228,0.081159,0.0079011,0.087296,0.087273,0.0093412,0.88123,0.41127,4.9959,243,78.696,0.87215,0.17888,164.64,112.32,0.54283,0.13953,3.971,0.48251,0.0085793
0.025625,0.001,0.0725,0.04125,0.001,0.0725,0.01,0.001,0.01,0.001,0.01,0.01,0.001,0.01,0.01,0.001,0.1,0.1,0.79688,90.219,0.5,0.01,0,50,0,0.01,0,0,0,0.125
0.025625,0.001,0.0725,0.04125,0.001,0.0725,0.01,0.001,0.01,0.001,0.01,0.01,0.001,0.01,0.01,0.001,0.1,0.1,0.79688,90.219,0.5,0.01,0,50,0,0.01,0,0,0,0.125
0.076674,0.0083497,0.079329,0.095703,0.0066024,0.03391,0.056563,0.009838,0.069567,0.0079237,0.023653,0.016558,0.0025891,0.092599,0.023632,0.0035154,0.81105,0.26293,1.5966,115.43,41.47,0.74703,2.6315,182.45,208.61,0.058028,0.6554,3.7502,0.21637,0.73643
0.08193,0.0059894,0.060439,0.019338,0.0093148,0.050339,0.074416,0.0023299,0.028773,0.0042329,0.030446,0.080175,0.0035654,0.021345,0.093388,0.0028516,0.94024,0.73509,4.693,183.35,0.22239,0.48767,3.6317,101.79,69.635,0.70325,0.56563,2.5261,0.38916,0.23471
0.079368,0.0042976,0.077048,0.027477,0.0096801,0.032234,0.038731,0.0077109,0.01552,0.0048123,0.087204,0.066758,0.0014576,0.038063,0.039243,0.0073252,0.37548,0.92478,0.30009,208.92,22.673,0.76394,2.8315,117.59,86.2,0.96687,0.14276,1.0092,0.51223,0.33242
0.025625,0.001,0.0725,0.04125,0.001,0.0725,0.01,0.001,0.01,0.001,0.01,0.01,0.001,0.01,0.01,0.001,0.1,0.1,0.79688,90.219,0.5,0.01,0,50,0,0.01,0,0,0,0.125
0.025625,0.001,0.0725,0.04125,0.001,0.0725,0.01,0.001,0.01,0.001,0.01,0.01,0.001,0.01,0.01,0.001,0.1,0.1,0.79688,90.219,0.5,0.01,0,50,0,0.01,0,0,0,0.125
0.025625,0.001,0.0725,0.04125,0.001,0.0725,0.01,0.001,0.01,0.001,0.01,0.01,0.001,0.01,0.01,0.001,0.1,0.1,0.79688,90.219,0.5,0.01,0,50,0,0.01,0,0,0,0.125
0.086184,0.0046866,0.010202,0.019942,0.0050355,0.039831,0.037929,0.0034955,0.034838,0.0052454,0.094931,0.02323,0.0078397,0.054661,0.024225,0.0041613,0.57784,0.18386,2.3923,58.211,249.09,0.78272,4.9109,247.75,27.46,0.29053,0.10078,2.6344,0.58115,0.0058443
0.025625,0.001,0.0725,0.04125,0.001,0.0725,0.01,0.001,0.01,0.001,0.01,0.01,0.001,0.01,0.01,0.001,0.1,0.1,0.79688,90.219,0.5,0.01,0,50,0,0.01,0,0,0,0.125
0.025625,0.001,0.0725,0.04125,0.001,0.0725,0.01,0.001,0.01,0.001,0.01,0.01,0.001,0.01,0.01,0.001,0.1,0.1,0.79688,90.219,0.5,0.01,0,50,0,0.01,0,0,0,0.125
0.025625,0.001,0.0725,0.04125,0.001,0.0725,0.01,0.001,0.01,0.001,0.01,0.01,0.001,0.01,0.01,0.001,0.1,0.1,0.79688,90.219,0.5,0.01,0,50,0,0.01,0,0,0,0.125
0.095618,0.0089301,0.094947,0.044307,0.0084903,0.095116,0.031236,0.0056635,0.012334,0.0063756,0.068796,0.081055,0.005369,0.058345,0.091253,0.002512,0.30807,0.99712,0.95692,132.85,3.8189,0.64443,4.4943,117.04,176.75,0.88535,0.53003,1.3972,0.21531,0.053016
0.025625,0.001,0.0725,0.04125,0.001,0.0725,0.01,0.001,0.01,0.001,0.01,0.01,0.001,0.01,0.01,0.001,0.1,0.1,0.79688,90.219,0.5,0.01,0,50,0,0.01,0,0,0,0.125
0.025625,0.001,0.0725,0.04125,0.001,0.0725,0.01,0.001,0.01,0.001,0.01,0.01,0.001,0.01,0.01,0.001,0.1,0.1,0.79688,90.219,0.5,0.01,0,50,0,0.01,0,0,0,0.125
0.025625,0.001,0.0725,0.04125,0.001,0.0725,0.01,0.001,0.01,0.001,0.01,0.01,0.001,0.01,0.01,0.001,0.1,0.1,0.79688,90.219,0.5,0.01,0,50,0,0.01,0,0,0,0.125
0.043685,0.0097563,0.055466,0.051146,0.0075431,0.082787,0.036936,0.0011907,0.055891,0.004134,0.044974,0.067607,0.00488,0.039149,0.025932,0.0016708,0.28995,0.10076,2.5228,165.42,231.22,0.48506,0.27325,186.6,0.27131,0.85854,0.074263,2.6276,0.093605,0.52351
0.025625,0.001,0.0725,0.04125,0.001,0.0725,0.01,0.001,0.01,0.001,0.01,0.01,0.001,0.01,0.01,0.001,0.1,0.1,0.79688,90.219,0.5,0.01,0,50,0,0.01,0,0,0,0.125
0.099126,0.007062,0.048203,0.099131,0.0054854,0.068302,0.048956,0.0030056,0.058623,0.0085954,0.018124,0.099576,0.0082347,0.095065,0.085394,0.0088901,0.34161,0.8091,0.57024,221.01,7.4569,0.83189,3.5984,114.77,185.16,0.83009,0.95939,1.3903,0.40048,0.031609
0.025625,0.001,0.0725,0.04125,0.001,0.0725,0.01,0.001,0.01,0.001,0.01,0.01,0.001,0.01,0.01,0.001,0.1,0.1,0.79688,90.219,0.5,0.01,0,50,0,0.01,0,0,0,0.125
0.025625,0.001,0.0725,0.04125,0.001,0.0725,0.01,0.001,0.01,0.001,0.01,0.01,0.001,0.01,0.01,0.001,0.1,0.1,0.79688,90.219,0.5,0.01,0,50,0,0.01,0,0,0,0.125
0.013858,0.0022695,0.051022,0.016493,0.009341,0.012986,0.06717,0.007434,0.03026,0.0043498,0.075441,0.087512,0.0012728,0.014653,0.041163,0.0049872,0.53867,0.65024,0.72964,245.91,4.9026,0.33699,1.5261,245.84,24.567,0.5282,0.47535,2.3505,0.13647,0.05532
0.025625,0.001,0.0725,0.04125,0.001,0.0725,0.01,0.001,0.01,0.001,0.01,0.01,0.001,0.01,0.01,0.001,0.1,0.1,0.79688,90.219,0.5,0.01,0,50,0,0.01,0,0,0,0.125
0.025625,0.001,0.0725,0.04125,0.001,0.0725,0.01,0.001,0.01,0.001,0.01,0.01,0.001,0.01,0.01,0.001,0.1,0.1,0.79688,90.219,0.5,0.01,0,50,0,0.01,0,0,0,0.125
0.025625,0.001,0.0725,0.04125,0.001,0.0725,0.01,0.001,0.01,0.001,0.01,0.01,0.001,0.01,0.01,0.001,0.1,0.1,0.79688,90.219,0.5,0.01,0,50,0,0.01,0,0,0,0.125
0.025625,0.001,0.0725,0.04125,0.001,0.0725,0.01,0.001,0.01,0.001,0.01,0.01,0.001,0.01,0.01,0.001,0.1,0.1,0.79688,90.219,0.5,0.01,0,50,0,0.01,0,0,0,0.125
0.035796,0.0037786,0.031623,0.095748,0.0055647,0.050453,0.012,0.004642,0.017935,0.0055447,0.010991,0.098944,0.0092257,0.074712,0.097267,0.0093599,0.16158,0.99911,0.98606,194.47,8.7682,0.37615,2.411,205.06,106.7,0.93997,0.36874,4.1518,0.1227,0.19314
0.025625,0.001,0.0725,0.04125,0.001,0.0725,0.01,0.001,0.01,0.001,0.01,0.01,0.001,0.01,0.01,0.001,0.1,0.1,0.79688,90.219,0.5,0.01,0,50,0,0.01,0,0,0,0.125
0.025625,0.001,0.0725,0.04125,0.001,0.0725,0.01,0.001,0.01,0.001,0.01,0.01,0.001,0.01,0.01,0.001,0.1,0.1,0.79688,90.219,0.5,0.01,0,50,0,0.01,0,0,0,0.125
0.025625,0.001,0.0725,0.04125,0.001,0.0725,0.01,0.001,0.01,0.001,0.01,0.01,0.001,0.01,0.01,0.001,0.1,0.1,0.79688,90.219,0.5,0.01,0,50,0,0.01,0,0,0,0.125
0.025625,0.001,0.0725,0.04125,0.001,0.0725,0.01,0.001,0.01,0.001,0.01,0.01,0.001,0.01,0.01,0.001,0.1,0.1,0.79688,90.219,0.5,0.01,0,50,0,0.01,0,0,0,0.125
0.025625,0.001,0.0725,0.04125,0.001,0.0725,0.01,0.001,0.01,0.001,0.01,0.01,0.001,0.01,0.01,0.001,0.1,0.1,0.79688,90.219,0.5,0.01,0,50,0,0.01,0,0,0,0.125
0.025625,0.001,0.0725,0.04125,0.001,0.0725,0.01,0.001,0.01,0.001,0.01,0.01,0.001,0.01,0.01,0.001,0.1,0.1,0.79688,90.219,0.5,0.01,0,50,0,0.01,0,0,0,0.125
0.025625,0.001,0.0725,0.04125,0.001,0.0725,0.01,0.001,0.01,0.001,0.01,0.01,0.001,0.01,0.01,0.001,0.1,0.1,0.79688,90.219,0.5,0.01,0,50,0,0.01,0,0,0,0.125
0.031742,0.005052,0.099433,0.085203,0.0083132,0.080924,0.090162,0.003719,0.074687,0.0060439,0.032936,0.074143,0.0031323,0.07576,0.074038,0.0026761,0.20935,0.93272,0.081385,248.93,53.752,0.6724,2.6005,179.19,123.12,0.010256,0.20551,2.3147,0.16974,0.48652
0.02529,0.0087828,0.064811,0.083645,0.0089671,0.095022,0.03719,0.0079812,0.047243,0.001514,0.068758,0.06597,0.0010625,0.028586,0.018895,0.0069577,0.104,0.53542,0.34204,248.4,38.888,0.32859,0.2537,188.2,6.9154,0.69657,0.099785,0.45532,0.080313,0.52603
0.019499,0.0014781,0.015072,0.031638,0.0081809,0.080882,0.015226,0.0097051,0.088867,0.0029379,0.029276,0.014886,0.0089925,0.083815,0.073413,0.006101,0.93361,0.68816,0.34138,248.94,110.55,0.51511,4.6558,140.77,36.734,0.086473,0.70976,1.6817,0.58823,0.033484
0.082062,0.0056307,0.014894,0.09352,0.0091366,0.081296,0.090247,0.0022463,0.029637,0.0071892,0.094761,0.096805,0.008498,0.085131,0.080807,0.0026294,0.91824,0.68467,4.3259,187.6,3.7429,0.89854,1.7831,205.79,56.181,0.99319,0.66123,1.0564,0.20087,0.42447
0.097791,0.0092792,0.079216,0.065717,0.004403,0.035719,0.084597,0.0073745,0.086973,0.0079975,0.073763,0.074563,0.005579,0.073747,0.047506,0.0056555,0.38837,0.66067,0.39437,115.59,3.1901,0.66903,1.848,138.13,36.995,0.11008,0.28342,2.26,0.65963,0.16528
0.031363,0.0095098,0.086497,0.073251,0.0082233,0.019189,0.016974,0.0092956,0.045368,0.0065882,0.046623,0.033063,0.0037343,0.039122,0.093482,0.0071971,0.99303,0.27447,4.8063,125.16,7.6544,0.017322,0.024169,163.28,248,0.45774,0.64281,4.7666,0.046672,0.34556
0.025625,0.001,0.0725,0.04125,0.001,0.0725,0.01,0.001,0.01,0.001,0.01,0.01,0.001,0.01,0.01,0.001,0.1,0.1,0.79688,90.219,0.5,0.01,0,50,0,0.01,0,0,0,0.125
0.031203,0.0018241,0.017,0.053407,0.0096185,0.08034,0.050707,0.0071235,0.051172,0.0072314,0.037529,0.025812,0.0050518,0.036483,0.063425,0.0092868,0.99733,0.41144,2.4393,145.03,11.893,0.014082,1.1137,99.986,240.6,0.37867,0.77973,1.9954,0.24609,0.081894
0.025625,0.001,0.0725,0.04125,0.001,0.0725,0.01,0.001,0.01,0.001,0.01,0.01,0.001,0.01,0.01,0.001,0.1,0.1,0.79688,90.219,0.5,0.01,0,50,0,0.01,0,0,0,0.125
0.025625,0.001,0.0725,0.04125,0.001,0.0725,0.01,0.001,0.01,0.001,0.01,0.01,0.001,0.01,0.01,0.001,0.1,0.1,0.79688,90.219,0.5,0.01,0,50,0,0.01,0,0,0,0.125
0.025625,0.001,0.0725,0.04125,0.001,0.0725,0.01,0.001,0.01,0.001,0.01,0.01,0.001,0.01,0.01,0.001,0.1,0.1,0.79688,90.219,0.5,0.01,0,50,0,0.01,0,0,0,0.125
0.014068,0.0065532,0.07382,0.025212,0.0099021,0.07573,0.071877,0.0028081,0.086868,0.0081296,0.071875,0.087383,0.0076125,0.066766,0.07791,0.005211,0.44078,0.69879,0.097652,243.97,226.67,0.78855,4.4537,192.89,12.588,0.50338,0.33528,4.1895,0.59352,0.024534
0.054572,0.0010053,0.014679,0.05862,0.0092325,0.090335,0.078099,0.0014041,0.064781,0.0032551,0.042165,0.07358,0.0034266,0.06037,0.084045,0.0060213,0.12202,0.38723,0.56885,195.63,45.833,0.71619,4.879,225.11,221.1,0.19877,0.84581,2.0751,0.19459,0.57304
0.010645,0.0079583,0.089136,0.099907,0.0085892,0.081253,0.038413,0.0053885,0.090964,0.0060948,0.071503,0.07509,0.0053352,0.050315,0.095866,0.003798,0.14173,0.63201,4.487,221.65,216.62,0.81607,4.4856,179.22,67.537,0.043122,0.11996,3.725,0.13598,0.31214
0.025625,0.001,0.0725,0.04125,0.001,0.0725,0.01,0.001,0.01,0.001,0.01,0.01,0.001,0.01,0.01,0.001,0.1,0.1,0.79688,90.219,0.5,0.01,0,50,0,0.01,0,0,0,0.125
0.064969,0.0081337,0.01216,0.097249,0.0080579,0.062228,0.073978,0.0046923,0.069388,0.0055285,0.086809,0.083631,0.0046003,0.08409,0.098605,0.0030694,0.80815,0.67489,2.3567,236.64,107.95,0.75806,0.36829,68.359,45.459,0.402,0.70913,0.60456,0.19828,0.54944
0.025625,0.001,0.0725,0.04125,0.001,0.0725,0.01,0.001,0.01,0.001,0.01,0.01,0.001,0.01,0.01,0.001,0.1,0.1,0.79688,90.219,0.5,0.01,0,50,0,0.01,0,0,0,0.125
0.025625,0.001,0.0725,0.04125,0.001,0.0725,0.01,0.001,0.01,0.001,0.01,0.01,0.001,0.01,0.01,0.001,0.1,0.1,0.79688,90.219,0.5,0.01,0,50,0,0.01,0,0,0,0.125
0.061306,0.0061879,0.088668,0.068682,0.0010577,0.012349,0.043241,0.0042818,0.051641,0.0038349,0.05361,0.033048,0.0096714,0.059612,0.054682,0.0027612,0.44012,0.34254,4.7894,209.42,207.46,0.99357,0.47278,67.902,148.29,0.33784,0.67226,1.8145,0.041745,0.83396
0.025625,0.001,0.0725,0.04125,0.001,0.0725,0.01,0.001,0.01,0.001,0.01,0.01,0.001,0.01,0.01,0.001,0.1,0.1,0.79688,90.219,0.5,0.01,0,50,0,0.01,0,0,0,0.125
0.064693,0.0063224,0.029414,0.044864,0.0025903,0.018308,0.058141,0.0095026,0.079145,0.0031547,0.046414,0.028909,0.0022853,0.08074,0.077867,0.0099021,0.15498,0.85116,1.4246,204.15,78.264,0.82496,4.7544,108.87,186.8,0.93779,0.75624,4.6669,0.25922,0.005419
0.052977,0.009844,0.054371,0.051466,0.0017096,0.081118,0.012272,0.0020846,0.034439,0.0029385,0.016999,0.040972,0.0066782,0.070561,0.011632,0.0017073,0.65767,0.48595,1.3547,238.08,40.14,0.30919,3.6595,170.54,162.16,0.34721,0.7443,3.7705,0.26209,0.067693
0.025625,0.001,0.0725,0.04125,0.001,0.0725,0.01,0.001,0.01,0.001,0.01,0.01,0.001,0.01,0.01,0.001,0.1,0.1,0.79688,90.219,0.5,0.01,0,50,0,0.01,0,0,0,0.125
0.025625,0.001,0.0725,0.04125,0.001,0.0725,0.01,0.001,0.01,0.001,0.01,0.01,0.001,0.01,0.01,0.001,0.1,0.1,0.79688,90.219,0.5,0.01,0,50,0,0.01,0,0,0,0.125
0.025625,0.001,0.0725,0.04125,0.001,0.0725,0.01,0.001,0.01,0.001,0.01,0.01,0.001,0.01,0.01,0.001,0.1,0.1,0.79688,90.219,0.5,0.01,0,50,0,0.01,0,0,0,0.125
0.09451,0.0078577,0.032678,0.040865,0.005346,0.060051,0.024892,0.0074865,0.029497,0.0062517,0.093904,0.069798,0.0095126,0.080035,0.070089,0.0072947,0.50205,0.40256,1.5798,197.52,0.027424,0.75513,4.4723,223.27,3.8272,0.50143,0.13831,0.26415,0.36444,0.14189
0.027923,0.0016098,0.018258,0.088725,0.0069225,0.098409,0.039494,0.0064673,0.098963,0.0058766,0.041283,0.085582,0.0010111,0.042126,0.01201,0.0032966,0.41099,0.92827,1.4983,199.69,85.597,0.92029,3.2173,93.515,147.13,0.92421,0.1712,3.8951,0.67199,0.29822
0.05952,0.0016637,0.073396,0.068933,0.0050253,0.041821,0.073531,0.0099688,0.018804,0.0097292,0.090998,0.026857,0.0089389,0.085883,0.019903,0.0054668,0.10006,0.55369,1.7207,74.898,237.4,0.58752,4.6374,240.22,39.643,0.26998,0.044164,4.0362,0.42069,0.06064
0.062587,0.0010011,0.022987,0.052134,0.006712,0.088814,0.01525,0.0058477,0.085938,0.0049471,0.032343,0.099798,0.0045174,0.068247,0.073347,0.0049899,0.79484,0.26405,4.5321,151.86,16.241,0.5072,4.5112,56.338,143.7,0.48221,0.33028,2.8865,0.099444,0.69765
0.092763,0.0089918,0.021112,0.049323,0.0059776,0.017688,0.062481,0.0068258,0.010216,0.0094979,0.052379,0.096965,0.0067709,0.038086,0.095961,0.0081096,0.33729,0.67876,1.0495,236.75,6.6937,0.12498,2.9062,118.34,176.89,0.30932,0.60784,0.59106,0.69985,0.027622
0.012724,0.0062071,0.081718,0.059388,0.0096034,0.05243,0.074413,0.0092694,0.037714,0.0029435,0.067142,0.033443,0.008109,0.061436,0.032482,0.0090287,0.60702,0.69766,0.8996,190.54,70.303,0.83415,2.8637,210.83,106.85,0.13586,0.85079,3.7104,0.17139,0.1943
0.0633,0.0078575,0.064423,0.065569,0.0034289,0.024097,0.044659,0.0075788,0.067427,0.0016132,0.088404,0.050346,0.0050849,0.081032,0.031638,0.0096901,0.38148,0.73489,0.071829,233.91,7.2685,0.85136,3.5174,232.79,121.21,0.062175,0.84568,3.6876,0.0086567,0.070571
0.075747,0.0063887,0.073184,0.044404,0.0066345,0.093637,0.063412,0.0063147,0.05245,0.0044132,0.099212,0.05017,0.0098541,0.012833,0.049154,0.0027793,0.93004,0.53877,1.9418,164.48,246.5,0.39839,0.049841,148.22,166.46,0.038467,0.027489,2.8499,0.17162,0.14153
0.025625,0.001,0.0725,0.04125,0.001,0.0725,0.01,0.001,0.01,0.001,0.01,0.01,0.001,0.01,0.01,0.001,0.1,0.1,0.79688,90.219,0.5,0.01,0,50,0,0.01,0,0,0,0.125
0.092585,0.0099303,0.048868,0.078849,0.0021641,0.053385,0.073823,0.0038846,0.091269,0.0078938,0.095057,0.040104,0.0091827,0.021427,0.067065,0.009132,0.88627,0.24505,0.35668,95.072,13.891,0.54333,4.8577,139.66,223.01,0.033498,0.45237,4.4288,0.19493,0.53332
0.068278,0.0027279,0.094674,0.081964,0.0082539,0.012406,0.078376,0.0058035,0.049291,0.0042869,0.075711,0.077064,0.0028637,0.043469,0.074684,0.0098014,0.22727,0.57621,3.5667,246.88,32.994,0.73351,2.7954,159.15,68.972,0.40882,0.58103,0.29839,0.73711,0.10572
0.025625,0.001,0.0725,0.04125,0.001,0.0725,0.01,0.001,0.01,0.001,0.01,0.01,0.001,0.01,0.01,0.001,0.1,0.1,0.79688,90.219,0.5,0.01,0,50,0,0.01,0,0,0,0.125
0.063131,0.0027935,0.026955,0.050312,0.0097348,0.09959,0.071514,0.0037752,0.064624,0.0023442,0.066492,0.025392,0.001912,0.069263,0.073915,0.0010671,0.28624,0.48625,2.6178,190.59,52.365,0.87177,3.9161,55.119,119.36,0.38437,0.26449,4.9374,0.47908,0.20939
0.03671,0.0030665,0.077322,0.067389,0.004185,0.024599,0.030055,0.0065997,0.074148,0.0080945,0.045516,0.073683,0.0017245,0.074236,0.014624,0.0013185,0.57063,0.71698,1.1965,242.64,39.969,0.89411,0.12679,52.901,164.45,0.96709,0.53254,2.2968,0.74851,0.091536
0.025625,0.001,0.0725,0.04125,0.001,0.0725,0.01,0.001,0.01,0.001,0.01,0.01,0.001,0.01,0.01,0.001,0.1,0.1,0.79688,90.219,0.5,0.01,0,50,0,0.01,0,0,0,0.125
0.01651,0.0057223,0.067837,0.068632,0.0071956,0.024426,0.04553,0.0027484,0.080327,0.0096609,0.070773,0.095794,0.0094972,0.068518,0.061127,0.0028204,0.41077,0.56597,0.13474,153.91,27.328,0.91597,1.596,227.83,71.538,0.99441,0.77928,2.4693,0.12215,0.627
0.053824,0.0021777,0.077549,0.077217,0.0025603,0.016096,0.052919,0.0012736,0.079196,0.0065808,0.077027,0.029562,0.0060881,0.074053,0.02786,0.0056951,0.91646,0.48916,3.3936,50.64,55.701,0.64599,2.0733,249.64,3.4924,0.81136,0.39827,2.4812,0.082545,0.39874
0.025625,0.001,0.0725,0.04125,0.001,0.0725,0.01,0.001,0.01,0.001,0.01,0.01,0.001,0.01,0.01,0.001,0.1,0.1,0.79688,90.219,0.5,0.01,0,50,0,0.01,0,0,0,0.125
0.025625,0.001,0.0725,0.04125,0.001,0.0725,0.01,0.001,0.01,0.001,0.01,0.01,0.001,0.01,0.01,0.001,0.1,0.1,0.79688,90.219,0.5,0.01,0,50,0,0.01,0,0,0,0.125
0.025625,0.001,0.0725,0.04125,0.001,0.0725,0.01,0.001,0.01,0.001,0.01,0.01,0.001,0.01,0.01,0.001,0.1,0.1,0.79688,90.219,0.5,0.01,0,50,0,0.01,0,0,0,0.125
0.025625,0.001,0.0725,0.04125,0.001,0.0725,0.01,0.001,0.01,0.001,0.01,0.01,0.001,0.01,0.01,0.001,0.1,0.1,0.79688,90.219,0.5,0.01,0,50,0,0.01,0,0,0,0.125
0.065248,0.0065443,0.038921,0.051202,0.0090169,0.090976,0.06431,0.0065481,0.064256,0.0076273,0.070983,0.078309,0.0059274,0.087675,0.062263,0.0018274,0.67622,0.55205,0.6381,193.45,215.52,0.99584,4.7926,225.82,220.14,0.89968,0.50169,0.40643,0.48292,0.30177
0.025625,0.001,0.0725,0.04125,0.001,0.0725,0.01,0.001,0.01,0.001,0.01,0.01,0.001,0.01,0.01,0.001,0.1,0.1,0.79688,90.219,0.5,0.01,0,50,0,0.01,0,0,0,0.125
0.025625,0.001,0.0725,0.04125,0.001,0.0725,0.01,0.001,0.01,0.001,0.01,0.01,0.001,0.01,0.01,0.001,0.1,0.1,0.79688,90.219,0.5,0.01,0,50,0,0.01,0,0,0,0.125
0.071527,0.0027152,0.098993,0.04717,0.0061564,0.070538,0.028423,0.0065473,0.079879,0.001368,0.053508,0.069903,0.0012901,0.08111,0.020026,0.0057787,0.65588,0.22872,2.1617,221.88,15.421,0.41894,3.4606,76.715,46.859,0.97087,0.63431,3.825,0.48754,0.4802
0.025625,0.001,0.0725,0.04125,0.001,0.0725,0.01,0.001,0.01,0.001,0.01,0.01,0.001,0.01,0.01,0.001,0.1,0.1,0.79688,90.219,0.5,0.01,0,50,0,0.01,0,0,0,0.125
0.025625,0.001,0.0725,0.04125,0.001,0.0725,0.01,0.001,0.01,0.001,0.01,0.01,0.001,0.01,0.01,0.001,0.1,0.1,0.79688,90.219,0.5,0.01,0,50,0,0.01,0,0,0,0.125
0.066552,0.0016205,0.09126,0.060906,0.0011549,0.053834,0.038356,0.0028852,0.021433,0.0095856,0.027156,0.028212,0.0077755,0.097306,0.095748,0.0064144,0.96595,0.30297,2.0569,181.32,41.283,0.79563,0.098321,198.78,135.82,0.85824,0.5551,0.83655,0.30134,0.40661
0.025625,0.001,0.0725,0.04125,0.001,0.0725,0.01,0.001,0.01,0.001,0.01,0.01,0.001,0.01,0.01,0.001,0.1,0.1,0.79688,90.219,0.5,0.01,0,50,0,0.01,0,0,0,0.125
0.025625,0.001,0.0725,0.04125,0.001,0.0725,0.01,0.001,0.01,0.001,0.01,0.01,0.001,0.01,0.01,0.001,0.1,0.1,0.79688,90.219,0.5,0.01,0,50,0,0.01,0,0,0,0.125
0.025625,0.001,0.0725,0.04125,0.001,0.0725,0.01,0.001,0.01,0.001,0.01,0.01,0.001,0.01,0.01,0.001,0.1,0.1,0.79688,90.219,0.5,0.01,0,50,0,0.01,0,0,0,0.125
0.042542,0.0090977,0.036549,0.026083,0.0066863,0.067736,0.018503,0.0040173,0.033987,0.0095653,0.074232,0.051364,0.0012236,0.087277,0.072931,0.0046028,0.31346,0.38758,0.62096,186.99,172.51,0.68264,3.4036,118.34,4.6044,0.16795,0.72343,0.074114,0.37008,0.17663
0.020435,0.0017864,0.076777,0.035132,0.0077391,0.048551,0.054884,0.0056982,0.086542,0.0095755,0.052318,0.075675,0.0032836,0.034274,0.084194,0.0088692,0.74277,0.72979,0.14326,212.72,85.224,0.71562,0.35908,64.457,175.89,0.34345,0.25804,2.528,0.51465,0.37393
0.016446,0.0064094,0.064537,0.074884,0.0062913,0.096961,0.036321,0.0013579,0.026418,0.0069923,0.062059,0.081784,0.0065954,0.028171,0.026957,0.0020695,0.9988,0.47813,0.11105,206.76,10.202,0.34966,4.9976,225.21,219.85,0.71796,0.66353,4.7666,0.53532,0.054626
0.025625,0.001,0.0725,0.04125,0.001,0.0725,0.01,0.001,0.01,0.001,0.01,0.01,0.001,0.01,0.01,0.001,0.1,0.1,0.79688,90.219,0.5,0.01,0,50,0,0.01,0,0,0,0.125
0.059483,0.0099482,0.059842,0.058827,0.0055572,0.096725,0.013336,0.0091521,0.051864,0.0036373,0.057967,0.03322,0.0074075,0.077912,0.046304,0.00801,0.50878,0.59699,2.5329,184.72,4.9333,0.14225,3.1458,127.98,223.82,0.30565,0.13724,3.063,0.11264,0.71876
0.034156,0.0065973,0.085238,0.058671,0.0026063,0.077566,0.018575,0.0064909,0.070979,0.0029764,0.089576,0.07943,0.0010402,0.056557,0.074067,0.0041618,0.12922,0.39433,4.7736,190.39,171.66,0.95716,1.8718,71.25,245.01,0.33899,0.3901,3.4453,0.62597,0.29056
0.025625,0.001,0.0725,0.04125,0.001,0.0725,0.01,0.001,0.01,0.001,0.01,0.01,0.001,0.01,0.01,0.001,0.1,0.1,0.79688,90.219,0.5,0.01,0,50,0,0.01,0,0,0,0.125
0.060543,0.0038216,0.096853,0.082524,0.0047645,0.089777,0.070736,0.007474,0.080781,0.0098389,0.014837,0.090905,0.0069536,0.016079,0.089323,0.0073119,0.15243,0.74629,3.3524,183.51,7.3742,0.49325,4.7732,222.68,192.25,0.49235,0.29406,1.4702,0.18294,0.21867
0.033159,0.0057759,0.079871,0.045436,0.0094835,0.064513,0.031697,0.00689,0.053392,0.0015393,0.083848,0.013395,0.0014834,0.082243,0.052268,0.0065659,0.8304,0.97839,4.6307,88.648,88.139,0.97176,4.1213,247.61,143.85,0.022931,0.34491,2.7592,0.62403,0.29899
0.025625,0.001,0.0725,0.04125,0.001,0.0725,0.01,0.001,0.01,0.001,0.01,0.01,0.001,0.01,0.01,0.001,0.1,0.1,0.79688,90.219,0.5,0.01,0,50,0,0.01,0,0,0,0.125
0.025625,0.001,0.0725,0.04125,0.001,0.0725,0.01,0.001,0.01,0.001,0.01,0.01,0.001,0.01,0.01,0.001,0.1,0.1,0.79688,90.219,0.5,0.01,0,50,0,0.01,0,0,0,0.125
0.025625,0.001,0.0725,0.04125,0.001,0.0725,0.01,0.001,0.01,0.001,0.01,0.01,0.001,0.01,0.01,0.001,0.1,0.1,0.79688,90.219,0.5,0.01,0,50,0,0.01,0,0,0,0.125
0.024723,0.0079234,0.097245,0.059697,0.0078595,0.043142,0.074652,0.0063202,0.094018,0.0053072,0.046458,0.037995,0.0043141,0.039388,0.097641,0.0095543,0.68031,0.30692,1.2041,179.63,16.872,0.075995,3.7398,196,16.147,0.60471,0.532,2.2572,0.53701,0.12096
0.056853,0.0034237,0.071469,0.068387,0.0084662,0.074426,0.098749,0.0043992,0.016187,0.001159,0.085234,0.021616,0.0042679,0.029163,0.024177,0.0025011,0.73122,0.79084,2.5897,155.58,13.725,0.297,1.1193,147.43,228.81,0.076485,0.63932,4.2223,0.22948,0.58722
0.025625,0.001,0.0725,0.04125,0.001,0.0725,0.01,0.001,0.01,0.001,0.01,0.01,0.001,0.01,0.01,0.001,0.1,0.1,0.79688,90.219,0.5,0.01,0,50,0,0.01,0,0,0,0.125
0.025625,0.001,0.0725,0.04125,0.001,0.0725,0.01,0.001,0.01,0.001,0.01,0.01,0.001,0.01,0.01,0.001,0.1,0.1,0.79688,90.219,0.5,0.01,0,50,0,0.01,0,0,0,0.125
0.025625,0.001,0.0725,0.04125,0.001,0.0725,0.01,0.001,0.01,0.001,0.01,0.01,0.001,0.01,0.01,0.001,0.1,0.1,0.79688,90.219,0.5,0.01,0,50,0,0.01,0,0,0,0.125
0.036155,0.0084501,0.016409,0.036165,0.0035884,0.091684,0.051677,0.0071518,0.087453,0.0012946,0.05686,0.086553,0.0091627,0.060784,0.031945,0.0086053,0.1542,0.22928,4.84,160.84,55.274,0.99638,0.59194,240.68,149.69,0.018192,0.2453,3.4653,0.1269,0.34115
0.025625,0.001,0.0725,0.04125,0.001,0.0725,0.01,0.001,0.01,0.001,0.01,0.01,0.001,0.01,0.01,0.001,0.1,0.1,0.79688,90.219,0.5,0.01,0,50,0,0.01,0,0,0,0.125
0.025625,0.001,0.0725,0.04125,0.001,0.0725,0.01,0.001,0.01,0.001,0.01,0.01,0.001,0.01,0.01,0.001,0.1,0.1,0.79688,90.219,0.5,0.01,0,50,0,0.01,0,0,0,0.125
0.025625,0.001,0.0725,0.04125,0.001,0.0725,0.01,0.001,0.01,0.001,0.01,0.01,0.001,0.01,0.01,0.001,0.1,0.1,0.79688,90.219,0.5,0.01,0,50,0,0.01,0,0,0,0.125
0.03647,0.0081778,0.079697,0.060614,0.0011675,0.092528,0.054458,0.0039032,0.03615,0.0018724,0.038604,0.092478,0.0025433,0.031445,0.017379,0.0068401,0.51879,0.63279,0.53747,192.12,138.04,0.84581,2.8876,218.15,81.482,0.98266,0.45648,0.43477,0.65181,0.18582
0.022434,0.0039257,0.028774,0.072404,0.0044559,0.092675,0.085544,0.0028793,0.055095,0.0040474,0.081932,0.052969,0.0042915,0.05996,0.010073,0.0052178,0.88687,0.656,0.15219,241.85,61.019,0.77176,2.8757,218.49,24.559,0.14556,0.41803,0.080412,0.40567,0.079128
0.025625,0.001,0.0725,0.04125,0.001,0.0725,0.01,0.001,0.01,0.001,0.01,0.01,0.001,0.01,0.01,0.001,0.1,0.1,0.79688,90.219,0.5,0.01,0,50,0,0.01,0,0,0,0.125
0.078301,0.0088874,0.094695,0.027782,0.0054646,0.01242,0.034254,0.0016328,0.0462,0.0099933,0.095426,0.063833,0.005508,0.070078,0.034924,0.008847,0.23872,0.19796,2.2967,68.023,249.05,0.29344,4.2317,226.05,200.49,0.17438,0.025755,3.7744,0.57471,0.344
0.06796,0.0062916,0.014398,0.080245,0.0023644,0.057227,0.073535,0.0070734,0.01755,0.0012198,0.084178,0.098615,0.0073848,0.092068,0.048352,0.0067697,0.42631,0.93795,4.5268,197.81,38.574,0.95253,4.697,57.294,114.79,0.47501,0.80323,2.4023,0.79722,0.012801
0.058525,0.0032334,0.087263,0.066304,0.0045623,0.015821,0.079419,0.0093892,0.043587,0.0019908,0.070554,0.073272,0.0010878,0.017135,0.074272,0.0029218,0.3356,0.29369,0.084924,118.94,5.5929,0.41737,3.0372,53.221,154.61,0.62536,0.15827,3.948,0.22046,0.37809
0.025625,0.001,0.0725,0.04125,0.001,0.0725,0.01,0.001,0.01,0.001,0.01,0.01,0.001,0.01,0.01,0.001,0.1,0.1,0.79688,90.219,0.5,0.01,0,50,0,0.01,0,0,0,0.125
0.065723,0.0087034,0.09676,0.097103,0.0049664,0.057145,0.053314,0.0062456,0.04608,0.0097511,0.055242,0.076385,0.0073861,0.053082,0.095177,0.0023039,0.4877,0.93356,4.5455,216.6,0.046701,0.88574,2.8615,53.827,28.351,0.44982,0.38862,3.2889,0.32474,0.1135
0.025625,0.001,0.0725,0.04125,0.001,0.0725,0.01,0.001,0.01,0.001,0.01,0.01,0.001,0.01,0.01,0.001,0.1,0.1,0.79688,90.219,0.5,0.01,0,50,0,0.01,0,0,0,0.125
0.082618,0.0049931,0.01698,0.013538,0.0038601,0.0484,0.07077,0.0083165,0.034959,0.0088145,0.054093,0.044912,0.0095419,0.075464,0.010404,0.0051575,0.70714,0.5503,2.9847,248.12,3.3797,0.09366,4.2467,67.228,18.047,0.62077,0.12891,4.9728,0.0094978,0.079897
0.025625,0.001,0.0725,0.04125,0.001,0.0725,0.01,0.001,0.01,0.001,0.01,0.01,0.001,0.01,0.01,0.001,0.1,0.1,0.79688,90.219,0.5,0.01,0,50,0,0.01,0,0,0,0.125
0.025625,0.001,0.0725,0.04125,0.001,0.0725,0.01,0.001,0.01,0.001,0.01,0.01,0.001,0.01,0.01,0.001,0.1,0.1,0.79688,90.219,0.5,0.01,0,50,0,0.01,0,0,0,0.125
0.025625,0.001,0.0725,0.04125,0.001,0.0725,0.01,0.001,0.01,0.001,0.01,0.01,0.001,0.01,0.01,0.001,0.1,0.1,0.79688,90.219,0.5,0.01,0,50,0,0.01,0,0,0,0.125
0.025613,0.0021313,0.053431,0.057779,0.0073358,0.063028,0.090247,0.0056435,0.024776,0.0041922,0.0946,0.055816,0.0082307,0.099559,0.097983,0.0015953,0.4365,0.41658,1.235,218.67,0.75352,0.43233,1.1579,167.29,235,0.18341,0.46769,3.4241,0.5412,0.10121
0.054443,0.0096197,0.03974,0.019972,0.005746,0.071967,0.079701,0.0043943,0.093891,0.0020343,0.045936,0.051711,0.0095614,0.090192,0.023082,0.0043117,0.39762,0.17514,2.0559,209.9,3.1372,0.79715,4.075,217.69,121,0.58699,0.41419,3.7312,0.061715,0.35733
0.025625,0.001,0.0725,0.04125,0.001,0.0725,0.01,0.001,0.01,0.001,0.01,0.01,0.001,0.01,0.01,0.001,0.1,0.1,0.79688,90.219,0.5,0.01,0,50,0,0.01,0,0,0,0.125
0.059507,0.0018058,0.098648,0.038908,0.005564,0.042073,0.099569,0.0039228,0.043968,0.0024763,0.023907,0.094648,0.0025403,0.029453,0.012857,0.0027582,0.99815,0.40433,3.1211,232.44,14.791,0.44185,1.9846,58.914,175.11,0.98123,0.80643,3.2495,0.2011,0.11835
0.038854,0.0069471,0.05392,0.094121,0.0080016,0.051349,0.042873,0.0068209,0.076725,0.0094892,0.099554,0.063971,0.0032202,0.059437,0.03543,0.0052957,0.89846,0.83206,0.37275,249.43,198.2,0.31457,3.1084,244.24,235.93,0.65568,0.51733,4.8117,0.27738,0.30228
0.040337,0.0092339,0.022946,0.087591,0.0019817,0.087946,0.061501,0.0066297,0.021476,0.0068351,0.079413,0.027301,0.0096347,0.039195,0.061545,0.0050122,0.57846,0.77513,0.234,185.28,28.969,0.088764,0.28389,249.1,49.865,0.90717,0.80517,0.38077,0.082746,0.086464
0.052857,0.0068841,0.035614,0.089195,0.0010277,0.050824,0.098469,0.0085184,0.039514,0.0028536,0.045552,0.09629,0.0010859,0.085751,0.069316,0.0062745,0.68648,0.36873,1.9527,223.89,57.404,0.8848,0.8577,79.008,42.443,0.70279,0.26677,1.4135,0.18184,0.71517
0.013387,0.0095807,0.084199,0.042793,0.0027628,0.029916,0.015319,0.0068321,0.08297,0.002938,0.021124,0.093064,0.0072169,0.025992,0.094023,0.0053967,0.59788,0.67165,4.6074,192.74,2.9335,0.17275,1.5822,192.71,13.659,0.66141,0.21895,3.5673,0.14671,0.70754
0.048999,0.0049615,0.087209,0.067312,0.0068359,0.081312,0.031024,0.0028158,0.080269,0.0028537,0.02764,0.073125,0.0011027,0.01879,0.088683,0.0085684,0.40863,0.61563,0.43677,214.19,4.1132,0.44442,2.0169,224.54,243.01,0.63326,0.85106,1.3134,0.41383,0.067916
0.011152,0.0028735,0.09795,0.077835,0.0049596,0.019038,0.056029,0.0013603,0.085327,0.0083929,0.071028,0.040134,0.0067634,0.097711,0.081242,0.0071791,0.60628,0.68593,0.13276,173.38,46.194,0.58976,2.9236,248.44,225.43,0.94812,0.90565,4.1088,0.36227,0.25191
0.039153,0.0090534,0.049982,0.058509,0.0026997,0.088245,0.029005,0.009252,0.072823,0.0016941,0.07932,0.093043,0.0041691,0.097347,0.073692,0.0050368,0.23645,0.70455,3.5652,232.57,76.478,0.94635,4.866,146.41,222.51,0.3198,0.28529,3.2139,0.20519,0.43687
0.061621,0.0044,0.048989,0.095599,0.0047045,0.068808,0.072358,0.0057588,0.067298,0.0040893,0.035594,0.098186,0.0099533,0.024731,0.065024,0.0022069,0.91166,0.48709,2.9296,246.98,10.536,0.84937,3.5423,212.35,125.26,0.51322,0.56031,2.4075,0.58025,0.05183
0.055455,0.0019534,0.028782,0.082872,0.0013596,0.017856,0.019886,0.0098378,0.016767,0.0042512,0.05123,0.091815,0.0035295,0.041399,0.013941,0.0026353,0.85736,0.29751,2.9809,78.297,160.53,0.87963,2.9336,176.03,6.4145,0.48023,0.067421,4.241,0.53855,0.066802
0.011918,0.00955,0.092906,0.098698,0.00802,0.029618,0.04987,0.0017492,0.03157,0.0032135,0.017636,0.045107,0.0055274,0.077208,0.069246,0.0014247,0.34138,0.28852,0.00029053,119.3,34.691,0.60471,4.0063,222.47,246.57,0.16159,0.53816,4.3389,0.79203,0.11495
0.097033,0.0045405,0.021676,0.083037,0.0080756,0.075049,0.08993,0.0014112,0.046788,0.0029994,0.089814,0.084789,0.0052883,0.036853,0.013664,0.0019457,0.28263,0.47295,2.791,163.32,4.5536,0.65965,2.0269,149.33,6.1782,0.029188,0.079822,2.0728,0.28999,0.43447
0.048634,0.0099332,0.058067,0.071105,0.0013885,0.043621,0.038111,0.0091942,0.059002,0.0097615,0.089545,0.019002,0.0057383,0.066736,0.065674,0.0016414,0.72913,0.82155,1.9516,249.38,14.971,0.010397,2.3674,77.657,106.4,0.67988,0.36061,2.6881,0.95686,0.017886
0.022396,0.0092778,0.095316,0.097204,0.0012827,0.058119,0.073107,0.0080724,0.011644,0.0075646,0.07739,0.097053,0.0032155,0.087585,0.076174,0.0038766,0.91644,0.49354,4.9685,196.59,169.49,0.98907,0.31778,138.38,26.493,0.98759,0.36262,0.31797,0.079969,0.02006
0.025625,0.001,0.0725,0.04125,0.001,0.0725,0.01,0.001,0.01,0.001,0.01,0.01,0.001,0.01,0.01,0.001,0.1,0.1,0.79688,90.219,0.5,0.01,0,50,0,0.01,0,0,0,0.125
0.070988,0.003955,0.015917,0.050347,0.0031588,0.045795,0.044012,0.0083988,0.045697,0.0062338,0.092025,0.080165,0.006676,0.075755,0.083471,0.0094339,0.77972,0.20356,3.7763,182.67,219.22,0.66766,2.5134,197.95,48.51,0.96915,0.043546,3.0336,0.095625,0.55735
0.025625,0.001,0.0725,0.04125,0.001,0.0725,0.01,0.001,0.01,0.001,0.01,0.01,0.001,0.01,0.01,0.001,0.1,0.1,0.79688,90.219,0.5,0.01,0,50,0,0.01,0,0,0,0.125
0.026532,0.0057087,0.069388,0.020481,0.002329,0.012764,0.069698,0.001165,0.09737,0.0061886,0.099866,0.072978,0.0074026,0.080322,0.017309,0.0083506,0.53892,0.41468,2.6505,177.74,1.3978,0.17186,4.8947,94.506,63.203,0.86642,0.36036,4.1004,0.32129,0.33384
0.07107,0.0035429,0.039458,0.083206,0.0081007,0.046741,0.08006,0.0058799,0.052534,0.0099422,0.028667,0.039207,0.0022288,0.094613,0.087022,0.0080696,0.24474,0.73293,0.27474,249.63,52.792,0.035709,4.2018,63.572,172.47,0.95397,0.85379,4.4556,0.34887,0.14219
0.025625,0.001,0.0725,0.04125,0.001,0.0725,0.01,0.001,0.01,0.001,0.01,0.01,0.001,0.01,0.01,0.001,0.1,0.1,0.79688,90.219,0.5,0.01,0,50,0,0.01,0,0,0,0.125
0.063498,0.007597,0.073492,0.082171,0.0042657,0.060093,0.043906,0.003878,0.062172,0.004646,0.041476,0.062099,0.0065152,0.085632,0.074111,0.0082765,0.89068,0.76824,2.5981,227.95,51.698,0.83007,2.3128,95.529,4.5569,0.30577,0.72363,1.0925,0.5877,0.15166
0.082326,0.0071334,0.072723,0.065332,0.0023278,0.088199,0.038155,0.0053639,0.042769,0.005569,0.074039,0.067816,0.0095098,0.02573,0.065854,0.0094858,0.46063,0.69287,3.5536,96.2,8.0392,0.98377,2.8615,176.58,131.06,0.22308,0.25047,4.7449,0.20382,0.67193
0.082387,0.0097795,0.028555,0.072473,0.0032441,0.037617,0.095918,0.0038304,0.025941,0.0027165,0.037562,0.096057,0.0062379,0.045981,0.049699,0.001734,0.14009,0.16528,0.13493,237.12,9.696,0.2184,2.2101,56.223,29.067,0.11034,0.9011,1.8135,0.27253,0.41176
0.067439,0.0033958,0.099104,0.098597,0.0063983,0.049704,0.025555,0.0056281,0.069924,0.0096573,0.090811,0.090205,0.00231,0.010984,0.015953,0.0021862,0.8214,0.87545,0.2935,237.96,30.883,0.70841,2.0085,190.1,151.29,0.66595,0.93387,1.6867,0.2397,0.53771
0.025625,0.001,0.0725,0.04125,0.001,0.0725,0.01,0.001,0.01,0.001,0.01,0.01,0.001,0.01,0.01,0.001,0.1,0.1,0.79688,90.219,0.5,0.01,0,50,0,0.01,0,0,0,0.125
0.025625,0.001,0.0725,0.04125,0.001,0.0725,0.01,0.001,0.01,0.001,0.01,0.01,0.001,0.01,0.01,0.001,0.1,0.1,0.79688,90.219,0.5,0.01,0,50,0,0.01,0,0,0,0.125
0.094191,0.0082498,0.099533,0.016496,0.0052944,0.096888,0.027963,0.0077317,0.043709,0.0098407,0.058484,0.096825,0.0015016,0.020016,0.032955,0.00593,0.54978,0.39966,0.86704,202.56,0.37467,0.49986,4.1426,241.64,29.587,0.81871,0.79662,3.9601,0.31504,0.061361
0.04841,0.0064445,0.099659,0.032733,0.0042267,0.079091,0.055299,0.0088047,0.064945,0.0065793,0.071248,0.089892,0.0037719,0.094878,0.059361,0.008391,0.6835,0.41577,3.9891,245.59,52.421,0.95564,4.2557,228.64,127.73,0.51045,0.29563,3.5901,0.50956,0.474
0.025625,0.001,0.0725,0.04125,0.001,0.0725,0.01,0.001,0.01,0.001,0.01,0.01,0.001,0.01,0.01,0.001,0.1,0.1,0.79688,90.219,0.5,0.01,0,50,0,0.01,0,0,0,0.125
0.032364,0.0029798,0.062224,0.046318,0.0031002,0.05138,0.062813,0.0068522,0.050507,0.0076812,0.049493,0.021136,0.0097154,0.079061,0.020838,0.0094291,0.72103,0.34215,3.9109,133.49,40.15,0.93179,2.3174,215.3,42.178,0.064318,0.86656,1.8163,0.37215,0.30804
0.025625,0.001,0.0725,0.04125,0.001,0.0725,0.01,0.001,0.01,0.001,0.01,0.01,0.001,0.01,0.01,0.001,0.1,0.1,0.79688,90.219,0.5,0.01,0,50,0,0.01,0,0,0,0.125
0.041407,0.0054289,0.089034,0.057989,0.0085688,0.076516,0.079981,0.0013167,0.099138,0.0079167,0.033066,0.045721,0.0033202,0.029278,0.040414,0.0070557,0.642,0.60502,0.053151,246.16,187.34,0.04901,4.2018,50.839,230.52,0.8818,0.89837,4.6443,0.20841,0.19199
0.023026,0.0020429,0.031314,0.092694,0.0055727,0.051713,0.070445,0.0052365,0.046504,0.0087792,0.053485,0.094586,0.0061357,0.010357,0.083475,0.0046288,0.7372,0.91188,0.51741,243.63,170.94,0.89227,0.92199,92.981,131.56,0.77978,0.46999,2.5193,0.12005,0.37378
0.078211,0.0075913,0.054117,0.070242,0.005089,0.080584,0.015829,0.0067109,0.027262,0.0077334,0.066744,0.064258,0.0091158,0.022217,0.081489,0.0046826,0.77645,0.76142,3.5587,235.01,2.0855,0.95015,2.3513,186.76,230.24,0.040848,0.10862,3.177,0.3469,0.25913
0.025625,0.001,0.0725,0.04125,0.001,0.0725,0.01,0.001,0.01,0.001,0.01,0.01,0.001,0.01,0.01,0.001,0.1,0.1,0.79688,90.219,0.5,0.01,0,50,0,0.01,0,0,0,0.125
0.025625,0.001,0.0725,0.04125,0.001,0.0725,0.01,0.001,0.01,0.001,0.01,0.01,0.001,0.01,0.01,0.001,0.1,0.1,0.79688,90.219,0.5,0.01,0,50,0,0.01,0,0,0,0.125
0.025625,0.001,0.0725,0.04125,0.001,0.0725,0.01,0.001,0.01,0.001,0.01,0.01,0.001,0.01,0.01,0.001,0.1,0.1,0.79688,90.219,0.5,0.01,0,50,0,0.01,0,0,0,0.125
0.061073,0.0061057,0.014513,0.080412,0.008791,0.051075,0.057931,0.0067465,0.052318,0.0057382,0.075956,0.059672,0.005673,0.011681,0.091249,0.0010342,0.70413,0.69939,0.057313,213.97,44.675,0.83599,2.5963,237.02,69.262,0.055037,0.91685,1.1226,0.046688,0.26554
0.025625,0.001,0.0725,0.04125,0.001,0.0725,0.01,0.001,0.01,0.001,0.01,0.01,0.001,0.01,0.01,0.001,0.1,0.1,0.79688,90.219,0.5,0.01,0,50,0,0.01,0,0,0,0.125
0.079634,0.0098503,0.01728,0.06276,0.0071023,0.035689,0.019554,0.0085375,0.099954,0.0043103,0.054223,0.02095,0.0069432,0.095748,0.097231,0.004157,0.19806,0.20314,3.8534,193.65,15.818,0.047717,0.22903,81.058,216.82,0.71659,0.38916,2.1542,0.80305,0.086479
0.067618,0.0010481,0.043126,0.059377,0.00359,0.044358,0.079509,0.0034384,0.016414,0.0065335,0.033884,0.017579,0.0099941,0.054493,0.079481,0.0061761,0.56908,0.83041,0.18332,215,49.29,0.79413,0.91067,60.715,123.72,0.38729,0.19422,1.7976,0.10757,0.65745
0.025625,0.001,0.0725,0.04125,0.001,0.0725,0.01,0.001,0.01,0.001,0.01,0.01,0.001,0.01,0.01,0.001,0.1,0.1,0.79688,90.219,0.5,0.01,0,50,0,0.01,0,0,0,0.125
0.028966,0.0025071,0.069916,0.030452,0.0095126,0.089213,0.020522,0.009476,0.091372,0.0047475,0.087,0.041828,0.0083819,0.077097,0.012091,0.0042278,0.97412,0.93839,1.4349,51.815,190.77,0.64475,1.0877,236.81,6.7566,0.99742,0.71086,2.1451,0.16009,0.14374
0.025625,0.001,0.0725,0.04125,0.001,0.0725,0.01,0.001,0.01,0.001,0.01,0.01,0.001,0.01,0.01,0.001,0.1,0.1,0.79688,90.219,0.5,0.01,0,50,0,0.01,0,0,0,0.125
0.025625,0.001,0.0725,0.04125,0.001,0.0725,0.01,0.001,0.01,0.001,0.01,0.01,0.001,0.01,0.01,0.001,0.1,0.1,0.79688,90.219,0.5,0.01,0,50,0,0.01,0,0,0,0.125
0.025625,0.001,0.0725,0.04125,0.001,0.0725,0.01,0.001,0.01,0.001,0.01,0.01,0.001,0.01,0.01,0.001,0.1,0.1,0.79688,90.219,0.5,0.01,0,50,0,0.01,0,0,0,0.125
0.025625,0.001,0.0725,0.04125,0.001,0.0725,0.01,0.001,0.01,0.001,0.01,0.01,0.001,0.01,0.01,0.001,0.1,0.1,0.79688,90.219,0.5,0.01,0,50,0,0.01,0,0,0,0.125
0.025625,0.001,0.0725,0.04125,0.001,0.0725,0.01,0.001,0.01,0.001,0.01,0.01,0.001,0.01,0.01,0.001,0.1,0.1,0.79688,90.219,0.5,0.01,0,50,0,0.01,0,0,0,0.125
0.025625,0.001,0.0725,0.04125,0.001,0.0725,0.01,0.001,0.01,0.001,0.01,0.01,0.001,0.01,0.01,0.001,0.1,0.1,0.79688,90.219,0.5,0.01,0,50,0,0.01,0,0,0,0.125
0.032115,0.0011741,0.054414,0.067005,0.0055863,0.075155,0.073183,0.0084298,0.076958,0.0042786,0.040805,0.089768,0.0061237,0.092305,0.089584,0.0052986,0.81574,0.84718,1.9715,229.57,232.06,0.92945,2.5999,84.665,203.11,0.33439,0.62842,2.5036,0.27272,0.14814
0.025625,0.001,0.0725,0.04125,0.001,0.0725,0.01,0.001,0.01,0.001,0.01,0.01,0.001,0.01,0.01,0.001,0.1,0.1,0.79688,90.219,0.5,0.01,0,50,0,0.01,0,0,0,0.125
0.010915,0.0030883,0.026414,0.040269,0.0094576,0.027685,0.021032,0.005198,0.053264,0.0013166,0.031163,0.054438,0.0031131,0.086907,0.074663,0.0034419,0.56412,0.92551,2.3924,182.86,150.08,0.42091,4.4228,125.77,217.81,0.054831,0.27504,4.7625,0.03475,0.27716
0.025625,0.001,0.0725,0.04125,0.001,0.0725,0.01,0.001,0.01,0.001,0.01,0.01,0.001,0.01,0.01,0.001,0.1,0.1,0.79688,90.219,0.5,0.01,0,50,0,0.01,0,0,0,0.125
0.038406,0.0063635,0.090228,0.086671,0.0063774,0.099719,0.078077,0.0018458,0.016878,0.0033718,0.022637,0.020185,0.0051069,0.045706,0.043958,0.0059415,0.92039,0.4395,0.082033,108.71,42.203,0.40706,1.1658,168.14,109.4,0.41492,0.32467,2.1847,0.03352,0.62565
0.070677,0.0050748,0.089593,0.092625,0.0043308,0.02129,0.026905,0.0053382,0.055677,0.0098248,0.082217,0.048299,0.0031608,0.087483,0.02463,0.0086351,0.84493,0.656,3.3287,235.76,22.638,0.86321,3.9579,171.88,59.092,0.97629,0.61861,2.4191,0.37547,0.51157
0.025625,0.001,0.0725,0.04125,0.001,0.0725,0.01,0.001,0.01,0.001,0.01,0.01,0.001,0.01,0.01,0.001,0.1,0.1,0.79688,90.219,0.5,0.01,0,50,0,0.01,0,0,0,0.125
0.095041,0.007272,0.058915,0.050454,0.0021055,0.016796,0.038234,0.0043649,0.016392,0.0012398,0.091061,0.066501,0.0013217,0.091912,0.069113,0.0054752,0.65046,0.58514,0.018595,138.93,2.3239,0.29099,3.0939,108.94,197.56,0.85752,0.33562,3.668,0.45545,0.36613
0.027461,0.0034183,0.035478,0.090112,0.0032901,0.059307,0.097991,0.0010262,0.090369,0.0027379,0.039704,0.084716,0.0092593,0.053105,0.094162,0.00487,0.75195,0.7608,3.7546,226.15,18.034,0.89761,2.4701,83.862,173.52,0.3466,0.71826,3.0026,0.086903,0.90707
0.082608,0.0022746,0.070001,0.02205,0.0047236,0.085222,0.012286,0.0095351,0.031648,0.0067288,0.068842,0.090626,0.0083876,0.050149,0.062318,0.006586,0.32304,0.32554,0.24389,180.75,145.36,0.71421,0.043618,193.56,92.85,0.94702,0.63409,0.19398,0.76922,0.012324
0.024677,0.0027038,0.070162,0.033611,0.0051747,0.011537,0.095441,0.0050062,0.036538,0.0013402,0.052505,0.066193,0.0043451,0.038067,0.056782,0.0027661,0.74602,0.89014,0.15671,117.1,28.611,0.29316,2.1551,62.302,56.433,0.22086,0.84172,4.2259,0.48623,0.078131
0.0621,0.0079186,0.043547,0.053176,0.0034793,0.068648,0.089114,0.0037637,0.098694,0.0073162,0.061964,0.075831,0.0077708,0.045763,0.066981,0.0025371,0.92754,0.81331,4.2436,222.42,120.09,0.93916,0.67771,244.79,203.49,0.49532,0.24995,2.6965,0.35708,0.39626
0.025625,0.001,0.0725,0.04125,0.001,0.0725,0.01,0.001,0.01,0.001,0.01,0.01,0.001,0.01,0.01,0.001,0.1,0.1,0.79688,90.219,0.5,0.01,0,50,0,0.01,0,0,0,0.125
0.025625,0.001,0.0725,0.04125,0.001,0.0725,0.01,0.001,0.01,0.001,0.01,0.01,0.001,0.01,0.01,0.001,0.1,0.1,0.79688,90.219,0.5,0.01,0,50,0,0.01,0,0,0,0.125
0.025625,0.001,0.0725,0.04125,0.001,0.0725,0.01,0.001,0.01,0.001,0.01,0.01,0.001,0.01,0.01,0.001,0.1,0.1,0.79688,90.219,0.5,0.01,0,50,0,0.01,0,0,0,0.125
0.062727,0.001753,0.06859,0.05752,0.0011518,0.096391,0.028471,0.0031612,0.056253,0.0023888,0.075611,0.014196,0.0030031,0.031413,0.051219,0.0097865,0.19549,0.15148,2.2405,66.665,245.19,0.36676,4.0228,246.56,192.99,0.19741,0.084352,2.5486,0.11093,0.70337
0.025625,0.001,0.0725,0.04125,0.001,0.0725,0.01,0.001,0.01,0.001,0.01,0.01,0.001,0.01,0.01,0.001,0.1,0.1,0.79688,90.219,0.5,0.01,0,50,0,0.01,0,0,0,0.125
0.083023,0.0037071,0.030378,0.076071,0.0085751,0.065688,0.092414,0.0054276,0.096031,0.0057825,0.018653,0.096684,0.0011677,0.061425,0.058999,0.0065588,0.52829,0.66103,3.6944,212.45,3.7445,0.80978,4.8185,141.78,27.888,0.2977,0.64646,4.0167,0.33391,0.58163
0.013885,0.0044943,0.088004,0.082346,0.0061271,0.015919,0.029101,0.0011055,0.079559,0.0016432,0.054654,0.018095,0.0086575,0.088948,0.049749,0.007769,0.80124,0.38024,0.61917,188.86,28.895,0.18087,4.2596,212.19,184.97,0.51518,0.38593,3.7202,0.83043,0.1139
0.09032,0.0018186,0.06522,0.076154,0.0060478,0.074031,0.088462,0.0075409,0.078594,0.0097948,0.077568,0.08133,0.003435,0.046126,0.049255,0.0018569,0.55372,0.93301,0.44528,248.62,20.266,0.64702,3.7433,205.07,222.14,0.44359,0.9073,3.357,0.085589,0.74536
0.025625,0.001,0.0725,0.04125,0.001,0.0725,0.01,0.001,0.01,0.001,0.01,0.01,0.001,0.01,0.01,0.001,0.1,0.1,0.79688,90.219,0.5,0.01,0,50,0,0.01,0,0,0,0.125
0.025625,0.001,0.0725,0.04125,0.001,0.0725,0.01,0.001,0.01,0.001,0.01,0.01,0.001,0.01,0.01,0.001,0.1,0.1,0.79688,90.219,0.5,0.01,0,50,0,0.01,0,0,0,0.125
0.093916,0.0077728,0.06537,0.032023,0.0083654,0.081429,0.097695,0.0094973,0.034059,0.0035681,0.011563,0.061774,0.0040253,0.051725,0.059437,0.0014928,0.74616,0.8849,3.558,153.81,18.089,0.90002,1.1286,75.896,17.643,0.87788,0.94932,4.9983,0.24413,0.15602
0.033341,0.0078785,0.070295,0.014104,0.0023076,0.012251,0.095929,0.0013974,0.022629,0.0018623,0.066562,0.04104,0.0065071,0.06483,0.04292,0.0013355,0.11507,0.63927,2.0154,72.841,5.5596,0.42871,4.7657,194.91,62.122,0.97199,0.88235,1.9768,0.30191,0.51025
0.025625,0.001,0.0725,0.04125,0.001,0.0725,0.01,0.001,0.01,0.001,0.01,0.01,0.001,0.01,0.01,0.001,0.1,0.1,0.79688,90.219,0.5,0.01,0,50,0,0.01,0,0,0,0.125
0.060603,0.0073224,0.082443,0.024727,0.0016736,0.093922,0.030444,0.0036902,0.015682,0.0080132,0.074835,0.025673,0.0082216,0.087407,0.038889,0.0022584,0.92802,0.17299,1.1257,58.88,132.7,0.88161,3.4662,207.9,97.799,0.94999,0.66976,1.3676,0.71038,0.029495
0.025625,0.001,0.0725,0.04125,0.001,0.0725,0.01,0.001,0.01,0.001,0.01,0.01,0.001,0.01,0.01,0.001,0.1,0.1,0.79688,90.219,0.5,0.01,0,50,0,0.01,0,0,0,0.125
0.070193,0.0024672,0.090272,0.043737,0.0029227,0.059728,0.021901,0.0017203,0.076907,0.0094076,0.010466,0.085744,0.0037629,0.018349,0.020684,0.0054267,0.4769,0.20841,0.23967,88.694,8.2023,0.23368,4.8534,170.56,72.276,0.018,0.052227,3.7493,0.31984,0.65857
0.025625,0.001,0.0725,0.04125,0.001,0.0725,0.01,0.001,0.01,0.001,0.01,0.01,0.001,0.01,0.01,0.001,0.1,0.1,0.79688,90.219,0.5,0.01,0,50,0,0.01,0,0,0,0.125
0.025625,0.001,0.0725,0.04125,0.001,0.0725,0.01,0.001,0.01,0.001,0.01,0.01,0.001,0.01,0.01,0.001,0.1,0.1,0.79688,90.219,0.5,0.01,0,50,0,0.01,0,0,0,0.125
0.055671,0.0065718,0.012914,0.05686,0.0011845,0.039967,0.085167,0.0087483,0.074755,0.0033955,0.015785,0.055647,0.008791,0.039991,0.083332,0.0036177,0.85555,0.45035,0.15525,80.024,3.1098,0.49827,1.8731,214.77,249.73,0.80513,0.92991,2.8585,0.12218,0.18825
0.036411,0.0071878,0.02044,0.043636,0.0014266,0.081898,0.024926,0.0085084,0.077635,0.0018154,0.059841,0.091773,0.0077786,0.055653,0.07952,0.0076176,0.89189,0.28578,4.3258,248.6,76.933,0.969,0.2107,171.05,154.64,0.6574,0.71025,1.1315,0.32854,0.14811
0.025625,0.001,0.0725,0.04125,0.001,0.0725,0.01,0.001,0.01,0.001,0.01,0.01,0.001,0.01,0.01,0.001,0.1,0.1,0.79688,90.219,0.5,0.01,0,50,0,0.01,0,0,0,0.125
0.024035,0.0088446,0.069565,0.090621,0.0069859,0.085134,0.094973,0.0083459,0.07862,0.0099385,0.081784,0.025858,0.0046623,0.081437,0.084542,0.0067593,0.98179,0.89126,0.17594,247.16,219.95,0.91177,0.90817,162.77,4.5316,0.1485,0.90531,3.8167,0.58516,0.13704
0.025625,0.001,0.0725,0.04125,0.001,0.0725,0.01,0.001,0.01,0.001,0.01,0.01,0.001,0.01,0.01,0.001,0.1,0.1,0.79688,90.219,0.5,0.01,0,50,0,0.01,0,0,0,0.125
0.025097,0.0025642,0.06468,0.033726,0.0038065,0.070163,0.081582,0.0093138,0.06956,0.004902,0.030126,0.074317,0.0016617,0.020183,0.071066,0.0011835,0.37955,0.97587,4.6286,247.19,146.05,0.98355,2.651,239.82,176.62,0.33544,0.45211,4.688,0.33167,0.27278
0.030295,0.0088789,0.070808,0.079743,0.0078987,0.028002,0.073258,0.0077927,0.097978,0.0035274,0.08497,0.076359,0.0010181,0.066359,0.081271,0.0061295,0.47974,0.90617,1.4882,208.62,6.059,0.83862,4.9565,199.96,7.348,0.12521,0.98398,1.407,0.013953,0.93061
0.025854,0.0081739,0.046757,0.046949,0.0044175,0.098748,0.057217,0.0011859,0.067293,0.0030777,0.010874,0.045638,0.0054491,0.079279,0.054802,0.0091533,0.75625,0.28248,0.80995,210.98,11.713,0.93876,2.3704,87.743,201.81,0.96523,0.58326,3.4676,0.078124,0.33563
0.090155,0.0097545,0.013072,0.048854,0.007567,0.081004,0.080454,0.0065428,0.020738,0.0083718,0.01811,0.088646,0.0030451,0.077781,0.068531,0.0043652,0.554,0.66974,2.9123,220.1,1.8212,0.87668,3.6873,105.53,162.05,0.25088,0.72698,0.23152,0.48181,0.51031
0.067533,0.0084701,0.063948,0.048835,0.0056863,0.050661,0.079379,0.0062078,0.08159,0.0098887,0.019397,0.012826,0.009288,0.044089,0.041585,0.0078348,0.90646,0.51102,2.4163,238.42,17.527,0.93782,4.8359,215.17,65.763,0.38809,0.17661,4.4448,0.33581,0.42258
0.026341,0.0098496,0.062892,0.065404,0.0035087,0.063672,0.063386,0.003641,0.03304,0.0070338,0.024206,0.051508,0.0015674,0.054648,0.098108,0.0046402,0.22271,0.18012,4.4984,180.48,6.534,0.22478,1.3965,129.63,203.87,0.84831,0.98081,2.1028,0.56489,0.12417
0.099901,0.00196,0.081409,0.05246,0.0054482,0.064036,0.02406,0.0016237,0.092825,0.0051099,0.086029,0.081723,0.0093291,0.06324,0.077102,0.0066248,0.16572,0.25946,0.90897,245.31,2.4696,0.85299,4.6904,196.75,25.133,0.53215,0.27483,3.6461,0.076988,0.15502
0.025625,0.001,0.0725,0.04125,0.001,0.0725,0.01,0.001,0.01,0.001,0.01,0.01,0.001,0.01,0.01,0.001,0.1,0.1,0.79688,90.219,0.5,0.01,0,50,0,0.01,0,0,0,0.125
0.025625,0.001,0.0725,0.04125,0.001,0.0725,0.01,0.001,0.01,0.001,0.01,0.01,0.001,0.01,0.01,0.001,0.1,0.1,0.79688,90.219,0.5,0.01,0,50,0,0.01,0,0,0,0.125
0.048966,0.0069228,0.054354,0.038304,0.0031044,0.071602,0.068115,0.0036046,0.012106,0.0046707,0.047173,0.027561,0.006077,0.036578,0.021237,0.003023,0.22823,0.69998,0.19149,229.81,61.786,0.59075,2.7164,151.61,105.7,0.16984,0.45518,3.8228,0.11101,0.53673
0.051497,0.0092473,0.056839,0.092096,0.0033965,0.019795,0.086188,0.0053548,0.096813,0.0055142,0.017156,0.084488,0.0082105,0.028875,0.079101,0.0096278,0.9196,0.37893,1.1487,234.57,73.401,0.86667,1.9677,138.26,45.3,0.060454,0.19339,4.1169,0.21088,0.21616
0.027085,0.0018368,0.069383,0.083508,0.009989,0.037141,0.087319,0.0018742,0.056446,0.0076851,0.022598,0.07326,0.0033939,0.052588,0.050091,0.0047058,0.51713,0.32195,0.20869,219.33,167.25,0.44709,1.3147,96.192,163.52,0.50109,0.45094,2.5648,0.11601,0.53319
0.025625,0.001,0.0725,0.04125,0.001,0.0725,0.01,0.001,0.01,0.001,0.01,0.01,0.001,0.01,0.01,0.001,0.1,0.1,0.79688,90.219,0.5,0.01,0,50,0,0.01,0,0,0,0.125
0.063476,0.008127,0.095389,0.068357,0.0027261,0.028512,0.064619,0.0042266,0.060283,0.0075001,0.045285,0.070276,0.0014362,0.03167,0.059009,0.0072983,0.99855,0.51319,3.1908,192.95,7.5226,0.95912,0.98731,133.82,126.69,0.79749,0.28051,4.9952,0.60261,0.21503
0.037209,0.0091617,0.090013,0.063883,0.0066596,0.038828,0.051374,0.0074365,0.025072,0.0088902,0.042973,0.049376,0.0076909,0.04458,0.013603,0.0061043,0.77678,0.44535,0.93595,223.98,173.55,0.79628,0.59061,208.24,51.794,0.43782,0.21101,0.38128,0.56043,0.019055
0.025625,0.001,0.0725,0.04125,0.001,0.0725,0.01,0.001,0.01,0.001,0.01,0.01,0.001,0.01,0.01,0.001,0.1,0.1,0.79688,90.219,0.5,0.01,0,50,0,0.01,0,0,0,0.125
0.024063,0.0082424,0.085269,0.057646,0.0037468,0.051199,0.011851,0.0045042,0.056778,0.0014204,0.065969,0.090354,0.0085468,0.064891,0.072774,0.0039353,0.72728,0.26755,4.9358,123.91,151.57,0.7893,1.9835,177.77,5.3288,0.20405,0.21179,2.8289,0.61334,0.085668
0.025625,0.001,0.0725,0.04125,0.001,0.0725,0.01,0.001,0.01,0.001,0.01,0.01,0.001,0.01,0.01,0.001,0.1,0.1,0.79688,90.219,0.5,0.01,0,50,0,0.01,0,0,0,0.125
0.051884,0.0087616,0.055033,0.082528,0.0040573,0.062424,0.086348,0.0099104,0.028964,0.0018726,0.012812,0.041246,0.0037142,0.07387,0.073939,0.0090776,0.90603,0.92277,0.12208,216.44,45.145,0.80443,4.7853,161.09,178.34,0.864,0.86527,2.2132,0.10123,0.031169
0.025625,0.001,0.0725,0.04125,0.001,0.0725,0.01,0.001,0.01,0.001,0.01,0.01,0.001,0.01,0.01,0.001,0.1,0.1,0.79688,90.219,0.5,0.01,0,50,0,0.01,0,0,0,0.125
0.025625,0.001,0.0725,0.04125,0.001,0.0725,0.01,0.001,0.01,0.001,0.01,0.01,0.001,0.01,0.01,0.001,0.1,0.1,0.79688,90.219,0.5,0.01,0,50,0,0.01,0,0,0,0.125
0.025625,0.001,0.0725,0.04125,0.001,0.0725,0.01,0.001,0.01,0.001,0.01,0.01,0.001,0.01,0.01,0.001,0.1,0.1,0.79688,90.219,0.5,0.01,0,50,0,0.01,0,0,0,0.125
0.025625,0.001,0.0725,0.04125,0.001,0.0725,0.01,0.001,0.01,0.001,0.01,0.01,0.001,0.01,0.01,0.001,0.1,0.1,0.79688,90.219,0.5,0.01,0,50,0,0.01,0,0,0,0.125
0.019048,0.0093575,0.068278,0.061048,0.0020051,0.039595,0.039973,0.0059161,0.069113,0.0032892,0.05938,0.085157,0.0033976,0.01534,0.074383,0.0067284,0.92544,0.65622,0.53077,228.7,89.503,0.86308,0.17176,222.25,181.55,0.6552,0.25033,2.3038,0.66045,0.12472
0.025625,0.001,0.0725,0.04125,0.001,0.0725,0.01,0.001,0.01,0.001,0.01,0.01,0.001,0.01,0.01,0.001,0.1,0.1,0.79688,90.219,0.5,0.01,0,50,0,0.01,0,0,0,0.125
0.025625,0.001,0.0725,0.04125,0.001,0.0725,0.01,0.001,0.01,0.001,0.01,0.01,0.001,0.01,0.01,0.001,0.1,0.1,0.79688,90.219,0.5,0.01,0,50,0,0.01,0,0,0,0.125
0.091479,0.0082663,0.054456,0.040436,0.0064374,0.014825,0.08711,0.0027486,0.012251,0.0083588,0.024961,0.073135,0.006108,0.04541,0.09741,0.0010336,0.15093,0.8589,4.9729,207.86,3.8963,0.94269,3.6141,121.07,164.64,0.4742,0.046324,1.2291,0.015034,0.59309
0.074616,0.005675,0.062697,0.097147,0.0025646,0.012508,0.057268,0.0082675,0.016706,0.0018271,0.084927,0.028982,0.0012969,0.010275,0.022693,0.004269,0.69297,0.11241,1.9806,208.3,3.3751,0.36586,1.1602,197.66,212.14,0.78659,0.65329,3.4327,0.22322,0.46233
0.096912,0.0095778,0.068413,0.090831,0.0063081,0.092681,0.010572,0.0095148,0.060421,0.0010372,0.082042,0.019504,0.0089421,0.039357,0.043599,0.00968,0.60791,0.38441,1.8383,52.484,231,0.86569,3.5362,248.93,15.073,0.30712,0.11759,2.547,0.34113,0.091604
0.016672,0.0065906,0.081651,0.05346,0.0068767,0.086133,0.012975,0.0031108,0.07478,0.0012166,0.097771,0.03933,0.0031748,0.070829,0.028241,0.0060159,0.63311,0.31822,4.7577,145.33,101.13,0.62937,0.98626,244.56,13.237,0.21384,0.92147,2.178,0.043445,0.26674
0.016589,0.0076173,0.050273,0.088713,0.00591,0.070264,0.083205,0.0095618,0.083016,0.0024447,0.027316,0.092156,0.0074709,0.017246,0.084367,0.0047129,0.68344,0.87929,0.41929,195.66,132.31,0.83028,2.5109,72.557,29.938,0.093242,0.22044,0.89048,0.11104,0.36275
0.058043,0.0053889,0.046723,0.090167,0.0076594,0.091401,0.036797,0.006574,0.099969,0.0045128,0.057644,0.087853,0.0051522,0.074881,0.079095,0.0032872,0.89049,0.26284,1.6932,223.11,62.01,0.73102,1.6775,204.3,45.997,0.80677,0.25669,2.3377,0.0050831,0.7322
0.086703,0.0060122,0.018847,0.047664,0.0029576,0.09808,0.063906,0.0024182,0.098145,0.0047135,0.070334,0.043302,0.0084366,0.094793,0.079141,0.0097033,0.79298,0.96329,1.3989,232.64,11.373,0.71501,4.7002,249.26,212.02,0.33881,0.35481,3.655,0.28927,0.47306
0.025625,0.001,0.0725,0.04125,0.001,0.0725,0.01,0.001,0.01,0.001,0.01,0.01,0.001,0.01,0.01,0.001,0.1,0.1,0.79688,90.219,0.5,0.01,0,50,0,0.01,0,0,0,0.125
0.016089,0.0067224,0.04568,0.088602,0.007443,0.077063,0.09424,0.0090435,0.090898,0.0057108,0.088013,0.021302,0.0029352,0.044133,0.087907,0.0077005,0.87716,0.47129,0.21961,127.26,71.032,0.72616,3.5059,162.96,223.7,0.77851,0.45793,4.8017,0.70754,0.1866
0.025625,0.001,0.0725,0.04125,0.001,0.0725,0.01,0.001,0.01,0.001,0.01,0.01,0.001,0.01,0.01,0.001,0.1,0.1,0.79688,90.219,0.5,0.01,0,50,0,0.01,0,0,0,0.125
0.025625,0.001,0.0725,0.04125,0.001,0.0725,0.01,0.001,0.01,0.001,0.01,0.01,0.001,0.01,0.01,0.001,0.1,0.1,0.79688,90.219,0.5,0.01,0,50,0,0.01,0,0,0,0.125
0.028967,0.0099554,0.097116,0.028279,0.0015777,0.017687,0.079994,0.008181,0.072938,0.0077683,0.088855,0.087899,0.0015061,0.043212,0.095242,0.0085288,0.866,0.62474,4.8431,141.31,61.182,0.82999,3.0217,221.7,138.31,0.021437,0.18031,2.9683,0.13467,0.13552
0.056336,0.0099629,0.092303,0.086893,0.0085911,0.090008,0.061361,0.0071607,0.095634,0.002886,0.09796,0.086343,0.008485,0.098109,0.024944,0.0089352,0.76976,0.5386,4.749,163.47,214.15,0.73896,0.076062,236.08,9.9571,0.97728,0.10462,2.4794,0.064095,0.73394
0.025625,0.001,0.0725,0.04125,0.001,0.0725,0.01,0.001,0.01,0.001,0.01,0.01,0.001,0.01,0.01,0.001,0.1,0.1,0.79688,90.219,0.5,0.01,0,50,0,0.01,0,0,0,0.125
0.025625,0.001,0.0725,0.04125,0.001,0.0725,0.01,0.001,0.01,0.001,0.01,0.01,0.001,0.01,0.01,0.001,0.1,0.1,0.79688,90.219,0.5,0.01,0,50,0,0.01,0,0,0,0.125
0.014512,0.0022923,0.096806,0.010141,0.0091879,0.038008,0.064437,0.0017533,0.017778,0.0064465,0.083331,0.030895,0.007314,0.038638,0.097313,0.0031193,0.32974,0.22571,0.57457,142.55,246.4,0.73894,1.3604,195.47,0.20683,0.97153,0.42325,0.33196,0.59107,0.16295
0.05574,0.002339,0.025907,0.058958,0.0059403,0.076849,0.047747,0.0068785,0.092144,0.0012272,0.042655,0.040565,0.0024709,0.097916,0.050393,0.0093995,0.57024,0.77033,2.6186,220.69,28.283,0.69604,3.2365,247.87,65.493,0.1686,0.85745,3.9089,0.29085,0.31272
0.04152,0.0046842,0.062738,0.043881,0.0075508,0.099144,0.096328,0.0039492,0.017765,0.0053858,0.086,0.025016,0.0072383,0.060016,0.051337,0.001045,0.39015,0.33392,3.2276,247.82,3.4297,0.5166,2.8846,110.25,85.24,0.89126,0.46594,2.3209,0.85913,0.039181
0.025625,0.001,0.0725,0.04125,0.001,0.0725,0.01,0.001,0.01,0.001,0.01,0.01,0.001,0.01,0.01,0.001,0.1,0.1,0.79688,90.219,0.5,0.01,0,50,0,0.01,0,0,0,0.125
0.025625,0.001,0.0725,0.04125,0.001,0.0725,0.01,0.001,0.01,0.001,0.01,0.01,0.001,0.01,0.01,0.001,0.1,0.1,0.79688,90.219,0.5,0.01,0,50,0,0.01,0,0,0,0.125
0.025625,0.001,0.0725,0.04125,0.001,0.0725,0.01,0.001,0.01,0.001,0.01,0.01,0.001,0.01,0.01,0.001,0.1,0.1,0.79688,90.219,0.5,0.01,0,50,0,0.01,0,0,0,0.125
0.029635,0.0030164,0.070872,0.059471,0.0081369,0.085425,0.010527,0.0062852,0.078171,0.0095225,0.07949,0.083503,0.0020047,0.012059,0.053164,0.0041264,0.75907,0.82446,0.14319,247.78,231,0.11993,0.2081,225.52,105.43,0.40974,0.45171,3.2851,0.53932,0.19599
0.05682,0.0074775,0.090846,0.023717,0.0075797,0.079042,0.031628,0.0044773,0.062644,0.0097972,0.087407,0.052621,0.0082263,0.091225,0.053714,0.0038411,0.65024,0.22547,0.062587,177.03,197.72,0.77501,1.5037,247.28,19.413,0.88851,0.39143,1.0961,0.27454,0.55613
0.025625,0.001,0.0725,0.04125,0.001,0.0725,0.01,0.001,0.01,0.001,0.01,0.01,0.001,0.01,0.01,0.001,0.1,0.1,0.79688,90.219,0.5,0.01,0,50,0,0.01,0,0,0,0.125
0.025625,0.001,0.0725,0.04125,0.001,0.0725,0.01,0.001,0.01,0.001,0.01,0.01,0.001,0.01,0.01,0.001,0.1,0.1,0.79688,90.219,0.5,0.01,0,50,0,0.01,0,0,0,0.125
0.025625,0.001,0.0725,0.04125,0.001,0.0725,0.01,0.001,0.01,0.001,0.01,0.01,0.001,0.01,0.01,0.001,0.1,0.1,0.79688,90.219,0.5,0.01,0,50,0,0.01,0,0,0,0.125
0.025625,0.001,0.0725,0.04125,0.001,0.0725,0.01,0.001,0.01,0.001,0.01,0.01,0.001,0.01,0.01,0.001,0.1,0.1,0.79688,90.219,0.5,0.01,0,50,0,0.01,0,0,0,0.125
0.025625,0.001,0.0725,0.04125,0.001,0.0725,0.01,0.001,0.01,0.001,0.01,0.01,0.001,0.01,0.01,0.001,0.1,0.1,0.79688,90.219,0.5,0.01,0,50,0,0.01,0,0,0,0.125
0.025625,0.001,0.0725,0.04125,0.001,0.0725,0.01,0.001,0.01,0.001,0.01,0.01,0.001,0.01,0.01,0.001,0.1,0.1,0.79688,90.219,0.5,0.01,0,50,0,0.01,0,0,0,0.125
0.025625,0.001,0.0725,0.04125,0.001,0.0725,0.01,0.001,0.01,0.001,0.01,0.01,0.001,0.01,0.01,0.001,0.1,0.1,0.79688,90.219,0.5,0.01,0,50,0,0.01,0,0,0,0.125
0.018483,0.0097566,0.013307,0.095024,0.0095485,0.060179,0.089604,0.0066543,0.015033,0.0072093,0.031804,0.060887,0.0015264,0.02517,0.055212,0.0041851,0.28217,0.37688,4.2323,209.62,6.235,0.34827,1.4296,193.21,233.46,0.62014,0.08405,4.4295,0.46702,0.28523
0.025625,0.001,0.0725,0.04125,0.001,0.0725,0.01,0.001,0.01,0.001,0.01,0.01,0.001,0.01,0.01,0.001,0.1,0.1,0.79688,90.219,0.5,0.01,0,50,0,0.01,0,0,0,0.125
0.025625,0.001,0.0725,0.04125,0.001,0.0725,0.01,0.001,0.01,0.001,0.01,0.01,0.001,0.01,0.01,0.001,0.1,0.1,0.79688,90.219,0.5,0.01,0,50,0,0.01,0,0,0,0.125
0.025625,0.001,0.0725,0.04125,0.001,0.0725,0.01,0.001,0.01,0.001,0.01,0.01,0.001,0.01,0.01,0.001,0.1,0.1,0.79688,90.219,0.5,0.01,0,50,0,0.01,0,0,0,0.125
