0.050063
0.054398
0.053807
0.058518
0.053348
0.051968
0.053676
0.064603
0.056603
0.05104
0.080084
0.068019
0.056745
0.052787
0.051464
0.05145
0.054761
0.070549
0.053173
0.065001
0.052958
0.095322
0.069341
0.054912
0.05747
0.064289
0.0545
0.05443
0.075961
0.070876
0.061224
0.053249
0.07434
0.056261
0.052879
0.058103
0.066894
0.057597
0.061326
0.0578
0.06072
0.071607
0.068798
0.059365
0.054491
0.07424
0.053891
0.060594
0.076321
0.05002
0.05632
0.055044
0.055298
0.066138
0.051495
0.059281
0.052758
0.051742
0.07999
0.051648
0.0604
0.054325
0.085021
0.052089
0.062047
0.052428
0.056082
0.05262
0.085119
0.052256
0.058692
0.075135
0.053164
0.057485
0.049151
0.07762
0.051909
0.050256
0.052629
0.057568
0.056958
0.053229
0.051515
0.048838
0.049691
0.062015
0.051164
0.051007
0.051648
0.086521
0.055965
0.052741
0.051833
0.064294
0.054672
0.088465
0.054551
0.050641
0.088008
0.079801
0.055562
0.053878
0.075619
0.074319
0.051892
0.049196
0.052828
0.057846
0.053374
0.050832
0.067218
0.08008
0.062287
0.056708
0.061594
0.06286
0.079805
0.050283
0.07264
0.056917
0.053054
0.076043
0.056283
0.053747
0.076757
0.08218
0.050795
0.058002
0.085001
0.049708
0.070036
0.055976
0.053296
0.05649
0.073086
0.051045
0.053549
0.070999
0.060446
0.050843
0.050446
0.053088
0.050101
0.062148
0.054653
0.098634
0.053629
0.066614
0.049375
0.061775
0.054235
0.086124
0.063235
0.052421
0.053217
0.064223
0.056682
0.081945
0.087733
0.074419
0.052437
0.049464
0.053401
0.097628
0.060031
0.05194
0.060074
0.055273
0.055456
0.077294
0.068463
0.057663
0.051175
0.061873
0.055299
0.05313
0.051411
0.054749
0.055655
0.049545
0.053439
0.062191
0.061451
0.066204
0.051454
0.08398
0.049303
0.077893
0.050319
0.075991
0.051788
0.080287
0.054451
0.055811
0.05216
0.054656
0.079317
0.073541
0.050035
0.088418
0.055975
0.051485
0.057427
0.075306
0.050279
0.052253
0.059293
0.050994
0.056075
0.077016
0.053092
0.072785
0.074498
0.073402
0.060559
0.055096
0.060458
0.053638
0.089269
0.055482
0.091617
0.093272
0.051438
0.070998
0.054739
0.094729
0.057204
0.050164
0.050924
0.055023
0.051967
0.052211
0.092497
0.079611
0.088219
0.051643
0.051938
0.05709
0.059288
0.054474
0.056421
0.05054
0.05168
0.049229
0.051638
0.057037
0.051052
0.059474
0.082376
0.049049
0.089509
0.050821
0.060559
0.056065
0.071861
0.050715
0.079825
0.088165
0.064223
0.050981
0.091937
0.077738
0.055706
0.053205
0.06201
0.082824
0.054417
0.05199
0.081169
0.062231
0.051838
0.05072
0.050905
0.081157
0.0564
0.086273
0.054109
0.052773
0.052828
0.053287
0.051997
0.058505
0.05088
0.07894
0.054774
0.050722
0.054402
0.066768
0.052498
0.054273
0.055515
0.05168
0.055845
0.055254
0.052513
0.053822
0.077814
0.05947
0.065547
0.050527
0.083699
0.068383
0.054957
0.053349
0.060469
0.05226
0.051785
0.089549
0.052944
0.068193
0.051555
0.052988
0.07259
0.058275
0.063483
0.078439
0.052698
0.095348
0.072549
0.056022
