32.945,40.045,17.628,34.722,31.746,22.837,27.625,31.877,49.6,45.169,22.606,46.623,33.973,29.655,33.915,28.877,29.32,38.159,37.718,37.762,33.678,23.386,33.928,38.929,32.678,35.667,33.981,28.338,31.61,25.688,34.866,23.717,24.146,25.566,13.873,37.878,31.781,25.865,37.505,20.626,29.44,28.678,31.748,31.714,25.263,29.835,29.097,33.438,35.988,36.076,25.27,30.424,23.35,23.901,29.962,38.395,25.784,32.034,28.764,36.12,24.035,30.178,33.026,36.028,38.458,30.471,21.83,25.934,24.185,42.874,26.628,34.097,28.946,34.867,25.811,22.319,22.209,32.674,29.028,28.926,37.774,31.597,31.083,38.696,25.594,33.816,34.574,28.665,31.181,23.614,23.712,30.574,33.956,44.161,26.347,31.026,29.548,19.412,27.596,20.17,34.603
24.233,29.556,26.083,30.651,25.783,31.656,32.999,38.238,27.971,17.498,24.494,36.313,23.241,34.193,29.685,36.756,18.454,27.952,22.51,44.681,33.462,36.445,23.316,26.492,27.549,34.933,27.52,32.795,17.964,27.11,24.58,20.521,31.753,30.535,29.197,21.832,35.09,30.903,27.406,29.14,27.605,19.589,27.478,24.538,23.742,22.787,26.142,18.229,34.21,31.818,28.909,28.829,24.717,34.504,28.299,25.168,36.296,27.806,25.844,27.434,24.449,22.983,42.623,37.934,30.673,22.245,24.354,28.066,33.28,21.841,16.466,21.211,30.813,31.125,31.45,28.315,30.006,26.452,33.66,21.681,31.468,24.445,27.213,31.994,34.614,22.996,35.807,32.572,28.651,27.965,27.844,27.384,29.141,29.293,33.466,37.242,31.532,27.887,32.384,30.003,23.469
33.094,29.692,28.781,30.795,29.45,23.078,27.205,27.291,25.247,36.976,23.426,25.502,24.293,21.845,27.047,26.613,36.171,26.746,22.427,36.56,34.606,26.849,20.086,25.71,27.239,29.528,26.682,30.414,30.141,21.44,23.043,24.139,25.375,26.367,28.131,12.018,25.644,34.647,22.414,33.012,29.921,27.912,29.032,19.774,27.617,36.562,28.586,28.284,24.176,27.902,29.296,30.324,26.09,26.813,38.786,16.101,39.876,29.854,33.363,19.249,24.939,26.592,30.305,19.217,30.564,21.64,28.416,31.521,29.798,33.801,33.395,24.617,29.427,23.062,21.063,32.965,28.065,27.774,32.892,31.215,29.92,34.689,32.991,29.335,24.408,24.613,34.381,19.526,27.936,17.741,33.471,32.63,28.071,27.69,14.894,31.144,16.45,15.778,28.489,23.04,30.245
30.672,31.614,23.544,29.486,27.669,31.449,29.939,31.823,26.458,26.378,32.396,16.081,24.516,20.525,25.152,30.525,31.447,21.857,24.691,27.859,25.624,28.718,29.229,22.3,26.224,16.037,33.113,23.867,20.873,25.822,19.702,27.036,24.224,38.492,33.077,14.136,29.444,19.861,25.816,28.002,31.041,25.723,35.358,24.639,28.851,30.608,27.589,31.735,28.829,23.06,17.739,36.829,23.995,27.684,30.079,27.737,22.431,24.708,26.494,34.851,22.66,31.233,28.753,25.927,21.638,25.665,26.693,19.489,28.146,22.861,26.654,28.897,22.432,25.643,28.969,17.58,32.543,39.777,32.144,25.5,29.378,21.748,36.929,32.046,31.247,22.582,28.812,24.236,25.523,24.175,21.801,22.41,26.052,18.294,30.311,26.531,30.788,28.55,29.72,19.418,21.829
23.965,26.817,32.039,24.769,32.719,28.691,32.271,26.906,22.89,18.665,27.052,30.449,24.756,23.484,24.674,20.636,23.729,25.329,26.49,25.928,29.388,26.815,35.55,27.854,35.501,22.55,28.953,24.922,29.33,29.298,15.054,19.455,18.871,28.314,33.788,24.581,30.418,29.051,20.867,28.292,22.403,34.025,26.088,34.638,24.077,29.275,25.933,15.895,21.223,29.394,25.974,20.523,23.046,27.534,21.167,31.251,22.972,35.524,20.722,27.276,18.461,22.547,23.215,28.312,31.083,27.795,24.344,30.434,30.349,26.871,29.182,28.37,21.198,30.147,22.888,23.161,27.162,24.68,25.58,29.306,31.619,25.241,27.934,25.034,27.432,28.51,23.094,27.663,29.335,26.728,35.119,23.137,22.479,17.289,30.92,30.698,25.846,30.859,27.196,27.745,26.834
27.611,25.907,39.441,19.515,16.05,19.646,19.885,23.209,24.545,24.293,28.122,27.356,29.18,34.356,31.558,18.928,13.658,29.94,16.144,25.731,25.573,36.618,25.046,22.838,26.583,26.633,25.747,22.328,19.233,26.989,18.627,20.193,32.103,23.283,24.687,29.929,23.882,30.582,23.656,30.498,28.566,24.321,21.032,20.138,24.033,23.187,23.335,30.351,23.894,31.158,22.715,30.295,22.763,26.284,30.286,23.308,23.186,35.49,30.187,23.217,28.665,23.58,28.952,32.529,17.309,30.579,32.742,25.634,34.194,26.177,19.16,14.341,23.714,28.99,26.994,27.479,22.486,26.12,17.137,21.564,21.268,28.014,25.323,19.571,25.346,21.918,22.035,29.749,25.966,27.402,29.849,26.303,28.17,28.836,31.293,27.792,32.511,25.508,25.153,33.968,22.826
24.548,29.121,25.304,31.525,29.687,26.007,20.708,27.37,17.71,25.774,28.569,25.618,28.922,34.667,29.141,25.885,27.742,26.671,18.046,22.498,30.631,24.346,27.448,19.574,24.882,27.537,17.814,26.285,23.661,19.906,24.376,15.164,14.016,18.729,19.653,18.748,16.011,25.99,16.661,25.108,28.463,24.551,25.023,22.688,17.214,24.345,29.324,33.177,22.43,16.497,25.386,26.427,23.437,18.868,34.595,12.868,22.035,18.012,21.409,26.137,25.246,21.04,28.413,27.647,27.77,22.452,29.759,27.836,36.995,29.832,30.296,24.824,18.177,22.722,20.806,21.767,27.313,21.803,20.126,22.533,23.765,26.591,19.841,26.135,24.949,31.126,23.505,23.895,18.757,17.697,26.101,23.325,27.058,20.138,34.021,25.168,29.751,23.437,23.757,27.982,27.316
18.296,16.286,18.406,16.856,24.047,21.752,21.963,17.123,27.556,25.898,23.32,28.734,19.497,25.778,25.455,25.459,20.202,25.35,21.247,19.387,17.892,28.815,19.633,22.914,17.866,22.308,8.0035,18.459,16.804,18.812,22.717,22.171,33.234,20.97,22.538,16.108,21.43,17.235,23.904,27.915,25.727,20.342,15.809,30.873,33.749,24.344,18.932,29.595,20.868,21.467,28.077,17.005,14.219,25.807,25.71,24.22,26.178,29.032,28.487,20.985,27.705,24.601,21.293,17.94,26.91,22.033,23.983,19.892,16.199,24.593,23.454,29.601,27.664,28.891,20.107,19.193,17.571,26.184,37.351,27.303,19.989,27.835,18.257,16.814,27.254,19.965,25.297,30.612,25.712,28.288,15.93,26.981,34.18,26.394,16.246,22.767,21.32,25.624,25.765,25.733,21.984
20.105,20.152,27.069,14.095,21.984,24.274,19.849,25.265,22.636,18.48,23.751,21.692,21.013,19.568,23.272,14.128,21.068,20.372,18.607,26.107,19.458,25.569,27.656,22.226,24.309,26.043,22.59,25.571,16.926,28.301,18.234,14.211,29.614,22.677,25.13,21.237,18.086,8.2474,25.98,21.604,22.032,24.922,16.174,19.481,28.478,25.844,16.836,12.416,20.24,24.004,27.495,23.427,17.598,24.445,17.358,18.371,19.844,17.085,21.679,18.664,21.608,20.761,21.014,20.564,28.89,25.903,23.261,15.946,15.185,13.56,35.466,27.639,24.21,18.308,17.483,25.603,30.48,14.861,20.824,22.574,13.429,27.01,20.99,32.144,21.104,24.939,17.502,19.983,17.376,24.86,29.218,20.132,25.07,20.56,23.467,28.712,23.554,18.008,18.869,22.164,22.059
18.143,23.076,28.195,21.04,21.26,11.846,18.573,15.656,20.404,24.702,29.406,30.703,21.674,20.715,26.079,24.535,25.832,25.894,15.246,24.772,21.793,18.64,18.955,28.266,18.407,16.394,23.237,31.704,22.345,23.678,17.801,30.117,22.814,24.724,17.736,26.251,24.059,16.775,22.412,20.1,22.74,21.043,21.329,17.355,20.7,25.838,30.449,16.754,33.432,29.419,23.019,20.805,18.931,26.15,18.95,20.047,26.39,24.28,26.452,24.604,20.335,19.802,25.979,19.06,27.819,25.952,23.581,22.24,23.948,38.85,21.694,14.886,31.253,25.1,19.17,34.563,24.822,23.612,18.558,17.204,13.888,20.231,17.26,25.278,20.727,30.564,29.346,22.998,20.892,27.656,16.82,25.401,19.07,20.337,19.057,24.938,18.556,17.211,24.831,20.228,23.929
19.864,22.746,9.6062,23.656,30.09,26.314,25.719,20.384,22.335,22.628,21.943,17.646,19.863,20.686,19.267,25.376,33.265,15.36,22.091,14.809,27.535,28.033,13.788,30.508,16.467,22.548,26.591,22.178,32.139,34.258,22.137,12.654,19.804,17.564,17.95,16.268,21.858,31.263,18.177,20.195,26.904,27.119,23.747,26.253,25.533,19.726,23.484,20.109,17.324,24.439,21.809,20.628,22.848,26.075,23.318,22.398,22.793,21.733,17.905,25.144,28.028,19.02,30.434,20.679,20.366,17.334,17.822,17.078,23.137,28.9,23.941,25.456,27.717,9.9072,20.719,23.133,24.821,15.446,16.832,25.162,20.955,24.06,17.042,13.921,25.025,27.029,29.063,14.392,15.298,14.663,21.303,18.642,27.589,14.75,13.418,22.448,27.027,17.774,15.628,20.804,13.909
20.87,24.568,21.784,12.086,18.343,19.414,29.061,24.963,20.531,26.762,16.027,19.203,27.232,27.642,24.122,23.029,18.119,24.188,17.015,23.411,22.076,25.986,18.849,23.692,24.408,16.695,21.504,28.074,21.304,19.384,22.873,19.537,22.812,20.177,20.708,22.892,27.003,22.852,28.307,11.542,18.743,21.867,16.983,14.973,23.605,23.585,22.111,22.594,16.822,18.522,20.305,17.655,22.305,31.576,18.592,23.743,16.075,26.899,16.372,21.743,17.971,23.126,20.843,20.591,34.238,17.918,20.577,33.025,15.563,23.313,15.883,25.491,22.285,23.765,19.52,21.909,27.505,10.417,13.344,22.686,17.806,19.44,13.966,16.665,18.948,17.482,16.84,18.868,16.493,26.91,16.284,29.081,19.084,14.172,17.97,25.052,25.606,21.522,22.102,23.677,14.138
17.501,11.903,18.096,24.367,23.327,30.369,20.857,10.439,27.685,25.86,17.497,21.108,23.605,21.835,23.232,19.604,19.936,20.505,16.568,26.491,20.138,23.188,16.276,15.288,19.702,18.976,25.468,22.827,22.533,13.63,15.77,21.016,18.55,25.895,26.124,17.505,24.034,26.367,21.549,27.389,24.874,21.07,24.042,20.981,18.249,21.717,20.272,18.474,28.052,21.102,32.354,18.781,22.64,27.207,32.348,21.471,16.566,23.712,14.191,18.882,21.329,26.789,26.554,19.986,24.253,18.669,23.074,28.698,20.813,18.762,17.867,23.323,26.107,29.642,20.352,20.841,17.272,27.338,19.771,17.987,29.905,23.741,23.322,15.6,22.056,22.442,15.212,19.097,18.294,22.477,15.594,24.993,28.114,18.747,20.071,22.382,25.505,22.451,21.89,17.944,19.071
22.156,26.872,21.957,14.131,21.36,19.044,18.374,18.484,15.57,18.036,15.991,17.841,19.968,20.219,18.499,18.777,19.599,21.471,25.103,22.185,18.186,22.088,18.367,11.597,9.0984,11.893,18.405,16.718,16.274,19.63,16.544,16.67,22.139,22.901,30.196,20.784,19.708,16.918,18.589,19.227,11.707,18.315,22.756,16.933,21.63,23.823,24.201,22.876,9.4839,16.961,23.426,21.191,19.472,21.377,24.434,20.128,16.105,18.656,18.534,23.405,21.269,21.865,20.102,17.853,19.72,20.406,13.284,20.239,23.541,18.964,26.385,21.922,17.597,18.771,18.237,20.514,22.779,18.163,21.472,27.192,23.558,23.09,15.857,17.094,20.52,19.006,12.283,12.771,23.976,16.107,28.616,9.6508,21.429,19.453,16.115,21.234,15.949,23.242,19.745,12.22,8.7566
17.582,23.782,19.598,19.048,21.796,12.769,24.995,14.936,18.976,17.236,19.461,10.379,25.422,21.18,27.53,24.957,18.862,14.74,11.27,18.886,19.763,23.349,14.688,22.26,19.122,15.457,22.17,19.965,17.793,26.955,21.455,18.334,20.016,19.19,19.566,20.78,16.195,15.356,20.377,26.989,17.482,14.42,17.778,16.713,17.393,20.875,18.249,16.235,16.888,13.076,15.085,12.684,16.575,14.106,15.745,17.504,13.606,18.729,20.289,14.635,23.644,11.933,17.113,12.373,17.318,13.07,16.319,15.6,13.673,9.8566,21.264,27.488,28.456,16.678,18.613,16.793,19.142,14.828,10.487,18.655,13.499,10.561,29.111,17.801,20.564,23.985,11.505,20.605,20.989,19.173,19.497,16.523,21.949,15.126,15.358,21.959,26.128,17.137,16.622,20.583,23.464
22.325,19.348,15.49,20.882,17.858,24.07,12.189,18.798,23.697,16.085,15.531,14.213,17.007,17.341,18.779,14.428,18.548,15.62,16.623,14.621,16.991,33.424,32.731,23.088,21.554,12.744,15.702,15.554,20.479,20.256,18.659,16.744,14.247,18.219,23.055,20.019,18.968,21.001,20.688,11.301,18.276,16.379,9.5194,12.529,16.831,21.717,17.218,19.315,14.365,8.9936,18.597,14.138,23.198,25.597,16.61,23.284,22.264,12.16,18.054,19.31,20.427,21.083,21.073,21.09,16.863,19.814,8.5858,13.212,23.323,15.377,19.593,24.629,14.404,14.104,16.094,20.077,17.322,14.025,11.486,16.617,17.253,15.913,17.078,13.523,20.539,8.9197,18.813,21.05,14.575,17.952,19.441,15.574,18.138,19.954,14.198,21.758,22.865,19.566,18.26,13.229,20.307
12.499,24.273,19.808,18.71,15.948,8.4694,12.583,19.132,27.72,20.705,18.899,15.326,18.112,21.636,16.534,25.536,12.48,16.021,17.819,9.4023,19.971,17.926,17.938,20.933,21.978,20.965,15.633,17.404,19.082,12.327,13.253,15.808,17.925,25.113,20.944,15.743,14.96,24.034,29.067,18.302,15.59,11.673,21.69,18.815,22.488,13.787,18.609,14.856,22.948,15.287,17.233,16.14,21.769,19.397,13.387,14.945,13.212,19.721,18.992,10.739,9.5999,17.43,20.524,18.308,11.123,11.089,21.237,16.99,15.979,23.121,14.258,18.168,19.352,21.039,14.015,19.098,29.13,11.252,19.42,16.635,14.13,14.109,19.688,27.314,14.269,19.869,15.254,25.891,19.884,17.021,20.2,17.576,22.244,16.821,12.895,18.633,24.148,12.579,16.583,21.815,9.5441
19.603,20.129,17.903,13.845,16.993,17.407,20.881,19.76,15.577,23.706,16.813,13.669,15.214,20.565,17.828,20.69,17.308,27.283,10.15,15.306,16.675,17.391,23.03,17.928,16.548,17.305,20.123,14.178,18.882,10.565,16.697,13.137,14.329,18.188,12.381,12.942,10.768,7.828,16.397,21.82,16.272,16.057,12.704,23.555,15.993,22.361,18.516,15.937,21.487,21.076,16.563,22.369,24.372,16.752,15.968,18.692,18.474,20.354,15.968,19.973,21.349,17.755,17.655,11.847,12.184,10.993,11.889,16.382,10.36,26.289,20.073,8.4917,12.259,16.58,9.9554,15.125,21.524,16.346,16.745,12.89,14.73,11.446,18.525,15.157,20.254,22.127,21.467,16.879,14.943,11.972,17.511,20.981,15.616,16.307,19.565,20.587,11.176,17.847,17.83,16.399,20.706
14.987,13.112,17.584,18.33,15.582,19.695,10.305,12.103,3.9986,18.58,12.443,15.437,20.56,16.671,14.677,13.022,15.489,18.911,10.312,16.187,19.639,10.7,19.18,19.237,12.885,10.36,18.222,19.744,18.813,19.56,11.668,18.833,14.111,14.187,10.151,20.929,17.175,20.537,22.595,11.85,19.073,16.413,20.174,20.959,19.794,13.147,15.951,17.536,29.28,21.442,25.881,18.146,17.324,18.952,14.323,21.502,15.825,10.891,19.998,10.1,8.9811,17.635,12.606,12.769,15.807,14.481,15.56,17.568,11.723,11.497,7.9454,14.881,19.16,13.615,18.499,18.657,20.484,20.479,13.669,12.988,16.661,13.767,22.359,22.063,16.85,14.731,18.537,13.801,15.957,14.312,16.893,21.043,19.477,21.105,12.753,17.194,12.474,18.026,17.786,21.724,20.925
18.531,13.909,14.025,7.7377,14.136,9.7344,19.635,19.524,16.476,14.415,16.495,22.33,21.308,14.135,16.597,11.453,17.524,18.874,19.516,9.8142,17.938,12.476,14.422,19.069,17.115,15.271,18.346,22.447,13.436,10.537,11.287,12.156,13.246,18.226,7.6012,16.866,12.818,20.312,12.51,15.955,12.183,13.205,14.886,15.012,13.83,20.427,18.12,23.328,14.818,20.181,7.5474,18.472,17.407,14.431,18.699,19.427,20.049,17.6,18.323,13.235,11.554,14.857,16.669,19.719,12.77,13.971,27.794,13.44,23.588,19.76,13.699,15.499,15.066,17.814,21.374,9.3888,24,19.028,13.734,15.422,17.12,17.106,20.716,20.275,14.493,15.406,18.853,16.405,20.459,13.184,17.807,17.075,21.479,10.555,15.928,16.138,6.5791,20.905,27.135,14.998,17.07
13.579,16.911,13.912,15.003,21.753,12.077,13.142,15.105,14.883,21.051,23.374,11.563,12.887,17.445,13.908,23.224,21.823,17.596,17.615,14.074,18.4,19.827,15.958,22.97,18.035,14.97,16.858,19.706,13.84,15.067,24.717,13.543,19.117,18.613,21.639,17.467,5.7276,12.057,17.411,16.414,23.104,20.922,17.352,15.728,9.3254,22.715,15.929,9.3351,17.103,15.807,13.164,17.338,12.626,10.112,8.5176,13.975,12.941,17.13,9.5052,14.585,9.4955,22.505,14.943,20.215,17.345,18.968,10.873,20.338,21.103,7.2519,14.71,12.843,16.017,12.066,16.498,17.746,16.363,14.938,10.342,15.628,13.358,10.383,15.182,14.58,16.156,19.297,17.664,20.527,12.54,12.009,15.03,20.831,20.519,14.909,13.06,9.4346,18.039,15.492,10.78,14.089,8.2226
16.557,14.226,21.194,9.6505,18.643,15.452,15.216,17.664,19.504,10.764,19.988,10.227,10.752,12.302,17.74,10.768,16.189,16.487,15.492,17.038,10.371,18.787,15.336,17.715,11.101,15.098,18.285,18.812,14.572,7.7434,10.664,15.741,17.963,16.685,12.533,23.56,15.177,18.238,13.293,10.594,17.542,18.903,21.931,12.856,8.614,21.14,15.917,10.547,12.739,11.776,19.379,17.183,15.835,15.826,11.727,18.731,16.235,13.89,14.185,14.505,11.474,17.759,20.271,24.446,16.843,11.723,15.673,11.011,12.531,12.354,11.682,16.357,10.593,17.473,17.967,18.902,14.819,17.287,21.857,15.102,14.211,21.739,5.2142,13.135,24.278,13.078,12.735,10.164,17.958,6.7537,11.812,17.086,14.892,17.306,15.386,17.526,9.9285,15.739,8.851,17.921,13.699
16.897,12.369,15.657,18.41,6.8943,7.3207,7.4536,17.63,15.947,11.743,20.099,14.932,8.3857,10.541,9.1509,18.034,12.127,9.9607,12.218,11.234,17.647,16.221,15.557,15.987,14.572,10.807,16.465,11.292,10.34,10.332,17.71,18.133,7.7328,13.847,15.366,12.092,17.298,15.375,13.829,12.293,16.979,17.633,16.191,13.499,17.905,10.967,14.957,19.71,13.689,11.206,21.786,13.472,16.086,11.359,15.501,16.182,14.426,15.647,18.982,9.0792,15.189,6.8507,14.517,21.737,17.982,14.383,13.125,16.414,18.421,14.465,20.539,11.312,6.8258,11.569,13.653,12.994,11.193,19.485,8.2737,12.542,10.73,12.609,11.88,16.225,10.457,11.294,14.793,18.524,7.3695,21.241,11.075,16.868,18.393,19.432,12.445,14.501,13.793,12.11,15.441,15.771,13.072
14.431,23.918,13.909,16.588,12.21,11.966,12.646,16.044,10.944,7.0194,14.135,12.308,14.982,14.253,16.659,17.299,8.9879,8.2452,15.812,15.081,10.431,18.556,14.06,14.398,14.959,16.752,19.628,12.959,7.4758,17.72,10.473,18.58,11.736,19.505,10.928,9.7832,17.509,8.8482,16.478,15.571,13.402,12.662,21.619,12.539,13.227,10.432,10.9,11.758,20.319,12.479,11.361,12.263,16.604,9.0249,16.278,8.9668,13.448,7.1166,15.937,16.523,11.37,15.122,14.545,18.264,14.416,17.817,13.501,11.517,13.795,13.193,17.228,13.727,10.796,13.359,18.374,12.388,11.478,17.61,14.315,12.583,11.179,8.4122,14.509,12.753,15.127,8.4992,18.871,15.756,8.0882,17.883,11.743,15.065,14.756,10.658,3.2546,15.936,12.66,11.705,15.501,11.362,16.442
14.034,9.8402,16.552,15.222,18.077,10.203,10.193,14.63,15.929,16.52,13.504,12.614,15.877,20.693,16.728,13.79,11.371,15.315,11.702,14.355,16.337,16.873,15.639,18.539,20.277,6.5126,6.9494,10.092,6.1445,12.169,12.245,14.399,14.531,10.961,10.494,16.393,12.078,8.4455,13.518,14.229,11.971,15.916,14.309,12.698,13.318,15.162,11.859,9.6066,12.909,13.954,15.35,13.369,11.801,15.669,13.063,16.443,13.15,13.457,13.143,10.098,10.077,9.9508,20.033,12.745,16.933,14.762,20.306,16.884,8.9751,12.278,16.754,14.538,21.797,13.304,7.7822,15.11,10.132,13.661,17.438,14.611,14.58,12.756,12.942,13.101,3.2034,14.924,17.116,8.7156,7.892,15.76,7.945,7.314,16.377,11.078,18.051,8.7353,11.224,14.367,15.497,15.197,14.183
12.208,10.947,14.773,11.641,14.56,16.965,4.916,19.554,10.756,17.791,18.64,7.734,13.677,25.554,12.263,14.794,14.233,17.616,16.976,9.6205,11.455,14.277,12.827,22.191,14.622,14.618,10.013,8.3168,15.905,12.326,15.382,10.036,16.273,6.4898,18.695,16.094,13.436,8.8454,11.603,13.956,17.399,9.306,17.714,23.033,11.249,14.731,10.665,6.8383,18.348,15.544,11.194,13.447,12.208,7.7599,2.6304,12.867,11.368,10.956,9.9833,6.4763,11.154,13.621,9.2039,14.665,12.053,12.672,7.8777,10.278,14.519,10.186,13.622,20.18,15.91,16.784,21.561,17.282,14.474,20.084,9.7714,10.575,20.326,14.678,12.886,14.692,12.084,11.984,11.641,11.038,9.6303,12.822,10.963,18.244,13.888,16.726,12.533,12.743,17.581,18.341,13.157,19.149,14.756
13.919,20.395,18.064,15.832,14.039,10.699,12.201,19.081,5.4319,10.349,11.94,13.137,6.2757,14.489,15.202,9.272,11.69,8.3011,18.379,13.937,11.72,9.3241,12.961,18.592,13.588,13.865,8.3478,13.2,15.367,7.7049,16.617,21.366,7.0781,5.2716,12.353,15.306,12.321,12.048,12.634,8.83,6.7728,18.227,13.65,8.3932,16.431,8.0034,12.178,15.241,9.625,11.369,12.716,19.544,14.241,11.193,11.81,11.615,17.251,11.601,9.799,13.465,12.274,15.427,16.018,16.471,14.909,14.857,19.369,8.4911,11.377,6.5911,15.875,12.687,11.548,6.499,13.262,11.688,7.7995,8.5003,9.9046,11.722,6.7555,11.964,14.797,11.273,10.132,13.69,16.521,11.025,10.953,7.5117,9.1385,14.762,12.207,15.326,14.989,13.945,15.333,18.021,14.659,14.123,12.458
7.8586,10.434,13.335,8.3155,13.832,13.324,12.546,13.25,12.28,12.12,12.167,15.443,11.881,2.9731,10.499,12.882,15.549,17.018,8.9091,14.854,13.028,11.469,12.283,12.099,12.687,13.027,9.8518,8.5475,15.57,11.43,17.137,8.9694,10.122,17.161,17.113,8.6034,12.918,16.881,16.852,7.7097,17.849,14.508,12.991,11.409,8.8234,12.529,11.3,20.265,12.861,11.591,12.148,10.057,19.433,14.422,12.459,16.12,12.081,11.856,10.253,10.048,17.801,14.881,12.501,18.149,12.28,13.21,7.2382,13.857,7.1424,8.7456,15.513,13.424,9.1507,10.807,13.093,12.966,6.22,7.9861,6.0053,11.944,6.1862,14.648,8.6856,8.333,18.451,19.749,9.3358,12.068,19.053,10.31,18.195,15.06,12.391,10.964,18.11,14.68,9.9872,13.569,9.1309,12.717,17.547
13.624,9.188,12.992,9.4005,18.733,5.6364,9.532,14.447,8.9796,11.859,14.045,16.117,8.613,11.214,10.177,11.405,13.066,9.6725,14.545,13.263,10.175,12.745,15.178,15.208,14.092,11.574,9.6674,12.567,10.196,10.657,14.974,16.767,13.844,18.85,6.5447,11.875,12.124,17.343,13.519,10.685,13.701,14.004,12.424,4.8334,15.311,12.173,6.4689,10.578,16.601,10.034,18.382,14.471,10.951,8.6939,10.094,13.084,3.6551,13.91,12.757,14.61,18.83,10.685,8.4293,15.849,14.87,11.306,9.7588,12.652,7.9167,12.024,9.6061,8.9831,15.122,11.901,16.438,8.0658,12.622,8.2039,13.922,16.28,15.313,4.5315,14.139,11.827,12.945,9.917,6.1266,14.864,10.056,10.664,12.375,20.51,19.675,7.268,10.169,15.189,4.677,16.07,10.714,16.603,8.7751
8.2944,19.228,13.397,10.364,7.9212,15.138,12.566,3.7628,8.3592,21.443,11.371,4.6561,8.4108,9.9921,13.757,10.861,11.754,11.35,8.1665,15.372,10.177,9.8451,12.069,11.184,9.6488,11.84,18.548,13.239,9.1976,8.4732,10.603,6.0869,17.578,12.1,7.4806,11.818,6.5343,13.378,10.797,11.552,12.633,14.294,8.6751,6.4549,11.06,8.6307,12.846,5.1455,14.311,12.445,7.6557,10.339,14.241,19.607,10.225,16.079,8.5032,12.109,10.71,12.56,9.7279,6.6091,10.496,12.896,9.7007,10.788,12.768,13.232,8.9324,10.504,14.351,12.528,6.8574,16.639,9.3275,9.0507,6.6016,11.04,11.064,10.32,8.5744,5.8012,21.586,16.48,10.198,11.022,12.623,11.369,9.4838,14.566,7.5653,18.022,5.4544,10.318,14.358,11.809,6.3332,14.524,11.962,8.6586,12.774
13.548,18.293,10.725,10.059,9.3594,4.6347,12.768,4.2114,10.14,10.123,13.844,1.8302,14.086,9.3114,6.7409,11.007,11.812,9.6272,6.1547,15.044,11.692,8.6881,15.077,12.256,6.8256,13.1,5.0717,7.5221,11.54,12.403,11.271,4.6147,13.756,15.228,14.914,9.1417,9.7278,7.6564,11.868,11.874,8.4734,14.091,13.867,13.219,8.5333,6.5897,13.203,15.844,6.7504,3.7005,15.807,10.832,14.949,14.31,6.9881,9.6016,8.2626,11.633,14.911,11.222,4.0598,15.14,11.045,9.5098,4.0494,12.279,11.851,12.161,7.4549,8.6107,7.9922,16.975,8.3109,10.383,8.0792,14.062,10.996,11.278,14.157,13.28,13.647,3.9512,11.767,14.246,12.199,14.032,18.083,15.184,7.305,8.2788,10.632,8.9016,10.774,15.116,9.2711,10.086,10.28,13.277,14.481,10.54,9.983
13.725,13.038,12.27,21.346,10.778,11.79,10.402,12.689,8.9593,13.967,16.651,10.953,10.451,8.8336,9.1273,5.1088,10.499,7.795,14.778,11.184,10.854,15.244,4.8732,11.752,7.2182,8.5726,11.519,13.588,7.9412,12.482,15.439,7.8808,7.4331,10.636,12.723,10.679,8.0075,11.051,11.351,9.2221,7.0137,12.097,10.73,9.4886,8.6122,9.0399,7.8413,7.2764,14.809,9.8857,5.0255,9.0794,14.139,8.9163,16.481,8.1277,8.2145,7.2991,14.477,8.7792,12.038,5.2898,8.8035,12.828,6.4912,10.838,12.466,16.485,12.769,13.768,9.5171,8.7835,10.859,7.7559,14.341,13.209,13.819,14.794,10.322,8.7889,12.392,14.438,13.479,13.764,15.595,11.639,14.609,10.636,13.254,6.0888,15.713,4.8756,11.346,9.5434,6.8879,11.772,11.76,15.285,11.122,12.562,11.469
15.041,13.957,10.359,10.724,16.042,9.5551,13.082,7.5023,7.8763,13.097,12.408,13.724,8.29,13.596,10.877,10.172,15.752,14.942,3.0915,11.47,7.5926,9.3621,8.2867,15.544,14.312,12.109,12.585,11.797,12.522,11.132,9.751,11.956,9.3288,9.0574,9.4579,10.041,10.35,18.46,6.3941,6.8809,11.115,10.162,7.9785,11.375,12.744,6.6175,9.0141,6.1863,10.593,10.851,12.518,6.8339,11.281,9.8641,14.797,11.31,8.5985,9.589,8.6016,14.948,8.6824,5.1615,9.678,13.999,12.456,10.852,16.061,8.4362,11.157,7.5232,7.7929,9.2182,12.406,16.925,12.892,6.883,9.6654,8.5431,9.3833,14.117,11.537,13.511,12.264,7.7769,13.316,5.9856,12.894,12.251,13.861,5.7627,9.6703,10.382,10.647,13.141,12.576,12.42,10.898,15.71,9.28,10.65,8.4716
9.7917,12.279,6.1076,10.589,7.664,12.477,3.7754,3.8065,15.119,9.514,3.7662,4.6578,9.7115,10.957,11.053,13.358,11.038,9.7539,13.297,16.492,10.07,9.2261,13.268,8.3833,5.2995,9.6496,10.761,10.447,6.4529,8.0997,7.8389,13.004,9.5728,12.038,11.877,9.3778,3.7266,11.133,12.211,7.6079,9.9327,8.5904,15.362,9.8895,10.631,6.675,7.6623,5.6993,12.289,11.905,7.3687,19.111,12.891,11.268,16.041,2.226,9.6984,9.9081,10.618,6.705,11.659,2.9799,10.326,11.373,9.8566,11.137,7.5728,11.723,8.8022,4.7431,9.0058,8.0271,6.7483,11.582,10.114,9.1812,8.2552,15.284,13.693,9.3887,10.26,14.766,15.653,13.471,8.9564,8.1444,12.361,7.2567,6.6021,8.8636,13.007,10.489,10.76,13.54,10.728,6.3882,12.647,11.491,9.7068,8.6809,8.2652
9.5841,7.1709,8.0669,5.0384,8.0469,7.5043,11.454,14.181,12.877,12.912,11.76,11.357,11.99,7.3905,12.248,5.9338,11.582,7.0717,6.6426,8.2493,5.6101,9.7084,13.111,8.8837,11.199,10.162,13.425,9.1667,10.569,17.328,13.221,6.7565,13.139,6.7864,9.6895,10.558,12.363,8.4241,11.33,15.159,3.7368,6.3124,13.372,8.7452,9.5401,12.53,16.568,5.6126,6.8337,9.4179,9.6603,9.9908,8.6877,13.449,6.832,10.293,12.735,10.825,7.7253,10.033,8.6723,7.795,13.864,9.0444,7.8624,7.3093,10.035,5.0099,4.5427,10.258,5.6503,8.4161,12.069,12.525,14.459,6.5212,12.321,10.67,13.551,10.343,12.192,13.2,8.3792,8.2258,5.5283,9.3868,10.763,7.3492,9.8826,8.5511,8.3171,12.081,12.196,13.228,6.2869,9.2357,11.695,5.6389,15.647,10.384,7.9649
12.499,10.495,9.676,7.2631,3.9462,6.397,7.3687,10.725,11.22,6.9418,11.873,11.382,8.9585,6.4347,12.069,8.9456,6.2444,10.113,10.942,4.8746,15.047,2.7736,4.344,13.083,10.336,8.0311,9.3775,11.577,6.689,12.179,11.473,9.2041,9.9265,7.4203,6.7239,8.154,12.486,8.6094,7.9617,6.349,5.8777,9.4097,12.522,13.106,11.054,8.3975,8.2185,10.46,12.207,12.32,2.8656,9.2001,6.3871,7.9017,14.646,6.9656,4.1956,9.8832,8.9616,8.072,12.03,11.072,10.491,8.4956,10.412,8.4517,9.9108,11.104,10.38,7.2856,7.7007,6.1629,12.39,9.2625,7.334,11.414,7.7807,10.705,13.978,12.208,8.8526,8.9942,15.263,8.8201,10.263,10.338,12.169,10,10.462,10.327,17.561,12.02,6.6631,5.621,4.4064,14.966,6.8391,12.375,10.974,4.6757,15.525
10.696,14.507,10.066,9.5756,5.9718,9.1488,9.448,4.4636,8.979,9.5265,6.8681,10.27,5.3907,7.3112,9.3526,7.2169,10.304,7.9452,6.4083,11.836,10.84,10.753,11.095,12.07,12.014,9.1371,7.6823,8.7032,12.757,5.4351,7.3393,12.172,11.579,7.5463,8.4141,8.5675,8.208,1.6915,7.7513,9.9649,16.405,4.6392,7.1254,7.8771,6.2034,7.0105,3.2516,8.6979,7.4772,10.644,9.2084,12.24,13.908,9.4021,5.3143,9.7697,13.239,8.7488,10.201,6.1311,13.572,10.25,7.7669,4.0038,6.9688,5.9481,7.5552,10.078,11.529,9.5037,9.2875,10.162,17.011,10.036,9.459,13.779,9.305,7.0129,11.837,7.96,9.6433,11.67,11.464,4.2163,1.9356,6.9265,14.001,9.7424,8.5797,8.5672,12.157,10.029,10.466,2.7519,8.5127,9.0935,6.4506,8.9668,7.2253,11.651,7.32
12.597,8.6135,11.387,15.494,8.9372,13.158,5.5691,14.13,5.1671,8.5463,7.7734,5.3424,4.8727,10.65,4.6327,4.7762,12.077,8.7446,9.862,6.075,8.1578,9.647,9.2346,14.026,6.8946,8.2963,11.2,11.542,2.9047,7.5811,6.739,8.6922,10.263,10.055,12.112,10.063,9.6721,11.535,10.007,4.8237,9.0643,3.8478,12.023,2.5082,7.1141,9.0183,8.6266,14.306,8.9036,6.9248,10.475,5.1722,10.352,9.4814,7.5785,6.9007,5.2202,3.1863,7.4861,11.037,6.629,13.424,6.1135,15.068,6.6933,9.0331,12.982,12.386,6.4998,10.923,5.4452,3.6966,10.694,3.6263,2.4189,8.5621,12.836,12.34,4.3198,8.8498,11.113,11.619,13.354,13.429,11.271,4.5284,8.857,4.6602,12.385,13.89,2.8226,11.21,7.7261,7.3266,6.1112,12.475,9.8724,8.3882,9.9731,11.735,6.1691
6.1426,10.455,13.063,12.088,8.117,4.5811,1.6416,5.7592,11.737,6.8565,9.278,9.0717,2.0487,12.09,14.34,8.34,11.356,6.2512,10.186,14.626,12.267,6.4181,5.4886,8.6075,7.764,8.2707,12.149,9.096,13.291,8.3282,8.0657,10.759,9.6924,7.8428,3.8356,5.2073,10.247,10.033,4.1853,8.8017,9.9921,5.0362,5.5508,11.925,3.3543,9.7513,11.297,3.2451,8.0746,5.0362,8.7146,7.2257,3.6531,10.25,10.186,6.655,9.9878,4.5446,4.8631,5.0995,8.1352,6.929,14.01,8.2463,10.087,10.122,9.5339,9.0104,12.07,5.0684,13.207,10.449,5.111,11.681,11.891,13.417,7.231,13.219,9.2191,4.1981,6.1964,11.155,13.666,5.0132,8.1298,6.5436,13.918,5.8478,12.324,6.6372,10.711,4.6029,12.815,2.0483,9.3908,9.6771,6.067,5.6432,10.225,5.4404,8.371
0.11322,2.2255,8.048,11.373,3.4594,10.117,9.5894,6.4933,8.1075,14.442,4.1712,9.5487,8.7694,9.0969,8.1591,8.9805,7.4573,3.3337,6.506,8.8463,8.9159,9.902,14.526,3.4462,10.121,8.5643,8.0673,6.194,7.8113,10.121,9.3947,3.5848,10.767,8.8894,13.592,4.9953,6.1114,3.1658,8.1863,11.021,6.8064,6.6917,7.3334,7.7169,11.103,8.2214,6.7959,9.9907,4.2745,9.8876,7.5855,14.293,6.3208,9.3872,8.513,5.0856,10.679,1.8102,2.6113,4.4313,11.909,10.989,4.5978,7.662,6.0503,8.8429,14.184,5.6692,13.748,6.8456,6.3119,9.9191,10.204,8.976,3.98,6.1992,5.6941,6.7105,5.9397,9.3934,11.068,7.4592,9.7607,10.346,8.5587,7.3966,6.6244,4.8502,7.3939,8.632,7.6421,8.799,8.3082,10.093,6.3731,7.8374,8.8681,7.1006,8.9778,3.1022,9.4872
9.2066,7.9046,6.9154,6.6903,3.1139,10.989,9.6958,4.8506,3.7537,6.8246,9.8225,10.249,9.4113,10.068,12.843,3.1152,9.2282,7.7552,5.802,9.9235,7.8924,11.283,5.0002,5.5245,9.1267,5.4121,8.2488,6.7777,10.992,9.1359,6.7634,6.1119,6.7693,14.64,7.7684,7.3383,7.3524,12.172,3.0368,11.036,5.8852,7.1392,9.8128,5.2745,9.1051,7.6983,3.9743,8.4487,9.54,9.7016,6.3163,7.8625,9.6579,9.408,6.813,4.3319,8.6745,8.8007,12.121,3.5385,6.9116,9.129,7.6225,13.613,6.8753,1.2607,9.9603,3.9737,11.606,9.0435,6.9401,5.1519,13.131,8.7784,6.5325,5.9538,7.4006,11.441,13.281,7.9844,9.109,8.8172,3.2708,8.3026,6.5074,6.705,7.4836,5.8423,10.034,8.2476,6.4571,6.9494,4.8709,5.9468,6.2685,7.3845,9.5613,7.8487,7.6836,5.5584,10.66
8.2999,9.2141,8.2551,9.8825,11.832,6.4549,9.1492,9.5273,7.6244,12.936,4.9422,6.3042,7.8641,7.7211,7.0325,6.322,9.9292,7.4816,5.4175,12.386,10.171,11.766,7.5747,12.947,10.192,2.6481,4.1493,9.2628,7.3273,7.2509,10.621,12.356,8.7307,8.0008,13.874,7.6191,6.4026,6.003,5.6141,7.8746,5.2679,2.509,4.0952,8.855,10.667,10.975,14.045,4.6508,11.422,7.8746,6.355,6.4695,10.109,9.4456,2.6535,10.483,9.9309,6.9951,4.9349,5.5203,4.23,7.5098,6.5738,6.7859,8.2609,6.8264,2.9549,5.9929,6.2013,2.9033,10.098,1.6565,8.8161,6.8333,6.6413,9.4398,6.8092,7.0213,5.2382,10.762,10.391,9.5471,9.1179,9.6577,9.5687,8.7386,9.3955,5.6876,7.7298,9.1708,5.6423,7.6508,7.1301,11.082,8.9554,10.676,9.3707,10.44,7.3873,7.9671,5.9114
8.4521,15.76,7.6633,7.2739,9.7323,3.145,10.467,5.0926,8.9415,8.1502,7.2156,5.447,8.533,10.457,9.2546,11.195,3.6211,7.4503,3.7251,7.7097,8.8711,5.3099,10.887,6.1063,9.0936,6.4522,5.3353,5.3929,3.4512,11.534,0.74164,3.8891,2,3.7452,9.0358,7.5079,4.5939,3.8594,3.8131,6.6405,1.898,8.5042,7.1536,6.467,9.1719,8.3383,6.4604,7.4816,7.0352,5.6951,10.421,10.668,7.5948,4.6052,4.2075,8.0806,6.6782,5.1861,7.757,4.1758,8.3238,3.0676,0.72389,6.8318,4.7271,11.562,11.131,5.733,4.7685,6.8093,6.5382,11.166,6.4506,10.677,10.763,14.251,6.3658,6.1052,11.956,5.3896,2.4599,7.6338,8.7586,6.4106,6.4441,3.6909,12.084,7.9456,5.9083,8.4908,9.6674,4.5466,8.0106,6.0859,11.888,7.8302,4.3389,7.0958,8.6193,13.111,7.5055
8.6843,10.367,8.5163,4.8288,6.7245,5.3957,9.0459,11.276,7.0967,9.9768,5.2916,7.5815,6.6833,11.516,7.9417,9.209,6.2427,5.4611,8.2112,4.9661,3.5128,6.3472,11.433,6.1059,7.7461,5.5672,1.6707,7.1565,11.686,6.2686,4.0788,4.5054,8.1296,6.031,9.7865,6.4177,1.5767,5.9798,9.0597,9.9012,10.593,9.8323,10.027,12.222,11.26,7.6251,5.8818,6.4071,9.0349,10.387,6.4932,11.202,5.2162,5.9106,6.1203,5.3847,9.4823,6.6549,12.108,7.139,12.148,0.65532,8.1232,7.9137,12.332,7.8555,11.915,12.218,5.4961,3.9704,9.451,4.9751,6.735,5.6274,7.425,8.7508,9.0605,7.5182,4.6224,4.8899,7.9373,1.3125,4.0138,2.967,6.2781,8.4533,13.481,7.1443,4.2995,5.9422,8.3811,9.8888,5.9274,7.143,10.328,7.7539,7.3704,6.2698,6.1265,9.9855,5.7332
6.7964,4.2011,8.5091,7.5763,8.0824,6.85,4.9685,6.6964,3.5426,6.03,12.99,11.32,9.2037,8.0732,9.0952,7.9455,9.372,10.093,4.2341,6.4184,6.8494,5.4604,4.3054,10.267,8.6776,4.5248,4.1515,8.0446,5.1086,3.7684,6.2698,4.6985,9.1559,12.989,2.446,9.124,8.0321,4.7043,9.4507,4.5837,1.9691,3.9656,8.4418,8.0002,9.5585,8.2119,10.236,1.6467,6.1197,5.9653,6.7685,9.7283,5.1413,7.5849,1.8943,4.5127,9.3941,2.3342,10.643,5.6472,8.3092,3.8263,8.9065,6.9171,10.22,5.4825,4.9863,4.9318,12.116,6.0534,2.6879,9.4162,6.9864,5.9846,8.2804,9.2555,5.2445,7.2125,6.1035,5.4,8.1718,8.8185,3.3163,9.8413,7.3124,6.2998,2.7419,6.2441,6.7378,7.1939,5.7725,9.3571,11.046,10.192,6.3143,7.8037,7.9908,5.285,6.8906,5.3694,7.1017
10.859,6.21,4.8032,10.258,8.9528,5.3346,4.7871,10.344,6.7751,7.1732,7.5976,5.0664,9.5111,12.782,0.25726,7.2061,9.1398,4.6349,6.9261,7.1353,5.1422,8.522,9.837,7.2714,7.6503,5.28,9.5877,6.4604,7.834,9.7333,5.9249,6.1915,6.9282,6.1161,3.4109,7.942,2.9643,5.9062,3.05,10.061,6.9148,7.9331,6.0139,10.799,5.6487,9.6737,9.6773,5.3341,7.8048,7.0215,12.166,4.1216,2.5943,7.4982,4.1853,5.1696,7.5514,3.3355,9.4667,7.7842,10.374,5.8871,9.0561,3.799,7.317,9.6005,5.0168,6.92,10.923,4.6642,3.821,9.1094,6.6331,3.8462,4.3816,7.5898,7.3275,5.7843,7.2865,8.1542,4.8027,5.8666,4.8164,10.161,3.3856,10.87,5.2198,6.6886,9.1713,8.6027,5.8106,8.9929,3.6417,10.268,9.6963,6.7418,7.7389,9.2281,5.846,8.105,8.4719
7.4209,2.8599,5.6204,1.4459,5.4999,4.4647,6.2301,7.4348,8.5864,6.1102,6.5766,9.0527,9.7739,7.0281,8.6659,4.6172,10.509,4.788,4.5215,7.8437,6.3082,2.4376,9.2161,8.2434,10.667,7.2247,8.2683,3.5446,11.206,12.509,5.5042,4.7066,9.0192,3.5857,6.8653,6.1314,8.5778,1.4647,6.7885,7.1409,1.9679,6.0703,8.0754,3.2283,5.711,6.9753,5.1447,10.477,8.4323,5.0018,7.3183,9.3467,7.106,7.8915,8.1109,8.3552,3.1087,4.7524,5.5765,2.4098,2.9074,7.3845,7.3877,8.8271,7.4047,4.5234,6.4344,4.6513,8.6809,2.6298,8.6613,7.7419,8.4416,5.0022,6.9761,6.37,2.6301,7.708,7.6006,4.5836,9.6297,1.9831,5.4287,5.48,4.6584,4.785,7.7036,4.2511,6.6497,5.3927,6.1478,11.391,5.0957,8.7277,6.5708,6.5546,1.6333,9.0718,6.8676,5.3701,6.5697
5.9894,10.847,3.4924,4.857,6.9199,10.902,6.9062,9.0427,8.1456,8.0613,9.4842,11.996,6.6315,5.5364,6.7307,5.5035,0.4782,5.972,6.6822,5.3456,5.7195,9.3558,6.4687,6.1874,4.6072,4.8677,6.0097,6.5823,7.2347,10.354,9.6569,3.2663,10.658,3.796,12.696,6.7609,5.1643,1.204,5.2663,10.121,5.2295,5.134,2.9765,3.3245,4.8141,7.1631,1.1015,7.9322,5.0582,8.275,6.2513,5.1544,7.5203,7.5263,11.33,3.006,4.5054,3.2006,4.8355,4.9975,5.1575,5.0887,4.985,5.6688,7.3338,9.0492,5.3489,10.835,8.4462,9.3143,3.8093,1.6873,7.0804,7.1239,2.0074,2.5439,7.1432,8.8558,9.6564,3.9643,7.7752,7.7993,6.1819,3.63,3.4983,8.1153,2.0529,5.5242,6.6137,8.9973,5.3634,2.7776,7.1331,4.4613,10.71,4.0902,6.6901,11.373,8.9,6.2199,7.4613
11.97,9.504,2.7876,6.5115,8.6776,2.2795,6.7673,5.8891,6.7666,4.0755,1.5605,3.4176,10.671,5.7376,3.7151,9.6694,8.3186,3.934,8.7024,8.7897,4.1526,7.3856,5.1445,9.1352,2.9509,5.0515,8.0769,5.8612,7.4754,10.333,5.0076,3.36,9.9018,4.9804,6.8402,4.6246,2.196,3.7254,9.2864,5.0352,5.6873,6.7953,8.9531,6.432,5.4207,3.9589,7.4912,0.91741,3.1652,7.869,7.1567,2.9145,7.3785,7.2123,3.1422,5.8802,9.9998,4.8423,2.7405,6.4476,4.6783,5.1741,7.0663,5.9219,5.1181,3.5177,4.0382,3.538,4.5675,10.39,6.4203,4.7049,5.7422,6.6607,6.7363,6.8413,8.7408,5.2106,6.9309,4.5344,1.4819,4.6493,9.5466,5.1842,8.5718,7.538,4.587,10.766,8.2065,8.2782,3.8182,4.4644,7.6478,9.0096,5.992,10.27,5.7424,7.8241,6.0652,8.7492,5.2519
5.7824,2.2076,6.5899,6.0755,7.1365,6.6769,4.2383,7.4656,12.176,4.3057,8.1148,4.4599,3.6596,3.1407,7.2509,5.9388,7.973,5.3984,3.0135,5.3782,5.6798,7.3406,2.9286,1.3972,6.9689,3.9788,4.6705,7.1905,5.9027,6.2575,8.7248,8.4382,5.867,4.5715,2.9689,6.6226,11.457,8.3927,6.4028,3.201,2.8913,4.5755,6.8686,8.8681,6.126,5.0667,9.1329,4.823,4.456,8.0995,5.8717,4.3226,7.9358,4.6947,9.464,4.3349,4.4207,4.3366,6.7206,9.0172,6.7434,7.7271,8.8967,5.5477,8.1544,5.557,10.941,6.4883,4.5381,6.1014,4.0844,2.1693,6.7049,6.4219,7.4413,3.8132,3.9096,4.6705,3.4241,12.372,6.7576,4.2775,6.8854,8.8343,7.4984,8.077,7.0219,2.2104,4.0191,8.4236,5.3789,6.4857,7.2015,3.3861,6.3185,4.806,2.2903,6.8101,3.8153,4.6413,2.6169
4.231,6.7125,9.4071,2.9727,6.4883,6.9121,8.1513,8.6653,3.0338,5.8124,8.5958,6.9638,8.9988,8.562,11.245,4.8763,4.8602,2.2775,4.4255,9.0517,5.8074,7.9528,9.558,4.9753,4.6912,2.531,5.0062,3.965,5.1443,5.1293,3.9325,2.9415,4.7672,5.7011,3.5342,6.5047,5.3232,5.0458,7.8366,11.156,7.684,7.1961,5.6775,5.9752,7.0503,4.35,2.1134,6.6877,3.9956,6.6035,3.6893,2.6826,2.3256,6.3354,10.319,6.1434,6.8339,6.0086,6.214,11.297,3.8065,5.288,4.0626,7.366,6.2737,4.8873,7.4328,3.2723,5.9505,6.1434,9.4127,6.9484,5.745,2.4724,2.1649,7.0722,3.9996,5.0921,3.5967,6.0986,6.2087,9.8194,9.9935,8.1934,8.2466,2.882,8.7031,3.425,1.8589,13.203,6.4248,4.0882,5.6851,5.8305,0.73879,3.963,6.9263,5.7509,1.7079,4.4963,5.3091
5.6709,1.5504,6.0783,9.0601,1.7519,6.5077,8.6261,6.3709,6.8595,4.3684,5.047,2.8007,5.1961,4.1868,3.94,8.8686,5.2065,6.9552,6.3591,3.1046,1.0563,2.124,6.1265,4.7754,7.2585,4.591,2.3849,5.706,8.0581,6.1019,5.0452,4.4951,8.4492,7.6209,4.4747,2.3285,3.3418,6.2608,2.9227,4.5746,5.1939,3.9359,4.0186,4.9507,4.191,2.3382,7.2049,3.3278,7.9036,4.6766,4.7597,8.5135,6.0917,4.5388,3.5446,4.2697,6.4167,7.4637,5.5929,4.3265,6.2658,7.0519,4.4934,8.8589,4.6277,7.5834,7.7474,5.6131,5.2823,7.5219,1.2581,5.5595,5.6424,6.3364,3.409,2.1792,6.7566,8.0042,4.4403,11.051,3.98,2.4107,5.1394,5.7282,7.0779,5.7639,3.6928,1.915,4.107,2.2879,7.1745,5.2379,1.1425,6.3364,3.3211,8.6418,5.6027,6.0172,3.6372,6.7049,5.6324
5.7985,4.5635,6.7821,5.6823,7.7142,4.8619,6.6319,3.9298,5.6986,3.9563,7.9371,6.3828,8.4687,5.2047,5.1643,6.0222,8.6355,1.4408,8.2173,9.6604,4.8294,8.4178,10.297,5.7376,4.252,4.2022,4.7111,7.1397,4.9079,9.9914,4.5188,3.6527,6.5545,5.8426,6.3657,0.47999,4.9555,1.0794,5.7275,7.0621,8.0166,7.0344,6.4154,7.0862,5.1704,5.2122,7.6503,7.8041,4.2168,1.1629,0.016188,1.5651,2.9983,6.3303,3.5146,5.1044,6.1513,2.1093,3.3433,3.5755,3.4548,4.2895,7.1132,4.1325,6.8994,6.0844,5.7426,7.5457,10.228,8.6792,1.6538,6.5209,2.4302,0.67127,2.5134,0.2773,2.6962,8.4189,4.2038,11.473,6.2006,7.6124,4.9647,4.6571,3.4972,5.6711,1.8866,3.3437,2.8391,5.6884,8.791,10.268,1.2586,6.0992,3.7949,2.8109,5.5389,4.2144,5.4185,7.0702,3.147
4.7813,1.2769,4.2593,7.3661,1.1743,6.0121,2.0657,5.6229,4.1075,4.4964,1.4954,3.0641,4.69,5.2894,4.6939,3.6751,8.1353,4.6867,3.3702,3.4092,4.9559,7.2306,4.1657,7.1005,5.64,3.8515,3.2766,5.5286,4.8931,3.0779,3.3284,6.3478,6.3083,4.4219,6.9977,4.3347,4.8655,7.9231,3.9045,0.50119,2.2086,5.7856,4.6384,11.357,1.9229,4.5749,5.2182,2.0163,7.5707,6.8115,8.6205,6.6838,2.9374,5.833,3.2815,5.7687,4.9771,3.8874,5.2812,6.2886,7.7154,3.1029,3.8324,3.4953,7.0469,8.6879,7.5175,8.1635,5.6915,3.3117,6.6662,9.0361,6.2729,7.2311,1.6321,6.4201,4.7785,6.38,8.0181,3.6792,8.5369,2.9909,5.2195,5.8221,7.5427,4.3954,3.008,8.3347,5.9482,0.79391,5.8515,1.2764,6.9179,8.268,4.7132,3.0702,7.9052,3.9707,3.2738,2.27,1.8039
5.5731,4.2202,6.7148,4.8327,4.492,1.1255,3.2321,5.1915,4.0055,7.7983,0.8806,4.5555,5.2141,3.3504,5.2084,8.6584,2.6199,4.1776,1.7989,6.58,2.2732,3.0479,8.1277,6.7926,3.2755,7.2227,3.4912,5.1951,9.0439,9.9854,3.9721,4.8921,7.2729,6.3118,4.4401,4.4925,3.213,4.6101,2.2915,4.4514,10.456,5.0344,8.3205,2.4855,7.7995,1.232,4.3356,5.6064,6.3399,4.6823,2.549,2.2474,3.3508,2.6894,3.6694,2.8423,7.7249,5.56,5.5902,3.0907,5.5754,5.6783,2.8745,2.3108,0.65011,6.9026,2.705,5.063,5.144,5.1621,3.5378,4.4549,4.2755,7.9643,2.3843,4.5004,7.3337,5.8966,2.5357,6.7252,3.862,8.4501,6.069,6.7218,4.752,4.1123,6.5087,10.119,4.3613,8.159,3.758,4.0013,6.4081,2.9502,7.0573,1.2105,4.6051,5.6913,7.7991,5.2255,7.0844
5.3232,6.2845,2.6747,4.6291,3.4872,4.2774,9.8262,1.7212,4.8712,4.0936,5.6273,8.7225,6.7944,3.3577,1.6563,6.6536,2.6236,3.2299,5.8155,1.4621,8.2047,5.0216,4.2837,6.5656,6.5621,4.2507,7.2106,5.6008,7.2055,5.3734,4.3779,8.6263,3.0811,6.1829,9.2256,3.8911,6.1863,5.4962,4.0337,4.7886,6.1494,9.8959,6.7377,4.2618,0.47512,5.3419,5.368,3.063,7.0069,5.6524,6.0817,3.7316,3.2987,3.7727,2.3641,3.652,6.3882,0.91565,4.8546,5.5158,2.7184,5.9712,7.5537,6.2938,1.3725,3.1964,2.9265,4.0545,3.3262,2.9532,8.9792,4.0672,4.4626,5.4235,1.0027,2.2961,5.8254,5.566,2.2537,7.2617,4.6502,5.1067,5.0357,3.5919,0.78576,4.5098,1.369,4.4358,5.2505,5.2299,1.7604,5.5993,2.1454,5.3476,6.1174,8.297,0.30499,6.6125,4.4413,4.6315,3.5647
5.1435,4.0821,3.3064,3.4791,5.9665,5.698,7.0097,5.4209,4.3249,2.1872,5.3172,3.9788,5.1163,6.5229,3.5776,3.6004,4.0809,5.0971,9.0264,2.759,7.5252,4.1751,6.5731,4.7677,3.4885,4.0809,6.7044,7.3676,6.7091,3.4249,1.8632,5.5026,5.7763,4.6913,9.1527,4.2333,3.2516,2.4686,0.73858,3.585,5.2884,2.5199,5.1851,6.3363,3.3613,5.6993,5.8571,4.547,8.8531,1.899,5.2316,2.6431,3.0846,5.5889,6.9931,5.0055,7.4496,2.6358,5.3675,3.4957,3.0079,6.2765,8.6773,5.7153,7.6036,4.7662,1.989,2.76,2.9103,7.0135,3.6045,4.8361,1.7677,4.2449,1.1372,3.1262,6.275,8.3215,5.6847,4.8486,6.9508,6.2072,0.78035,2.8442,2.7575,1.1925,3.1783,2.6335,7.0089,3.3253,1.8908,3.7426,3.1638,5.2038,4.141,1.4395,5.8891,3.8552,3.3468,2.8045,6.3491
4.2563,1.1978,9.0854,3.7633,5.0612,5.2387,1.7195,7.0738,5.019,4.7914,7.3481,4.8241,0.8388,4.453,6.9591,7.0557,5.0477,0.89983,6.8096,4.3655,4.8935,7.2011,5.3402,0.96282,2.7331,1.7518,4.8121,4.8089,3.0189,6.9643,2.8177,3.755,3.0734,2.5881,4.6028,1.5339,3.8258,6.2459,6.2109,0.36475,5.3486,3.5169,5.4414,4.8517,3.8175,4.4589,5.7748,6.025,2.899,1.6754,3.5994,6.6477,5.2132,5.3217,3.5497,2.8652,8.8868,4.2643,4.4166,3.9073,4.6347,3.8103,2.2751,5.5312,7.5369,4.8787,2.9108,4.6066,6.6483,8.2642,1.5104,4.7286,3.5692,5.6407,4.8449,3.2402,0.65895,1.9151,3.2025,3.9073,6.9776,3.2276,5.2751,6.4058,4.9778,4.6667,3.1938,6.2692,7.9369,5.4944,5.138,4.9856,6.6774,3.7861,3.4021,5.6137,3.8378,6.3762,1.3862,7.2967,2.9394
4.8369,3.3652,5.8265,1.3869,2.1165,7.7406,2.308,2.8851,4.4698,2.676,4.6456,6.7897,4.483,7.936,1.3198,3.747,2.5191,5.1076,1.7116,0.67427,3.5201,0.55877,2.469,3.1998,0.8601,5.5147,4.9766,3.0334,1.4394,3.7664,3.9903,7.0636,5.2473,0.68687,8.4608,4.0201,1.2705,2.4108,4.8872,1.3405,3.3534,4.1285,3.4546,4.7642,2.8566,3.8181,4.7373,0.34384,2.117,4.5063,4.7624,2.8168,7.0741,6.7003,3.971,11.268,3.5789,6.3886,4.2087,0.74665,8.2561,2.1243,4.4936,8.3415,5.6789,5.1128,4.037,4.8508,8.2777,3.3797,3.8784,3.3909,3.4816,3.9806,5.6292,4.5237,2.7552,7.7814,2.5284,3.6516,4.5068,0.83549,2.2378,1.6449,8.7835,2.8184,6.09,4.3758,2.2689,4.2558,5.1831,1.9592,6.8359,6.8333,4.1371,5.6198,1.8013,5.5313,4.0727,7.6909,2.3461
8.3189,4.2388,5.1104,7.1675,6.4574,2.4032,2.3225,2.3234,6.3996,3.9197,3.2865,4.3667,6.3198,3.8721,4.8313,2.8299,2.0124,2.8882,2.6365,3.3329,3.191,5.5453,7.14,1.0527,7.7889,6.8264,4.3895,7.435,4.6992,2.1074,6.5084,8.7716,2.6114,2.1459,6.5299,4.1486,1.4034,6.7307,3.882,2.5684,3.0061,3.178,6.1183,1.8298,5.159,6.2555,2.436,4.8828,0.81001,5.6255,1.8985,5.8498,5.086,3.3548,1.1657,6.9259,4.5105,7.6342,4.2152,0.55408,7.6603,3.6007,6.0916,2.7179,5.4512,5.9084,6.2733,5.2201,4.1141,4.4937,4.8171,2.6847,5.3254,2.0168,0.29389,4.5389,4.6028,4.6499,7.8299,6.7236,8.0163,4.6491,6.0593,2.9865,3.7244,0.6168,4.3407,6.0969,2.0297,3.7418,2.7142,2.5414,6.0465,4.3355,5.713,5.0106,6.1149,2.1035,3.8455,4.9105,6.5506
2.7712,2.8411,3.4855,5.4609,4.2745,6.3283,2.5046,4.8885,4.8402,0.74745,4.6573,7.5655,1.6466,2.7764,2.0113,6.3351,2.9387,5.574,0.74594,0.38769,6.0697,5.2555,4.6244,6.0087,4.1963,4.342,2.2972,4.0792,1.843,2.2653,3.0985,4.3396,7.2897,4.8208,4.8784,5.1547,6.4854,5.2296,4.1884,3.1875,5.2634,0.66784,4.1441,5.9607,3.6007,5.2223,4.4075,5.2389,3.0657,7.4276,4.8592,4.3442,1.6611,3.6709,1.1472,3.4786,1.5834,3.9312,4.3667,3.0837,7.3503,6.8183,6.909,5.2504,5.6317,2.7357,4.3257,1.7984,4.5433,6.3615,1.8419,3.6392,1.106,5.2817,6.5401,6.3641,1.9934,2.6314,3.8542,3.2639,2.9971,5.3429,3.5877,5.4572,4.5931,3.4529,5.644,6.166,3.4209,5.1089,4.5396,5.9176,8.0166,2.2236,8.2913,4.4922,2.45,2.4273,4.2974,4.3382,4.888
5.5658,4.6435,1.8967,2.5593,2.4231,2.7569,4.6307,4.6021,3.4761,1.9476,3.2812,5.1101,3.6701,6.7812,2.3052,4.5099,6.2086,2.2222,3.8158,1.5197,2.0818,1.0589,2.0746,4.6555,3.4511,5.0823,5.9636,4.6454,5.4637,5.4231,8.5983,5.4275,0.97033,4.5131,5.2495,5.795,5.5462,2.9522,3.9818,4.611,4.3545,7.9477,0.74736,5.6226,6.278,2.7566,4.9092,3.7506,1.8791,4.1265,7.2326,3.136,5.1705,1.7048,2.1005,1.4716,1.0839,2.0592,2.1442,3.0509,0.67003,2.9225,2.3913,2.3541,3.2991,6.249,3.9174,4.7613,7.0689,5.2836,4.1834,6.0791,8.3458,2.9025,5.6081,2.3139,1.4529,2.5846,3.7808,0.039481,0.75909,3.8139,5.1171,5.4834,4.7936,3.5706,4.9773,8.8669,7.8443,3.8093,6.7299,2.6972,4.6221,4.2131,5.4395,1.5194,5.164,4.2611,4.5784,1.8886,3.147
0.78884,2.368,1.908,3.1168,4.128,5.4508,1.7147,4.3705,5.9157,5.6717,0.6908,5.2248,3.4693,6.4904,5.6093,3.1183,4.3233,4.7938,2.6016,3.0275,1.5672,5.4354,2.602,6.0826,1.9307,5.6558,5.1692,4.8894,1.7753,3.4507,2.8823,1.9275,2.9309,0.63871,3.4915,3.4134,2.178,5.0403,1.7546,3.3145,4.8212,4.2138,2.2928,3.0068,2.7198,1.1614,3.7142,3.4715,6.292,4.0169,5.1731,3.5441,0.24056,0.92694,2.3338,2.9529,4.9215,2.1719,2.5728,4.2968,2.7028,1.4041,2.7184,2.4724,5.1452,4.2307,4.8622,2.9022,7.9235,4.0108,2.0056,1.2186,3.9905,3.0057,1.1635,2.8826,0.62538,5.1282,7.5863,5.2409,3.1684,6.448,4.3654,3.5163,3.9516,4.8939,3.4781,6.0856,1.2093,8.591,6.4335,3.3173,4.3595,2.0975,1.9843,3.9466,5.7192,5.6026,7.9523,3.1632,3.3636
3.0823,3.9537,3.746,2.4324,1.2061,2.8859,7.8915,1.893,3.6788,1.4549,5.9057,5.181,3.981,3.5826,6.5082,4.7811,3.6669,3.9356,6.6234,4.6221,4.189,4.7635,3.4847,1.7815,4.3783,0.56425,2.3432,5.7014,2.3424,4.1914,3.2611,4.2055,4.4856,2.7136,5.6309,2.6043,4.2196,5.532,1.5991,6.0814,5.0943,3.9083,2.986,5.9837,4.5281,4.694,8.8351,4.7368,5.9287,3.5765,7.1281,3.4914,1.7666,3.6418,0.38457,6.0841,1.404,4.2135,5.4262,4.599,4.3897,2.0168,3.5682,5.457,2.2101,1.3052,2.3346,5.3114,3.1474,4.1009,0.32939,2.1928,2.333,1.2473,5.9238,5.6668,0.66983,4.1526,1.823,3.356,3.7612,6.9504,4.3837,2.4155,5.2672,5.3527,3.9388,7.9714,3.3541,2.7938,4.7206,1.1776,2.8849,2.6385,6.2928,5.0285,4.8382,5.4367,5.3975,3.7364,0.95994
0.38482,3.6245,6.6889,5.1197,5.5281,6.9346,2.6388,2.3589,5.6303,2.2017,7.7003,5.2321,2.3555,2.8492,4.537,4.8971,5.7557,4.1941,1.6405,3.7288,0.6575,4.6394,4.6316,3.8297,1.8083,5.9531,5.4155,2.2114,1.0381,5.4462,4.7003,3.621,4.0346,4.8674,2.7405,6.4824,4.2067,2.1084,2.6231,6.3893,2.3283,1.5542,5.7299,4.1551,7.7069,3.0482,4.756,3.5167,4.3681,0.55658,4.0238,4.9917,3.5424,2.8752,3.6021,5.8942,4.1982,4.5911,4.7874,4.0939,6.2269,1.4441,3.4125,5.5968,3.5258,4.7652,0.49979,4.2106,5.5955,3.1091,1.191,1.6113,4.6708,5.6084,3.1584,2.5745,6.9505,3.3909,4.2707,2.8974,4.5096,1.2495,3.5939,1.8837,3.192,4.853,7.2466,2.7012,4.5584,2.6917,3.7219,8.7985,3.8951,2.428,5.4425,5.2965,0.68488,2.3467,2.7087,3.0751,3.751
2.3979,4.2403,4.3095,1.8748,4.1337,1.357,4.966,3.0403,4.7716,1.595,4.8862,2.9246,3.3021,2.933,4.6811,6.7787,5.098,3.4914,2.0509,3.5926,1.5873,3.2748,5.1832,3.2746,5.648,2.5132,4.2479,4.0486,0.84111,2.4693,5.2997,1.3275,3.1527,1.6307,1.6209,1.7285,4.9627,3.4489,4.1304,2.4075,3.2057,4.9884,1.05,2.0306,5.3288,6.578,1.8365,4.2511,1.1252,4.656,3.6836,1.5573,4.3803,5.781,3.1446,1.7708,1.3642,1.1345,4.1754,4.0659,1.9841,4.8346,1.4613,6.1941,2.9292,4.8333,3.4595,3.5277,2.494,7.0801,2.5834,4.7308,5.6823,2.8069,6.1223,4.2597,0.6786,2.5631,3.1676,4.6194,4.758,4.729,0.75424,0.60825,5.9311,4.9633,4.2009,6.3032,6.8607,2.005,3.5144,4.2359,3.6599,3.8127,3.7967,5.4511,3.4258,2.9725,2.5679,3.7037,4.4271
2.8046,3.3572,0.31595,1.2925,2.6435,3.0135,1.3788,1.1715,4.4416,3.5699,5.8345,4.3191,1.1989,3.578,2.91,4.3352,4.9905,2.9591,3.5954,2.0089,5.5143,3.4187,2.3531,2.4901,6.6392,4.2502,4.0906,3.9384,4.1524,4.1851,3.3357,6.4447,2.8876,1.7863,2.5716,5.4809,4.749,5.4608,2.9336,3.5993,0.016227,5.0481,3.1281,3.4263,5.1719,2.8257,4.1096,2.0153,2.3544,4.3117,2.938,0.46959,2.3435,8.6287,4.2226,3.7163,2.5784,0.0068535,3.5713,1.6406,0.6711,2.9352,5.2815,4.2648,2.5152,0.35857,2.352,1.1625,4.1071,2.2564,5.9071,3.1101,0.55489,3.4686,4.632,2.4199,4.4504,3.9427,4.025,2.7287,3.0914,3.0793,3.0899,0.66999,3.2908,1.1537,3.5574,1.1974,5.8087,4.8209,2.341,7.0883,5.4014,4.88,1.0164,2.0437,2.7266,0.93286,4.5184,2.3711,3.0226
2.2315,3.0569,5.6755,1.4911,2.3707,4.2098,1.3806,2.2741,4.4765,1.0133,5.0936,3.8287,4.237,3.1884,1.4266,0.34704,3.4901,4.4982,4.5137,3.0608,6.1704,3.5469,2.4925,3.4038,2.1106,4.4479,6.0065,5.0801,3.6603,0.77509,2.0735,3.9378,3.0778,5.6939,4.4001,0.6444,4.3501,4.414,6.3543,3.3681,3.6867,0.39029,2.3897,0.53707,2.9498,1.8175,0.9055,3.2071,1.7077,5.4883,7.209,3.4889,3.7212,5.9001,2.0966,3.916,2.8542,3.8312,3.0602,3.4495,1.3072,3.453,0.54636,3.0204,3.5425,2.7158,3.7992,4.802,0.35696,0.60555,2.1038,3.9829,3.835,2.578,4.2553,6.9425,1.2803,1.698,3.4547,4.6402,2.549,5.1697,2.7999,3.6521,5.0331,4.2693,3.7812,5.7729,1.5761,2.3818,3.7462,2.5749,2.2041,4.5068,2.3049,3.9235,2.8863,2.4337,4.035,3.7371,2.6072
1.2076,3.307,1.8445,3.0847,5.3203,6.1106,4.5179,0.29153,5.697,5.0055,3.5566,7.3957,2.2969,6.2728,1.1585,2.4092,1.042,4.1018,3.7515,1.9613,0.62861,1.4281,0.58001,4.2755,5.0097,0.028304,2.2651,4.7803,5.3197,5.7028,2.4107,1.9501,1.2867,4.0812,4.4584,0.4114,2.8631,2.1728,4.1716,5.1269,5.225,3.9694,2.3713,2.2674,1.0388,5.163,1.5255,1.6513,5.6686,3.5556,2.463,3.47,3.7947,3.882,2.7918,7.1382,4.9758,1.432,3.0524,3.9865,2.6076,3.0288,2.5367,0.78838,6.8654,2.7639,7.2091,1.5399,2.6562,0.80165,1.6009,4.7004,4.4425,1.5659,3.3759,2.3331,4.5692,1.7531,5.8532,0.37577,3.6224,0.44159,1.8301,1.2129,5.841,2.8231,3.6843,0.567,1.4167,3.7226,2.9279,4.2747,5.1502,1.4884,1.3983,3.914,2.8967,3.1325,1.5481,1.4369,3.8976
5.7135,2.4068,4.9297,5.3832,4.8669,5.6377,3.63,0.2082,1.5791,2.7397,0.48966,2.0986,5.2185,1.6542,3.3598,3.4956,6.208,2.571,4.127,0.87225,1.4865,3.5741,3.9171,2.1889,3.4842,1.8411,4.0037,1.7897,3.4436,3.619,5.4928,1.0836,3.3785,0.013673,3.2277,4.368,1.157,2.652,5.1385,5.8794,3.0113,5.5846,2.7328,1.4921,2.8277,1.5748,1.9304,5.3984,3.3937,6.5529,3.7798,3.6211,2.6197,1.4616,3.3017,2.3554,0.30703,3.9008,2.7216,3.4621,2.1052,4.1964,1.9697,3.6248,4.1666,2.7904,1.4116,3.4216,4.8759,3.2055,3.2525,3.6147,2.351,3.5943,2.0468,3.4505,4.999,2.8503,1.1361,2.8285,3.7606,2.5391,5.8889,2.2426,2.2706,5.8341,3.5257,3.9361,5.3207,1.8715,2.6857,4.5157,1.6261,3.422,0.99007,3.8911,6.885,2.7259,2.3101,5.8886,1.381
2.2668,2.8532,3.9445,1.0517,1.2585,3.4284,2.5866,0.050519,2.9429,3.682,4.0469,1.0978,3.9193,2.7655,2.8789,2.2165,2.3777,6.1528,2.6467,3.7804,0.37231,1.5759,3.1595,3.526,7.1899,2.4296,1.4262,1.1377,4.5344,2.1814,3.7083,3.2562,0.17904,4.2154,2.472,1.7798,2.6479,3.5801,4.7938,3.0833,4.3322,1.9771,6.0564,3.9496,4.0249,2.3275,1.4709,1.6642,0.69762,1.5043,4.9251,1.8888,2.8076,5.5655,2.0585,2.5656,4.0883,3.2493,3.6982,2.2638,2.6074,5.6721,6.3571,2.8506,1.5889,2.7542,1.9243,1.6836,0.26528,2.8591,1.8055,5.1645,1.3252,3.7667,3.7091,2.1583,1.1977,2.0976,3.71,2.7028,0.57382,4.5393,4.1661,2.5845,3.0494,3.0348,3.2134,4.2256,2.2946,5.6194,0.95666,2.36,1.5432,1.7737,0.091575,4.8975,3.0393,2.6927,3.0733,1.6969,2.2782
4.3191,2.7021,3.671,3.9131,4.5385,1.9164,1.5637,3.4503,1.2323,4.7858,1.0133,4.6449,5.542,0.65242,4.7967,3.6843,3.0078,2.4146,2.5023,4.2948,1.729,1.7909,7.9976,5.4834,4.6376,4.4208,2.7712,2.4933,4.091,3.9403,5.5051,4.8639,3.5751,1.8883,2.3396,3.6703,2.0237,2.0677,5.2534,2.5894,0.16136,3.2251,2.0102,2.1471,2.5796,2.8762,1.1043,2.7713,1.2473,2.1526,3.2791,3.2798,4.9387,5.6358,3.5602,1.4273,3.7083,4.9151,4.7064,2.9857,0.37211,0.65205,2.1997,3.6871,1.8251,0.18218,5.0297,2.0546,4.4918,3.547,0.6243,2.9063,3.9442,1.6635,1.6491,3.3511,1.0729,1.6703,5.0377,2.237,3.5764,1.9938,0.22439,2.0112,1.8718,3.1511,1.97,4.5087,3.4663,1.921,4.4318,2.9283,5.5511,2.1285,2.2812,3.611,4.5809,0.78755,2.4944,3.2313,5.3688
2.2915,2.873,3.8276,1.7012,1.0487,2.3422,3.5555,1.0119,0.15524,2.8181,3.5108,2.3346,3.5974,3.9657,3.8464,2.3785,3.1593,1.8105,5.2121,1.5338,0.82015,1.6885,1.5762,0.6123,0.61495,5.5744,2.8323,1.1976,4.482,1.1404,5.2526,2.2404,1.4535,4.8996,1.8015,2.7363,3.9211,3.2006,1.6673,1.4313,3.8475,4.4973,3.1268,4.251,3.2541,5.1173,5.1947,1.7592,2.7548,3.7135,4.8387,2.9651,1.8722,2.6722,0.52252,1.8436,1.3036,3.0223,2.3188,4.6116,3.0456,0.85154,3.4462,1.0797,3.0636,6.7555,1.9996,3.0542,4.6118,1.0469,4.7908,2.0603,4.0952,1.8409,5.5767,4.69,1.5896,5.7392,2.2605,4.0522,3.015,2.7135,6.0721,0.18327,0.2182,4.0609,4.077,4.8777,0.26941,2.6679,1.7338,4.2602,1.6768,4.0476,1.4607,4.4989,3.3366,0.76517,0.82257,2.815,4.2323
5.0278,3.7053,0.77061,3.0225,6.2629,4.6728,3.5178,4.0505,4.8119,2.9439,2.4595,2.1946,2.8944,2.2555,1.3926,1.124,3.6185,1.7155,1.1053,0.4074,0.40379,3.7463,2.0417,3.6367,4.6042,2.1994,3.8093,7.3308,2.0882,3.3585,2.1367,4.4445,1.983,1.9555,3.708,2.597,1.5215,0.34813,1.7551,3.9113,3.7663,3.5185,4.2999,2.3088,3.2514,2.532,3.3612,2.3314,4.3079,0.09857,6.4644,2.1938,0.6333,0.77457,2.5654,4.7444,1.1019,3.3122,1.2925,4.1812,1.7373,1.3384,6.1634,3.0857,4.7548,4.1858,2.9735,4.8281,2.4472,3.5183,0.1114,0.64975,3.8739,2.0578,1.9668,3.2557,2.0477,0.88029,3.3986,2.6819,0.14673,2.4711,2.266,3.483,1.6172,0.44285,2.5097,3.4456,3.2178,3.7041,1.1125,1.2501,1.5467,3.6338,3.0925,3.2018,4.2832,3.7318,2.3497,2.8945,6.2472
4.8464,1.8303,1.9199,2.7602,4.6249,4.8107,2.5274,1.9203,3.745,3.7125,2.3416,1.6583,2.957,5.5163,0.22434,5.2874,1.2106,3.4627,4.3164,1.1682,2.2527,1.2437,0.086814,4.3666,1.7779,2.5948,5.9176,3.0914,2.5042,3.6953,2.9295,0.62104,3.7176,2.5594,2.404,3.7618,2.858,1.6717,0.61946,3.5851,3.8025,2.8703,2.6924,2.4028,2.3572,2.2109,4.8335,4.3979,1.9511,3.7263,1.6209,1.4023,2.3509,2.8767,1.6437,0.24956,3.8231,1.8342,2.5826,3.479,2.6791,2.5822,3.1164,3.4216,1.6262,3.1077,3.5141,3.1089,0.11637,4.3769,0.88608,5.6499,1.4906,2.1957,4.2842,0.37893,3.286,3.7199,3.4044,1.3858,3.2723,0.98303,3.0228,1.6656,2.848,1.2443,3.2052,1.761,1.1867,3.2968,5.32,1.6599,4.8419,2.2513,1.25,2.6779,1.8946,3.654,1.1749,2.7525,3.0052
2.6622,2.9122,1.7978,0.14169,2.9931,0.97862,4.2101,1.9792,3.8164,5.1684,1.93,1.5182,4.2071,2.9598,2.5211,2.6857,1.3028,4.11,1.7409,4.2046,1.6997,4.7473,2.9288,2.176,4.4398,1.9622,1.4415,3.1669,4.7599,3.6268,2.6403,3.2711,3.2759,2.1799,3.0865,2.4423,3.5633,3.4372,0.22238,1.6043,0.53158,2.6133,2.2773,4.1231,3.1472,4.6776,2.4396,1.6186,6.5984,2.9188,4.1347,3.3025,1.8547,1.961,0.88344,1.7969,1.4249,3.6043,3.1791,1.6682,0.60354,3.6894,2.3364,2.9869,3.0056,2.275,3.5865,2.8203,2.5358,0.79169,2.5251,3.9013,1.8211,3.0919,3.459,7.6891,1.3351,2.1425,1.7879,0.056935,2.7508,2.9732,1.8938,2.392,2.3019,1.9883,1.123,1.3338,1.0235,3.5593,2.4219,2.9773,1.3624,2.5407,3.4451,4.2571,2.9284,2.7113,2.535,2.289,5.5142
0.5947,2.6926,3.0636,3.059,4.632,1.9391,1.9323,0.13443,2.8495,3.9815,0.44123,0.29613,1.4552,2.5301,4.1115,3.2492,2.2549,1.0799,2.4758,3.2135,1.2679,2.7368,2.7987,4.4292,4.7834,4.0709,1.3795,0.35638,1.446,1.6451,2.864,2.0488,0.29508,1.8443,4.8238,1.3884,3.455,3.4117,1.3719,0.024806,0.018128,3.6273,2.1971,4.0222,1.6597,0.70712,3.6099,2.7025,5.2689,2.9166,6.2134,4.0377,0.12866,2.7229,2.3131,1.2124,0.92043,2.8056,1.5239,1.059,2.4577,6.4033,2.7609,3.5691,1.5463,0.64237,3.2187,2.4562,2.3091,3.7105,5.5937,3.8679,1.8651,2.8466,3.8343,2.4905,4.6558,4.2894,3.3065,0.53591,0.82471,3.9986,2.3418,5.3158,2.196,2.3656,2.036,4.3633,4.0082,2.6698,1.6098,1.8025,1.8216,3.4332,3.9466,4.9206,3.9842,0.71821,3.9345,2.577,1.2873
1.9989,2.0847,2.3067,2.5188,2.0981,1.6288,4.1744,4.5001,3.1311,2.4097,4.4623,1.744,1.8463,2.3899,3.8156,2.1491,3.1374,2.1518,2.6422,4.4237,3.8315,0.69455,4.8185,2.3934,3.7212,3.2037,2.9316,4.0851,3.0262,3.3353,1.7872,2.5981,2.637,2.8247,1.4572,1.4364,0.67333,3.9688,2.4463,2.9916,3.8744,0.5491,0.58137,2.0362,3.352,0.98487,1.163,3.1145,2.7808,3.1493,3.3549,3.8891,2.5233,2.8627,2.4452,3.9239,2.3679,1.4294,3.3768,0.60029,0.5878,4.2688,3.0357,4.3831,3.6198,3.2378,2.486,0.29755,2.2934,2.6167,3.0727,0.91889,2.4423,4.9116,1.4668,2.4648,2.5733,0.9111,2.8534,2.6249,5.6669,4.3911,4.1416,3.6053,1.7842,0.48366,1.5907,3.0665,5.2038,0.78282,5.1384,0.70655,3.5235,2.1934,6.0977,0.47241,1.23,1.6193,1.7339,2.6268,2.8035
5.3511,4.3505,3.666,1.2469,3.8318,1.9313,1.7972,3.0431,0.44388,1.6109,0.96931,3.502,1.8363,4.3771,1.4449,3.1631,2.9602,2.8136,0.78134,2.318,2.0393,1.3667,1.7727,1.5068,1.765,0.94216,0.40706,1.2647,1.7966,3.7216,1.3504,4.5531,0.19606,5.0645,2.4937,3.2834,2.7375,5.5887,1.9802,2.9552,3.2328,1.6685,3.453,1.6686,3.5395,0.73846,2.3334,1.7945,1.0664,2.3604,0.028427,0.058869,1.029,3.4859,2.3026,4.0911,3.7017,1.51,0.19692,2.2696,1.709,4.0555,1.1331,4.586,2.6077,2.9214,1.1609,0.71184,1.9654,2.26,0.04749,2.3931,1.0808,2.8572,3.6855,1.1451,1.8236,3.5648,4.6443,1.276,1.5542,2.4935,3.444,3.5416,5.9689,2.9339,0.48474,5.6893,0.73869,1.1759,3.5823,2.4902,2.3301,2.237,0.2286,0.30939,3.3565,0.89108,2.9396,1.8491,0.28296
2.5813,2.8006,2.8942,1.2596,1.6356,1.5208,2.3966,2.9046,4.5668,1.2521,1.2322,1.896,3.8599,1.5702,3.518,1.0752,0.89852,4.8169,3.4182,2.9888,2.1649,1.2746,3.8805,3.8159,0.46421,1.6145,4.3339,2.7293,4.0749,1.3078,2.8556,1.2427,2.607,2.2125,1.0369,1.3479,1.0109,2.9192,0.62721,3.024,1.7271,1.8084,0.86801,0.92667,1.1672,0.805,1.1181,1.2126,2.9563,0.72421,2.4796,1.5764,3.3851,2.7121,4.3273,2.5048,2.9464,1.5992,0.81237,0.14209,4.74,0.24927,2.9068,2.2554,3.1673,1.8266,1.7533,3.0801,1.6902,2.5099,4.2352,3.064,1.282,1.7497,4.2348,2.6224,4.4259,2.1719,2.447,3.5735,5.543,3.5574,1.3246,2.1634,1.1482,2.1711,0.67793,2.977,2.8569,0.20134,2.907,2.4499,3.6892,2.4487,0.77139,0.83871,0.3386,2.5054,3.3966,1.5307,1.6801
1.2924,0.26081,1.4833,2.5564,0.86585,0.33142,0.48742,3.2348,2.4849,2.2918,3.2112,3.3225,1.1812,3.3851,2.7643,0.072442,1.4858,1.992,2.2549,1.9962,0.88469,3.6778,1.3628,0.71372,0.24274,6.0644,1.2222,4.2264,1.3327,3.56,1.2264,1.058,2.5964,2.3149,3.087,1.356,2.8907,1.0741,3.2751,3.0423,2.513,0.5582,1.2179,2.2638,2.8256,4.4127,1.4054,1.8749,0.59879,2,0.81124,3.5771,3.1963,2.421,1.6771,4.4388,2.5931,3.0541,2.1502,3.9939,0.95409,2.1722,4.0552,0.79154,3.9038,1.7541,4.1465,2.8795,2.077,2.4567,0.77579,2.9582,2.6538,2.8101,2.4817,2.324,1.5339,3.8985,3.3029,0.30014,1.3323,2.6839,1.5371,3.6361,0.2664,2.8418,3.1305,2.5829,2.4415,0.12574,4.4868,1.8824,0.25646,0.6556,0.7348,2.9669,1.6077,2.3596,3.2514,1.1212,3.1779
1.7523,1.5952,2.4851,1.7692,1.1941,4.4303,2.085,2.0471,1.4424,3.7933,0.64926,2.1774,2.0964,3.646,1.6568,0.85415,1.2132,2.211,1.7454,3.4843,1.3361,5.5975,1.9949,1.6549,2.1379,2.3304,2.7937,5.7461,0.57884,1.0449,2.4535,1.4828,2.8148,0.041859,3.656,2.3923,2.4845,0.26971,1.1707,2.2493,0.92925,3.1744,1.114,0.89635,2.6796,0.74441,3.3931,0.97585,4.9048,0.81022,1.3537,2.4106,2.5218,6.1745,4.0037,1.2963,2.9595,4.0344,1.9462,1.5802,0.17158,2.8464,1.8622,3.5057,0.57538,3.654,0.36597,4.1645,2.2713,3.7103,3.2422,1.1724,3.8081,2.5995,1.7918,2.3402,1.3287,0.082785,1.3495,2.9705,1.8671,2.2069,1.3708,2.4601,3.1722,0.95804,0.21653,2.7881,1.1014,2.3661,2.8654,3.0147,2.5426,1.9036,2.1914,4.7643,2.0819,1.517,3.9925,3.6593,4.4415
3.2982,2.7301,3.8914,1.7185,1.5442,0.82508,4.3718,5.2297,3.3706,1.1267,0.26994,0.69079,2.0301,0.1538,2.5782,2.637,2.5411,0.47549,0.62902,1.1417,1.0596,3.1329,1.7497,0.76095,2.6543,3.3187,3.6313,0.51203,2.0546,3.5294,3.6592,1.4011,2.9131,1.7769,1.682,3.5566,2.2834,3.293,2.6341,1.0496,2.7194,1.7346,0.23926,2.2356,1.9397,1.2181,2.1152,0.76661,4.6069,3.4181,0.87838,1.057,1.0591,3.2029,2.1158,2.6441,2.2555,4.6038,2.3974,3.7746,2.6932,2.6346,3.5492,1.4641,0.039531,0.9475,1.2152,1.498,1.6524,2.3048,4.8863,0.78208,1.0177,4.3989,5.3952,0.92665,2.6425,0.96663,1.8421,1.8106,2.4003,0.12296,2.2812,1.3672,1.7519,0.4894,5.9497,2.0202,1.8124,1.6287,1.7856,3.6497,0.013751,0.87783,3.3647,2.6065,1.6805,3.8401,1.8106,3.2755,1.9457
4.3445,3.0245,2.7811,0.71073,1.2813,2.4146,2.2832,2.2663,2.3718,0.30505,3.8931,1.1387,0.33218,1.3912,3.6006,2.475,1.1291,1.0468,2.8046,3.2981,3.0471,3.2591,3.5952,0.76728,1.1871,0.60153,0.082783,1.9595,1.3713,2.4851,0.60379,2.3528,2.1545,0.98654,2.0011,2.5885,0.52009,1.3027,4.334,0.80501,2.401,1.2097,3.2041,0.22182,2.5711,0.26397,2.775,2.564,1.7164,4.3501,2.6223,4.3317,2.3129,2.8586,1.631,3.0969,0.33192,0.38905,0.31325,5.1731,4.2627,1.0351,2.4929,0.91659,1.4847,2.3056,3.5395,2.7338,1.859,3.5925,1.6334,2.7856,4.6799,0.27929,1.5007,0.54094,3.2459,1.2523,0.47971,3.2396,2.7744,2.0408,1.1714,0.56453,3.7247,0.97637,3.0551,4.2146,3.7227,2.7401,0.11505,5.0779,0.071112,0.94369,1.8637,2.9116,2.2617,0.78323,0.5201,1.3626,1.4907
1.6346,1.3095,2.5042,1.6345,1.0319,1.4503,4.0389,1.9122,3.2578,1.3108,0.87704,3.7061,2.6508,1.0094,3.6826,1.505,1.7347,1.7562,1.6148,2.2073,2.5659,1.8012,0.30637,2.4418,0.46013,2.9967,0.8753,0.55099,2.1922,1.3322,1.1133,1.0749,2.9686,1.1589,1.6715,1.0194,1.5858,0.75965,2.521,2.1817,2.9687,2.1665,2.2659,2.0819,3.9143,1.6528,1.3385,2.2024,1.2833,0.035863,1.0202,1.0713,2.4583,2.5433,1.543,2.1389,0.62091,1.6917,1.4117,2.7596,2.9912,1.0829,1.9063,3.4031,3.3296,2.6714,3.1646,0.56653,0.12669,2.4445,1.6161,0.22267,2.7777,3.6886,2.1765,2.2027,1.992,0.86869,1.8519,2.9796,0.28081,3.1124,3.5209,1.7077,1.6691,3.6759,2.4643,2.4247,1.622,0.72195,1.2147,2.3884,0.58488,1.7828,0.83015,0.013123,4.0259,2.9987,1.5457,3.3738,1.9365
2.3917,2.3348,2.1658,1.782,1.7499,0.80366,3.3298,1.3686,1.709,0.33867,1.8061,3.7573,0.28667,2.7225,2.4766,3.8075,1.9293,0.23012,4.0477,0.36969,0.87056,2.3465,2.2627,1.6626,2.1007,2.3455,1.5402,2.1174,1.2723,1.0735,1.0858,1.8694,0.42287,0.83661,1.6044,2.2395,1.4928,1.7612,0.92791,0.9625,0.97754,3.6645,3.1251,2.4415,3.3888,1.8734,1.0088,2.9046,0.8634,0.72748,2.485,0.99181,0.3802,0.7191,0.9179,0.77858,2.4645,4.6403,0.98439,2.5597,4.129,1.7435,1.2604,2.0434,2.0406,0.67179,1.9155,0.9772,0.30703,1.9219,2.9588,2.5585,1.7668,2.698,3.198,1.5775,1.3291,2.7098,1.7534,4.2467,0.04302,0.35276,1.9488,1.6873,1.4482,3.0079,1.562,2.4501,3.9263,3.3029,1.1167,4.7132,3.0556,2.0722,0.3501,4.0265,1.6163,1.6133,1.8035,2.0647,4.7039
3.4736,1.6017,3.7831,1.2472,0.31307,1.1114,0.91359,1.5438,1.6169,2.786,0.78565,3.0133,1.3064,2.3753,4.1087,1.8842,2.3619,0.80015,2.0097,0.67634,1.4824,0.78221,1.8247,0.55581,2.8264,2.0513,0.030858,0.4868,1.6921,2.2074,0.12596,1.0557,1.3935,0.19588,2.2876,0.8718,1.7934,0.44604,3.9732,1.8189,1.3449,2.151,0.27686,0.18117,0.78259,0.83759,0.89391,3.876,2.5534,3.4784,1.3453,1.5109,1.2849,3.8603,1.0307,0.64811,2.122,0.0801,3.8325,3.0259,4.7514,2.4307,1.9739,3.3247,1.8833,1.6812,0.47347,0.69525,1.6583,2.5714,2.9848,0.85102,1.0892,0.55166,0.075603,2.0886,1.3167,3.452,1.1433,2.8484,1.0382,2.2966,3.3141,1.4641,1.9911,1.0908,1.9678,1.8508,3.8781,2.1516,1.7045,2.3887,0.017921,1.0955,2.3554,1.4023,2.6513,0.057056,2.2627,1.3892,0.68847
0.85116,2.1065,1.5539,1.3971,5.4242,1.9375,2.1626,3.7195,2.1468,1.6632,1.7438,2.0608,3.0265,2.0372,3.1567,1.5101,2.7135,0.98282,2.7467,0.14091,1.0669,1.0005,3.9681,0.34952,0.05718,1.9932,0.098983,0.30157,2.2528,2.0142,3.3739,2.1397,3.4949,2.678,3.7431,1.8166,0.81929,1.3273,1.8951,1.05,2.3326,1.965,4.1515,0.0099445,1.6603,1.1837,3.2783,2.342,2.6873,1.5075,2.8236,3.6095,0.76115,0.4912,1.7411,0.76616,3.2322,1.2979,0.2328,1.755,0.64117,2.1606,0.9257,2.1366,3.1545,1.5918,0.83477,2.0765,2.7841,2.1884,1.5986,1.5606,0.34708,1.4789,1.5983,2.4251,2.6557,1.9265,0.6103,1.7675,1.3757,1.8445,2.4474,2.0498,1.5341,1.1407,2.4147,1.9336,0.73013,1.6658,0.42371,0.65069,3.6148,0.082021,5.0556,1.7727,2.1598,3.3949,3.9127,3.0129,0.30579
1.2529,2.1486,0.50261,0.78788,0.94045,1.409,0.77418,2.3543,1.7155,3.3419,0.64281,2.8191,2.2776,2.4092,1.4814,1.4921,3.0791,1.3563,2.0965,2.5376,1.2799,1.8055,1.0466,3.076,0.44778,3.241,2.9124,3.4606,1.9588,3.4239,1.5208,1.3963,1.0598,2.1711,1.0724,1.5226,1.2767,1.3272,1.299,2.0038,2.5314,0.71537,2.4706,2.1373,1.6122,3.8153,2.5716,1.5573,2.4827,2.4177,3.7248,2.5178,1.8541,0.45415,0.47085,1.4756,2.1127,2.448,1.1956,1.3044,2.4497,2.6469,3.1156,0.070896,1.9581,2.9249,0.46475,1.2301,1.0205,1.5115,1.0244,2.5537,4.1506,2.8712,3.0591,1.3861,1.8239,1.0294,2.5886,2.0015,1.8884,2.6829,1.4893,3.1147,1.5671,2.473,1.6935,2.2473,1.8255,2.3406,1.0664,3.1107,1.1699,2.0612,0.16142,3.3411,2.6657,1.2177,0.47663,1.1193,2.0793
2.0774,2.3832,0.85896,1.596,1.3359,0.77887,2.5841,1.9918,1.1222,1.0486,1.5093,0.6803,0.43331,1.457,1.0543,1.1819,2.1001,3.7241,0.53052,3.8697,1.7115,0.70365,2.3513,2.0316,0.87129,1.7015,1.9222,0.19811,2.3331,2.2935,2.8095,2.3471,2.5029,1.199,4.3288,1.877,2.0408,3.1839,0.24765,5.3114,0.033019,3.3175,3.2038,0.71458,0.40861,1.7431,2.1218,1.9367,0.9592,1.4718,3.7685,2.078,1.2821,1.5676,2.7335,1.1497,2.584,0.54626,0.66079,0.54924,3.3201,3.0843,0.69313,2.1995,3.2277,0.48152,0.32855,1.0293,2.7574,1.8999,1.3453,2.913,0.18161,0.24115,1.5676,2.0075,1.9342,0.37104,1.0358,1.2281,1.7798,1.7334,1.8173,0.61715,2.2427,2.8487,1.2972,1.1163,2.1716,0.51657,3.7047,0.56552,1.572,0.57072,0.98609,1.3504,2.8147,1.0346,1.5043,1.3442,3.0355
2.1838,1.5887,1.5289,1.404,1.4603,2.2471,1.5119,2.3377,3.5945,2.3436,1.3459,0.62862,3.7446,1.0271,2.7756,2.539,2.3197,1.9701,0.79863,2.4339,1.3531,1.5177,1.454,0.94042,0.037981,0.98212,3.0063,3.9431,1.4448,2.2674,2.0231,1.7236,0.37921,0.63667,3.5484,1.6051,0.18057,2.3689,2.0945,1.1154,2.1772,1.1461,1.3267,0.32237,0.853,1.5584,1.6706,1.8764,1.3798,2.2809,2.5389,2.2694,1.6862,3.0837,1.7239,0.59074,0.24829,0.017355,1.6827,1.667,3.823,0.43322,0.4112,2.155,1.2821,1.5202,2.3223,3.2831,0.967,0.60084,0.66274,2.9616,2.3332,1.605,2.3655,1.303,1.0383,2.4094,3.3041,0.42553,2.8202,1.5625,3.0569,2.6979,0.3537,3.8341,1.7562,3.4269,1.0852,1.0204,1.6891,2.2064,1.1457,2.0296,4.1518,3.3934,3.6086,2.1623,0.65042,1.9471,2.3235
2.6873,2.3556,0.72201,0.78624,2.0537,3.3048,1.3309,2.5545,3.0536,1.5371,2.9386,2.2104,0.66831,0.27437,1.3067,1.2653,0.96967,2.5439,1.43,2.2728,2.3592,1.7704,0.38006,2.1345,0.93281,2.6153,4.3847,0.48446,1.464,2.9258,1.1482,2.7039,5.5164,5.3057,2.6665,2.2152,0.75683,1.3272,1.6589,1.5622,3.4363,1.5785,3.3699,2.3702,2.4154,2.3991,2.2343,0.60454,1.9046,1.9902,2.1074,2.3134,2.8507,1.5416,2.0971,1.4575,2.6297,0.72681,2.7103,2.5076,1.2782,1.8155,1.033,1.2922,1.825,2.488,2.509,1.8677,2.9523,1.8943,2.9111,3.7254,0.027626,0.088881,2.9462,1.2625,2.0182,3.3257,0.67704,0.27559,1.5534,1.6711,2.0731,2.0512,1.2002,1.1554,2.3725,0.12177,1.7364,1.7988,2.5042,2.817,0.92147,0.26652,2.3873,1.3908,1.5138,2.9217,3.6397,0.3928,0.8565
1.4976,2.1907,2.9839,2.0683,0.89071,2.5822,2.0847,1.2058,2.0991,1.6357,3.5528,1.1008,2.895,2.7996,0.76717,2.2014,2.4593,3.3327,0.44431,1.5875,2.2245,0.65228,4.9459,2.3566,2.3604,1.2083,1.0276,2.3604,2.7921,3.1223,3.0229,2.6888,1.368,1.3664,0.35807,1.2384,1.8613,0.91454,0.91547,1.5081,1.0108,1.0154,0.027556,1.7618,1.9084,0.069229,0.96076,2.0394,1.6445,2.4145,0.62175,1.5032,0.43424,2.2983,1.4927,0.3226,1.3043,1.8679,1.7899,1.9559,2.3423,0.45353,2.5983,0.73255,0.39513,1.6183,2.1737,1.9438,1.7493,2.0965,1.0303,2.2086,2.1328,0.71278,2.5132,0.96988,0.66917,1.0936,2.4946,2.3203,2.3429,2,0.62762,0.062677,2.4735,1.8822,1.5417,1.6111,1.8794,1.8297,2.8123,2.1806,1.5007,2.5547,3.6393,1.6954,2.5659,0.10754,2.7556,0.72638,0.99899
2.1468,0.87813,1.9865,0.77242,0.96523,0.10122,3.535,1.0704,0.41381,1.652,0.7444,1.4665,3.7808,1.6988,1.7158,2.2566,2.5601,0.72902,1.7664,1.9032,0.035252,1.1631,1.5911,0.36846,2.8356,0.75218,0.61684,2.1399,2.8844,1.5578,0.12776,2.5627,0.47463,0.19614,3.1438,3.7459,1.6021,1.459,2.2233,1.0612,0.44414,0.74437,0.80186,1.2072,0.080995,1.5945,1.675,2.3109,0.76753,3.1986,0.96616,1.9755,0.81973,3.3363,0.79726,2.4305,0.93714,2.45,2.62,1.1658,0.9632,0.69806,1.1297,0.84861,1.036,1.6902,0.47637,0.60278,0.64601,1.305,0.40002,3.1455,0.70348,1.9811,3.6491,1.3622,2.7057,2.2481,1.3418,1.7174,0.62831,1.4829,2.3464,0.72892,0.68901,1.1133,2.2355,0.20626,0.1296,1.0133,1.0436,2.1538,2.604,0.11161,1.2497,0.87181,3.2174,2.2095,1.3212,1.534,1.7541
1.8155,0.88687,0.16197,3.0999,0.67883,1.3568,2.1001,1.3373,0.42963,3.1772,1.845,3.0288,1.1541,1.1778,0.60118,4.0876,3.1619,1.269,1.0166,0.37122,3.065,0.31681,0.80598,0.061429,2.116,1.2273,0.75116,1.0138,1.1849,0.22231,1.0656,0.32356,2.2318,1.8665,0.91022,1.6858,0.33339,0.60901,0.59697,1.5439,1.3683,0.18639,0.74924,1.0611,0.72014,2.0553,2.7888,2.4586,1.7496,2.5448,2.6593,1.9415,3.5887,1.0181,1.7051,0.78683,0.58036,0.18688,0.43654,0.96275,0.49858,3.0873,1.9108,2.6434,0.69643,1.9145,2.7079,1.6407,1.769,0.39445,1.1363,1.1948,1.043,2.1454,0.42341,0.93867,0.79551,1.7817,2.7467,3.3382,3.6985,0.15863,0.47126,3.5276,1.7363,0.67516,2.9092,0.7767,0.23506,2.5865,3.5444,2.1554,3.0188,3.0947,2.1036,0.72579,2.3452,1.6845,0.026684,0.66861,3.0174
1.6284,0.40824,1.894,0.15762,1.5136,0.26796,2.7364,1.8503,0.88064,0.87464,1.2525,3.7198,1.6104,0.11251,1.6407,2.0837,1.8566,2.8702,1.5209,0.9264,0.12381,1.3432,0.12763,0.89094,0.79599,1.2111,1.7877,0.79061,1.3426,2.3914,0.14958,0.94867,1.4553,2.2706,0.36363,1.2945,0.60343,0.042027,1.2235,1.0725,1.2185,0.10563,0.68583,1.6389,2.0452,0.96024,3.502,0.12147,3.1025,0.2215,1.0517,0.14949,0.39461,1.0812,0.76087,2.2394,0.79374,2.6913,0.33961,1.5959,2.7489,1.0026,2.6534,0.99057,0.5529,2.4683,0.89749,0.38806,0.3949,0.94533,1.4255,1.5297,0.3148,1.6475,1.8434,1.1066,1.0088,1.6133,3.1153,2.1067,1.135,1.9125,1.4724,1.9085,1.4029,1.2751,3.0519,1.4028,1.9822,2.1391,2.7564,1.0893,1.971,1.3381,0.72127,1.1493,1.9438,0.42421,3.0446,3.3825,0.44457
0.83925,1.7333,1.6684,2.7544,1.1439,2.9858,0.29949,1.3117,1.5806,0.15364,1.2883,0.92963,2.1713,1.8263,3.2728,2.3244,1.3366,1.0779,0.37289,3.8658,1.3083,1.6382,1.6603,1.0985,3.5357,1.62,0.34445,0.9715,2.9854,1.3945,1.4204,0.84939,0.43838,0.26453,1.3019,1.395,1.0214,2.0312,0.83851,1.4821,0.2633,0.13634,0.89822,2.1346,1.4375,1.5521,0.43759,0.46241,1.8563,1.7152,2.3464,1.1924,1.0454,1.6418,1.1044,1.4582,1.7405,1.2392,1.1811,1.6694,1.5604,1.3687,0.11761,0.83117,1.3396,2.2794,1.7369,1.5178,1.3457,2.5198,1.7339,0.88575,1.6632,2.0626,1.4476,2.283,1.7612,0.72977,1.583,1.2006,1.597,1.5964,1.6921,1.3477,1.0921,2.9351,0.20066,0.42622,2.1446,0.59642,0.11797,1.932,0.94204,3.0452,0.88373,0.36691,0.86245,2.9405,1.9175,0.086572,0.99955
2.1192,2.8774,1.0417,0.2934,1.4965,2.1413,0.15589,0.50676,0.14747,1.4633,2.4859,2.3888,0.79492,1.1734,1.1669,1.4189,1.3787,0.61669,0.92222,0.42908,0.4379,2.197,0.7904,1.8839,1.7762,3.5051,0.55541,2.0802,2.9371,2.5052,2.938,0.53031,2.3139,0.91697,0.79541,1.5683,3.1783,2.1591,1.4572,2.253,0.62316,0.43528,2.2512,1.0356,0.95732,0.26312,0.84096,2.7318,2.8048,0.37358,0.77562,1.644,1.3069,0.62693,2.2946,3.9524,0.79348,1.6192,0.41475,0.072748,2.416,1.2247,1.4339,1.3195,1.94,3.0745,1.9064,1.9305,2.5302,2.1601,0.89547,1.8153,3.2518,2.9012,2.1844,0.16276,0.38105,1.3783,1.0394,2.1267,2.6122,0.90967,1.1047,2.3739,1.7149,0.3002,0.36469,0.98541,1.3257,2.6986,1.9508,2.4474,0.3631,1.5329,2.9617,0.47826,1.915,2.5678,0.051923,1.7134,0.19663
0.63627,0.43157,0.60705,0.81362,0.24887,0.47196,1.6798,2.9305,0.85306,1.5094,1.6621,2.163,1.2845,1.8582,2.1046,0.55646,0.80441,0.52076,0.96836,0.1438,2.4148,0.7363,2.5587,1.5562,0.757,0.68796,1.5581,2.1096,1.9117,3.0009,0.064973,0.95143,1.5814,1.9294,1.2317,3.0916,2.1455,0.9605,1.0602,0.49116,1.7525,0.97586,0.0011482,0.80973,1.1257,1.0025,1.6196,1.5737,0.30064,1.022,1.6511,1.8766,1.7213,0.73708,2.6875,0.27839,1.599,2.1753,2.1819,1.7027,2.0796,1.3131,2.8186,2.5909,1.243,1.981,2.3313,2.7483,1.0024,2.4893,2.3134,2.1871,2.4278,1.0293,1.8066,2.3109,0.67121,1.8486,1.359,1.6253,1.13,0.23862,1.6603,2.142,1.456,0.91576,1.1005,0.90011,1.4275,2.28,1.2066,0.54011,1.8528,2.4372,1.6305,1.6719,1.381,0.52937,1.2855,2.3512,1.0841
1.8494,1.0428,1.7274,0.45473,1.8765,1.4713,1.8724,1.7073,1.2152,3.1418,2.0855,0.94783,0.614,0.72225,1.378,1.3015,0.1655,0.62849,0.80879,2.2599,2.1771,1.4248,1.3591,1.9306,0.90346,0.30116,1.9297,1.0343,1.5096,1.4341,1.8976,2.1134,1.5709,1.6883,1.4927,2.0821,2.2086,1.4527,0.85438,0.50919,1.1378,1.7452,2.1166,0.97444,0.59889,2.9162,2.907,3.6226,0.12061,1.2775,1.5157,1.827,0.58915,0.89738,0.78219,0.2417,1.1773,0.6693,1.992,1.7308,1.421,1.759,3.2679,0.84162,3.9083,3.0607,2.4368,0.51226,1.3191,0.64369,2.6611,0.32009,0.83688,1.8259,1.2308,0.73586,1.3533,1.4232,2.197,1.0852,2.3537,0.75661,2.1793,1.1541,1.7059,0.0040596,0.48464,0.83404,2.5338,0.048651,2.2049,0.83371,0.45516,0.73726,3.3536,0.45853,2.699,1.1965,0.57781,1.849,1.2324
0.98157,1.5689,0.57782,3.2603,1.1727,1.9047,2.1222,0.10461,2.5935,2.0892,0.29776,1.3965,0.12433,2.3431,1.0427,2.0113,1.1315,1.3475,0.55895,0.59524,0.87572,3.5796,1.9708,1.6514,1.6389,3.5513,1.5433,1.7479,0.43557,1.0509,1.6349,0.37772,2.4821,2.0829,1.0017,0.69999,1.9502,1.958,0.96723,3.2469,1.6849,1.693,1.0941,1.8654,0.30176,0.97059,0.040639,2.7148,3.5067,1.8606,0.97675,1.9856,0.35809,1.8934,1.1718,2.6465,1.4574,2.352,1.138,0.36643,1.6015,1.1258,3.2739,0.22233,1.1726,2.7534,1.7535,2.5362,0.80825,1.5362,2.4165,0.76678,1.6591,0.76697,0.94655,0.34603,1.3677,1.3187,1.7141,2.0722,0.16551,1.3416,1.2202,2.3091,2.0269,0.25932,0.23035,2.0933,1.0626,0.85947,0.34943,0.42362,1.5494,1.8545,1.5941,1.2565,2.2796,0.8836,1.0534,0.056891,1.2778
