0.042628,0.0087122,0.090808,0.015959,0.0097444,0.072519,0.0077417,0.084081,0.071413,0.0031246,0.72429,0.71671,4.5946,77.527,218.99,0.57987,2.9392,141.07,145.41,0.69884,0.52248,4.7633,0.19621
0.093252,0.0091057,0.068605,0.089909,0.0063522,0.085728,0.0093623,0.094267,0.023462,0.0034786,0.10951,0.70413,3.7695,214.24,207.38,0.45391,3.5574,105.04,213.34,0.2972,0.049941,3.9715,0.94762
0.091099,0.0095635,0.032145,0.091701,0.0097155,0.070862,0.0057209,0.027205,0.046933,0.0022431,0.81981,0.84973,3.7824,61.717,249.34,0.44938,4.8946,217,232.16,0.57487,0.66334,3.887,0.082594
0.090904,0.0091004,0.031062,0.080439,0.0013729,0.073126,0.0058478,0.057425,0.059495,0.0025874,0.35172,0.94587,3.8114,117.8,63.975,0.47806,0.79828,194.93,22.196,0.82993,0.9693,3.3973,0.26132
0.056892,0.0010588,0.059359,0.052475,0.0026977,0.090588,0.0070057,0.035255,0.059662,0.0043509,0.65288,0.67217,4.8509,112.1,147.19,0.38071,3.4261,85.007,226.79,0.93403,0.17763,4.2397,0.4726
0.026112,0.0013774,0.045354,0.081653,0.0056778,0.062867,0.0093296,0.046755,0.01707,0.0098806,0.74287,0.94886,4.5134,50.298,249.35,0.53435,3.5342,239.11,89.777,0.79497,0.9608,3.2636,0.18302
0.097028,0.0010255,0.077932,0.088808,0.0067677,0.070518,0.0065382,0.031587,0.076668,0.0087297,0.3628,0.8577,3.8653,51.948,227.51,0.42743,4.4939,190.38,203.38,0.73826,0.73899,2.7029,0.020448
0.075516,0.0049996,0.045332,0.070503,0.0040666,0.099537,0.007292,0.04218,0.091691,0.0076059,0.74498,0.38668,4.0771,53.519,231.36,0.52338,2.2414,151.45,168.22,0.91057,0.49187,3.8932,0.15848
0.088835,0.0010766,0.065138,0.016334,0.0078115,0.081413,0.0027002,0.056527,0.051734,0.006308,0.21568,0.83798,2.3353,59.25,204.57,0.2436,2.3864,219.25,153.04,0.058631,0.56151,4.9165,0.16162
0.083849,0.0039754,0.04122,0.021202,0.0041989,0.098263,0.0027983,0.010228,0.046072,0.0031495,0.64127,0.12393,3.1604,51.598,247.28,0.40775,3.3882,247.55,156.04,0.55961,0.75545,2.839,0.58498
0.078676,0.0094571,0.094084,0.048283,0.0086539,0.05373,0.0079387,0.046599,0.094951,0.0031819,0.87957,0.94593,4.1915,223.99,105.66,0.64366,2.1606,193.3,159.65,0.85608,0.96809,4.5839,0.1812
0.026294,0.0074156,0.043647,0.08044,0.0058852,0.079322,0.0057691,0.035166,0.018605,0.0011703,0.71156,0.66389,0.11442,148.65,64.159,0.19219,2.0565,165.03,120.23,0.40309,0.39117,3.551,0.34928
0.07442,0.0094502,0.053427,0.063023,0.0070577,0.028052,0.0010424,0.025955,0.060287,0.0083464,0.69038,0.22159,4.8281,77.483,214.52,0.49773,4.7143,217.46,241.16,0.73703,0.6518,4.983,0.12729
0.084134,0.0057786,0.031439,0.052492,0.0033092,0.079683,0.0095982,0.062709,0.038566,0.0074163,0.12563,0.69613,4.9893,55.768,211.85,0.49332,2.7142,113.41,13.046,0.66324,0.55188,2.1837,0.51206
0.087405,0.0011962,0.057812,0.013041,0.00197,0.065433,0.0088955,0.074937,0.095029,0.0079737,0.33747,0.52107,2.5945,190.47,24.14,0.51463,0.68856,108.78,8.762,0.87049,0.89301,0.67809,0.84168
0.081704,0.0083835,0.028911,0.026207,0.0013655,0.096784,0.0088508,0.074913,0.065701,0.0036617,0.7737,0.93988,4.6583,207.66,104.22,0.76653,3.9841,240.48,12.329,0.39777,0.88831,1.4759,0.10228
0.089383,0.0035875,0.036569,0.093925,0.001179,0.086582,0.0054462,0.055773,0.051795,0.0081849,0.98774,0.97592,2.7659,58.498,130.46,0.42784,0.38141,228.59,199.04,0.30623,0.99212,2.6336,0.96138
0.087909,0.0088064,0.026629,0.094419,0.0077787,0.053083,0.0096862,0.039333,0.026613,0.0055775,0.95516,0.73093,4.9187,55.842,249.18,0.50953,4.9059,112.3,155.22,0.88416,0.38382,4.1748,0.154
0.070801,0.0087419,0.055683,0.05557,0.0082187,0.062713,0.0012903,0.050935,0.075942,0.0020611,0.17652,0.58493,3.6723,50.484,184.29,0.48004,1.9502,133.45,217.41,0.010899,0.34324,4.4949,0.73496
0.045991,0.0098619,0.054921,0.029659,0.0049727,0.098163,0.0077514,0.036719,0.063029,0.0088855,0.11479,0.11132,3.2066,130.99,160.88,0.38925,4.7549,215.39,67.196,0.35237,0.70817,1.133,0.99242
0.094197,0.0051151,0.092035,0.095685,0.0016766,0.041419,0.0078252,0.071472,0.019058,0.002849,0.65315,0.24144,4.6909,181.12,218.83,0.3527,0.15435,53.656,27.238,0.83183,0.61486,2.4123,0.46976
0.084111,0.0096268,0.044481,0.073853,0.0023881,0.066693,0.0062521,0.093226,0.011969,0.0075338,0.79216,0.41648,4.8492,104.37,249.15,0.48405,3.7001,77.241,24.528,0.76119,0.85784,3.8473,0.46414
0.093076,0.00413,0.059724,0.082519,0.0071314,0.094345,0.0092139,0.098757,0.017587,0.0036176,0.40329,0.29679,4.6792,65.934,205.98,0.47551,4.9052,182.93,249.5,0.86568,0.69308,3.7404,0.6104
0.089602,0.0031461,0.082443,0.084773,0.001713,0.08685,0.005428,0.052839,0.050964,0.008879,0.92835,0.48193,2.0492,54.399,243.31,0.28935,1.4746,102.61,102.42,0.98,0.98413,2.2271,0.95968
0.040336,0.0014584,0.050314,0.08116,0.0086784,0.017379,0.0057446,0.049145,0.023042,0.0024489,0.84869,0.60594,1.0977,88.592,196.77,0.97582,2.6494,191.72,45.954,0.05483,0.68386,3.8724,0.28196
0.096563,0.0022146,0.031151,0.080942,0.0063208,0.074996,0.0011323,0.038701,0.079261,0.0075053,0.31864,0.94211,4.3557,73.669,234.81,0.48115,4.0109,83.902,25.272,0.71001,0.031412,4.0219,0.93318
0.084919,0.0052572,0.016041,0.034913,0.00655,0.017831,0.0091175,0.077267,0.039616,0.0082501,0.57638,0.77494,2.9447,122.58,243.36,0.44508,3.7224,87.712,238.71,0.31083,0.086827,4.498,0.25515
0.09823,0.0091393,0.035578,0.095996,0.005756,0.038634,0.0068747,0.088983,0.030456,0.0076765,0.94595,0.99828,4.826,50.217,209.97,0.4687,4.6259,228.46,239.37,0.56111,0.36034,4.3914,0.78218
0.080819,0.0098936,0.080106,0.069713,0.002721,0.019541,0.0031658,0.033284,0.040345,0.0081288,0.29439,0.50241,3.8014,219.5,155.29,0.50793,1.9584,136.25,62.854,0.91196,0.10962,2.5781,0.30806
0.082346,0.0073373,0.050961,0.033984,0.0078378,0.024497,0.0077479,0.010395,0.05972,0.0072804,0.43566,0.54216,4.6313,54.699,236.79,0.45297,2.6297,105.46,29.443,0.059129,0.39943,4.7791,0.7712
0.08359,0.0087079,0.098142,0.075084,0.006535,0.046638,0.0096127,0.095379,0.065898,0.0080056,0.9924,0.19039,3.1832,103.91,132.25,0.38583,3.8007,234.06,37.607,0.81583,0.73787,3.8931,0.14662
0.093338,0.0094986,0.093422,0.060497,0.0023686,0.057606,0.0082391,0.076796,0.03338,0.0042867,0.98802,0.38698,3.426,60.188,247.16,0.42196,3.9098,192.49,35.632,0.07606,0.90447,2.4003,0.98331
0.067713,0.0078003,0.063782,0.097568,0.0050917,0.035675,0.0036997,0.067466,0.046013,0.0091871,0.90657,0.36299,2.723,64.446,230.58,0.68629,1.9807,114.55,241.88,0.021907,0.32596,3.2575,0.06282
0.033203,0.004294,0.062531,0.037079,0.0071389,0.027926,0.0063965,0.020531,0.099169,0.0059784,0.76192,0.42528,4.7005,137.99,175.13,0.47233,0.2749,236.86,61.505,0.28657,0.40418,2.281,0.74719
0.05242,0.0069321,0.020176,0.054732,0.0074376,0.055883,0.0092937,0.073946,0.051826,0.0087079,0.30059,0.55819,1.1272,132.62,66.372,0.22261,3.9552,122.74,131.04,0.028714,0.64831,2.326,0.30308
0.077885,0.0029929,0.045928,0.098056,0.0066238,0.011753,0.0078714,0.018797,0.098608,0.0096176,0.78722,0.1213,4.3359,219.43,128.05,0.52395,3.1781,90.738,194.54,0.35828,0.41744,4.4458,0.56143
0.078592,0.0033035,0.094859,0.016679,0.0094756,0.084709,0.0077734,0.062629,0.05486,0.0082459,0.17973,0.52152,4.274,135.98,224.6,0.48491,0.0064619,67.931,23.123,0.88005,0.82962,1.3472,0.6446
0.094097,0.0085938,0.091789,0.082526,0.0061012,0.059285,0.0090959,0.086281,0.09892,0.0067148,0.83619,0.71509,2.8005,51.444,246.78,0.37441,4.9894,229.44,222.34,0.70316,0.98948,4.6868,0.11854
0.073285,0.005793,0.025341,0.079278,0.007238,0.017141,0.00122,0.030765,0.058429,0.0064264,0.54881,0.67959,4.312,51.532,232.85,0.41324,1.4364,244.99,20.717,0.75955,0.379,3.682,0.43563
0.029035,0.0048016,0.04122,0.099657,0.0098073,0.075978,0.0013018,0.027639,0.021961,0.0057075,0.42773,0.58422,2.7679,82.308,203.94,0.54854,3.7552,170.4,141.05,0.88223,0.4854,3.2849,0.28023
0.074837,0.007736,0.065817,0.063964,0.0090921,0.058388,0.0013736,0.013405,0.071778,0.0064747,0.65044,0.97704,4.6712,55.79,242.02,0.46673,4.9781,238.77,247.1,0.2114,0.74176,3.7258,0.37991
0.09944,0.0042388,0.049216,0.080519,0.0068363,0.034237,0.0038174,0.084479,0.075611,0.0025804,0.69582,0.59166,4.3796,53.917,227.13,0.39593,3.2404,234.73,249.08,0.11499,0.40794,3.3505,0.54413
0.092643,0.0050181,0.078675,0.085561,0.0098463,0.079105,0.002916,0.012544,0.047408,0.0056625,0.96087,0.22165,2.9265,232.54,233.21,0.3452,2.2836,192.09,75.95,0.3523,0.43699,2.8742,0.36226
0.098401,0.0013054,0.035668,0.084436,0.0024743,0.095897,0.0078406,0.04299,0.093225,0.0054714,0.55177,0.97549,4.0688,52.489,238.85,0.48213,4.0561,172.32,192.5,0.73157,0.60692,3.4038,0.064298
0.095624,0.0016889,0.028958,0.031823,0.003635,0.051842,0.0067898,0.025733,0.01242,0.0086159,0.8353,0.63921,2.9186,55.951,226.98,0.29325,2.5336,133.54,218.19,0.22485,0.80528,3.4339,0.087555
0.09932,0.0065924,0.07145,0.075727,0.0066461,0.07474,0.0046506,0.086617,0.044146,0.0061553,0.43912,0.44714,4.3178,50.968,217.69,0.44309,0.59363,245.61,8.5421,0.91467,0.71585,3.4317,0.40948
0.098878,0.0099447,0.050634,0.022574,0.0082,0.079234,0.0067764,0.054639,0.060864,0.0025844,0.2247,0.95678,4.6073,50.45,228.48,0.52361,4.3362,55.432,1.8174,0.90549,0.27285,4.9956,0.73164
0.086763,0.005884,0.080013,0.075305,0.0047599,0.078295,0.0054334,0.087839,0.078093,0.0099798,0.37887,0.19978,4.8944,69.385,243.05,0.49942,1.3327,224.03,210.46,0.26109,0.46431,4.6436,0.84461
0.037817,0.0040806,0.011205,0.08855,0.0014935,0.021915,0.0095422,0.061403,0.076274,0.0069153,0.36195,0.35735,2.7025,69.576,248.66,0.25414,4.9827,149.1,153.48,0.062813,0.42462,3.8586,0.408
0.095656,0.0012786,0.092689,0.043669,0.0056723,0.018318,0.0019428,0.025391,0.044312,0.0029181,0.78456,0.29134,3.4743,158.81,50.605,0.073301,2.0886,129.25,30.821,0.55125,0.35923,2.4843,0.69842
0.082728,0.0067193,0.074332,0.029457,0.006117,0.062192,0.0010948,0.091752,0.091419,0.008915,0.96829,0.97329,2.384,70.741,241.98,0.30176,4.8908,65.667,112.54,0.69519,0.41154,4.993,0.4325
0.020555,0.0016069,0.047982,0.061841,0.0043028,0.029007,0.0015087,0.069727,0.027372,0.0077067,0.1216,0.54369,4.733,62.241,244.69,0.66823,3.0337,249.97,27.615,0.70355,0.35867,4.9875,0.21727
0.072563,0.0010014,0.061814,0.012308,0.0072696,0.064883,0.009203,0.055242,0.090131,0.0069896,0.40787,0.35708,4.5428,81.265,247.67,0.45902,1.9623,186.85,1.9707,0.91228,0.53804,3.2752,0.71875
0.03728,0.0067279,0.026742,0.013915,0.0021663,0.045507,0.0093773,0.083988,0.033236,0.0036946,0.70056,0.80165,4.4245,210.81,243.63,0.6134,0.39825,103.65,86.667,0.33057,0.17453,3.6315,0.41054
0.074476,0.0023654,0.04325,0.09401,0.0080726,0.075403,0.0092323,0.098393,0.047107,0.007953,0.60895,0.62529,4.7865,59.457,194.52,0.40088,1.1848,120.28,228.29,0.98693,0.49803,1.6839,0.91801
0.020831,0.004549,0.06922,0.046149,0.0014528,0.096517,0.0014741,0.089287,0.010295,0.0041986,0.31286,0.56708,4.9574,236.94,14.584,0.28225,0.2349,227.7,26.533,0.12496,0.16343,0.032854,0.64486
0.074072,0.0033646,0.051278,0.080643,0.0083405,0.077459,0.0066002,0.057829,0.059125,0.0018111,0.96591,0.36917,4.6437,65.711,209.94,0.56261,0.48645,79.824,6.4263,0.32311,0.39724,3.1748,0.38325
0.096176,0.004531,0.027999,0.078712,0.0088024,0.017087,0.0090458,0.080833,0.041051,0.0075446,0.51545,0.72114,3.7307,78.99,177.85,0.45699,4.5729,93.883,41.707,0.67718,0.71461,1.7998,0.35551
0.070256,0.0074228,0.058937,0.064769,0.0027721,0.025616,0.009931,0.053519,0.068103,0.0074487,0.14467,0.66512,4.2626,79.95,225.28,0.42104,4.5466,238.41,150.63,0.83647,0.29728,1.417,0.66547
0.081009,0.0027473,0.072422,0.090387,0.0064665,0.042649,0.0071065,0.038962,0.093897,0.0017296,0.32055,0.80658,1.8543,75.883,16.514,0.28235,3.8512,233.86,212.82,0.11758,0.59253,3.897,0.5765
0.070434,0.0062207,0.077268,0.066648,0.0099701,0.081731,0.0051985,0.058877,0.062894,0.0076286,0.78388,0.38119,3.8439,61.249,241.59,0.48667,4.3767,154.9,36.083,0.85479,0.87531,2.5231,0.69131
0.019865,0.0032273,0.0589,0.093173,0.0013814,0.080775,0.0069256,0.096103,0.033454,0.0017537,0.94312,0.1238,4.0221,235.15,69.641,0.52297,0.068999,88.84,130.67,0.85597,0.90158,3.4544,0.60757
0.075157,0.0094232,0.057327,0.099622,0.0022494,0.039822,0.0082751,0.043077,0.090995,0.0090252,0.71212,0.65396,1.3998,143.55,12.459,0.2635,3.3928,219.53,208.53,0.89958,0.77969,0.77198,0.94644
0.089434,0.0099873,0.046604,0.054758,0.0030066,0.095499,0.0048017,0.012381,0.074052,0.0089928,0.99034,0.77846,4.5885,118.08,191.67,0.52599,3.7215,77.614,194.43,0.54006,0.21866,2.2165,0.7574
0.010044,0.0089165,0.060128,0.012232,0.0062471,0.084564,0.0073979,0.076556,0.030513,0.0061241,0.30041,0.87829,1.937,188.98,109.11,0.97672,3.2893,155.47,33.716,0.82012,0.63343,0.80272,0.33328
0.082163,0.0099341,0.075757,0.092014,0.0089931,0.066622,0.0082528,0.03924,0.074517,0.0086234,0.74366,0.93538,3.535,65.425,249.12,0.39979,3.3253,243.76,47.399,0.15693,0.71267,1.9994,0.60519
0.043335,0.0095163,0.040322,0.02332,0.0075088,0.036606,0.003665,0.069876,0.022873,0.0021396,0.74185,0.86253,3.5108,58.733,17.559,0.94512,2.3316,236.07,169.81,0.018261,0.50327,2.9836,0.70484
0.092322,0.009204,0.08061,0.080595,0.0055399,0.09678,0.0021843,0.054806,0.043282,0.0028424,0.25134,0.13493,4.9086,107,224.91,0.40858,4.59,132.38,1.3421,0.83317,0.10358,3.9739,0.85382
0.099909,0.0021249,0.016824,0.074412,0.0068017,0.098965,0.0063944,0.09891,0.039375,0.0014452,0.13286,0.62137,4.3342,103.7,243.57,0.38716,0.381,249.76,57.759,0.73433,0.94217,3.0448,0.49147
0.025344,0.0015774,0.052451,0.025751,0.0013273,0.040961,0.0080047,0.077377,0.047156,0.0072314,0.41289,0.42744,4.1535,61.477,245.86,0.34871,0.49813,175.35,73.407,0.29696,0.5871,4.752,0.86238
0.025536,0.00448,0.045924,0.024375,0.0027447,0.031568,0.0018619,0.045812,0.03605,0.0036396,0.5005,0.16312,1.6897,216.34,124.09,0.73535,4.9869,152.05,194.41,0.030703,0.22556,2.8015,0.68318
0.019276,0.0060242,0.092002,0.053104,0.0077459,0.010036,0.0046898,0.05627,0.023646,0.0077306,0.23149,0.32343,4.5703,58.447,244.95,0.467,3.6117,192.57,187.54,0.17954,0.92162,4.0683,0.12197
0.064553,0.0093019,0.048522,0.095386,0.0037736,0.091836,0.0066812,0.062538,0.037882,0.0058127,0.25903,0.15316,3.9137,53.244,234.66,0.44088,3.8761,208.61,175.94,0.58186,0.20079,4.7941,0.93839
0.04707,0.0094088,0.095058,0.076696,0.0077415,0.066479,0.0078878,0.055742,0.06701,0.0039513,0.6246,0.30821,4.0635,198.64,214.03,0.4018,4.8021,115.96,212.04,0.84262,0.30347,3.7464,0.25691
0.03302,0.0084233,0.046408,0.07051,0.0086683,0.080761,0.0056405,0.076048,0.012033,0.0092892,0.4772,0.9419,3.7971,217.19,153.97,0.31403,3.6904,132.6,74.005,0.67761,0.42929,4.6271,0.16252
0.028152,0.0025836,0.031825,0.016331,0.0018942,0.077384,0.0014211,0.075573,0.066174,0.0084562,0.88798,0.82604,4.691,50.824,245.86,0.68348,4.7295,102.32,51.334,0.81304,0.71515,4.0052,0.6313
0.089392,0.004538,0.088536,0.037549,0.00638,0.065521,0.0010595,0.089972,0.043642,0.0057069,0.9626,0.68895,4.2784,56.617,244.43,0.51672,4.9688,74.511,103.92,0.71791,0.7078,3.4979,0.83097
0.08954,0.009215,0.054459,0.094315,0.0074854,0.089006,0.0099845,0.05094,0.045735,0.0021041,0.97522,0.86196,4.2869,51.264,234.17,0.48633,2.7783,225.02,214.46,0.044092,0.51702,4.7937,0.68164
0.066827,0.0058075,0.048122,0.087124,0.0061184,0.085923,0.0099203,0.056675,0.051925,0.0018311,0.97337,0.68314,2.9053,238.98,13.723,0.65154,4.0494,89.521,37.776,0.36485,0.42627,3.1894,0.55035
0.097268,0.0011569,0.028463,0.090176,0.0070222,0.011939,0.0066904,0.085918,0.085758,0.0070566,0.48634,0.67258,2.8032,61.378,244.48,0.32911,1.7329,94.672,117.12,0.87458,0.49053,1.3122,0.78303
0.069244,0.0035704,0.034324,0.062973,0.0091957,0.068662,0.0015399,0.080375,0.02989,0.0073939,0.76684,0.39657,1.3988,242.09,135.64,0.99469,0.39832,229.62,10.624,0.38694,0.18755,3.1319,0.27087
0.025938,0.006605,0.033144,0.024633,0.0095556,0.065153,0.0076564,0.024889,0.044415,0.0098278,0.34072,0.74487,4.8607,59.374,238.53,0.68928,2.5101,244.75,124.05,0.68584,0.3547,4.6949,0.24947
0.097576,0.002636,0.091376,0.025844,0.0056468,0.088641,0.0075242,0.05457,0.091611,0.0096611,0.35107,0.26112,4.3868,55.351,233.35,0.46585,0.083447,138.5,240.7,0.45982,0.94081,2.6853,0.93547
0.088881,0.0093443,0.062256,0.077281,0.0073638,0.081341,0.0077921,0.033326,0.021149,0.0046186,0.24882,0.31856,4.9219,132.1,245.57,0.56513,1.0677,135.29,76.275,0.013175,0.12882,3.804,0.14996
0.088538,0.0093789,0.085164,0.095076,0.0081892,0.075198,0.0067191,0.065958,0.045305,0.0065885,0.89645,0.876,2.1725,62.734,170.66,0.37838,2.6099,164.61,58.303,0.12264,0.33435,3.2058,0.2232
0.099352,0.0084913,0.086739,0.069218,0.0027972,0.046824,0.0039145,0.05114,0.072064,0.0045042,0.65356,0.3506,3.1647,60.124,218.71,0.3141,4.4965,243.4,239.77,0.40805,0.80488,4.1118,0.5695
0.089571,0.0054683,0.067951,0.058945,0.0019616,0.099789,0.0063737,0.032991,0.036831,0.0089661,0.43476,0.6009,3.2675,216.83,104.67,0.5286,4.7646,79.762,212.04,0.56911,0.6411,3.5473,0.6688
0.032546,0.009669,0.098651,0.063789,0.0065672,0.066143,0.009794,0.058096,0.09969,0.006357,0.97021,0.70296,3.1571,157.38,233.98,0.30361,4.929,184.14,121.95,0.77341,0.54424,4.2264,0.28578
0.06276,0.0088645,0.098108,0.031114,0.0012,0.041785,0.0050629,0.018246,0.026554,0.0066538,0.82163,0.10037,2.1304,65.724,224.17,0.18843,3.0104,243.79,187.9,0.53686,0.86906,4.8801,0.64928
0.085069,0.0020098,0.071436,0.083779,0.0013381,0.088945,0.0054667,0.060538,0.059963,0.009646,0.9717,0.33909,3.5889,65.482,192.38,0.3435,3.4726,66.045,144.61,0.3186,0.75088,4.4172,0.72033
0.085518,0.0094256,0.080693,0.080965,0.0020383,0.038881,0.0097449,0.08682,0.063217,0.0031579,0.90152,0.24338,4.9484,67.964,234.48,0.40785,4.891,203.42,146.37,0.62057,0.45823,4.6076,0.56561
0.077151,0.0091484,0.072642,0.094273,0.0083683,0.033005,0.0039608,0.012989,0.054974,0.0077685,0.56699,0.95001,4.2407,70.809,222.93,0.42439,2.4048,215.89,105.13,0.068905,0.26305,2.864,0.36479
0.076553,0.0037793,0.080246,0.049263,0.0043921,0.094698,0.0098179,0.058483,0.05163,0.0035758,0.517,0.21686,4.6385,225.36,220.61,0.48274,1.9542,84.296,204.27,0.22612,0.1842,4.9768,0.49012
0.059906,0.0087154,0.014176,0.059492,0.0020858,0.090362,0.0067317,0.070446,0.023749,0.0092621,0.32756,0.30891,4.3804,51.835,240.24,0.61555,4.4309,146.13,70.31,0.6387,0.44776,3.9033,0.43936
0.079903,0.0095361,0.041755,0.041767,0.0043133,0.098925,0.001285,0.087461,0.03327,0.0082769,0.40718,0.62407,3.7855,82.458,204.11,0.3845,2.1945,224.11,94.712,0.59644,0.12393,4.5263,0.93435
0.080175,0.0071366,0.04213,0.099621,0.0025709,0.095722,0.0024233,0.059673,0.075014,0.0097972,0.63538,0.40171,3.6194,64.259,227.55,0.36768,0.92608,76.574,56.433,0.96688,0.15134,2.0471,0.94497
0.0457,0.0060688,0.021676,0.042847,0.007973,0.088679,0.0074773,0.091961,0.099671,0.0025579,0.22939,0.74881,4.1321,115.35,169.76,0.48572,0.81815,68.15,138.2,0.26969,0.702,4.941,0.84892
0.089026,0.0082244,0.033949,0.034456,0.0039703,0.022649,0.0040893,0.060107,0.060222,0.0065377,0.18788,0.65864,3.8737,103.45,202.08,0.46836,0.081942,211.12,40.929,0.066699,0.43235,2.4579,0.6015
0.069353,0.0098759,0.047418,0.012227,0.003842,0.023202,0.0068046,0.08725,0.067931,0.0042796,0.72542,0.40653,2.761,174.97,32.335,0.30861,1.2666,156.21,39.344,0.98864,0.24921,3.3885,0.82503
0.076725,0.008339,0.046584,0.080006,0.0075213,0.068543,0.0040426,0.050688,0.071273,0.0099631,0.58793,0.13666,4.6485,51.751,248.15,0.43807,0.22176,69.806,7.8137,0.93853,0.29434,3.7403,0.28757
0.088563,0.00921,0.080442,0.049616,0.0062646,0.090873,0.0068919,0.028362,0.064503,0.0035957,0.83164,0.66686,4.9493,52.271,233.45,0.57143,4.8942,159.62,44.13,0.67129,0.54853,3.9674,0.52731
0.014887,0.0071557,0.048988,0.066745,0.0079998,0.016507,0.0014109,0.031349,0.042976,0.0077123,0.74215,0.69042,2.0602,70.152,207.12,0.15275,0.48239,228.68,106.52,0.82627,0.16354,0.18239,0.10298
0.094741,0.0076335,0.030615,0.085137,0.0081424,0.094507,0.0088074,0.033807,0.05223,0.001027,0.75434,0.38392,4.5579,62.764,236.91,0.47401,4.5743,202.53,193.31,0.24618,0.51916,4.7474,0.45146
0.091163,0.0075862,0.068542,0.092963,0.0026626,0.010964,0.0019267,0.049035,0.021569,0.0070929,0.3892,0.8811,1.7123,179.21,143.71,0.20809,2.6366,64.006,1.3591,0.56789,0.50125,3.1447,0.30191
0.09842,0.0034859,0.012971,0.030099,0.0061632,0.030929,0.0095227,0.064644,0.017183,0.0085019,0.64022,0.87083,3.7709,246.95,127.58,0.28724,4.7573,62.014,85.645,0.81536,0.50053,2.942,0.61605
0.061382,0.0065371,0.046361,0.043704,0.0053479,0.032937,0.0014858,0.031299,0.076051,0.0013825,0.61176,0.65674,4.81,76.121,159.18,0.45141,0.71146,99.237,3.1138,0.94953,0.91752,2.3071,0.35861
0.085527,0.0036537,0.096305,0.037733,0.0047946,0.092097,0.0022107,0.094017,0.070508,0.0096775,0.94483,0.28165,3.5046,156.02,198.4,0.3862,1.713,83.441,236.96,0.15308,0.69587,3.6461,0.48626
0.0873,0.0056645,0.063597,0.013404,0.0077622,0.043079,0.0077222,0.010807,0.085916,0.0021898,0.878,0.70789,2.1455,241.24,110.13,0.17771,4.3755,101.85,212.31,0.70665,0.84335,2.3354,0.60316
0.099417,0.0076503,0.031477,0.064465,0.0097531,0.044673,0.0090882,0.070807,0.063849,0.0022318,0.99649,0.81452,4.3164,101.73,179.08,0.40311,2.3873,215.86,233.14,0.46666,0.79233,3.6835,0.85388
0.078631,0.0096493,0.031834,0.085228,0.003324,0.068575,0.0099802,0.014177,0.078116,0.0068719,0.33595,0.6037,4.0358,90.062,80.387,0.3973,4.3918,190.42,206.12,0.24795,0.34955,1.563,0.54652
0.096942,0.0085069,0.015517,0.062943,0.0061039,0.099098,0.0066436,0.068275,0.076388,0.0039711,0.34737,0.60559,3.6326,57.69,222.62,0.31563,1.4325,190.43,170.98,0.47671,0.50313,2.401,0.63886
0.093689,0.0024484,0.058502,0.042711,0.0041686,0.017538,0.003542,0.050433,0.023823,0.0097987,0.49191,0.42082,2.5562,245.57,184.7,0.33517,0.75876,193.12,112.3,0.31866,0.089591,4.7961,0.31595
0.031284,0.0011863,0.084186,0.02259,0.0038083,0.011033,0.0090398,0.099097,0.01766,0.0069701,0.58653,0.48881,3.03,190.41,160.3,0.48578,2.4637,174.56,239.86,0.23523,0.27715,3.2321,0.077886
0.018777,0.0019529,0.010967,0.020488,0.0010846,0.042905,0.0079369,0.018425,0.014411,0.0092407,0.92224,0.34667,0.092383,221.3,184.05,0.076322,4.9365,152.27,108.81,0.019559,0.37848,3.403,0.011705
0.04688,0.009388,0.077187,0.09831,0.0070131,0.047149,0.0081291,0.052154,0.017236,0.0022976,0.88795,0.55523,1.8297,74.462,232.33,0.21622,4.2496,243.82,152.86,0.90268,0.78459,4.9622,0.26227
0.021806,0.0065399,0.019273,0.058752,0.0089712,0.047442,0.0038986,0.072431,0.029196,0.0019364,0.10618,0.33666,0.86062,115.11,226.67,0.32331,3.2503,90.079,99.857,0.43853,0.14641,4.991,0.48016
0.077911,0.0066996,0.014357,0.017786,0.0047919,0.051704,0.0027404,0.094764,0.044968,0.0094571,0.3451,0.60524,3.7017,90.698,233.39,0.32162,1.6557,54.787,17.617,0.56647,0.39277,4.089,0.046392
0.041329,0.0010602,0.026712,0.033049,0.0087272,0.053894,0.0068207,0.066836,0.035918,0.0076107,0.97763,0.87001,2.7607,240.03,73.877,0.34471,4.7691,128,236.08,0.46566,0.42823,4.9538,0.5505
0.050481,0.0029338,0.052556,0.02888,0.0095319,0.059334,0.0020016,0.06554,0.023474,0.0012093,0.73783,0.54504,4.895,229.51,212.95,0.65749,2.7733,100.94,24.12,0.51392,0.2489,4.2358,0.34281
0.02794,0.0017901,0.010867,0.038315,0.004385,0.057942,0.0055532,0.067918,0.067044,0.0019727,0.26236,0.29896,3.6537,141.97,198.89,0.42617,4.8857,218.54,69.177,0.9607,0.73191,3.7452,0.02021
0.076287,0.0024532,0.095049,0.091338,0.0028296,0.063505,0.0071643,0.023638,0.020232,0.0019661,0.50869,0.89655,2.5792,50.401,249.61,0.33376,1.9707,85.45,165.85,0.09853,0.80672,3.4882,0.64459
0.028303,0.0018262,0.052614,0.056863,0.0026125,0.080298,0.0024132,0.03202,0.076103,0.0035364,0.71232,0.2083,4.7529,91.792,154.17,0.37549,4.204,212.49,109.06,0.33507,0.5354,3.4236,0.5496
0.079134,0.0024208,0.023494,0.087345,0.0037261,0.035853,0.0046655,0.059513,0.090102,0.0086811,0.84657,0.57879,4.675,56.513,207.98,0.4292,0.038099,117.75,176.82,0.37633,0.65846,1.4229,0.4149
0.031715,0.0016462,0.032106,0.022925,0.0086528,0.059698,0.0097402,0.031718,0.049923,0.0019878,0.26015,0.25329,4.1264,114.41,249.99,0.34488,0.44506,62.149,122.6,0.76272,0.66807,1.2345,0.80481
0.065236,0.0034196,0.015111,0.015765,0.0057304,0.06172,0.0091839,0.055366,0.046728,0.0061668,0.17699,0.96903,3.0287,178.83,149.71,0.54656,3.7787,119.37,67.164,0.97344,0.4373,1.2962,0.15858
0.041119,0.0013606,0.028487,0.086918,0.008456,0.02835,0.0024462,0.082113,0.047247,0.0092976,0.26809,0.95061,4.0289,122.15,7.8556,0.22697,3.6023,60.514,150.45,0.53303,0.89849,4.597,0.75218
0.075037,0.0079409,0.051894,0.097701,0.0019619,0.059971,0.0076415,0.069716,0.089083,0.0098053,0.43189,0.5425,3.9781,80.137,220.86,0.37449,4.8267,191.76,163.86,0.63804,0.41076,3.9123,0.48738
0.02055,0.0095035,0.051488,0.093612,0.0065543,0.02927,0.002095,0.01331,0.057449,0.0091396,0.94286,0.24858,4.1953,60.512,249.84,0.35122,4.4324,249.98,250,0.77788,0.84035,4.1652,0.42033
0.026271,0.0029922,0.041595,0.046857,0.0061014,0.059424,0.0026907,0.028723,0.021497,0.001456,0.72697,0.2398,3.1692,194.57,223.59,0.36661,4.9728,163.26,134.18,0.78417,0.66633,3.7866,0.68124
0.089948,0.0024988,0.04969,0.091145,0.0033484,0.047529,0.0072101,0.077531,0.013413,0.0066652,0.99971,0.28109,4.8835,60.733,196.49,0.52087,2.4835,139.65,239.08,0.44614,0.57996,4.1884,0.74434
0.042449,0.0049248,0.039647,0.053605,0.0010208,0.08744,0.0076046,0.092641,0.025142,0.0038048,0.83131,0.53188,4.9463,63.745,245.94,0.44944,4.9236,248.32,244.94,0.11303,0.84165,3.0376,0.98308
0.097177,0.0015855,0.088833,0.044458,0.0079798,0.091254,0.0086435,0.072532,0.034113,0.0087153,0.97286,0.85286,4.3148,51.406,227.55,0.46266,4.5582,239.2,246.83,0.60902,0.60668,3.5697,0.74814
0.06157,0.002754,0.099312,0.025105,0.0083914,0.031477,0.0031221,0.029647,0.04281,0.0092332,0.92525,0.90025,4.8282,73.978,248,0.58848,4.3691,211.7,158.2,0.017206,0.85145,2.4211,0.51991
0.070215,0.0027021,0.074607,0.017457,0.009056,0.044253,0.0054041,0.041402,0.059651,0.0035619,0.41455,0.89454,3.7537,63.432,227.62,0.50631,4.1112,238.62,201.48,0.69651,0.89107,2.3464,0.66466
0.096149,0.009369,0.04249,0.08261,0.0099623,0.035863,0.0078244,0.034113,0.021821,0.0061746,0.6272,0.67978,4.8731,107.97,101.16,0.37914,4.5262,222.07,110.95,0.88544,0.87819,4.9909,0.81048
0.04885,0.0054149,0.061546,0.037988,0.0010759,0.077547,0.0065819,0.044685,0.073935,0.0082589,0.99682,0.52817,3.5313,210.44,134.46,0.21733,1.3511,112.62,5.7009,0.71676,0.39918,2.9675,0.22726
0.082343,0.0042607,0.028605,0.067597,0.0075956,0.069955,0.0071362,0.057795,0.010699,0.0035614,0.70046,0.7999,3.8232,51.783,236.36,0.46289,4.5974,201.81,83.208,0.011418,0.25098,4.9259,0.67117
0.081837,0.0026632,0.043487,0.028996,0.0017616,0.019663,0.0068789,0.059952,0.068237,0.0091103,0.90006,0.4064,3.3946,204.29,114.48,0.35951,2.7579,216.35,192.39,0.086786,0.99629,3.8308,0.51857
0.099572,0.0030501,0.048185,0.01013,0.0067001,0.082552,0.0039771,0.039242,0.048275,0.0014985,0.42268,0.71078,3.1713,59.658,239.77,0.29062,4.077,241.59,199.96,0.56864,0.63727,3.0239,0.24134
0.091562,0.0086483,0.076881,0.081785,0.0082458,0.095185,0.0098853,0.068368,0.07816,0.0087409,0.92811,0.46817,4.4598,69.984,241.76,0.40931,3.4499,123.45,158.82,0.8963,0.25436,3.9382,0.43836
0.039612,0.0054486,0.042407,0.043124,0.0084697,0.055351,0.0069117,0.064936,0.031867,0.0010698,0.75974,0.66377,4.1534,219.43,29.544,0.96793,3.1726,161.68,236.07,0.61484,0.8798,2.922,0.62264
0.078611,0.0097801,0.066384,0.011362,0.006105,0.013587,0.0095259,0.018007,0.02696,0.007461,0.99508,0.79025,2.373,59.561,234.93,0.33183,2.8727,249.43,36.648,0.27681,0.44758,3.4757,0.66329
0.078108,0.0035266,0.055508,0.074348,0.0043203,0.097427,0.0075938,0.043012,0.086246,0.0034919,0.53093,0.27179,1.4012,94.381,211.17,0.19347,4.0368,244.54,123.48,0.6257,0.27457,4.1405,0.65315
0.096515,0.0095509,0.020802,0.029672,0.0080608,0.04487,0.0023175,0.094596,0.067959,0.0025798,0.64059,0.24938,2.2591,169.65,144.09,0.22918,2.6317,62.676,102.42,0.68485,0.41154,3.4077,0.91965
0.09254,0.0054176,0.025691,0.071985,0.0025228,0.033838,0.0071874,0.030553,0.099678,0.0010144,0.64481,0.37061,4.1427,206.12,225.22,0.59121,0.64371,197.89,227.41,0.36776,0.27993,4.3752,0.10716
0.064766,0.0011225,0.095557,0.094641,0.0073746,0.039884,0.0069779,0.095977,0.092989,0.0024091,0.79584,0.99242,4.3977,61.945,240.78,0.32354,2.2893,73.457,25.608,0.39906,0.22854,3.9798,0.056975
0.042858,0.004239,0.097975,0.033948,0.0010441,0.093843,0.0055944,0.033812,0.050617,0.0092077,0.74396,0.93851,4.8938,66.16,248.08,0.59071,4.9413,92.037,223.84,0.88709,0.54036,4.9679,0.47778
0.072169,0.0062065,0.03268,0.053136,0.0084843,0.052119,0.0010062,0.08023,0.090662,0.0070105,0.78299,0.3277,3.2549,50.412,240.36,0.34668,0.68169,234.78,112.51,0.1394,0.39956,3.3127,0.47301
0.063999,0.0083498,0.035616,0.040979,0.001239,0.010006,0.0044523,0.046172,0.043801,0.0071745,0.19801,0.88493,2.1457,90.323,40.23,0.34921,1.6141,218.32,146.71,0.90785,0.88046,4.5321,0.78293
0.088549,0.0068888,0.022946,0.015395,0.004786,0.07532,0.0032096,0.058531,0.03001,0.0067591,0.65853,0.33258,4.7681,71.29,198.64,0.50551,3.9166,247.19,203.75,0.69224,0.58196,4.7097,0.27119
0.084897,0.0084968,0.082189,0.058781,0.0067503,0.045953,0.0091169,0.050697,0.091099,0.0024183,0.48909,0.92115,1.6423,71.814,117.27,0.27877,1.1507,172.21,146.27,0.95371,0.55998,2.1039,0.58319
0.069009,0.0085629,0.012047,0.058314,0.0087432,0.043313,0.0016702,0.054729,0.087441,0.0036072,0.22076,0.76932,2.5044,116.36,197.33,0.17272,2.9258,159.83,140.66,0.60397,0.5657,1.0658,0.53537
0.013443,0.0047931,0.042653,0.032183,0.0015051,0.067397,0.0060487,0.043567,0.097596,0.0027867,0.55591,0.43582,3.2595,219.15,170.13,0.52964,2.4427,110.64,51.993,0.40327,0.59847,1.4083,0.85913
0.019281,0.0057993,0.034457,0.050625,0.0030116,0.049542,0.00664,0.044354,0.023635,0.0093863,0.77648,0.73195,4.2166,248.35,31.984,0.44089,4.4661,204.95,14.276,0.028563,0.56596,3.4263,0.2982
0.093587,0.0048729,0.033352,0.09381,0.0014075,0.063259,0.0050475,0.051228,0.021084,0.0058666,0.37109,0.78122,3.1837,55.923,249.44,0.54483,2.1358,179.28,242.38,0.7745,0.47775,3.7785,0.15343
0.062468,0.0010218,0.099495,0.065395,0.0077589,0.065619,0.0092681,0.074601,0.027442,0.0095731,0.73541,0.91761,3.9868,69.361,160.07,0.34488,4.0866,59.278,113,0.69787,0.34088,4.7798,0.28671
0.011387,0.0069819,0.014164,0.033246,0.0072825,0.050869,0.0095856,0.075696,0.033187,0.0029572,0.92369,0.65607,1.0232,242.98,114.21,0.032223,4.6947,199.61,201.6,0.051695,0.59296,3.051,0.49181
0.098931,0.0033111,0.07087,0.066799,0.0092691,0.015883,0.0083487,0.05783,0.083348,0.0068053,0.97741,0.99652,4.9505,55.942,204.44,0.4919,4.5235,125.84,92.747,0.9712,0.95433,2.8602,0.31382
0.014073,0.0063273,0.055152,0.072598,0.0091803,0.074772,0.0074806,0.051787,0.030103,0.008076,0.46981,0.75108,4.0128,51.267,249.54,0.52823,1.8257,97.776,63.85,0.80542,0.78224,3.9934,0.42128
0.081526,0.0042206,0.051446,0.046329,0.0082497,0.076608,0.0099109,0.043994,0.063734,0.0046023,0.69892,0.84956,2.8765,61.261,223.02,0.24451,3.6962,213.78,90.939,0.82413,0.2122,4.2093,0.51118
0.074023,0.0056883,0.051518,0.019601,0.0099971,0.046432,0.0017466,0.015755,0.025668,0.0085312,0.93801,0.71651,3.2568,57.535,234.12,0.43396,0.93112,237.7,164.28,0.42924,0.7505,2.8325,0.39592
0.089523,0.0090028,0.074677,0.068887,0.0043006,0.077127,0.0085521,0.098443,0.09302,0.0083268,0.5522,0.54284,3.2013,109.42,126.28,0.56298,1.3668,138.01,146.28,0.89597,0.21346,3.9554,0.14871
0.094062,0.0099362,0.096454,0.072358,0.0039062,0.03282,0.004155,0.063666,0.051308,0.0067361,0.45911,0.84762,4.7153,56.832,244.9,0.52911,0.72239,208.32,141.4,0.63017,0.55359,2.2497,0.8846
0.091485,0.0037152,0.057601,0.070639,0.0012263,0.088965,0.0052445,0.050512,0.089464,0.0040958,0.98002,0.99181,4.6971,103.32,203.85,0.51812,4.8779,174.97,96.953,0.94787,0.2767,4.5734,0.35466
0.055065,0.0051455,0.094188,0.032484,0.0075954,0.084488,0.006201,0.097481,0.010585,0.0032422,0.20411,0.83244,4.3084,220.52,249.86,0.41857,4.7468,159.12,119.49,0.72264,0.30484,3.17,0.58233
0.087674,0.0092883,0.036563,0.013908,0.0052551,0.050621,0.0014598,0.071979,0.043067,0.0041113,0.66857,0.30111,2.3846,63.614,246.87,0.25074,2.6168,140.12,67.053,0.19586,0.83384,3.0687,0.33837
0.08545,0.0089756,0.051914,0.057831,0.0045333,0.089595,0.0034902,0.053911,0.024646,0.0098774,0.5205,0.58091,1.5479,97.489,238.98,0.78136,0.19661,198.73,23.685,0.061168,0.079575,4.8531,0.6297
0.069392,0.0011028,0.073992,0.088358,0.0087401,0.086835,0.0023202,0.042161,0.016866,0.0066156,0.74304,0.94439,1.0834,81.404,140.27,0.12182,0.17739,107.32,220.6,0.54513,0.4009,3.9069,0.60471
0.053306,0.0097331,0.01813,0.056971,0.0015172,0.052671,0.0047467,0.048834,0.091104,0.0063664,0.86955,0.35498,3.216,68.94,116.86,0.46352,3.824,63.146,138.95,0.27371,0.9,2.7175,0.70857
0.086749,0.0038645,0.054728,0.088415,0.0044609,0.05561,0.0010855,0.091058,0.04851,0.0061956,0.88777,0.17583,3.6968,50.037,234.12,0.36145,2.6524,82.525,60.24,0.5519,0.87467,4.5772,0.72143
0.053338,0.0011399,0.047234,0.065225,0.0022766,0.016842,0.0018366,0.059036,0.059183,0.0046273,0.80321,0.13397,2.6997,63.771,180.78,0.87486,4.0208,131.66,232.09,0.073926,0.22521,2.867,0.41249
0.097007,0.0021186,0.078162,0.034429,0.0014111,0.042617,0.0093686,0.096175,0.017833,0.005909,0.60195,0.87523,4.9108,55.672,239.51,0.4758,0.18877,89.046,43.627,0.89067,0.98428,2.6123,0.15434
0.075808,0.0051019,0.059863,0.086909,0.007282,0.093298,0.008446,0.026892,0.063001,0.0079968,0.6562,0.26866,3.0343,228.15,184.02,0.42815,0.013068,241.24,16.764,0.75996,0.93305,2.0276,0.3364
0.097252,0.0056845,0.052862,0.024171,0.0092216,0.087416,0.0033882,0.079318,0.04671,0.0052336,0.67335,0.55867,4.9886,52.425,238.29,0.45663,4.7785,93.772,130.15,0.83198,0.65048,4.0652,0.40584
0.043806,0.0018,0.033993,0.033348,0.0044519,0.067217,0.0013211,0.085364,0.065132,0.0017955,0.17299,0.63283,3.4683,53.431,191.48,0.34242,1.2043,238.29,76.155,0.18893,0.28039,4.8657,0.86593
0.031474,0.0080659,0.022175,0.070352,0.003188,0.075831,0.0051982,0.091748,0.013631,0.0094051,0.86168,0.81516,1.5568,246.99,199.65,0.12341,3.7194,115.9,3.5964,0.096619,0.61776,1.8011,0.87486
0.031843,0.0074592,0.016993,0.030336,0.0091639,0.024072,0.0062594,0.06676,0.014317,0.0013924,0.87574,0.53723,3.2175,213.09,29.275,0.78889,0.15646,61.773,221.2,0.74742,0.70854,2.2218,0.80617
0.011705,0.0059086,0.086193,0.084337,0.0092713,0.095499,0.0036344,0.063424,0.051168,0.0068383,0.78285,0.92856,2.0429,197.21,21.058,0.23058,0.21667,56.79,5.7689,0.7391,0.57637,2.1886,0.54639
0.098439,0.0076972,0.040334,0.039169,0.0090607,0.046038,0.0040014,0.079534,0.083757,0.0075972,0.94396,0.92628,4.3103,191.68,246.9,0.40219,4.7705,67.822,154.12,0.48582,0.12765,3.0261,0.68971
0.082236,0.0071859,0.070659,0.053955,0.0095318,0.065025,0.0015731,0.034576,0.072897,0.001839,0.68286,0.15719,1.5012,97.294,63.313,0.49159,3.6018,99.318,180.31,0.25435,0.16489,4.353,0.67896
0.091964,0.0065093,0.019399,0.078979,0.0094302,0.083329,0.0090247,0.010741,0.059495,0.0080699,0.99642,0.14586,3.884,56.325,248.16,0.5016,2.0611,133.71,38.126,0.44158,0.72194,2.7138,0.74991
0.044995,0.0017411,0.062863,0.076391,0.0099711,0.071773,0.0084607,0.034158,0.028083,0.0093234,0.76259,0.25669,3.9614,106.68,126.47,0.44519,0.01922,221.01,232.62,0.84211,0.027804,0.23156,0.16282
0.068728,0.0044083,0.020332,0.06712,0.0045725,0.010004,0.0053331,0.058047,0.066931,0.0060783,0.15173,0.66814,4.5176,63.471,233.01,0.53573,0.50024,235.38,242.66,0.83866,0.26613,2.0873,0.16972
0.099434,0.0046447,0.032441,0.032423,0.0069394,0.055239,0.0078892,0.029286,0.012127,0.0050882,0.10841,0.40551,3.2522,54.912,247.77,0.46596,4.3753,138.76,64.892,0.24967,0.96157,3.1514,0.7017
0.074239,0.0032802,0.016026,0.013589,0.0084066,0.098706,0.0010304,0.092124,0.012367,0.0081418,0.84782,0.47196,4.6492,61.751,229.93,0.37475,0.88668,139.29,0.94408,0.57486,0.52457,4.2863,0.35152
0.019213,0.0046451,0.074392,0.040555,0.0066013,0.01063,0.0056644,0.020146,0.048187,0.003554,0.90151,0.14953,3.7493,138.08,14.925,0.35563,2.3392,241.99,136.93,0.52577,0.79575,4.7001,0.62977
0.050256,0.0059902,0.08827,0.037249,0.0073046,0.013684,0.0060417,0.033971,0.056421,0.0099289,0.34207,0.39419,2.7593,161.95,200.05,0.30486,1.913,94.572,249.61,0.38388,0.78422,1.5818,0.82979
0.072352,0.0065644,0.083389,0.021443,0.0054056,0.050558,0.0032096,0.053182,0.092015,0.0098738,0.50996,0.40153,4.5475,58.83,245.25,0.51504,0.46746,126.2,38.698,0.042788,0.22219,4.4779,0.25769
0.039966,0.0047572,0.03092,0.010913,0.0055794,0.064307,0.0021547,0.069484,0.093092,0.0058256,0.7635,0.98454,2.6536,171.98,209.3,0.42491,1.2295,51.445,217.08,0.27486,0.71437,3.3161,0.86682
0.092957,0.0086039,0.04117,0.093244,0.0080174,0.014157,0.0064943,0.085235,0.096587,0.0090496,0.38292,0.7592,3.5716,59.451,234.31,0.39147,0.38586,143.24,193.11,0.58939,0.67149,3.454,0.95108
0.066924,0.0059636,0.096455,0.091901,0.0013644,0.047968,0.0065221,0.067124,0.078164,0.00312,0.85339,0.328,3.9725,89.805,60.12,0.61274,2.0675,247.84,245.23,0.42447,0.56219,3.2231,0.45552
0.093897,0.0083183,0.037118,0.044393,0.0091091,0.042028,0.0031144,0.082616,0.049428,0.0053066,0.78553,0.1335,1.3041,245.8,53.583,0.079199,4.8333,76.371,0.84718,0.92296,0.28921,2.175,0.3262
0.048333,0.0038386,0.023878,0.073125,0.0075884,0.07279,0.0087185,0.061518,0.050995,0.0091681,0.98852,0.60829,3.2134,178.3,101.68,0.16164,4.5457,183.03,128.14,0.63027,0.77554,2.2369,0.15777
0.099544,0.0087343,0.014499,0.070511,0.006542,0.042668,0.0020377,0.054254,0.056042,0.0069737,0.2399,0.64114,4.707,239.82,249.74,0.41092,0.85607,126.98,182.86,0.70534,0.98738,4.9568,0.8101
0.098313,0.0046042,0.051086,0.099738,0.0077967,0.077296,0.0089426,0.082136,0.093525,0.0049218,0.9338,0.95182,3.7962,61.462,241.27,0.44473,1.9669,122.43,134.24,0.043379,0.9764,2.9308,0.80653
0.074064,0.0097286,0.039596,0.090587,0.0040485,0.071949,0.0064533,0.049695,0.049816,0.0086859,0.58774,0.51243,4.5855,58.898,233.08,0.5819,0.33106,249.52,248.63,0.32539,0.73289,3.29,0.68815
0.023325,0.0017728,0.01012,0.091254,0.0028562,0.062493,0.0036984,0.014398,0.02298,0.0045643,0.76976,0.88269,4.6298,51.344,245,0.3436,4.9302,102.51,23.388,0.45923,0.9579,3.5309,0.22379
0.096325,0.0062979,0.060752,0.090265,0.0010103,0.031641,0.0077762,0.036371,0.057105,0.0052174,0.43645,0.93434,3.5,112.64,136.08,0.47065,3.4244,108.63,7.431,0.40823,0.62978,1.4641,0.33352
0.074302,0.0082196,0.049972,0.043991,0.0093531,0.043738,0.0033865,0.077432,0.046342,0.00505,0.21556,0.71337,4.8834,88.992,166.22,0.43416,3.1215,148.27,29.186,0.68217,0.66828,1.6142,0.05022
0.037582,0.0096803,0.024523,0.032517,0.0082412,0.028426,0.0057299,0.062078,0.014947,0.0039159,0.29889,0.42152,2.285,212.77,93.381,0.54058,0.57668,199.66,115.87,0.12612,0.38009,3.728,0.16614
0.084536,0.0027711,0.010812,0.064243,0.0041539,0.033278,0.0030631,0.040075,0.042789,0.0088374,0.64521,0.32148,3.2354,52.451,245.8,0.45078,1.9388,209.6,165.28,0.38014,0.53903,3.4816,0.39223
0.08271,0.0080024,0.058963,0.066413,0.0034317,0.086258,0.0015075,0.063402,0.019604,0.0089497,0.42776,0.52684,4.9033,73.879,249.03,0.50306,1.5241,221.11,109.88,0.9898,0.9373,2.5434,0.89316
0.091833,0.0012383,0.032916,0.011771,0.0077016,0.017184,0.00845,0.091148,0.064897,0.0040871,0.8962,0.71224,3.4707,242.22,27.093,0.38183,2.0832,216.68,165.97,0.59457,0.89395,2.1791,0.78844
0.067853,0.0020249,0.04538,0.083776,0.0075069,0.069128,0.0020423,0.085865,0.030106,0.0095853,0.95815,0.62418,4.5277,133.13,55.128,0.73813,3.0184,112.49,28.629,0.44252,0.22473,3.2309,0.32919
0.097832,0.0026796,0.032016,0.07224,0.0087105,0.089064,0.0097836,0.088157,0.09351,0.0037876,0.11529,0.91816,2.9609,52.987,241.11,0.41662,4.4757,81.892,28.643,0.32485,0.087634,1.7454,0.82462
0.020662,0.0093286,0.062442,0.091849,0.0092694,0.094332,0.0085753,0.020304,0.039746,0.0093836,0.8157,0.91244,4.7108,233.83,112.62,0.79371,3.9461,67.924,4.7525,0.189,0.21545,4.1209,0.24218
0.092709,0.0059474,0.014747,0.022629,0.0034211,0.040008,0.0010034,0.080858,0.081091,0.0024571,0.5806,0.5107,3.9751,69.494,236.67,0.5255,2.7283,125.88,33.806,0.14361,0.6652,2.1284,0.90737
0.066158,0.0012806,0.064206,0.095153,0.0071934,0.042482,0.0024725,0.046536,0.080345,0.0095765,0.97206,0.26395,4.306,66.014,208.3,0.47625,2.8144,141.76,48.094,0.85493,0.43272,4.2755,0.29154
0.033183,0.008889,0.013597,0.093434,0.006562,0.077184,0.0010856,0.037627,0.020722,0.0089067,0.92962,0.39506,4.598,52.969,243.67,0.49804,4.1664,59.873,1.6,0.89171,0.48528,3.676,0.12319
0.095617,0.0095519,0.087617,0.018532,0.001644,0.09166,0.0087536,0.012387,0.04885,0.0055645,0.99258,0.12141,3.4117,77.646,222.22,0.34354,4.6146,157.49,238.55,0.78565,0.72036,3.2918,0.80673
0.076659,0.0053452,0.04088,0.047373,0.0026956,0.011985,0.0073334,0.073941,0.023081,0.0011642,0.97423,0.74708,4.5903,247.66,249.82,0.7569,3.8044,104.03,30.133,0.57686,0.33296,4.9297,0.53199
0.074383,0.0068492,0.076742,0.085933,0.0040201,0.086457,0.0081133,0.085926,0.018956,0.0099565,0.86763,0.32318,3.6989,51.897,198.25,0.45955,4.5878,202.32,194.84,0.96229,0.83646,3.8784,0.87932
0.080425,0.0085619,0.075249,0.023663,0.0096588,0.090499,0.0070337,0.07699,0.056231,0.0042351,0.50423,0.92767,2.7033,104.78,192,0.44814,4.6333,72.957,93.71,0.93095,0.33513,3.0023,0.98854
0.087856,0.0030723,0.066707,0.095316,0.0047818,0.05885,0.001819,0.032107,0.026655,0.0086369,0.88089,0.81331,4.5293,69.505,8.761,0.82338,2.0319,92.897,4.7535,0.015655,0.30312,4.35,0.6493
0.08908,0.0073049,0.080324,0.07563,0.0017896,0.04904,0.0084039,0.095514,0.075275,0.0048976,0.90781,0.8191,4.4149,223.83,214.34,0.56793,2.7847,168.52,186.53,0.17649,0.50155,4.5936,0.37867
0.046196,0.0098289,0.076286,0.071546,0.0060388,0.064219,0.0067621,0.019907,0.013719,0.006452,0.61989,0.28599,3.7642,58.939,249.79,0.32401,0.013294,82.404,38.453,0.98912,0.52618,4.702,0.73126
0.060519,0.0024716,0.081244,0.067727,0.0070086,0.040159,0.0019143,0.096218,0.025772,0.0043982,0.65749,0.54278,4.7786,68.003,228.2,0.50617,2.304,84.613,10.988,0.16438,0.83735,2.0492,0.66997
0.063834,0.0066771,0.068384,0.038429,0.0020377,0.08003,0.0018783,0.041085,0.086377,0.0077368,0.50836,0.86895,1.8735,55.842,234.67,0.17391,1.8096,136.6,50.632,0.31843,0.23926,4.9063,0.49537
0.016755,0.0067761,0.092072,0.075893,0.003963,0.018705,0.0019572,0.08924,0.084692,0.0038456,0.77897,0.66311,3.4441,170.19,242.13,0.58818,0.7135,100.4,195.8,0.96128,0.22768,0.43536,0.17884
0.045234,0.0067287,0.064547,0.024188,0.0098272,0.050676,0.0065683,0.034843,0.028357,0.0095442,0.60928,0.2933,2.3202,158.27,13.694,0.91003,1.1906,186.63,171.42,0.9682,0.57889,2.1133,0.47341
0.041949,0.0098849,0.07628,0.078406,0.0089728,0.078575,0.0028089,0.0743,0.053877,0.0086477,0.55008,0.9755,2.608,130.97,171.36,0.29674,2.5251,70.613,87.654,0.85626,0.15186,4.9511,0.57142
0.094531,0.0044822,0.074193,0.010459,0.0012048,0.097575,0.0048088,0.014474,0.058189,0.0079804,0.88577,0.5832,3.9624,50.586,249.52,0.36065,0.73085,85.43,137.27,0.6428,0.41955,3.5901,0.9163
0.019723,0.0033555,0.072099,0.097089,0.0087696,0.010134,0.0082812,0.019653,0.027595,0.0036956,0.98449,0.77305,1.6769,124.18,54.847,0.32868,2.1009,75.908,59.677,0.84548,0.67228,4.3425,0.6368
0.020106,0.0090265,0.092788,0.064807,0.0032049,0.011546,0.0039602,0.087309,0.092277,0.0088543,0.7867,0.834,3.9964,219.73,108.83,0.60479,1.5515,164.15,131.13,0.87561,0.14577,4.9512,0.25457
0.065298,0.0098419,0.097259,0.090546,0.0049024,0.051117,0.0034601,0.048185,0.09795,0.0043757,0.61017,0.59935,2.777,50.321,233.62,0.20137,1.8631,177.35,11.538,0.7766,0.20777,4.2742,0.40457
0.096475,0.0081292,0.086478,0.093879,0.0022184,0.092441,0.0083695,0.09969,0.095594,0.0081858,0.70223,0.86068,4.8337,77.978,242.37,0.41098,2.5601,81.986,171.1,0.041989,0.74207,4.8428,0.95916
0.094247,0.0090447,0.08201,0.098925,0.0068466,0.012178,0.0087176,0.075945,0.071485,0.0083511,0.64192,0.36308,4.2655,107.46,155.26,0.49153,1.5974,133.82,98.978,0.84092,0.29195,2.0802,0.66101
0.026756,0.003746,0.082588,0.031718,0.0079726,0.049711,0.0068911,0.096479,0.065612,0.0099911,0.96548,0.82239,2.88,137.61,241.89,0.34446,4.0014,205.49,179.9,0.57153,0.66261,4.0051,0.76931
0.055669,0.0075761,0.071446,0.030108,0.0017847,0.015462,0.0061841,0.015322,0.059386,0.0014058,0.49746,0.98989,0.75254,170.96,247.29,0.077631,3.7297,115.88,143.28,0.61276,0.10178,4.4374,0.11455
0.085783,0.0068057,0.025592,0.07743,0.0046034,0.042764,0.0099797,0.083261,0.080016,0.0031312,0.22323,0.55755,3.2994,50.075,192.92,0.34357,1.8509,228.99,154.69,0.76135,0.76989,2.4088,0.26399
0.092863,0.0085543,0.084541,0.017782,0.0082641,0.075168,0.0096915,0.053022,0.093487,0.0087844,0.49977,0.27172,4.2115,79.97,188.61,0.41004,4.2543,102.78,78.589,0.8327,0.29459,4.5137,0.81125
0.093652,0.0095917,0.09454,0.085529,0.0027687,0.037356,0.0067055,0.082245,0.020492,0.0086252,0.79355,0.58607,4.2165,61.484,223.71,0.5226,4.8284,214.95,19.1,0.60591,0.28727,4.449,0.75893
0.053558,0.0044327,0.022427,0.046855,0.0072713,0.092655,0.0099845,0.024415,0.041809,0.0044779,0.25963,0.32383,1.7254,160.16,239.57,0.15393,1.511,157.07,96.211,0.22569,0.25643,3.1362,0.42319
0.088441,0.0090146,0.092806,0.01106,0.0082898,0.084212,0.0037012,0.088548,0.050216,0.0074764,0.67079,0.38989,4.638,65.885,225.92,0.44573,3.2456,110.19,217.14,0.81259,0.97061,3.026,0.68964
0.073612,0.0064428,0.027464,0.079458,0.0051777,0.026235,0.0052715,0.073773,0.044275,0.0092374,0.95772,0.28594,3.8883,205.89,196.58,0.51065,3.1685,131.66,145.93,0.01804,0.70411,2.6492,0.68762
0.074983,0.00582,0.066384,0.036327,0.0031704,0.036733,0.0030853,0.099136,0.098019,0.0026409,0.44651,0.8697,4.7339,51.142,194.01,0.56386,3.3279,238.84,208.69,0.18064,0.90528,3.4335,0.18277
0.089073,0.0036648,0.042429,0.037135,0.0086212,0.022137,0.0090059,0.033689,0.097497,0.0082701,0.25921,0.78464,3.7378,109.56,248.03,0.31377,4.8963,199.62,161.29,0.021927,0.16133,1.9559,0.012232
0.07612,0.0043868,0.080938,0.040147,0.0079345,0.065631,0.0090949,0.036242,0.061833,0.0083112,0.82141,0.77569,4.2285,73.929,154.65,0.45088,4.4668,195.03,159.83,0.96982,0.2213,4.2076,0.028341
0.032179,0.0020957,0.069305,0.097965,0.0013181,0.069724,0.002451,0.059579,0.050474,0.0033505,0.99265,0.74637,0.71666,210.84,5.3474,0.35577,0.016798,117.51,78.922,0.99235,0.81233,4.9424,0.10148
0.051305,0.0043023,0.050244,0.026697,0.006468,0.065458,0.0022707,0.058664,0.05012,0.0098723,0.77517,0.2777,4.294,111.55,232.61,0.50231,2.2308,89.251,49.387,0.40414,0.40137,5,0.84306
0.08621,0.0082818,0.086644,0.029456,0.0017153,0.033514,0.0070187,0.091046,0.04667,0.0049713,0.5347,0.95572,4.6299,239.48,184.17,0.59861,0.6689,247.96,236.24,0.063238,0.78524,3.8145,0.16603
0.069369,0.0090793,0.073659,0.038163,0.0047384,0.088525,0.0069286,0.016384,0.090873,0.0030273,0.3199,0.26136,4.8175,53.918,248.97,0.51614,2.4912,143.88,90.178,0.43058,0.1799,4.9995,0.57069
0.08017,0.0040594,0.048569,0.046431,0.0098693,0.010483,0.0067943,0.098538,0.047471,0.0026625,0.9609,0.34427,2.7141,175.39,192.05,0.4102,3.24,209.8,238.43,0.44988,0.48117,3.6913,0.72977
0.042271,0.0011431,0.065818,0.043096,0.0085838,0.042873,0.0026811,0.091512,0.071214,0.0072842,0.74387,0.60547,2.6405,178.49,127.93,0.20324,2.1959,234.91,114.98,0.286,0.73827,2.7684,0.36589
0.026572,0.0012591,0.067707,0.064401,0.0014716,0.063277,0.0083989,0.094509,0.013236,0.0088768,0.97855,0.80499,3.7084,204.39,222.11,0.39122,1.1355,120.28,228.23,0.31874,0.86848,3.8145,0.51019
0.010916,0.0086468,0.089898,0.044509,0.0075477,0.093236,0.0065237,0.070467,0.026026,0.0079207,0.25736,0.89656,2.7732,131.52,204.79,0.27979,4.5955,112.21,71.304,0.93516,0.70822,3.858,0.25884
0.017732,0.009456,0.099424,0.059544,0.0020346,0.05122,0.00939,0.07539,0.018452,0.0033529,0.52335,0.56263,2.3794,230.6,193.05,0.30619,3.6838,212.26,111.19,0.97313,0.4132,4.1414,0.57708
0.039652,0.0078186,0.075552,0.04469,0.0053684,0.048179,0.0069527,0.018403,0.021268,0.0098714,0.82458,0.47678,4.7835,114.41,249.46,0.52087,3.3818,176.91,131.42,0.09466,0.24566,4.0198,0.46758
0.099575,0.0096922,0.055524,0.069893,0.0088173,0.068947,0.0012897,0.022193,0.026968,0.0013977,0.57374,0.86027,4.9205,62.962,249.69,0.49649,2.3345,205.25,248.55,0.57536,0.88223,2.8177,0.73108
0.055591,0.0054345,0.014404,0.011324,0.0011503,0.078537,0.0014202,0.082958,0.05189,0.0040973,0.81551,0.72749,4.0679,94.545,236.34,0.46727,3.1834,219.49,229.72,0.61637,0.69477,4.7766,0.10493
0.044794,0.005964,0.01974,0.083181,0.0083702,0.044168,0.0013343,0.086076,0.02546,0.0070587,0.38123,0.49125,3.7803,174.36,65.881,0.64943,1.4662,76.681,221.99,0.17825,0.24257,4.934,0.97972
0.094357,0.0068701,0.087247,0.041487,0.0080549,0.050866,0.0074644,0.019267,0.064707,0.0015106,0.43761,0.50862,2.6565,198.13,216.24,0.38206,4.1006,206.16,37.305,0.43934,0.53098,3.4295,0.41538
0.024359,0.0097582,0.092435,0.074396,0.0027434,0.067942,0.0041673,0.078031,0.070776,0.0014911,0.15926,0.2407,1.5913,132.57,182.22,0.45809,4.8768,161.99,155.91,0.58731,0.64671,4.1805,0.79484
0.080296,0.0091336,0.070449,0.0963,0.0092156,0.076164,0.0018228,0.038906,0.0882,0.0060838,0.15425,0.21783,4.8682,189.26,230.57,0.52962,3.4594,219.62,13.897,0.95467,0.056267,4.5548,0.431
0.070893,0.0012254,0.059423,0.055668,0.0071532,0.074856,0.0013956,0.031441,0.079101,0.0068585,0.8689,0.3041,4.2508,53.261,246.19,0.49339,3.0084,55.393,22.288,0.26532,0.73791,3.2777,0.81113
0.082476,0.0061708,0.034025,0.069953,0.001183,0.080465,0.0082795,0.023064,0.098581,0.0070395,0.89148,0.65942,4.5408,116.13,79.594,0.58905,2.1731,236.7,90.661,0.72505,0.98451,4.1552,0.48471
0.091865,0.0075644,0.017193,0.017402,0.0074158,0.013104,0.0017306,0.01668,0.092286,0.0066422,0.91307,0.93775,4.3921,53.042,249.76,0.47281,4.4,91.316,166.94,0.90746,0.70263,1.0531,0.53898
0.083557,0.0062713,0.044732,0.023955,0.005364,0.081578,0.0030657,0.069396,0.02557,0.0096766,0.99302,0.75372,4.3078,84.074,176.44,0.40763,2.8101,59.105,88.26,0.66868,0.74494,3.9289,0.010948
0.042365,0.0014453,0.011479,0.068881,0.008499,0.013757,0.0077306,0.01322,0.093046,0.0056286,0.53058,0.95019,3.0324,195.52,148.44,0.56485,2.7776,158.48,30.942,0.010964,0.82943,1.8476,0.60525
0.043458,0.0058144,0.063274,0.055383,0.0018167,0.024447,0.0035375,0.076672,0.090904,0.0073146,0.68806,0.13241,3.9878,79.184,155.66,0.33536,0.57842,155.38,231.54,0.80098,0.94893,3.1666,0.22968
0.044459,0.0013588,0.061141,0.043166,0.0012294,0.08515,0.0039832,0.099781,0.043948,0.0043632,0.58376,0.60509,4.576,80.985,249.79,0.53217,0.40728,178.9,2.6421,0.73252,0.3449,4.4756,0.69008
0.095568,0.0094061,0.011104,0.071672,0.0079278,0.060349,0.0020097,0.013323,0.084848,0.0065263,0.2562,0.69055,4.7975,61.87,225.59,0.54349,1.0229,199.23,2.6804,0.54529,0.91508,0.71405,0.517
0.097483,0.002893,0.063082,0.050179,0.0053823,0.025482,0.0015997,0.057633,0.054053,0.0037656,0.21891,0.77739,4.9833,200.47,144,0.31279,0.43051,222.18,240.2,0.56571,0.48994,1.8444,0.19635
0.069451,0.0033308,0.042419,0.014288,0.0030283,0.094492,0.0036475,0.080575,0.010609,0.0018361,0.90478,0.16085,2.8601,238.06,156.29,0.6861,2.4116,211.75,38.836,0.32116,0.33315,3.5842,0.83901
0.086726,0.0068864,0.012289,0.088241,0.0059919,0.043169,0.0054535,0.087098,0.020214,0.00306,0.57465,0.1573,4.6082,50.393,213.39,0.53972,4.0766,184.72,2.5058,0.66283,0.85639,4.5824,0.097467
0.090566,0.0014408,0.098072,0.068668,0.0071303,0.096442,0.0043849,0.091128,0.085209,0.0012572,0.19056,0.66289,4.8063,53.906,218.47,0.52546,2.0506,55.057,11.286,0.12633,0.52627,3.2136,0.27091
0.081895,0.0033537,0.084397,0.096191,0.0016786,0.03857,0.0037727,0.037926,0.092346,0.0034843,0.71093,0.63064,4.5738,51.163,167.97,0.43129,2.242,210.79,98.935,0.024308,0.21478,4.8679,0.4455
0.089957,0.0013708,0.059552,0.047975,0.0090629,0.030947,0.0065772,0.071168,0.041649,0.0016485,0.88194,0.70482,4.6626,54.658,247.51,0.48666,4.4375,219.9,80.419,0.46747,0.35996,4.5371,0.57385
0.07587,0.006765,0.060366,0.02799,0.0088446,0.073179,0.0011124,0.051327,0.051097,0.0036273,0.47342,0.34513,3.4423,51.596,228.28,0.40196,4.8753,163.8,245.34,0.94172,0.87532,4.944,0.10734
0.082084,0.0094642,0.071429,0.056023,0.0045969,0.088031,0.0028133,0.069777,0.068105,0.0048716,0.61926,0.71703,3.6921,50.917,244.01,0.3485,3.8228,149.09,168.29,0.73727,0.72329,4.497,0.1107
0.078331,0.006194,0.013147,0.018385,0.0010548,0.098253,0.0040618,0.071461,0.070615,0.007498,0.82546,0.93765,3.2405,86.919,249.17,0.36615,4.8785,227.54,20.914,0.93806,0.86962,4.633,0.015976
0.024069,0.001099,0.049618,0.071679,0.0037866,0.012491,0.0077028,0.03181,0.097832,0.0073452,0.17972,0.67503,4.0902,163.88,58.229,0.53553,2.5507,66.198,117.84,0.94024,0.40697,0.44224,0.42541
0.066399,0.0065654,0.049584,0.086317,0.0089288,0.023752,0.0014002,0.058936,0.065202,0.005483,0.14987,0.86562,3.769,152.23,191.08,0.44437,3.2573,136.95,245.48,0.68122,0.09483,4.1181,0.30048
0.092073,0.0028131,0.07895,0.058561,0.0096795,0.080553,0.0062792,0.024781,0.093497,0.004251,0.54115,0.99161,2.1284,245.11,238.95,0.53103,4.1479,220.96,104.03,0.15227,0.029437,4.1738,0.27198
0.081786,0.0021953,0.099986,0.010322,0.0051611,0.073289,0.0050384,0.029093,0.093535,0.0059182,0.88309,0.91472,3.4474,75.04,249.97,0.38871,0.39735,247.45,42.841,0.81579,0.54532,3.7407,0.65573
0.065437,0.0083999,0.033172,0.048255,0.0054639,0.048491,0.0096149,0.061545,0.099795,0.0042205,0.46104,0.17851,3.2569,73.113,228.02,0.3454,3.3427,189.49,201.71,0.39682,0.50067,2.6352,0.7661
0.060999,0.0076181,0.089723,0.030191,0.0011939,0.019769,0.0087407,0.086075,0.034146,0.0094686,0.73819,0.71513,4.3093,69.083,206.87,0.58692,3.0055,116.52,19.758,0.8586,0.2874,4.1849,0.41054
0.093582,0.0090414,0.014475,0.069395,0.0027306,0.066828,0.0038833,0.097813,0.095153,0.0050031,0.98471,0.87114,3.6792,57.581,236.66,0.43829,3.597,247.61,244.6,0.20618,0.81639,3.0355,0.47901
0.04019,0.0024372,0.039849,0.055279,0.0090832,0.021406,0.0069723,0.081673,0.020091,0.0019974,0.53711,0.71675,1.9798,86.317,24.314,0.31674,2.5077,138.85,87.39,0.99508,0.48027,4.8334,0.87401
0.013401,0.0048006,0.07566,0.064005,0.0045036,0.062258,0.0091507,0.059871,0.088297,0.0087861,0.87391,0.40294,1.4883,206.84,167.16,0.063363,4.1027,232.97,94.548,0.023761,0.77101,2.1566,0.083073
0.098221,0.0066602,0.054883,0.028016,0.0019184,0.026605,0.0071687,0.08858,0.019856,0.00132,0.75539,0.49549,2.9113,130.32,249.92,0.45531,1.7163,204.83,141.6,0.92791,0.33259,4.9457,0.67413
0.093812,0.006371,0.059199,0.022366,0.0041473,0.054542,0.0099921,0.03408,0.090847,0.0030094,0.58831,0.3541,3.2299,165.96,182.96,0.50206,3.7395,75.644,184.84,0.70265,0.58774,1.9836,0.73988
0.097612,0.0034175,0.030218,0.074641,0.0065132,0.07144,0.0094008,0.094696,0.067167,0.0022417,0.72921,0.94639,4.8619,50.719,220,0.48097,3.0673,196.38,103.86,0.28127,0.24307,4.7871,0.38498
0.071047,0.0080382,0.021068,0.094559,0.0032418,0.028616,0.0034561,0.099124,0.064089,0.0037232,0.52967,0.47483,4.4876,52.056,246.25,0.45581,0.27966,204.72,126.91,0.8652,0.66232,2.566,0.65893
0.076368,0.0084643,0.022419,0.041345,0.0067689,0.081965,0.0072407,0.092563,0.052158,0.0091471,0.63703,0.93298,4.0409,58.032,248.58,0.52541,4.0103,242.94,51.002,0.7262,0.59574,3.7673,0.019448
0.06107,0.0098629,0.088664,0.059881,0.0097818,0.044335,0.0099551,0.013348,0.071876,0.0075807,0.94217,0.84387,2.4797,122.62,137.86,0.31403,4.9156,88.381,214.04,0.97304,0.94721,2.7834,0.59829
0.011446,0.0028462,0.083353,0.099087,0.009286,0.0886,0.0028934,0.062738,0.05903,0.0067392,0.93299,0.6289,3.4571,54.807,216.23,0.24422,0.25538,163.39,32.192,0.93747,0.18586,0.71166,0.33443
0.048296,0.0080178,0.050341,0.013837,0.0014843,0.075193,0.0047416,0.047891,0.072122,0.0097772,0.95601,0.81683,3.8489,176.36,201.97,0.38638,3.0975,84.426,12.535,0.28008,0.26121,4.6102,0.11405
0.012644,0.0086052,0.022343,0.086838,0.0091278,0.010323,0.0024581,0.014098,0.07642,0.0039797,0.19128,0.13065,4.0944,57.604,228.56,0.45522,4.1558,66.941,0.61556,0.34847,0.93412,2.8544,0.73047
0.080576,0.0090578,0.022704,0.063701,0.00271,0.082937,0.0032475,0.093269,0.028349,0.0047862,0.95152,0.11662,4.9805,72.267,73.864,0.64946,1.7302,244.42,183.47,0.18434,0.17838,2.3838,0.52743
0.098273,0.0071121,0.098434,0.011545,0.0099335,0.032106,0.0045434,0.077621,0.043766,0.0053238,0.54697,0.62771,3.2331,135.39,106.2,0.59777,3.9259,171.46,117.69,0.74383,0.99246,4.2234,0.17739
0.072095,0.0081744,0.09747,0.093987,0.0039385,0.089734,0.0040615,0.077936,0.098027,0.0091885,0.16122,0.91626,2.2304,177.26,180.5,0.46733,4.2826,224.24,36.309,0.52845,0.81567,4.0563,0.39593
0.080172,0.0031202,0.0486,0.010881,0.0030479,0.085535,0.0093567,0.074992,0.056365,0.0061491,0.23828,0.3164,4.1149,51.721,233.15,0.48129,0.61269,217.28,55.51,0.36992,0.46698,4.2395,0.49216
0.063818,0.0077701,0.078166,0.067686,0.0094934,0.042001,0.0055628,0.03577,0.021592,0.0048235,0.3672,0.94318,4.3017,66.144,208.64,0.3756,3.1583,226.79,227.99,0.59415,0.28047,4.509,0.43788
0.035615,0.0092806,0.060273,0.080982,0.0082976,0.038372,0.0057391,0.096803,0.084683,0.0050898,0.25187,0.28118,4.7834,164.84,248.41,0.62104,1.8915,215.87,87.114,0.81488,0.12546,4.8298,0.63537
0.077163,0.0099517,0.078099,0.057385,0.00932,0.023877,0.0055104,0.02344,0.08555,0.0095609,0.76168,0.87641,4.5368,61.723,231.27,0.3714,3.3864,70.148,19.422,0.017565,0.13259,4.6127,0.15273
0.072449,0.0089467,0.097833,0.098712,0.0094196,0.076208,0.0089033,0.094998,0.039113,0.0062465,0.89173,0.83022,3.0425,57.594,197.99,0.38028,2.373,213.58,65.63,0.66005,0.74655,2.0813,0.92925
0.081073,0.0094369,0.013769,0.06655,0.0089133,0.03749,0.0082435,0.051865,0.086755,0.0045229,0.86628,0.15371,1.2549,160.61,10.697,0.69763,3.9811,144.92,81.522,0.97567,0.34155,1.6098,0.87017
0.078972,0.0010529,0.04159,0.048292,0.0087856,0.083906,0.0020604,0.04702,0.087146,0.0060227,0.76733,0.97181,2.925,79.992,243.32,0.31163,2.4166,158.78,155.84,0.49975,0.37115,4.6831,0.26559
0.086069,0.0011358,0.052898,0.059173,0.0042168,0.035189,0.0065652,0.089244,0.03857,0.009879,0.94365,0.16677,4.0407,138.47,228.28,0.38501,1.3195,190.17,18.087,0.5301,0.90923,3.7418,0.50905
0.089876,0.0018634,0.025744,0.027172,0.0022265,0.086631,0.0060014,0.03024,0.034267,0.0080526,0.25293,0.30659,3.6506,167.79,94.988,0.25909,1.1029,98.395,4.6711,0.10203,0.83363,1.5883,0.49045
0.027672,0.0080826,0.042031,0.077004,0.008252,0.027576,0.0035635,0.058867,0.087455,0.001794,0.5704,0.62977,3.218,115.36,247.02,0.51196,2.8546,177.8,209.92,0.56883,0.61877,4.1476,0.041534
0.077426,0.0098886,0.089962,0.029157,0.0071301,0.04195,0.0034221,0.095284,0.08211,0.0044065,0.15282,0.21516,4.5153,59.285,214.32,0.6189,3.7946,112.13,139.93,0.95374,0.17087,4.6329,0.40466
0.074409,0.0035694,0.016224,0.050261,0.0048825,0.041138,0.0012888,0.068801,0.033622,0.0079255,0.83228,0.71203,1.9426,153.72,247.8,0.40812,2.8679,169.07,169.39,0.69839,0.090085,3.4227,0.37846
0.073405,0.0030563,0.018347,0.090675,0.009524,0.062707,0.0043413,0.013069,0.090897,0.0027947,0.41112,0.12547,1.9616,79.363,236.78,0.20602,2.3297,194.38,236.35,0.47284,0.18228,4.4474,0.16689
0.076266,0.0011142,0.028522,0.08401,0.0076074,0.051063,0.0072663,0.044997,0.02133,0.0041777,0.84603,0.86671,4.4397,228.1,221.07,0.50918,0.0055309,249.45,218.93,0.30363,0.089913,4.0399,0.8495
0.069102,0.002082,0.065368,0.089451,0.0012887,0.01346,0.0049439,0.088653,0.087088,0.0029591,0.75253,0.354,3.1298,57.615,198.82,0.47541,2.721,220.54,186.12,0.42655,0.17707,4.4743,0.65277
0.090199,0.0066968,0.034609,0.017931,0.0034855,0.044201,0.003297,0.044948,0.084225,0.0010297,0.90356,0.47979,2.888,143.61,150.68,0.27285,4.0715,206.8,51.966,0.65223,0.18325,4.9622,0.51877
0.055174,0.0011369,0.077301,0.073017,0.0016098,0.051371,0.0061765,0.014722,0.050849,0.0027246,0.29032,0.68993,4.8356,142,60.102,0.4731,3.0128,132.05,170.43,0.10851,0.29611,2.0226,0.72099
0.072071,0.0094624,0.037515,0.02532,0.0084425,0.031768,0.0033955,0.0767,0.021528,0.0050521,0.40586,0.86694,4.9287,60.156,187.94,0.48326,3.0585,116.96,37.872,0.47952,0.6243,3.2531,0.081244
0.096644,0.0099961,0.07889,0.084974,0.0045669,0.029679,0.0041364,0.03068,0.017398,0.0071365,0.54657,0.36312,4.248,54.088,246.8,0.55174,4.5248,230.5,31.45,0.27836,0.7647,2.6849,0.92744
0.083745,0.0083102,0.09526,0.013025,0.0023243,0.016971,0.0071789,0.030642,0.025675,0.0013063,0.57587,0.47012,2.2589,249.54,173.77,0.60037,0.34286,183.29,18.528,0.2281,0.51276,2.165,0.034021
0.091275,0.0090569,0.070391,0.07983,0.0040918,0.066734,0.0011595,0.025484,0.075471,0.0021554,0.83609,0.67647,3.5872,137.52,214.9,0.32466,3.2426,230.17,218.76,0.57637,0.18473,4.1992,0.22662
0.086447,0.0063105,0.021872,0.078715,0.0097409,0.082785,0.0011505,0.084723,0.053828,0.0082332,0.79235,0.17768,4.7297,199.66,230.68,0.49541,4.9473,197.01,85.374,0.48709,0.30827,4.4493,0.49984
0.082684,0.0085155,0.079195,0.0152,0.0064307,0.011934,0.0091412,0.046976,0.055623,0.0016838,0.12425,0.261,4.5459,67.819,48.421,0.62219,4.3881,236.17,32.376,0.67801,0.29222,1.5187,0.14228
0.096141,0.0053411,0.050012,0.096136,0.0070088,0.011058,0.0069136,0.07933,0.092795,0.0099202,0.55437,0.13846,4.3383,53.3,233.61,0.50822,4.5605,181.17,191.51,0.98439,0.40901,4.9506,0.25216
0.054154,0.001535,0.04222,0.090862,0.0087547,0.045892,0.0022909,0.040602,0.029392,0.0088395,0.28364,0.97051,3.4347,206.64,53.999,0.28336,1.6876,221.61,86.167,0.75755,0.30708,4.1403,0.90815
0.095108,0.005143,0.056532,0.056452,0.0047808,0.028873,0.0033265,0.02772,0.084727,0.0091221,0.43478,0.9111,4.9859,147.53,221.07,0.53863,3.3519,104.5,80.136,0.23806,0.4124,1.7938,0.5377
0.042852,0.0038684,0.054917,0.055555,0.0016607,0.062912,0.0081214,0.086988,0.049771,0.0056072,0.39776,0.14358,0.7869,106.76,56.184,0.03236,0.71757,178.61,153.08,0.12622,0.4507,2.2788,0.8585
0.07197,0.0091914,0.050695,0.033005,0.0088426,0.084045,0.0075464,0.021871,0.029988,0.0065485,0.61666,0.91951,3.484,63.435,165.94,0.45026,1.8868,198.07,66.098,0.1059,0.23126,3.1711,0.023253
