0.0128518896,0.00825493769,0.0411307643,0.00959893779,0.545925638,0.246391682,2.88773674,143.943819,182.823387,0.682330449,0.93290192,77.9642044,229.137464,0.221896407,0.844631942,0.962031582
0.0752442677,0.00842290513,0.0863641323,0.00228385312,0.648268304,0.485286508,3.14136171,111.260677,61.6554585,0.490647704,1.35452825,212.170757,108.154649,0.175282973,0.228756576,2.8373917
0.0229742929,0.00271392493,0.0244327944,0.00561307046,0.104327617,0.13766668,1.82387376,137.874366,20.4602316,0.044371167,0.331216459,100.571935,106.749564,0.649664237,0.428373048,3.28832858
0.0672334135,0.00123105887,0.0242077939,0.00974732624,0.628955888,0.303171631,3.18279005,111.372008,213.227186,0.123295224,1.66746846,54.8771303,7.32153332,0.188540113,0.368291143,3.4278972
0.0810862803,0.00151133464,0.0557793343,0.00683488559,0.79971618,0.699535329,4.45646729,105.002595,171.63804,0.0858588595,0.249527864,156.144716,127.60659,0.125384499,0.696047825,1.76870196
0.0609627814,0.00228642022,0.06429709,0.00653203903,0.691464865,0.884210394,1.26759104,77.7494772,239.527655,0.611746432,0.506542504,236.970935,240.925717,0.371680706,0.944380682,4.78395263
0.0439672531,0.00254276864,0.0245257272,0.00522685335,0.575483224,0.410255509,1.43179669,83.3094937,246.263901,0.241131193,0.359348878,203.865701,68.8375698,0.40835133,0.217886251,1.21869289
0.0839427504,0.00663260303,0.0671908892,0.00620002628,0.843195845,0.124526408,0.627095881,148.789479,133.680655,0.150591329,4.52256508,130.950462,185.85286,0.0989117891,0.753003797,3.74135856
0.0374392747,0.00126563687,0.0859546518,0.00920181904,0.966190392,0.914754401,2.64286886,67.3167022,226.495112,0.534871466,1.55898906,193.562185,29.2006371,0.686930395,0.5198385,1.95113766
0.0387435788,0.00525099039,0.0804042291,0.00438598255,0.382362811,0.523956022,4.10383181,235.367782,119.162155,0.930998325,2.95884461,146.264525,192.332629,0.551425304,0.760074518,4.22378316
0.0806481902,0.00710598493,0.0338109719,0.00305888295,0.817376552,0.919417617,1.4988773,79.69525,222.417813,0.620733743,1.88812567,138.235159,191.429874,0.986099178,0.880869503,1.8599199
0.0553362793,0.00203310072,0.0383229066,0.00481172384,0.356658218,0.395181797,3.93839459,82.0958397,5.96243991,0.692992998,4.75781918,238.472166,135.191564,0.220622078,0.237478172,3.53802993
0.0334897059,0.00312457532,0.0264876014,0.00346236599,0.113405388,0.721993189,2.18506287,193.544718,32.1812081,0.242081608,3.71197589,165.755678,42.3295621,0.919800627,0.939693628,1.72827647
0.0759227972,0.00360172542,0.0502725945,0.00500109259,0.184734779,0.115703183,2.75269858,184.978892,185.160051,0.214775421,4.43546681,206.72194,232.530118,0.668510042,0.027152013,4.38578953
0.0246654969,0.00255480665,0.0394010755,0.00664763542,0.395850719,0.561112165,4.93057237,121.703909,97.7550513,0.0469926033,2.99448078,192.96141,52.0521284,0.746043496,0.561514248,3.75263958
0.09289677,0.0039133551,0.0351834661,0.00581177128,0.37500969,0.39863231,3.44890492,68.0915807,98.4071152,0.666731316,3.44814932,78.4332367,4.94016163,0.384672838,0.890452286,2.17212667
0.0300001116,0.00820999089,0.0938587518,0.00446897944,0.11621992,0.402501203,4.85068388,51.649609,150.462087,0.512182025,1.95558252,188.583707,150.402797,0.480020647,0.166991166,2.00330349
0.0175247846,0.00369670329,0.0459723172,0.00886105089,0.245986668,0.958011044,0.479829192,124.555806,5.9713683,0.490942445,1.11636842,128.729791,151.842767,0.115199102,0.425242773,1.86468925
0.0166331398,0.00798063151,0.0441480841,0.00370313861,0.499590517,0.775454869,4.49046119,207.661428,96.9177457,0.863078059,0.656300144,75.5535671,117.213725,0.884946285,0.326896111,2.21625148
0.0792596492,0.00597493748,0.0633561805,0.00460026744,0.790093027,0.400531806,0.292215467,139.457211,14.1865319,0.965859755,0.86239162,178.180879,149.078396,0.4506522,0.567590962,1.90153702
0.0835909324,0.00599222549,0.0161656017,0.00565951163,0.713130342,0.669549474,0.616590755,69.9249366,172.392641,0.762091056,4.6929895,149.501697,180.864677,0.671546054,0.826987156,0.363562212
0.0766382982,0.00757582558,0.0284713896,0.00155642243,0.743083055,0.473991138,3.15362872,211.166228,130.097727,0.254212654,0.172409766,62.7945037,102.027662,0.730933645,0.391681517,2.20140386
0.0782423908,0.0079626234,0.075125645,0.00308230499,0.51380279,0.618849818,1.85052173,181.890997,19.0216147,0.679504786,4.39778496,154.707435,149.403463,0.292786862,0.621350792,3.03263386
0.0965075482,0.00910762394,0.0617632852,0.00206637392,0.927341567,0.963550476,1.59786137,140.472819,101.564936,0.76171239,2.61163725,112.90797,106.427407,0.597749878,0.965151942,1.52392081
0.0519782466,0.00224350441,0.0280209253,0.00188902032,0.990049078,0.654263406,3.97847166,156.672472,107.553219,0.590327916,4.04123683,220.97839,30.4604025,0.376824942,0.828470631,2.03321878
0.0808296839,0.00814669135,0.0859132311,0.0090124791,0.939341004,0.235520107,1.50852406,155.332947,164.828069,0.824214874,2.23789866,51.8030219,87.488332,0.797681252,0.813402265,0.50505903
0.0480311275,0.00270472037,0.0481357001,0.0013005017,0.515371013,0.854443628,3.03730844,175.936212,54.5977936,0.927566794,1.73269477,90.5170961,136.686402,0.0827991455,0.955094546,2.38440071
0.0949356963,0.00126076944,0.0590275866,0.00855131493,0.914429953,0.753548878,2.30986122,179.312886,20.2721647,0.641191209,3.78575382,226.120859,31.7747824,0.992810255,0.183119731,1.46205171
0.0101182958,0.00214648473,0.0575170645,0.00556540052,0.447806488,0.19796158,1.46296346,88.3661465,116.917918,0.0287484888,1.80106462,93.6099401,20.3741456,0.778269082,0.670428315,0.0814127681
0.0983141116,0.00220362118,0.0266597039,0.00202344797,0.642714897,0.245216386,4.16209478,210.346413,182.167929,0.192497225,2.78303339,113.537937,72.3642931,0.0172967529,0.735596496,4.42207857
0.0613174764,0.00215479864,0.0173520743,0.00541401091,0.604287108,0.367309261,2.85262979,89.314198,153.495959,0.0364733021,4.44360627,118.792738,169.204057,0.890058933,0.819551375,1.05155323
0.0411823499,0.00941733814,0.0517684261,0.00639497548,0.86125578,0.481224195,0.352540569,132.258728,225.149436,0.935648684,4.20081929,210.015479,114.260554,0.865483724,0.681018008,3.41822149
0.0601752748,0.0034590705,0.0127499298,0.0018119452,0.356324459,0.575572976,1.33155845,97.1386723,63.1948406,0.489622685,1.22013603,164.216893,124.803771,0.700617804,0.330058788,0.771951511
0.0369806232,0.0094841133,0.0491485742,0.00980401631,0.696986648,0.347587635,0.854374154,104.441088,55.0238294,0.796837703,2.17809106,212.647692,14.6195611,0.886142162,0.0346922086,4.87157936
0.024316554,0.00674335451,0.0602078465,0.00687716895,0.642032359,0.845160473,2.80153711,51.7336988,58.9512481,0.462266987,4.14276428,67.2359211,18.4015327,0.470988101,0.120188971,2.51331175
0.0698730657,0.00885277739,0.0674903916,0.00515018914,0.690816652,0.813506263,1.01045252,235.656164,202.532377,0.499267168,0.763516423,88.4274974,84.4691949,0.377842866,0.283713492,4.45704097
0.0715782505,0.00430365914,0.0130795672,0.00877382299,0.378940678,0.346373194,2.46184406,154.043899,175.602263,0.431456813,3.78976967,175.900334,84.0177883,0.0921913877,0.838235975,3.63245542
0.0813168426,0.00312581714,0.0738910403,0.00336546165,0.398479426,0.65412496,3.6468371,142.825122,219.626214,0.892854434,4.38254244,62.772691,246.239916,0.997246372,0.901352664,2.48589823
0.0413761994,0.00268586414,0.0252391554,0.00841566649,0.269377596,0.191395651,4.77498191,154.705946,177.752808,0.875542269,2.51061797,198.592463,187.91598,0.87113156,0.449947224,3.03607123
0.032506726,0.00591084338,0.0634044226,0.00396077775,0.190615066,0.702966896,3.8118417,117.362421,165.27006,0.636818866,2.85133367,170.679479,161.632755,0.010069558,0.988536344,1.74644406
0.0410503047,0.0032960481,0.0647258427,0.00947170478,0.357907559,0.412656938,0.400340695,116.47579,109.894358,0.29935652,4.25740977,209.688851,220.716336,0.683176955,0.0337887881,2.6310728
0.0395769334,0.00375241247,0.0795123628,0.00319697264,0.419343599,0.702546043,4.69123112,247.657576,140.6984,0.298761557,4.92321368,82.1189507,127.972484,0.658331265,0.85945042,3.98457592
0.093473698,0.00113993757,0.0150646254,0.00961399149,0.582185528,0.365772017,4.87236922,144.74338,247.577831,0.253045043,3.95106776,197.586161,94.0507033,0.417694912,0.528556842,1.36837964
0.0780465189,0.00628739284,0.0869252632,0.00559742468,0.99174968,0.71238517,3.03555214,199.372188,239.328853,0.707304441,1.75341471,201.407904,220.940536,0.481604686,0.975458617,1.46341798
0.035941477,0.0096630248,0.0445855893,0.00608121873,0.125360275,0.45439576,4.78747479,183.991766,84.2045665,0.776865754,2.50952421,226.262218,61.4404555,0.394388296,0.877221511,1.74075943
0.0645561889,0.00864862907,0.0459657065,0.00994344518,0.738578814,0.452636497,1.65325271,209.1184,38.8639494,0.824427026,1.2760614,135.848407,41.0008194,0.457536477,0.161335082,4.37986434
0.0789426428,0.00107146267,0.0392875737,0.00793885546,0.914641316,0.286266971,4.50607571,104.508685,104.26978,0.808127749,2.54935824,87.4965561,164.650963,0.0364922409,0.353375271,0.466595751
0.086153711,0.00670622985,0.0599851099,0.00382421729,0.879246443,0.752068276,0.00182811882,106.783026,138.619254,0.261233244,0.393099262,110.606312,63.9045579,0.431033522,0.058006815,1.03340203
0.0911783073,0.00423362022,0.0365878093,0.00152085362,0.207252391,0.837374824,2.4164001,193.45115,7.4380297,0.802494862,0.279496359,114.151413,39.4008076,0.114747238,0.444116035,1.51379548
0.0636136433,0.00202653654,0.0429508002,0.00139666413,0.959747681,0.933824474,0.737373736,86.9274236,216.676568,0.633411635,3.17493933,138.40134,69.1514455,0.0526801521,0.441093589,1.75761197
0.016168253,0.00586736134,0.0414143496,0.00831649573,0.496810712,0.562707993,1.57496043,216.740672,223.603561,0.239186552,3.08451689,122.376953,74.6771871,0.560560985,0.326700533,3.63373751
0.0296239037,0.00474779245,0.066720165,0.0047086595,0.888184196,0.273828959,0.856877291,83.9330026,124.297596,0.387265994,0.407367331,175.120011,1.47608185,0.615174175,0.914398314,4.43162637
0.0882467642,0.00565388648,0.0697997873,0.00445746852,0.878456479,0.642610817,2.96453468,240.653135,52.3217508,0.458669624,3.04760348,237.765309,57.162999,0.741443931,0.494556317,0.259630952
0.0472796069,0.00897510589,0.0992886703,0.00570813879,0.419635518,0.278362169,3.28804006,194.509609,180.399283,0.505553963,2.7233532,107.380804,167.529448,0.264350083,0.710237403,0.392795907
0.0695088237,0.00234456317,0.0949925136,0.0090293407,0.668031803,0.469353318,1.74481346,76.8496806,174.929026,0.54516583,4.27960818,98.9198899,245.416401,0.728996348,0.664641357,0.0724302808
0.0805136356,0.0049120887,0.0415313076,0.00465328577,0.878094325,0.867767333,0.268467237,220.618499,115.186808,0.351693707,3.21344775,234.17079,64.037195,0.716120404,0.831781417,0.96670064
0.0323097407,0.00153134927,0.027369815,0.00643950007,0.118892561,0.486173612,0.235840155,236.338548,42.6482617,0.298515728,1.35816413,235.243316,154.793164,0.508726877,0.258035344,0.131446399
0.059898276,0.00442927051,0.0927618525,0.00185323201,0.169138229,0.933092721,0.279289046,162.836933,198.592862,0.706493304,0.533753308,111.988246,242.957372,0.893841885,0.769241439,2.34382925
0.0306626856,0.00750132522,0.0359822845,0.0040238315,0.439042985,0.435769946,0.357559978,129.764666,222.12491,0.93473763,0.302567125,65.2950716,123.042815,0.781591353,0.410567312,1.21691309
0.0106221488,0.00185607306,0.0595773485,0.00230357655,0.234274297,0.728421732,0.0783777248,138.3205,35.6286294,0.59823301,3.10941503,206.175593,75.2567354,0.499911563,0.0556567427,4.59958433
0.0789975458,0.00700471358,0.0927391738,0.00320392477,0.130687206,0.629762879,4.86839504,190.336148,234.917899,0.597159865,3.49535025,76.1490333,149.274243,0.763892092,0.87064908,3.57916819
0.0119649925,0.00366760499,0.018104367,0.00441074493,0.804024737,0.190779529,3.6739836,102.008598,0.0652137926,0.741343724,1.37470015,142.296364,135.845704,0.670374257,0.972300313,2.44322867
0.0453793091,0.00638706488,0.0331926672,0.00343287651,0.394520569,0.4711555,3.76192807,55.7058902,109.701254,0.378916752,2.10984646,138.033834,32.4426913,0.978331088,0.116976196,0.390371288
0.032728614,0.00236666791,0.0484343162,0.0029403937,0.835728697,0.932237404,0.166568041,239.593047,2.79194244,0.458737672,1.8291135,171.00037,138.054844,0.125900135,0.508313009,2.65033055
0.0283795229,0.00492739396,0.0619950961,0.00670358,0.256257145,0.149995426,0.588030586,249.233792,58.6288767,0.514281809,0.410793607,75.4041055,37.2660461,0.870630023,0.755566127,3.33025184
0.069605152,0.0011141407,0.0909569255,0.00819744013,0.708505959,0.445642791,1.30651635,205.896654,176.746051,0.929423727,0.348848941,169.808828,64.6372211,0.572176661,0.109986655,3.03856309
0.0923267872,0.00306120652,0.0296403055,0.00287662624,0.888040433,0.316576105,4.46679001,247.880282,173.541091,0.456279929,0.604448097,76.4251352,132.177975,0.128949749,0.0338635353,2.09775742
0.0106212293,0.00337311688,0.0970328696,0.00906630573,0.781439925,0.305027746,4.86030569,147.510591,66.2802098,0.641060519,3.38926498,73.0673175,203.344175,0.970626125,0.441097675,0.553988231
0.077178088,0.00560246709,0.049058324,0.00771138524,0.306663143,0.421408348,4.97036943,75.596532,81.6434045,0.464770219,1.09468119,138.214669,179.63356,0.841566977,0.129783563,4.0830722
0.0819703715,0.00293576399,0.0806340181,0.00582747226,0.423049257,0.931692305,1.73393132,142.873455,23.3084843,0.558236715,1.18639968,104.219883,125.204828,0.0716934799,0.971602452,1.2465229
0.0917019047,0.00411498812,0.057271046,0.00972968675,0.426847685,0.552248512,1.46151068,198.518098,10.3998381,0.0508203323,0.0431731068,238.821386,223.495331,0.285291831,0.940153258,2.545892
0.0977116542,0.00773035382,0.0398149168,0.00608394853,0.3406988,0.822913876,0.936237036,184.678325,189.820038,0.804180157,3.6355562,153.328604,237.679175,0.415533686,0.933119647,4.02066336
0.0207877142,0.00472257508,0.0488434282,0.00295920909,0.403572486,0.415244831,3.71574168,224.795901,81.2186234,0.674796519,2.80517093,139.058396,115.588849,0.630540679,0.983758271,2.54915015
0.0567072787,0.00150177305,0.0746111441,0.00871986958,0.178264584,0.51281426,3.59009361,201.65008,130.455453,0.208324319,2.75986304,111.717627,71.8993379,0.919912063,0.693035803,1.51350002
0.0839777331,0.00451025327,0.092459087,0.00875799386,0.506403687,0.955986996,0.944473628,173.435048,237.971971,0.0244405098,3.71126788,143.919508,231.591774,0.421000174,0.702475485,4.30963311
0.0673320519,0.00527035546,0.0901025189,0.00381971975,0.509197625,0.219685039,2.16968902,104.963445,167.244604,0.765534365,4.12316618,205.888633,124.08205,0.714385159,0.371312185,0.286971591
0.0958519339,0.00842788645,0.0221235453,0.0039428579,0.126131959,0.163276517,0.227965677,117.275669,118.280405,0.571836642,1.96697354,83.7625739,219.332512,0.971166004,0.064105941,3.65378414
0.0952233736,0.00373279214,0.020792148,0.00856012064,0.673391685,0.735473298,3.27736738,217.144708,162.34304,0.657671663,0.679718251,54.4901924,53.3094813,0.441117304,0.443451756,4.50439847
0.0969944721,0.00839611125,0.0904107179,0.00543279508,0.153512908,0.938532498,3.90521104,127.177275,166.408979,0.638392985,0.978716048,191.745828,28.6003197,0.639028124,0.542987352,2.32021684
0.016060977,0.00609111787,0.0687776988,0.00146712236,0.252276503,0.198010823,4.31450213,66.0693124,57.5368606,0.736986899,3.60149595,171.029944,31.0788814,0.902539498,0.540162074,2.34681985
0.0493781314,0.00148943455,0.0136250269,0.00800216532,0.716211768,0.686527158,3.92676436,223.116874,201.222418,0.888453314,3.34817463,132.736013,143.525753,0.872867852,0.786284037,0.769070653
0.0388755949,0.00334012763,0.0554244367,0.00484005147,0.599110581,0.231455926,2.16746151,137.074812,125.696261,0.66924992,0.299248082,232.954047,116.593058,0.151288771,0.601409398,4.8089746
0.0220646853,0.00630193196,0.0905008119,0.00351965693,0.10543225,0.724566636,1.73910623,84.4161747,108.507428,0.129467855,1.9213838,145.436156,93.5096558,0.208591577,0.947013554,4.38127338
0.0221126635,0.00531760254,0.0447155618,0.00400157211,0.359276637,0.66305226,0.276942751,50.8592826,177.258396,0.716598236,2.45617971,233.244349,188.653789,0.624718719,0.631218455,2.44314639
0.0825352894,0.00278785555,0.036284669,0.00430245957,0.438950408,0.139351059,4.09720721,180.499366,138.815996,0.452754908,3.87080863,149.381354,113.900527,0.777278896,0.878837483,2.03538267
0.0572287838,0.00315111396,0.0310632913,0.00815313169,0.23184373,0.818131444,0.530201691,123.937925,63.7509474,0.644572529,0.739055777,235.510628,176.507082,0.254342904,0.122686302,0.632881569
0.0949831274,0.00802174131,0.0280853522,0.00134821707,0.167080254,0.987589629,0.0303702327,125.219839,18.8001421,0.652407167,2.42766953,190.730197,232.376981,0.375757688,0.813548225,4.6271264
0.0989506069,0.00655578927,0.0442275457,0.00754002402,0.514668589,0.493070337,1.37521176,138.268492,147.275595,0.681591641,0.359174542,188.928484,205.116426,0.34768648,0.977604353,0.0279056113
0.0468904762,0.0022971592,0.0635311128,0.00885416013,0.433354941,0.410273969,4.71385652,153.22477,168.560518,0.0682393627,3.93721803,50.9187209,9.96187522,0.461825607,0.231243181,0.931942031
0.0434069089,0.00744518818,0.0341547377,0.00357233304,0.842101767,0.143925507,3.37129664,110.022923,147.003353,0.231713731,1.96866057,158.04386,241.54716,0.179115472,0.912736297,1.62030516
0.0304168683,0.00461355786,0.0660198378,0.00691164333,0.58378209,0.302682618,1.92829197,145.664361,133.425564,0.176301761,1.180807,132.594079,221.992065,0.748149905,0.676367762,0.250933033
0.0501427863,0.00516146831,0.0824110579,0.00308697963,0.835764475,0.622911627,4.28473145,51.2493772,118.154093,0.929244113,0.402838284,175.625984,159.693448,0.10699814,0.725065986,0.722684287
0.0339599294,0.00736553806,0.0193574133,0.00659758547,0.514342744,0.641237804,3.37412444,84.2871792,80.952799,0.520078681,0.395023804,158.70714,2.73852468,0.891366719,0.685789576,3.64684718
0.0513186755,0.00461089491,0.0756316277,0.00167611391,0.112630433,0.327266564,3.04048459,110.711487,107.746522,0.676629882,4.63714324,93.1996016,244.314674,0.0912732252,0.796718908,2.41139802
0.0489614795,0.00112946861,0.0683731238,0.00970080288,0.104484885,0.688907494,2.19712919,198.892912,191.22445,0.671122223,1.02357671,160.420968,96.3820704,0.783707425,0.529626983,1.69032374
0.0333661091,0.00167176397,0.0527189161,0.00648972961,0.249604105,0.154086036,4.80642601,166.178668,249.115669,0.0906468109,4.78290292,222.549765,99.9147055,0.850191055,0.754639113,1.18383523
0.0220343058,0.00631961357,0.0939620899,0.00445343662,0.429344955,0.946455481,4.11453249,190.241437,66.2545713,0.232822735,1.69871008,50.9878645,127.572023,0.456368606,0.503554191,2.25431603
0.0477305577,0.00501401368,0.0186799311,0.00127512796,0.746389429,0.18327752,0.0524971598,210.932885,198.01675,0.291347317,4.79983241,75.0168316,137.907585,0.609272015,0.907040338,0.927254948
0.055617446,0.00933958542,0.0639196227,0.00871809028,0.243481273,0.400580138,0.708083673,220.397048,33.6523151,0.914626088,1.71573034,205.014142,239.723362,0.36092534,0.123610237,1.62127406
0.03918921,0.0018540402,0.0310208238,0.00643188867,0.350894324,0.685944679,2.41404918,73.5441912,8.88403711,0.236810549,0.317114186,54.0772707,213.85036,0.761504502,0.852225218,1.31985741
0.071621992,0.00437876905,0.0129095504,0.00863056365,0.680444603,0.553519699,2.90309217,181.452731,113.486622,0.256134205,3.06236627,78.5265558,119.176357,0.593546449,0.175045734,4.15038587
0.049878416,0.00591398978,0.0621873337,0.00554154622,0.358483734,0.577832627,1.46494482,200.590294,140.744266,0.679527847,2.77806693,114.082143,219.453886,0.615454258,0.764165979,3.48180023
0.0492096772,0.00200510537,0.0857978337,0.00107119754,0.389737803,0.441211358,2.19433483,190.425758,57.7206988,0.652005755,4.5322501,230.950008,97.4694612,0.844738946,0.459332366,1.66768697
0.0813721164,0.00914016911,0.0601207289,0.0092716586,0.239875115,0.792016672,1.99132593,171.023691,36.1906062,0.706640084,1.00612667,172.831118,12.2906292,0.462418025,0.606063682,2.90116246
0.0834000733,0.00669949299,0.0855894691,0.00469634316,0.448896827,0.354260139,0.686527403,57.6533251,169.273957,0.838732246,3.93846773,53.1795857,76.8586999,0.883961815,0.364039528,1.43919102
0.0776901388,0.00914870479,0.0284457046,0.00759129173,0.906159821,0.684345465,4.76380854,89.0300181,88.5176277,0.730022746,1.73859544,112.278882,80.0524179,0.498636923,0.40194507,1.3198533
0.0810330347,0.00667497646,0.0659129398,0.00235994751,0.898990181,0.92996544,1.80022333,116.13634,127.618077,0.0292400459,4.8607542,88.5544016,115.323895,0.626622142,0.730074652,1.29950633
0.0551140708,0.00112805449,0.0256618799,0.00833709949,0.454251995,0.397604697,4.18488704,178.56668,173.676663,0.587909014,4.18026213,105.093597,122.033397,0.566543453,0.955128306,3.38540018
0.059966373,0.00384830008,0.0360585837,0.00918642279,0.707911968,0.832095217,0.206678628,93.4807855,148.823237,0.921668055,3.55902754,55.3420495,176.685342,0.724444268,0.878798807,2.59913275
0.0667674765,0.00200683665,0.0116652642,0.00800148215,0.326992775,0.808872036,2.11915294,65.3819616,126.527689,0.100761227,1.07449758,216.128032,91.8242595,0.551302208,0.609731797,0.383768673
0.0188190248,0.00666516818,0.0731346751,0.00781410823,0.954988938,0.211890231,0.378189851,246.117871,194.099814,0.559015004,0.0772382912,202.855645,235.35985,0.786596999,0.967765759,0.279226275
0.0321108564,0.00154638503,0.0956882235,0.00464677771,0.662213956,0.241648793,1.56907439,91.3517924,171.300686,0.931494767,1.0502185,194.231437,67.0468809,0.45188909,0.634138148,1.2936416
0.0654152628,0.0070659543,0.0774108402,0.00731710972,0.286253147,0.473498444,4.72991326,246.650668,79.8734101,0.207458414,2.68234203,214.543474,186.348888,0.912788887,0.777264519,2.19963709
0.0374463962,0.00529695178,0.0781054651,0.00608914843,0.198689645,0.718599519,4.27251727,172.074203,208.035721,0.530066389,0.542290387,202.908776,227.268329,0.0957211787,0.898503839,1.42144558
0.0790270842,0.00374991222,0.0587880168,0.00626262717,0.609264649,0.691933515,0.86765559,99.5957105,165.205391,0.135471717,4.26880844,74.1133991,146.138136,0.998947982,0.22656559,3.39383925
0.0340506183,0.00564699684,0.0353856586,0.00410423139,0.346900057,0.711979747,2.67941794,153.591586,146.767055,0.751240007,4.55425563,126.86632,226.625824,0.730305282,0.101266633,4.74789774
0.0135555674,0.00736325425,0.0320387362,0.00733809916,0.164048734,0.108448009,1.47444603,192.566211,4.76960749,0.321522006,1.66862627,55.5846415,14.1707679,0.562822606,0.828259131,3.86977545
0.03669056,0.00832249885,0.0357686396,0.00244777311,0.24260437,0.215748616,4.51436077,101.973805,209.237508,0.19530239,2.34571617,50.2608966,139.184124,0.151395891,0.424469987,3.18069504
0.0600728478,0.00384227506,0.0966820969,0.0010136254,0.144568267,0.787515743,0.406937046,72.9372012,28.4994662,0.980591175,0.0144843092,51.3995951,0.740340189,0.839260562,0.727096157,3.76790735
0.0972167024,0.00380171963,0.0307625811,0.00605800767,0.712795373,0.857723948,3.9373745,159.933899,210.105112,0.715698862,1.55454131,83.5568479,38.2890643,0.72799487,0.936748077,3.73408302
0.072021224,0.00410479184,0.0583589272,0.00591835712,0.803580231,0.772253734,0.872042472,93.7803532,84.3741815,0.82739349,2.42611113,80.0871457,101.872823,0.423205893,0.296532426,2.93015577
0.0746093259,0.00699674404,0.0284507427,0.00595744986,0.826628677,0.950071119,3.59993976,112.435117,107.358907,0.686387621,1.31082705,153.0988,58.3614677,0.280438978,0.312200158,3.86528168
0.0603126208,0.00874964467,0.0490637165,0.00725083085,0.338548234,0.927742803,1.16003331,244.626617,198.444668,0.692507784,3.41555923,133.776502,133.828443,0.321560503,0.549696342,1.96244129
0.0580018787,0.00785601329,0.0227990775,0.00934744683,0.906309457,0.300766861,1.03568741,111.838098,35.3918703,0.535567123,4.5559286,168.762523,77.9015456,0.585879079,0.552581628,3.0264506
0.0888151602,0.00888253819,0.0438025397,0.00949789278,0.647187479,0.558790469,1.08066055,239.249501,152.025461,0.196965165,2.85250811,105.396183,177.158599,0.692464684,0.640400459,1.23716437
0.0453788733,0.00884111948,0.0814204564,0.00912936996,0.112960755,0.808966175,4.88335272,132.112373,232.657206,0.49808555,1.32639002,168.565413,146.765136,0.865228958,0.596649125,1.45101098
0.0512260244,0.00255511363,0.0831534086,0.00643695658,0.409625874,0.570206723,1.90924503,52.0667203,159.11094,0.563944468,4.64235904,167.028052,59.7978102,0.218750139,0.161174638,0.0966629836
0.0287420684,0.00865201584,0.0913411816,0.00933588781,0.580298262,0.65565275,3.17644448,112.013799,11.9426644,0.829997468,0.321223769,74.3180659,16.0147302,0.511684103,0.417908447,1.73654835
0.0781545847,0.00963629539,0.0586338161,0.00205251633,0.664986319,0.602416631,0.232820195,81.0413675,174.586531,0.210839921,3.13150836,65.7187236,0.842298357,0.430799242,0.369055406,0.708978759
0.0592022825,0.0079318629,0.0836076981,0.00406721357,0.502063571,0.757892823,1.1603419,248.816508,64.2773821,0.532468757,4.74139355,56.4132495,47.2682109,0.24730308,0.0802646276,2.05767354
0.0421649374,0.00887513816,0.0737574981,0.00133057399,0.829995079,0.157061905,4.37420189,140.047841,172.725376,0.809733096,2.58196691,83.6336809,122.800922,0.759948018,0.236307874,0.765341752
0.0730898011,0.00160672129,0.0138887967,0.00584532865,0.23034519,0.543507874,2.30071274,159.043658,90.7949428,0.361553414,4.78351803,154.834237,154.117213,0.793992789,0.994339787,4.14504457
0.0198300247,0.00682112994,0.0231351382,0.00763505921,0.977346438,0.306931634,0.0153178708,102.466356,135.471057,0.552277484,1.3601063,218.273729,30.6940033,0.392021094,0.909303861,3.69599764
0.0105949689,0.00391686931,0.0310002096,0.00263100252,0.850384059,0.403651974,2.32470638,226.508247,55.5354794,0.720263463,2.63495018,111.282402,33.2578847,0.324873829,0.790786873,0.494351531
0.0637571872,0.00676312221,0.0322030973,0.00483621995,0.406091045,0.596474296,4.12035947,70.6122144,226.371832,0.210487241,4.55596214,88.2321091,78.5452079,0.486115899,0.135146256,4.10316544
0.069325846,0.00891775928,0.0253254469,0.00188351161,0.654615159,0.769317105,4.35942786,214.712538,93.3852917,0.64731933,1.07342588,63.0238815,21.9637878,0.285720859,0.550339191,1.13555805
0.0622005787,0.00436273908,0.0311551152,0.0037289941,0.373380552,0.471074991,1.50537263,135.435146,19.7041243,0.0100881258,4.13392651,239.202004,102.198333,0.166455813,0.0538383478,0.534706739
0.0918956449,0.00790063802,0.0347914968,0.00802110351,0.180296891,0.556856499,1.18002603,234.068937,7.73248423,0.51804521,0.691638585,98.9532433,70.5797764,0.401453932,0.676553496,3.3138798
0.0672405537,0.00251277993,0.0956445964,0.00583264375,0.569373224,0.216075135,4.15789131,155.602432,156.725201,0.574130723,2.1887572,175.080837,157.647596,0.292601487,0.822280589,4.77288054
0.0573005126,0.00567752215,0.0412003885,0.0079216429,0.84276238,0.293352091,2.18876303,224.166928,234.249159,0.0169663329,4.3764134,91.3347005,54.9388533,0.250620136,0.911402102,4.0728223
0.0333660772,0.00664710048,0.0367589744,0.00675049281,0.78753396,0.363546677,2.53543653,120.562162,79.9838239,0.893547729,3.52156149,98.3486208,163.56344,0.64609446,0.147205048,3.11626392
0.0146053781,0.00742522317,0.0463983587,0.00903833421,0.952875377,0.504969248,0.927372889,130.030482,186.293682,0.83486167,2.48511091,198.682519,48.3671042,0.957354499,0.304862059,1.64134375
0.0758755116,0.00375756495,0.0372013683,0.00154621349,0.400192546,0.316253905,0.75749287,169.584578,72.2321012,0.777413805,3.04798433,81.200763,23.6500116,0.194472174,0.779871787,1.38684001
0.0247862252,0.00337318398,0.0781579975,0.00258194391,0.450764544,0.336937137,4.53402814,232.303586,31.088511,0.79025428,0.389142008,214.634456,229.590032,0.910421745,0.487228421,2.17188429
0.0352357305,0.00924403157,0.0423769505,0.00474698673,0.235371592,0.902424315,4.96374952,76.5974038,128.520248,0.379893285,1.20716348,68.7970839,139.559899,0.573053039,0.549174168,1.75147772
0.0333484703,0.00653530837,0.0212409614,0.00765812657,0.400333979,0.627525846,1.9504072,58.4334835,96.8779673,0.160788858,0.128920779,245.959544,104.410318,0.201581308,0.878216599,4.38879595
0.0592386364,0.00183857554,0.0655464304,0.00903659313,0.598310946,0.944807156,4.13405275,130.207792,244.652441,0.3587377,4.23238468,180.644149,27.6118267,0.707196057,0.988290926,0.0307724666
0.0587141621,0.00664927482,0.0419967508,0.00123267976,0.59526455,0.65627189,4.77028841,169.141537,72.9544345,0.648646944,0.0743139807,106.82286,138.186105,0.655063663,0.0191522923,3.48224617
0.0809301866,0.00272825221,0.0426644368,0.00223806726,0.24437894,0.325647136,4.4692103,233.935859,148.085641,0.93261738,2.75207944,223.44656,27.8201428,0.338577958,0.351323773,1.69031554
0.0882645,0.00799268221,0.0161639458,0.00481678689,0.205380523,0.192283708,4.20503128,108.755162,142.839111,0.102387825,0.598355788,56.0279691,59.005614,0.526352984,0.534646819,1.52491835
0.0808786477,0.00878050455,0.0880445685,0.00788110104,0.458695391,0.591727511,3.41642079,159.007868,153.963998,0.741389994,2.93974563,202.187676,34.6635304,0.0345158043,0.747817765,3.2405035
0.097248507,0.00400223451,0.0512106578,0.00571993469,0.848244704,0.498381053,0.858981307,206.336356,140.228566,0.064714685,3.11105472,229.235394,82.0599994,0.0320501924,0.970013175,4.60573139
0.0262421299,0.00221872599,0.0169853847,0.00779033223,0.266501085,0.722355522,1.18775653,115.479908,69.9648488,0.759586885,3.73508848,173.77493,86.6105254,0.800539092,0.695143092,4.46536891
0.0937539067,0.00788920442,0.0914429076,0.00252818599,0.550707182,0.783495512,2.17142579,69.0525537,37.9624083,0.468854462,1.54964045,194.1491,232.189172,0.116734136,0.273268477,4.98589664
0.0140636688,0.0038675236,0.0353526293,0.00705454305,0.213683032,0.459479068,0.125310924,138.336522,183.253126,0.0545544038,4.58252056,142.770001,222.079164,0.691918974,0.951137954,0.364419456
0.0316581297,0.0032714156,0.0652490058,0.00656787468,0.878165608,0.610672059,1.34323296,55.815364,9.9246301,0.843609209,3.91132986,201.777285,197.511121,0.777275433,0.907670715,0.648093119
0.0107969527,0.0028006715,0.0695672148,0.00106161481,0.789981119,0.285025532,4.90079673,185.078076,200.405577,0.173064447,0.505233873,51.428395,18.6175834,0.793579003,0.457424512,4.90784115
0.0704434181,0.00162108867,0.0280022136,0.00766202972,0.607918182,0.949175749,1.56346227,72.3180747,101.604222,0.123923196,1.40552276,88.6971707,104.949323,0.712374349,0.733171033,0.451211445
0.0914331907,0.00596719662,0.0963987605,0.0099256193,0.450612435,0.56152598,2.85875821,89.9280562,207.502859,0.278845263,4.53752637,68.2903549,99.1810897,0.947072519,0.558240068,3.43079329
0.061517468,0.00463430461,0.0698595386,0.00215363222,0.541123897,0.348621942,3.05831609,156.032308,242.758871,0.321242425,0.555435793,83.5865179,103.232661,0.305039607,0.993894381,4.64482401
0.0239915161,0.00775104221,0.0587169855,0.00424524484,0.898213686,0.306225597,4.50769033,175.471369,105.620764,0.610028727,3.94909757,238.449623,243.488536,0.995862899,0.389300333,0.709081855
0.055213069,0.00538465152,0.0882071984,0.00271965939,0.914543453,0.957635573,1.9801996,124.719326,13.4762117,0.68069204,0.511397776,219.886444,59.4737906,0.55890279,0.881683175,4.42207827
0.061095959,0.0044630751,0.060134272,0.00742957895,0.54855006,0.720478747,3.46383328,171.290727,196.759194,0.987765834,3.83971945,77.4566146,27.1440972,0.659527604,0.893269565,0.0988098065
0.0269444598,0.00155267659,0.0119258305,0.0026008031,0.576304255,0.737085475,1.02242912,219.277737,157.519255,0.993328144,3.31027712,182.145084,200.007277,0.9458953,0.385999835,1.71342948
0.0391776817,0.00292322342,0.0534412497,0.00988163875,0.918730647,0.691229719,0.314263932,190.389138,127.204846,0.759960978,3.86548985,57.6979378,11.2031445,0.232390858,0.727550771,1.19153044
0.0744433609,0.00589486028,0.0827187021,0.00115299217,0.620738602,0.801070704,3.11192946,128.574783,141.921539,0.28230901,4.65990715,79.6326119,239.989079,0.981702916,0.912649678,4.92282
0.0597635838,0.00469580151,0.076240843,0.00135816823,0.798206593,0.6224226,3.44009788,164.373733,77.2977168,0.954473607,0.884422145,86.9528205,200.411066,0.17891537,0.904127074,4.23298951
0.0228053566,0.00910866885,0.0615073956,0.00823897479,0.695255167,0.55290712,1.48392567,99.954747,186.783993,0.41697155,0.102108807,179.072388,240.148974,0.94164958,0.0814523436,3.97255798
0.0442327203,0.00150660583,0.0108086368,0.00873813057,0.522691515,0.890858178,2.8578092,195.469347,84.1652126,0.224457051,4.1681946,221.310657,191.437168,0.957390418,0.0333415578,4.50139033
0.0456912321,0.00499158323,0.0746452417,0.00609627275,0.297790858,0.453654343,1.5811128,118.665829,220.838594,0.632838778,2.36596796,220.675141,152.058019,0.183264581,0.572409445,3.90052359
0.0619067526,0.00584031274,0.0504483933,0.00778701413,0.642330765,0.318371957,4.04748999,65.726935,83.4139799,0.0247203463,0.543231351,148.807614,247.260398,0.0637667157,0.00929021743,4.18255386
0.0117461352,0.0022065454,0.0693655092,0.0056756329,0.265833097,0.353463965,1.82748791,110.446186,199.003642,0.0528667883,0.445271891,206.175489,140.639024,0.275526365,0.19832839,1.60546632
0.0619822055,0.00586852502,0.0777887511,0.00627314025,0.277758744,0.91429391,3.49394951,110.080496,201.195957,0.188459513,0.575647938,104.930763,123.972013,0.550549612,0.0206801421,3.71372788
0.0938976484,0.00871631373,0.0824265112,0.00271659724,0.875792932,0.732407699,3.16712977,54.6442395,12.5596691,0.208460443,0.839864292,243.475948,63.2603219,0.777434615,0.792271259,3.32247142
0.0196185502,0.00278215627,0.0126240024,0.00553097317,0.213084327,0.867750155,4.82289551,85.2228503,100.626283,0.722163987,4.86255169,248.105867,48.9903024,0.607721832,0.190829413,1.44591845
0.0758934783,0.00240048191,0.0801835541,0.00145823169,0.68102223,0.440815325,1.00398334,222.183759,241.297911,0.448438885,1.43001818,66.8898097,123.183632,0.322935235,0.952082634,1.68686116
0.0973470508,0.00155239991,0.0610615449,0.00150486169,0.493586389,0.669719468,2.9908887,181.189634,103.593986,0.847037703,2.99511951,115.958683,177.721069,0.439019034,0.770226281,4.5431853
0.0647996985,0.0069496659,0.0168504964,0.0040167766,0.651344561,0.128401158,0.418517208,221.30752,82.6308927,0.395892201,4.26104744,103.659753,246.904672,0.844351294,0.816573533,0.161254902
0.0747699051,0.00116742378,0.0326459642,0.00667814281,0.763734173,0.928030185,2.72207355,104.188093,159.093089,0.839176677,1.22392257,93.1845634,83.6549135,0.629871396,0.426050106,3.48178864
0.0372477093,0.00361992643,0.0220109076,0.00902780034,0.372951502,0.522772196,4.23074574,229.189556,214.506343,0.750934466,3.635842,203.404352,55.041306,0.279822569,0.300218158,1.04384908
0.0513120155,0.00976441444,0.060802653,0.00706056964,0.138670942,0.567912868,0.203491646,91.7580792,197.070996,0.588022434,2.00395354,123.010888,86.3200947,0.519389078,0.680290474,4.12074678
0.0143225752,0.00788176409,0.0586883155,0.00716740336,0.851956778,0.789680901,1.6468022,242.833636,134.602436,0.168967862,1.55300282,80.8034552,22.9015658,0.8895165,0.858515669,1.09116132
0.0446816895,0.00319315537,0.0162029303,0.00726170314,0.432377362,0.40259494,3.54674831,132.872018,185.417612,0.533551784,3.26899552,83.0043994,157.900267,0.18255298,0.87179294,0.498211515
0.0425544742,0.00713904455,0.0989587781,0.0081984829,0.695205376,0.663386608,4.30155441,95.9130428,184.930152,0.468044195,1.959126,228.672794,94.5470525,0.821867642,0.897062485,3.09752908
0.035882565,0.00224069059,0.0325985896,0.0069454465,0.906147926,0.394211807,2.50449308,213.67404,111.198652,0.385748409,0.596680161,239.157961,221.840735,0.18937996,0.843586762,0.519073913
0.0835041462,0.006668305,0.0383925692,0.00567942936,0.346689159,0.379996164,4.97379793,122.088699,212.602465,0.102297687,4.8926908,153.493477,106.631862,0.106291036,0.485151225,3.99530902
0.0505475285,0.00871313223,0.0370591254,0.0039856277,0.998108629,0.681470558,2.14320068,150.304814,123.633715,0.266553993,2.59125897,53.6746793,222.693502,0.0410016581,0.48854051,4.5146256
0.0825969268,0.009098185,0.0137835134,0.00940755442,0.850918043,0.490322469,1.33672627,199.534824,237.039384,0.342478276,2.53884328,133.861165,56.057392,0.0200741004,0.0653339565,1.56256423
0.0811155642,0.00413531562,0.0575111171,0.00321829253,0.812209319,0.192597893,2.3647594,216.369976,199.447047,0.381361091,1.6251094,74.4170298,199.23239,0.967772391,0.456981037,1.40794583
0.0354662086,0.00537679174,0.03304201,0.00560085734,0.690951437,0.31253587,0.804226656,128.894196,33.2611459,0.154797059,0.986358742,240.369571,214.570311,0.889157169,0.595555304,0.0339097063
0.0161478315,0.00711565743,0.0467838993,0.00766286098,0.589305717,0.974604516,0.79448906,69.3272694,59.4424386,0.323602181,4.31446439,104.03607,106.774064,0.0591885135,0.110083466,2.47935833
0.0149437655,0.00733709702,0.0952761379,0.0032875168,0.448013197,0.729007675,1.34170984,103.078323,31.9308668,0.288413152,1.33934147,228.730646,147.21492,0.673504861,0.34378426,4.94241122
0.0673770375,0.00514795651,0.0927352873,0.00861026283,0.840008879,0.69350523,3.78560032,208.389003,133.5301,0.821922388,2.69340416,229.03834,22.9248721,0.976855112,0.264065147,3.68970376
0.0481857023,0.00427845067,0.020911931,0.0058433898,0.635801063,0.393487607,3.04587015,237.372149,14.1741725,0.348668761,2.75732778,205.106416,62.6457244,0.228063461,0.58018034,1.55359909
0.0914978213,0.00352238702,0.0632750351,0.00919122521,0.803477189,0.117839725,4.83466516,163.651718,117.14375,0.873282124,4.81628486,231.764186,148.442852,0.0932180139,0.435391083,3.0020375
0.0475588795,0.0016858399,0.0423686956,0.00415635769,0.988907101,0.613425333,3.86660383,237.604311,245.671951,0.275349193,1.34787757,53.3360755,130.144842,0.365276287,0.415100185,3.90839913
0.0238652495,0.00500162474,0.0747376239,0.00941792394,0.80942842,0.132701412,2.86432288,169.449679,170.55529,0.777677449,1.32858871,241.857745,228.513509,0.735851349,0.0542130057,0.557665623
0.0585999337,0.00249135667,0.0571195982,0.00934947513,0.867628798,0.33826847,2.25111752,247.590394,217.72518,0.613116905,1.54994892,65.0505267,165.823186,0.60612278,0.259695618,2.89664645
0.0943382231,0.00458874076,0.0334759017,0.00628930324,0.537051546,0.271592591,1.43528539,202.469701,124.052641,0.0277891512,2.78648817,107.026693,124.913137,0.456857102,0.244178041,4.3518561
0.0694859558,0.00928526204,0.0543771375,0.00191585921,0.886380465,0.504369662,3.76193296,87.1231737,71.9155527,0.704496333,1.89094644,147.623427,158.700661,0.913675609,0.709095084,3.44888125
0.0455191697,0.00560200947,0.0870252311,0.00430188346,0.400462375,0.791789661,0.471790806,153.354001,45.7548293,0.0255947839,1.2288253,244.114347,21.590122,0.0131454921,0.658850732,1.21485125
0.0333091488,0.00922728097,0.0751965655,0.00348260981,0.284785101,0.665142578,0.533928749,178.030419,240.304753,0.687054192,3.38089559,163.622658,10.2017988,0.514978929,0.119181342,1.71361126
0.0863120944,0.00182740545,0.0279199272,0.00339487751,0.544921361,0.383230264,3.67446815,223.79018,189.065369,0.879122619,1.30647157,104.794068,187.890943,0.153016311,0.129219133,2.72719894
0.0950550467,0.00993733457,0.0241557287,0.00303884784,0.128088064,0.362838821,1.77296013,170.023674,237.588373,0.437488007,4.80743129,75.8166721,80.9391794,0.509603399,0.0779686199,0.337863463
0.0439299854,0.00186790261,0.0433427968,0.00101188702,0.844816973,0.17041419,2.903168,249.933876,167.816662,0.635029486,2.48788364,81.0384122,16.6226624,0.572532567,0.735240089,2.052242
0.0160552166,0.00381832744,0.0876044804,0.00903706634,0.337831694,0.25474945,1.49427717,75.8352601,46.5136525,0.590180335,2.13886152,103.762366,230.814226,0.64574852,0.556149994,1.18755699
0.0263423592,0.008068376,0.0716286365,0.00508147757,0.709749399,0.749152311,3.56840471,108.674129,72.4604895,0.235137129,2.83896037,136.777888,13.5901375,0.214864485,0.834371189,2.44486778
0.0618172854,0.00642160232,0.0670778091,0.00620578905,0.814477902,0.180503728,1.802431,145.375875,14.5519561,0.786808133,3.0651923,129.180692,16.9856464,0.346785286,0.106124465,4.03033294
0.0267296528,0.00519317518,0.0227190962,0.00384044985,0.713659478,0.926030983,3.59229763,75.9164864,11.0165556,0.294759933,4.03496627,135.049298,143.383598,0.334199517,0.256561491,1.88923976
0.036230352,0.00368318212,0.0171372021,0.00994615188,0.685683314,0.486709256,4.97661867,95.624693,69.8897078,0.925131847,4.40391708,172.877854,109.799643,0.61881521,0.0541240237,2.58989072
0.0515497696,0.00219855506,0.0888530813,0.00985503595,0.313607556,0.171750584,0.418500525,86.2144089,42.6174052,0.305490387,0.799891537,139.36108,6.8421869,0.595277838,0.656553902,0.472989447
0.0412279697,0.00365508059,0.0478385831,0.00968093102,0.529663131,0.614929702,2.34102948,184.403116,169.27514,0.540940154,0.445884627,52.4046675,12.4248259,0.691044861,0.277436582,4.54547596
0.0386349145,0.00249964375,0.0538897246,0.00699638715,0.942777339,0.848595083,0.469015288,115.156968,225.604482,0.340311008,1.565673,56.854179,59.6382139,0.174773429,0.7091303,1.03815297
0.0513923122,0.00385393547,0.0514292945,0.00753542359,0.31699316,0.412631024,3.62585228,208.117505,87.9968304,0.244921023,3.03676372,129.754089,31.8253263,0.655705199,0.130295521,1.91032262
0.0312305428,0.00198855712,0.0564109525,0.00400638299,0.288202491,0.801900104,4.56022722,159.202781,25.039629,0.549786834,1.89369211,245.890016,157.582204,0.770951286,0.523997274,3.30140133
0.0124976834,0.00848879165,0.0344794951,0.0057049549,0.345224825,0.737505307,0.432072167,96.1113122,198.250559,0.116608767,4.62771382,158.553782,119.103543,0.401808708,0.0458901142,3.79186651
0.069260811,0.00974433479,0.0308421854,0.00346018929,0.798235678,0.631848123,2.59975444,187.352494,117.108107,0.145783762,0.285067429,232.477409,27.4992987,0.402301521,0.101305688,0.865347062
0.0242923206,0.00296444145,0.0909580669,0.00746541126,0.398270273,0.439294327,2.76315501,59.8165203,171.835302,0.103483204,4.97007956,114.831804,108.857925,0.695199025,0.46893509,2.58689881
0.082239634,0.00735469866,0.0917827594,0.00800215801,0.642767231,0.454442522,3.42574519,164.519707,170.769632,0.317774781,3.33479036,108.103304,225.469626,0.245296266,0.710646362,4.97669056
0.0467721795,0.00135112323,0.0643278567,0.00172957798,0.265613377,0.485477961,1.49827392,248.752464,105.358971,0.814510022,3.0857498,225.794769,141.458505,0.949393885,0.601346408,3.53804703
0.0394652691,0.00654665611,0.0428712835,0.00299422126,0.178712965,0.480723048,3.00938858,122.593806,164.835632,0.518422108,0.739428871,205.828838,182.660904,0.144394828,0.204916976,0.402836505
0.0771413256,0.00702427753,0.0638731451,0.00283563545,0.378023843,0.297031855,0.992519526,161.744132,158.356782,0.867811657,0.144980887,128.882421,245.240017,0.51640033,0.618786527,0.216540482
0.0771716728,0.00133481379,0.0701638432,0.00661689375,0.307790564,0.547088187,3.28378708,235.456071,131.286502,0.980682335,2.86235162,226.465193,147.052217,0.0510164499,0.699150113,2.45577781
0.0256559468,0.00103001106,0.0905107682,0.00752684604,0.918268347,0.135882742,3.4917853,101.975299,47.8203625,0.333386115,0.149907809,135.133695,125.79036,0.319285494,0.31482867,2.2329822
0.0205790322,0.00228217919,0.0178601972,0.00850927769,0.943195911,0.608334849,2.2984019,216.495005,127.976502,0.227420705,3.55766988,143.275596,132.898424,0.328552364,0.804788646,2.43399283
0.0256633772,0.00876164913,0.0585109314,0.00117005844,0.128690957,0.144228663,0.788295847,85.025181,187.082566,0.523041503,1.07019172,134.986237,151.571804,0.948839075,0.17802243,0.82945561
0.0664668248,0.00348433674,0.0485604942,0.00281905868,0.634282339,0.885053119,2.10892909,225.968439,104.956729,0.359475793,1.27593486,141.042008,191.079271,0.21526782,0.24130572,1.80328252
0.085770123,0.00578522383,0.0655438145,0.00522183666,0.13943577,0.874022284,2.98027183,105.926553,184.369855,0.860882373,4.79296502,189.084911,150.155994,0.494449126,0.594729969,4.40360971
0.0559074569,0.00569999172,0.0602988289,0.00440555663,0.482412559,0.404432149,1.61165748,219.8952,171.616933,0.267420448,0.909452789,69.1156456,180.646457,0.450228517,0.868232914,3.7217609
0.024918737,0.00610855943,0.0303265619,0.0040635436,0.569423151,0.976627417,4.1536441,211.343203,238.931503,0.845283821,3.99228295,196.692063,108.803736,0.822639882,0.818668374,2.08385525
0.0742874754,0.00399729298,0.0194067577,0.00157466066,0.856305479,0.959297507,0.613425041,87.8250305,76.9766153,0.586973539,0.200213252,76.0035038,161.631158,0.0273054131,0.590084132,4.53677404
0.0916333567,0.00472074897,0.010897989,0.00785202341,0.662526711,0.989758898,1.25590351,245.711791,85.5752156,0.722211478,1.54579683,149.305743,44.1738611,0.790630222,0.00228784121,0.471534369
0.0296683967,0.00472913337,0.0153237974,0.00462395877,0.329684212,0.241945907,4.68803758,100.745532,96.758393,0.350088539,4.83546227,101.931697,219.119026,0.545382285,0.944532043,0.906631305
0.0883865303,0.00985529606,0.0390387133,0.00706860745,0.914222112,0.102626515,3.27604105,205.709226,6.54397634,0.0191811789,1.33495099,168.333335,62.9225278,0.0550216688,0.792476901,4.73293616
0.0290652349,0.00151965368,0.0801528856,0.00595968093,0.790570542,0.323361964,3.76455435,212.156908,158.386601,0.200522013,0.609377811,95.5236356,89.1210391,0.51871194,0.399328429,0.504245284
0.0852998446,0.00456888597,0.0401930728,0.0014631145,0.606398951,0.411661109,4.05429266,149.59059,141.312765,0.512313905,3.036889,241.023542,75.8364449,0.451167688,0.873449498,1.94019035
0.087337152,0.00812188524,0.0657611751,0.00376746344,0.90743818,0.310004842,0.242133591,233.14463,91.3778532,0.0339994202,3.2267622,62.6019003,241.939909,0.496451281,0.674396326,1.44612431
0.0571039726,0.00634766917,0.0993597146,0.0096890029,0.431271469,0.780302066,2.07354569,70.1967086,105.364675,0.554541025,4.37212314,86.649432,48.0728905,0.663290592,0.242365606,0.365434304
0.0529626515,0.00378606783,0.0683205125,0.00938327635,0.403957906,0.303334914,3.62744528,77.1649178,115.550068,0.28342226,4.48664597,174.848397,24.4661057,0.510316538,0.168444724,0.973040027
0.0900894819,0.00911622616,0.0585798238,0.00440224054,0.65696982,0.503598921,0.695220055,221.663359,78.609694,0.699278797,0.265887791,108.281155,173.447482,0.74444111,0.861124801,2.08742616
0.015856858,0.00183814291,0.0309029278,0.00655903173,0.178205896,0.33350011,3.1627863,53.729297,56.4154228,0.882539287,3.79756608,77.4374844,24.0061199,0.944411147,0.326641002,1.4646328
0.0558510513,0.00387124423,0.0765849004,0.00606280052,0.437947778,0.411215062,1.23416729,195.665596,28.984221,0.0344345882,4.29451982,87.7866926,49.8465944,0.801331852,0.325151694,3.51069256
0.0658718152,0.00898265453,0.0900093111,0.00847504639,0.268642961,0.912659453,4.19986137,213.331574,33.4915264,0.347794395,2.40861596,241.32341,151.763742,0.443349153,0.400173421,1.19856589
0.0760210696,0.00691688506,0.0873826863,0.00961928865,0.829474021,0.111430781,4.18335412,73.2440899,236.630861,0.427191621,0.375482476,109.322618,177.427739,0.0994096079,0.763506119,4.7974131
0.0306996608,0.00716065201,0.063735471,0.00167955088,0.750923376,0.219000524,2.26536209,147.711276,123.108243,0.0892110471,0.453606137,97.4405751,222.631878,0.934232356,0.164067788,1.52731101
0.0119684688,0.00526553762,0.0689276929,0.00899221957,0.707206642,0.449256389,1.97379368,119.489681,187.053407,0.0885602711,1.00107915,182.031506,150.66038,0.384592538,0.688290348,0.774577291
0.0225090001,0.00227119743,0.0923512594,0.00606202562,0.922583276,0.856558909,4.80797651,204.7782,77.7337899,0.0816524867,3.89143345,50.8591936,215.613348,0.761333106,0.643316619,2.7775421
0.0792556702,0.00955832393,0.0489864773,0.00274919613,0.838864808,0.291939673,0.0408915124,107.057347,1.92632119,0.901337596,2.03639783,65.6336936,168.9893,0.805755477,0.821353526,3.95271845
0.0972788663,0.00894363511,0.036078468,0.00299307512,0.593852173,0.941710958,1.99219345,214.879342,153.905418,0.969615216,4.13520822,111.916873,196.249626,0.806193917,0.37854693,2.21936147
0.0448114974,0.00493694691,0.066869407,0.00735186745,0.113987435,0.972820341,2.43886137,84.6122165,89.3933348,0.397393889,0.739839839,94.7941414,134.162043,0.599835645,0.111900661,4.97909361
0.0994085011,0.00851461121,0.0365879656,0.00637085292,0.185217722,0.4377327,3.09068381,222.728693,162.207268,0.320449254,3.66457384,189.05788,1.11185904,0.331737114,0.859483274,2.18293349
0.0393754121,0.00392629061,0.0659825911,0.00627666466,0.563282462,0.986376558,0.35004997,235.210952,211.494307,0.557780444,0.749458729,190.046379,49.6527836,0.75086444,0.713183106,1.52220586
0.0223444933,0.0043087537,0.0142780775,0.00971644733,0.957234374,0.209877125,0.713439598,88.2207479,25.338303,0.794127582,4.19215172,220.363057,109.681172,0.48170707,0.575010315,1.2325517
0.0446278267,0.00815355519,0.0995148906,0.00623569083,0.858755077,0.784861723,3.27113316,60.0704988,147.075459,0.800330942,2.72683474,161.811919,139.572813,0.520434702,0.741137892,4.80412626
0.0606372249,0.00189377845,0.0286087734,0.00189820262,0.941511021,0.621425515,1.09159797,159.689894,145.595547,0.864625955,4.80584068,164.066477,96.2823736,0.485293696,0.753670731,1.11440479
0.0670451884,0.00956603402,0.064662756,0.0024994254,0.976071777,0.659040888,0.595659644,51.9035797,130.45094,0.799982582,0.377476311,156.184065,161.714656,0.429776672,0.55508811,1.97804591
0.0587445746,0.00101326531,0.0412867293,0.00191884415,0.435273751,0.540913816,0.215685505,215.672734,113.649957,0.0163126461,4.66916696,221.777269,146.418528,0.184257404,0.800912259,1.12262277
0.0383494082,0.00365856264,0.0745963361,0.00231622394,0.388810622,0.298405318,0.827790905,231.708881,241.675501,0.92070235,1.79712041,139.269168,191.582756,0.287751032,0.670345982,1.35012335
0.0243394051,0.00143609097,0.0125193966,0.0070440829,0.804923111,0.22972082,2.55552952,191.059349,45.5767394,0.0277826189,0.334651978,126.676247,43.6586788,0.878894533,0.535107481,2.0922074
0.023735461,0.00498466345,0.0160157585,0.00675867864,0.290999543,0.671658135,4.33634009,98.6660627,139.848032,0.0391223151,4.82966749,169.071747,125.778668,0.875116924,0.685926116,4.9886799
0.0223255696,0.00810861732,0.0934357727,0.00435191907,0.963236985,0.822174124,3.83130369,167.846318,156.618622,0.714337397,3.24726453,111.007995,95.6687341,0.494690834,0.95518384,4.55515202
0.0738822805,0.00922168554,0.0178994585,0.0024658567,0.937209582,0.702678933,0.674754621,237.779993,7.53249932,0.543030045,2.10308411,70.2215561,244.299565,0.610218814,0.627752291,2.75213444
0.0518378019,0.00579928924,0.0399158706,0.00450566927,0.429156539,0.524442662,0.324603388,229.100402,160.568264,0.529342695,2.98220364,124.387873,234.020904,0.720510437,0.819131997,2.98167908
0.0201944065,0.008236688,0.0573562806,0.0081997891,0.410421151,0.950030303,3.36222476,171.245241,209.540283,0.507217531,1.73544219,94.4310623,223.184238,0.148623264,0.188965333,0.395726197
0.0730790967,0.00606394321,0.0321977912,0.0045981433,0.723413466,0.632332781,2.41103462,208.475665,98.7840042,0.0750157732,1.08813311,178.645326,110.882413,0.587222996,0.75147543,2.88318019
0.0261987524,0.00775788807,0.0588609511,0.00779607176,0.744943478,0.304072983,2.47708957,217.233505,109.335551,0.237740218,0.189206483,205.331245,187.881648,0.203050055,0.221580499,4.49086156
0.0823301272,0.00108307319,0.0802781066,0.0036568937,0.820309147,0.715459318,1.56741832,162.028218,21.2206945,0.125869917,0.76712716,136.00681,227.350788,0.0727043412,0.416449813,2.31655284
0.0562560494,0.00529106367,0.0569694143,0.0067600532,0.63430343,0.38857857,1.61750485,50.1390208,145.344369,0.989873351,1.86691119,174.212306,93.3294575,0.0732626544,0.790873597,1.99198213
0.0593594526,0.00325296574,0.093875494,0.00896605439,0.187457511,0.774026689,4.54550657,100.255026,217.920494,0.0798113262,4.38407511,105.814932,29.0726559,0.940467477,0.399961865,0.522305574
0.0287060284,0.00377126433,0.0232400782,0.0028867899,0.60355825,0.998328887,2.25168312,136.389719,51.7267693,0.0694234194,2.20574156,145.609556,131.280253,0.524982538,0.0451092487,3.26118194
0.0806129987,0.00970254194,0.0475089132,0.00532320839,0.138780964,0.342760017,3.743179,136.130574,23.6525081,0.664961331,3.18884902,112.948318,85.2812842,0.158614855,0.201045342,4.95850003
0.0573840669,0.00287923925,0.035226358,0.00201688803,0.781868549,0.938682672,0.926266647,225.046608,46.9880499,0.350617192,1.93903341,215.433981,212.350707,0.650126351,0.0428628362,3.39036408
0.0613921027,0.00568428627,0.0638290285,0.00219132676,0.693682776,0.726748348,0.424610102,63.5281898,166.959144,0.137228215,4.18598015,198.632253,46.5578866,0.587944337,0.639163201,2.14238797
0.0479836683,0.00302991516,0.0132827371,0.00157602032,0.639513389,0.185733355,1.03514602,117.981358,183.105226,0.640764307,3.83158637,78.8622381,52.1862464,0.319210433,0.251758622,3.27400661
0.0749040679,0.00610478086,0.0157317853,0.00171367656,0.304295275,0.321284955,2.79457831,85.4124133,157.752612,0.749023288,0.627921343,63.6530188,132.607731,0.675422707,0.41988395,2.94372764
0.016582448,0.00998347173,0.0390594255,0.00664258748,0.742342925,0.941191796,3.30850218,99.2070402,117.051539,0.807214625,0.463305693,156.427308,21.071304,0.403085648,0.171836239,3.72527455
0.0635375726,0.00218678803,0.0188540677,0.0047020057,0.752052172,0.531805796,4.69606578,195.563898,78.5905828,0.27633686,3.30159141,198.791057,60.1923949,0.227320604,0.884455866,3.20435144
0.0875779628,0.00959208926,0.0253040164,0.00674730717,0.409796173,0.894274969,0.201226871,107.640978,160.366666,0.439639981,1.88835192,217.146724,158.638158,0.248412572,0.34101411,2.51838093
0.0503920955,0.0021148976,0.0434047419,0.00870901266,0.129475743,0.801367585,0.818292495,97.4683339,140.506724,0.407788422,0.538961737,194.132597,27.7689716,0.392512086,0.205123584,4.69020738
0.0687319651,0.00267614385,0.013578546,0.0078721753,0.859254263,0.116455496,2.19061672,77.931803,165.931667,0.612060916,3.11905482,227.524522,151.836169,0.0431662416,0.795386866,3.0267179
0.0373125807,0.0068185244,0.0738316858,0.00978544267,0.793270103,0.793685571,1.62833802,94.1460563,31.2192611,0.772386578,3.10800284,82.5706756,222.439398,0.353255551,0.0244699833,3.19461874
0.0646695956,0.0021535217,0.0677207224,0.00803383521,0.558681973,0.717218564,0.449661812,213.509341,168.506794,0.941712728,4.55813718,90.247969,122.671418,0.556521595,0.0397795442,3.51328707
0.0351012079,0.00173188453,0.0256654774,0.00942024883,0.736266951,0.880900357,4.05159818,125.645811,170.07782,0.14015014,3.0306588,226.392306,78.3769313,0.562855639,0.529818636,4.30474545
0.0819606106,0.00693304349,0.0155936748,0.0076523695,0.812056517,0.622458703,1.99779487,183.103044,232.530036,0.263165499,2.42672786,142.391787,190.535097,0.0761466077,0.933367035,1.89831209
0.0816552206,0.00124658966,0.0465993478,0.00328257791,0.397602116,0.663494303,3.2765715,237.162658,207.204923,0.3845277,2.88370494,87.4099667,238.631592,0.58612035,0.602214608,3.56061442
0.0958678213,0.00986661821,0.0516756633,0.00747325256,0.922307628,0.200032474,2.83421749,135.296224,44.5250887,0.993798339,4.91050581,194.976451,161.470945,0.481099133,0.601176728,2.61760218
0.0499904349,0.00585397852,0.0282406869,0.00724161354,0.619034467,0.292324801,0.0156093218,171.032007,237.310157,0.347541732,2.59284144,226.710528,121.329889,0.665315805,0.643866218,1.81744719
0.0511194531,0.00436451425,0.0882594901,0.00795987056,0.359118347,0.132732791,3.2567574,243.916886,49.9057122,0.90055658,1.74350863,209.60225,109.545468,0.788236606,0.921930576,2.17337937
0.0639835424,0.00736061398,0.0638146332,0.00772495377,0.340178374,0.500090436,1.58548672,122.93019,54.4201654,0.245106796,4.91437157,218.594465,46.5955148,0.198127531,0.219257237,3.43798811
0.0858359648,0.00952670237,0.0120712183,0.003865453,0.901160361,0.393922813,1.32966919,182.889516,2.13048431,0.227801072,4.96005141,157.609256,110.783574,0.961893472,0.884904385,1.13425573
0.0128080408,0.00444049614,0.0909483793,0.00559387861,0.429491071,0.358564808,2.30224102,112.951017,75.1566446,0.991165636,4.48078717,91.9178148,122.02995,0.53971073,0.0488219833,4.89501802
0.0268543127,0.00723617699,0.0507651504,0.00795759829,0.235013849,0.54680679,3.1158047,227.143168,68.6177057,0.951594002,3.70790171,156.089091,215.282865,0.915372336,0.812039741,4.8783547
0.0949234959,0.00641864181,0.0152223559,0.00615533973,0.951694813,0.263534675,4.00926715,109.108946,146.612113,0.641834602,3.32368316,218.660479,179.113969,0.649207308,0.0325917923,1.44756901
0.0953129925,0.00797731941,0.0195642439,0.00958465302,0.685751783,0.940412685,2.8058206,109.073216,99.1382119,0.509089533,3.66681348,93.0680614,155.083169,0.161934714,0.415042469,1.6921666
0.0507685952,0.00632650785,0.0998582762,0.00254415074,0.983993112,0.946163156,0.124020452,231.416413,46.6006935,0.364537163,2.17958157,193.345175,22.4434085,0.0616601827,0.594666557,4.98222333
0.0829749296,0.00438561827,0.0879694663,0.00916511586,0.274450325,0.632316774,3.96770218,148.576917,98.2040997,0.770767593,1.99816087,222.533664,27.9403676,0.0249002702,0.19679528,3.94485263
0.0935991281,0.0086558428,0.0653685217,0.0077699748,0.845868335,0.100727756,1.36544411,91.4279301,38.64846,0.786519259,1.08945606,144.252866,143.897321,0.204398957,0.796091212,3.97460774
0.0705445553,0.00303161672,0.0124250036,0.00357557709,0.54442188,0.912705802,4.11455672,55.1638497,208.076114,0.0386289116,4.40814997,142.100806,115.414366,0.532435162,0.210988217,3.16184437
0.0435099052,0.00817262456,0.0390270372,0.00664669308,0.631700682,0.714603648,3.44277391,84.0417874,37.4380186,0.0619168222,4.71034832,238.505643,136.362334,0.156195224,0.174413519,4.05725393
0.0465126122,0.00997192906,0.0517398611,0.00516545131,0.140401515,0.166465916,3.01951226,110.46811,169.886488,0.330184794,4.7447743,175.668518,9.50306451,0.0824023593,0.613841779,2.24046625
0.049494153,0.00353179738,0.018911551,0.00216495321,0.608012337,0.996745746,1.93475047,242.287922,187.522496,0.801689759,0.532214161,211.277324,144.821545,0.559290657,0.941056449,4.15306776
0.0710784281,0.00739342878,0.061388933,0.00594446196,0.670189873,0.38301127,0.327676691,206.731487,3.72250205,0.63392747,0.289876625,130.308041,157.244469,0.981469897,0.661564946,0.633316571
0.0518563296,0.0069817786,0.0393287585,0.00972558391,0.548289787,0.828297854,4.99296694,184.651292,35.5616245,0.982969671,0.81861978,114.278869,120.481845,0.171232515,0.214898375,2.56634064
0.0957937751,0.0047335198,0.0505443103,0.00497926441,0.153661266,0.515305545,3.30521949,218.144453,7.66390106,0.166667239,2.6373696,125.761213,40.131746,0.165032183,0.9135898,3.57965626
0.0419228184,0.00548442912,0.0620059416,0.00631867537,0.563646866,0.62842732,1.1458615,134.170856,202.173878,0.62050947,0.348740461,193.793898,188.59472,0.172033916,0.38019675,1.24073176
0.0405118776,0.00954210723,0.0167359877,0.00199873222,0.147875445,0.529835962,0.461272878,190.74747,11.7864888,0.315630045,0.0507287505,88.612809,198.373988,0.0877047146,0.0349822849,2.65950163
0.0906274042,0.00957863508,0.0151608402,0.00279867062,0.859268728,0.597208269,1.20489331,146.257324,166.54537,0.0942277213,0.458400125,147.997356,72.8423141,0.721216727,0.227345099,1.91104841
0.0590890832,0.00759630981,0.0370860792,0.00246667693,0.635205503,0.257784885,4.51284831,214.115197,114.008109,0.878061262,3.03717508,74.1541597,126.902076,0.451802639,0.906886538,4.00880621
0.0774355346,0.00446212004,0.0569549124,0.00133189685,0.721916947,0.628520382,1.08673994,137.478041,200.749095,0.594794424,0.28042748,77.9839779,59.4981101,0.515018061,0.868988067,3.35430386
0.0212389479,0.00136074456,0.0605692212,0.00345452198,0.682504095,0.239321378,2.39761377,221.994769,89.6097265,0.310091906,3.29050215,239.439076,48.1711558,0.609092163,0.582468669,4.91429592
0.0507911336,0.00624640227,0.0317399293,0.00307120231,0.661095852,0.500907295,4.54614132,51.7794468,6.33351128,0.176389401,2.87909947,176.188678,202.174272,0.884240728,0.56078627,4.68410664
0.0167274495,0.00608241378,0.0921448146,0.0042269022,0.958472488,0.58385928,0.968912211,249.206224,54.6470391,0.346477986,0.369176802,137.731136,16.6683212,0.130696393,0.0010886314,2.88136177
0.0697006552,0.00419664356,0.0843160843,0.00220908429,0.259249593,0.515710103,2.23993803,105.040212,177.728725,0.0767716527,1.20784624,191.552325,48.9656157,0.297352705,0.126862113,0.400930935
0.0733286478,0.00892180739,0.0500091296,0.00998735138,0.527414677,0.850698738,3.08900043,56.703282,137.230197,0.656954956,1.75597518,155.929275,243.695468,0.0717186281,0.214640967,2.06912421
0.0927055511,0.0066207712,0.0983856307,0.00562168769,0.858163249,0.996555079,2.97106516,80.4199913,217.423258,0.251842718,0.63369338,180.485385,143.77261,0.152097766,0.826819631,0.904225122
0.0694064718,0.00661613992,0.0620440805,0.00449061674,0.54726711,0.975019846,3.32938609,145.919231,184.708914,0.760339051,3.6970432,205.636855,145.803399,0.0772857047,0.387614282,4.97815594
0.0721094427,0.0036616727,0.0310981147,0.00324867482,0.786164255,0.771336435,1.33840096,227.768468,25.8075331,0.306024062,2.22839912,173.603575,237.505413,0.193235762,0.318075469,2.60193097
0.0868351249,0.00167211934,0.0829531398,0.00428277184,0.261889532,0.279961258,2.11933592,106.683822,242.858304,0.424626944,0.0880580823,150.417472,25.0098014,0.770990586,0.261778535,4.42641348
0.052111155,0.00364335395,0.0506146748,0.00459151787,0.722459852,0.132696312,3.99661898,206.825405,184.678152,0.0652738718,3.4085414,147.074494,219.683453,0.898700346,0.296523983,3.24125761
0.0512630814,0.00311265828,0.0324972252,0.00933670684,0.922982369,0.269743659,4.66156415,84.0785002,3.46439421,0.0405477567,4.40416542,72.0299291,222.862654,0.523089011,0.428178043,2.33126795
