0.072786,0.0072203,0.023599,0.045807,0.0093668,0.029217,0.058479,0.0061167,0.017585,0.0068993,0.028787,0.097432,0.0086572,0.098527,0.074028,0.0066524,0.89779,0.7468,1.1861,68.586,176.84,0.60001,2.3081,93.156,62.091,0.46791,4.4095,0.76165,0.52668,0.63422,0.81959
0.042025,0.0044097,0.098781,0.088379,0.0034864,0.098181,0.071642,0.0054544,0.061253,0.0032122,0.079684,0.088158,0.0075138,0.020945,0.078161,0.0012148,0.24535,0.73999,0.36009,247.56,132.66,0.31023,3.0443,162.35,1.9986,0.1362,1.9526,0.66176,2.1655,0.25316,0.8039
0.060002,0.0027123,0.096593,0.019525,0.0018466,0.075903,0.075075,0.0044784,0.09338,0.0020047,0.037078,0.014744,0.0075969,0.045783,0.081365,0.0011561,0.4699,0.81021,2.1512,246.51,94.484,0.71937,4.5639,225.09,69.748,0.61435,2.3678,0.039814,4.6315,0.14819,0.30558
0.057791,0.0033006,0.08744,0.069497,0.0083507,0.052458,0.043439,0.001669,0.023024,0.0095789,0.080304,0.031001,0.0094727,0.074653,0.070525,0.0014785,0.73123,0.54214,2.9569,226.79,123.07,0.78043,3.2625,141.99,12.282,0.62125,0.48508,0.003098,4.7195,0.0032208,0.35336
0.044579,0.0036724,0.048902,0.053602,0.0067364,0.068785,0.070231,0.0042944,0.065605,0.0081905,0.090549,0.098479,0.0070592,0.074765,0.02077,0.0079201,0.45193,0.43062,4.8545,202.15,82.887,0.98999,3.2755,215.66,17.831,0.53965,0.1404,0.1312,0.37753,0.0092426,0.42864
0.077613,0.0090622,0.053142,0.019651,0.0061412,0.030103,0.027536,0.0078812,0.042839,0.0033322,0.026839,0.049971,0.0053954,0.071454,0.074137,0.0063053,0.84961,0.80716,3.413,73.702,160.23,0.49036,4.7649,172.56,22.544,0.94543,6.793,0.42179,3.9662,0.33638,0.82566
0.071185,0.0099186,0.083334,0.069478,0.0010071,0.096325,0.033722,0.0026599,0.083514,0.0055054,0.085245,0.03573,0.0040884,0.056628,0.043707,0.0047402,0.87264,0.17889,1.9994,231.62,231.63,0.53735,4.9753,191.34,154.78,0.5015,5.6077,0.98242,3.2759,0.41503,0.6592
0.063199,0.0017559,0.047824,0.016176,0.0036871,0.033117,0.065406,0.0056714,0.06116,0.0014703,0.088155,0.061936,0.008815,0.017019,0.030758,0.0083553,0.72792,0.47742,0.27241,137.6,160.11,0.68268,3.2581,74.511,169.44,0.74286,4.8001,0.86769,4.5531,0.85768,0.16166
0.016455,0.0041234,0.010558,0.074674,0.008916,0.09948,0.069981,0.0083378,0.098771,0.0047244,0.076066,0.091244,0.0040776,0.061454,0.079783,0.0083792,0.38255,0.99944,3.1906,215.33,155.73,0.092665,3.5237,109.92,76.401,0.74744,7.4153,0.56102,4.4066,0.61964,0.83281
0.02352,0.0017964,0.017618,0.059432,0.0049548,0.085893,0.058823,0.0053055,0.068778,0.0035006,0.047393,0.046325,0.0041548,0.044234,0.049848,0.0050003,0.86472,0.62255,0.4671,68.004,183.02,0.11706,1.0931,186.48,230.62,0.99895,2.3185,0.65143,0.83877,0.71972,0.87309
0.038925,0.0066757,0.050791,0.098582,0.0030636,0.06262,0.045283,0.0041758,0.027928,0.0034612,0.052366,0.051031,0.0030148,0.08095,0.074688,0.0098324,0.88476,0.78581,1.5894,109.24,145.97,0.43154,0.9529,200.56,2.7654,0.49164,7.1789,0.42124,3.6694,0.72877,0.12639
0.088584,0.0032666,0.096642,0.015368,0.0075841,0.079849,0.09231,0.0081214,0.017666,0.0093179,0.06769,0.010803,0.001611,0.076131,0.097476,0.0060799,0.32492,0.43599,3.0329,118.21,221.82,0.32284,1.423,159.14,44.009,0.4066,6.2826,0.14942,0.96153,0.77159,0.10341
0.081087,0.0048331,0.036439,0.052026,0.0024778,0.035159,0.034593,0.0019129,0.021377,0.0033471,0.078009,0.098412,0.0094375,0.013875,0.086744,0.0094467,0.94585,0.59636,2.0052,101.58,161.63,0.86001,3.227,194.5,200.25,0.12164,0.094012,0.77378,2.6202,0.29339,0.69144
0.070607,0.0055821,0.039967,0.013908,0.0060909,0.0323,0.017632,0.0085656,0.098832,0.0077534,0.091688,0.090921,0.003701,0.061484,0.037478,0.0037366,0.11763,0.91601,4.6735,203.09,65.573,0.5249,3.0699,142.59,213.06,0.063283,8.5559,0.72034,2.2839,0.99321,0.056245
0.046018,0.0035062,0.074856,0.097003,0.0068983,0.016843,0.024489,0.0066123,0.096634,0.0066685,0.034733,0.050756,0.0092968,0.039158,0.094953,0.0086123,0.22381,0.91757,4.8144,153.17,28.586,0.60541,4.3593,58.745,203.15,0.36382,3.5956,0.21893,4.8281,0.96895,0.38054
0.095838,0.0058446,0.022938,0.049072,0.0013687,0.066902,0.012972,0.0041781,0.088595,0.0040197,0.042878,0.010189,0.0029938,0.047679,0.094705,0.0055753,0.24833,0.50727,2.4256,106.22,230.34,0.21188,1.3986,60.095,207.07,0.63388,0.35883,0.44754,2.9108,0.91653,0.27778
0.086717,0.0082227,0.078068,0.019579,0.0024926,0.069003,0.078616,0.0017909,0.079096,0.0026334,0.079663,0.062331,0.0050599,0.027283,0.051322,0.0098413,0.10186,0.14383,4.8116,143.86,7.8282,0.76404,1.1653,182.4,245.58,0.54801,3.7663,0.22615,4.8098,0.43548,0.46972
0.045012,0.0021005,0.084259,0.062259,0.0023269,0.035392,0.069237,0.0099127,0.061215,0.0048662,0.067332,0.049178,0.0030691,0.028028,0.080448,0.0039857,0.55081,0.77383,0.36297,189.63,88.82,0.26454,1.3054,222.72,77.717,0.085779,3.2645,0.96836,3.401,0.31922,0.95058
0.071244,0.0077542,0.070592,0.015063,0.0074203,0.045615,0.015595,0.0017573,0.014958,0.0097806,0.014311,0.073409,0.005282,0.053429,0.049188,0.0047636,0.88674,0.57254,0.97085,125.75,140.82,0.69083,2.8664,148.29,57.412,0.94702,6.0151,0.0916,2.0197,0.62043,0.50338
0.052055,0.0053192,0.02905,0.090165,0.0087579,0.064591,0.020554,0.0082208,0.082108,0.007066,0.036296,0.068596,0.0034426,0.031545,0.05887,0.0087244,0.35665,0.30473,0.0081989,186.36,117.47,0.63696,4.6861,135.35,122.86,0.019168,4.8479,0.31151,0.62707,0.70195,0.69933
0.023576,0.0099899,0.099724,0.034719,0.005308,0.017958,0.081054,0.0024114,0.052743,0.007686,0.059415,0.021243,0.0041837,0.025312,0.069293,0.0053561,0.34564,0.8196,4.3706,133.03,130.69,0.54278,4.6942,208.46,176.38,0.63996,8.1891,0.18024,2.3364,0.13535,0.788
0.031637,0.0052031,0.088473,0.052565,0.005392,0.043491,0.048104,0.0096388,0.049674,0.0023154,0.091339,0.046546,0.0042729,0.094036,0.058487,0.0099268,0.52889,0.39163,4.3018,51.304,114.44,0.73921,0.77697,128.13,106.19,0.9354,7.4043,0.58347,4.7573,0.98305,0.1379
0.029639,0.00587,0.082594,0.074467,0.0056512,0.042048,0.043092,0.0082159,0.093141,0.0042957,0.073568,0.011038,0.0069136,0.071287,0.013518,0.0065016,0.1875,0.82904,0.10241,239.18,181.86,0.92124,0.79033,145.18,35.581,0.51606,1.4451,0.57936,4.4549,0.99405,0.31693
0.062381,0.0017944,0.054782,0.059447,0.0041951,0.04617,0.079401,0.0020875,0.033206,0.0011424,0.09874,0.026696,0.0035169,0.078264,0.032205,0.0037858,0.71431,0.99863,0.036941,216.14,167.75,0.89974,1.1992,83.273,133.05,0.77297,2.7317,0.26774,1.3867,0.76246,0.9324
0.039088,0.0097291,0.05758,0.028275,0.0027714,0.052147,0.082045,0.0088805,0.023848,0.0031945,0.045388,0.078984,0.0015398,0.05284,0.067743,0.0074412,0.89467,0.8846,1.6297,223.93,248.43,0.70377,3.9956,161.36,229.41,0.55282,1.4205,0.13115,1.5129,0.35296,0.72801
0.012385,0.0066013,0.030332,0.054264,0.003883,0.022642,0.046306,0.0088054,0.012439,0.008624,0.060634,0.022611,0.0043209,0.094935,0.025789,0.0024554,0.92871,0.39552,4.0137,222.43,242.54,0.73549,2.5439,60.136,27.109,0.24204,3.2316,0.67225,0.97543,0.71501,0.87216
0.064278,0.0050479,0.057053,0.06978,0.0080624,0.042477,0.044588,0.0051046,0.03119,0.0091348,0.036076,0.050243,0.0033624,0.070573,0.087026,0.0028892,0.96705,0.68767,2.6579,154.25,114.33,0.72329,4.8794,186.26,56.847,0.37382,0.53387,0.23229,1.9657,0.78193,0.090691
0.05917,0.0091904,0.030318,0.020519,0.0015516,0.0209,0.031438,0.001389,0.082457,0.003957,0.031593,0.042255,0.0047851,0.052868,0.048889,0.0024671,0.87749,0.32777,4.7948,181.05,19.074,0.6684,0.47237,238.42,227.97,0.40764,6.8204,0.039929,4.8301,0.82705,0.32615
0.064505,0.0091579,0.039038,0.029855,0.006407,0.048386,0.039712,0.0023487,0.01511,0.0017994,0.074398,0.038312,0.0027997,0.026035,0.095612,0.0038786,0.90762,0.93605,0.54132,74.274,220.55,0.33041,1.6413,182.46,6.7507,0.77187,8.9704,0.041195,2.8845,0.53768,0.19661
0.053825,0.0021384,0.029431,0.049493,0.0077945,0.025006,0.056003,0.0099116,0.089619,0.0064982,0.056536,0.050282,0.0080364,0.070046,0.06519,0.0066192,0.54056,0.49599,4.105,192.23,51.81,0.51922,4.9783,73.048,174.62,0.21567,6.2975,0.95921,0.066831,0.18397,0.46042
0.099711,0.003314,0.053032,0.072161,0.007934,0.038889,0.094091,0.0054268,0.043615,0.0029079,0.012304,0.098537,0.0021979,0.047565,0.066533,0.0015606,0.30792,0.56481,3.4433,206.67,240.84,0.44145,2.4729,80.915,42.788,0.26607,2.8269,0.39561,4.6018,0.26914,0.20726
0.037908,0.0064304,0.054856,0.050812,0.0031394,0.032974,0.041565,0.0093743,0.027967,0.005167,0.091518,0.073792,0.0040798,0.02173,0.087431,0.0028442,0.43697,0.19414,4.063,147.85,231.21,0.071771,2.3118,108.73,146.05,0.91217,3.0685,0.56294,1.2741,0.54358,0.14569
0.034435,0.0026933,0.085016,0.093927,0.0072544,0.03326,0.096086,0.0014907,0.037574,0.0083015,0.029798,0.099546,0.0038253,0.07144,0.092568,0.0068584,0.26632,0.72981,3.903,228.29,97.791,0.75258,2.2862,235.36,216.03,0.67041,7.4638,0.0018293,2.2594,0.64972,0.80325
0.028464,0.0033915,0.041143,0.079564,0.0039489,0.057295,0.042748,0.0037834,0.019177,0.0012103,0.034135,0.022021,0.0089101,0.060414,0.059673,0.0031269,0.40011,0.64597,2.2019,81.055,7.6257,0.086618,4.9217,211.61,208.05,0.76981,1.7827,0.011317,1.7065,0.58504,0.46598
0.087452,0.0025643,0.013932,0.010919,0.0093437,0.07614,0.055429,0.0089,0.029388,0.0099121,0.08249,0.011491,0.0059357,0.090697,0.08377,0.0025113,0.57033,0.57188,3.773,201.76,163.49,0.16956,1.6953,165.04,94.054,0.15209,2.4612,0.22468,1.9603,0.68594,0.958
0.021555,0.0055766,0.082387,0.093384,0.0055661,0.019326,0.031068,0.0013311,0.039812,0.0048635,0.015738,0.076696,0.0015101,0.033691,0.051129,0.00335,0.81009,0.68756,4.5511,88.552,198.08,0.81527,3.402,162.72,155.28,0.52426,3.48,0.98513,1.4979,0.80772,0.907
0.083584,0.0066393,0.07129,0.019273,0.0032129,0.0771,0.078025,0.0096488,0.067567,0.0051477,0.027561,0.02708,0.0083146,0.062347,0.097297,0.0033622,0.64285,0.9904,0.69965,188.3,239.09,0.84345,1.8553,160.58,73.989,0.23861,5.3971,0.35796,0.15653,0.60186,0.33209
0.087362,0.0047311,0.08415,0.046823,0.0019182,0.063336,0.081365,0.005591,0.064852,0.0069988,0.048712,0.041963,0.006931,0.061574,0.010527,0.0077184,0.159,0.81593,4.1117,243.15,138.88,0.23952,3.9379,237.97,120.28,0.37879,2.4995,0.094031,2.6978,0.98575,0.46684
0.054765,0.001845,0.021929,0.016067,0.0079904,0.033051,0.017002,0.0092156,0.03841,0.0038039,0.012338,0.035396,0.0020547,0.016032,0.018401,0.0021212,0.70969,0.6799,1.5565,64.229,163.66,0.13829,0.26184,181.7,129.35,0.93583,0.025185,0.65683,4.5792,0.19902,0.90845
0.088517,0.0041483,0.014983,0.075394,0.0090743,0.016421,0.093589,0.0061638,0.016976,0.0045737,0.067699,0.046914,0.003515,0.070843,0.090456,0.005108,0.14752,0.89555,1.358,231.18,55.787,0.094279,0.55448,114.63,39.858,0.60212,7.2131,0.81805,1.4239,0.85959,0.20163
0.073952,0.0057622,0.085557,0.095016,0.0056917,0.065601,0.08162,0.0075026,0.055544,0.0081276,0.012292,0.083519,0.0057764,0.010667,0.087915,0.0063117,0.33111,0.29359,4.1293,67.431,125.24,0.21112,3.7349,57.243,121.77,0.16803,0.067523,0.1502,4.5597,0.41603,0.69326
0.066669,0.0099317,0.081028,0.07041,0.0049925,0.016562,0.062348,0.0091325,0.05943,0.0073258,0.061306,0.028743,0.0075905,0.061906,0.046462,0.0085817,0.99024,0.48212,1.1815,151.46,156.72,0.32198,1.6147,244.42,210.48,0.45661,1.8065,0.89185,3.0074,0.39084,0.31511
0.066835,0.0019505,0.099021,0.051658,0.0072861,0.02162,0.016265,0.0080708,0.076577,0.0077153,0.039455,0.02195,0.0084372,0.078646,0.039147,0.0087979,0.82702,0.97294,1.0551,120.8,86.86,0.035097,2.4436,142.8,165.92,0.32602,4.7994,0.50987,0.65755,0.44006,0.72066
0.09295,0.0066749,0.012554,0.023916,0.0096224,0.082101,0.068224,0.0062691,0.094218,0.006168,0.098488,0.085349,0.0030647,0.041646,0.030977,0.007454,0.32434,0.69233,3.994,96.275,145.82,0.77124,0.41631,168.21,98.847,0.35571,1.8615,0.73808,0.083215,0.65823,0.37422
0.098512,0.0064363,0.078037,0.016976,0.0065703,0.053552,0.025897,0.0081188,0.010558,0.0065879,0.072034,0.0713,0.0093033,0.084376,0.03147,0.0086227,0.46706,0.638,1.5259,204.22,38.567,0.2778,2.0002,194.13,33.82,0.77408,8.6671,0.47759,3.6973,0.50645,0.73698
0.070257,0.0079714,0.024851,0.051169,0.0013666,0.014953,0.02579,0.0077346,0.024538,0.0027959,0.030309,0.032005,0.0043071,0.082257,0.09609,0.0022464,0.26094,0.37978,1.8823,162.31,19.877,0.30082,0.86493,52.342,99.903,0.68989,4.5539,0.46469,0.21958,0.016078,0.064525
0.023258,0.0052193,0.037629,0.045991,0.0080138,0.07001,0.049679,0.0038282,0.092518,0.0091022,0.038959,0.067813,0.0013424,0.019423,0.065777,0.0022078,0.73843,0.10737,0.098828,108.11,146.85,0.28816,1.6188,216.05,52.786,0.2295,0.47722,0.94417,1.1467,0.65369,0.6614
0.013007,0.002315,0.042754,0.090478,0.0063763,0.014848,0.0286,0.0055194,0.017524,0.0018819,0.042315,0.015597,0.00684,0.015766,0.015145,0.0033709,0.8793,0.98638,2.9736,68.111,90.662,0.55946,1.9357,175.49,79.312,0.97499,8.5048,0.15875,0.86997,0.45966,0.45159
0.029278,0.002955,0.048364,0.058663,0.0052196,0.08183,0.083792,0.0076752,0.041856,0.0036585,0.084596,0.074223,0.0083602,0.028665,0.073409,0.0033143,0.41179,0.29657,2.6257,154.85,53.248,0.49044,3.855,249.37,208.27,0.21073,2.7484,0.71276,2.426,0.26866,0.52439
0.040124,0.0088429,0.092074,0.033137,0.0031315,0.065937,0.079751,0.0058096,0.034817,0.0090818,0.037069,0.09977,0.0047895,0.03369,0.033887,0.00221,0.36633,0.75924,0.093194,118.63,17.508,0.75117,2.1862,61.118,135.58,0.44256,4.4022,0.54636,3.6225,0.96219,0.82628
0.060253,0.0094809,0.078672,0.054974,0.0053011,0.047934,0.051559,0.0072824,0.02757,0.0079962,0.063682,0.074119,0.008245,0.053952,0.022283,0.0087717,0.29885,0.82123,1.9285,201.95,119.31,0.95756,3.4551,114.45,39.922,0.46799,5.0782,0.24774,2.771,0.006825,0.9819
0.045823,0.0019641,0.069541,0.030654,0.0077744,0.022884,0.092696,0.0070921,0.042198,0.0025821,0.056562,0.096397,0.0028618,0.079087,0.068309,0.0062366,0.92338,0.64044,1.7285,65.821,181.19,0.1286,4.9585,247.02,33.287,0.077237,8.1141,0.77296,1.1687,0.15702,0.49361
0.01438,0.0055286,0.086081,0.025021,0.0041114,0.065751,0.078553,0.0078962,0.035735,0.0093195,0.058394,0.080652,0.0038006,0.099085,0.05197,0.0094699,0.42257,0.23406,0.58436,157.58,62.052,0.79627,0.53088,205.81,188.76,0.96671,6.3212,0.45954,1.4044,0.53294,0.61568
0.055066,0.0037433,0.015589,0.038575,0.0091465,0.084871,0.059222,0.0067121,0.018069,0.0085729,0.042682,0.032417,0.0088534,0.041758,0.03181,0.0054776,0.54195,0.24865,2.6114,186.75,46.944,0.047428,2.4366,194.16,158.84,0.83186,5.4927,0.25868,0.43693,0.84997,0.39138
0.05001,0.0079839,0.010603,0.064312,0.0068817,0.019878,0.029153,0.005851,0.021197,0.0027389,0.055766,0.010625,0.0062806,0.044384,0.09527,0.0074157,0.30291,0.41523,4.4275,202.06,12.964,0.98022,4.0575,197.21,174.78,0.27472,0.27102,0.98608,4.5465,0.16917,0.43296
0.037721,0.0075486,0.016057,0.052461,0.0057355,0.077557,0.060166,0.006508,0.052337,0.0051834,0.056463,0.058905,0.0077663,0.097407,0.052774,0.0015544,0.72728,0.73277,4.8627,135.07,109.04,0.5127,0.35134,71.472,243.24,0.91257,4.9983,0.72215,1.9564,0.084816,0.32231
0.08737,0.0034124,0.017175,0.07983,0.0062429,0.029306,0.02056,0.0082027,0.057086,0.0036359,0.072148,0.099775,0.0077951,0.051724,0.050531,0.0014074,0.82853,0.10356,3.6576,99.532,57.503,0.17562,3.1461,225.07,103.37,0.67023,4.8047,0.30713,4.4901,0.21197,0.66167
0.058572,0.0079165,0.090351,0.083902,0.006348,0.072194,0.095703,0.0065319,0.040892,0.0071247,0.098902,0.065939,0.0012522,0.054733,0.080149,0.0093718,0.60067,0.23742,2.6502,88.34,109.94,0.059235,4.4245,223.52,58.707,0.17363,7.0855,0.71333,3.7085,0.20766,0.66192
0.04189,0.0085725,0.036945,0.035303,0.006766,0.068177,0.078582,0.0015312,0.062465,0.0030948,0.076108,0.033875,0.0067802,0.024706,0.053887,0.0010565,0.33256,0.95755,4.9988,113.78,186.26,0.27557,4.1737,62.266,40.187,0.78675,1.7138,0.64142,4.7912,0.39593,0.51753
0.017721,0.0046246,0.020523,0.069174,0.002163,0.028001,0.048525,0.0040831,0.040732,0.0071428,0.073718,0.064625,0.007236,0.015297,0.020897,0.004501,0.30691,0.99325,1.7296,129.71,53.673,0.062674,1.76,205.06,34.217,0.18453,4.5268,0.83087,4.1039,0.53058,0.45302
0.046597,0.0094634,0.023429,0.020984,0.0035344,0.058613,0.056377,0.0057577,0.084858,0.0075513,0.06633,0.094079,0.0030896,0.054296,0.082525,0.0052131,0.33575,0.42505,1.8264,116.83,153.12,0.79458,0.81867,70.175,31.909,0.40147,6.8263,0.85334,1.5953,0.056224,0.46155
0.051792,0.0011401,0.078373,0.078155,0.0086564,0.0517,0.034641,0.0040164,0.087531,0.0018249,0.050031,0.060192,0.0036143,0.024836,0.026972,0.0035621,0.65749,0.39607,0.054973,101.06,83.079,0.19945,2.7,204.24,151.02,0.42131,0.48578,0.72802,0.64989,0.79284,0.48378
0.030013,0.0065267,0.046637,0.011982,0.0026954,0.065204,0.010325,0.0061768,0.033507,0.0061716,0.048504,0.040954,0.0028505,0.081172,0.049568,0.0086776,0.1803,0.65638,0.038104,167.55,27.339,0.41084,3.7833,206.18,241.3,0.22221,2.5549,0.39581,3.8861,0.49652,0.95681
0.016257,0.0024288,0.066501,0.051567,0.0038505,0.027056,0.083773,0.0030976,0.013246,0.0029983,0.05392,0.04926,0.0085884,0.032616,0.055669,0.0051054,0.38241,0.55811,1.042,179.94,204.29,0.10697,1.3933,56.65,44.277,0.54821,4.0229,0.067624,4.6909,0.36692,0.99513
0.075071,0.0044307,0.016849,0.032365,0.0079864,0.080077,0.082119,0.0023971,0.043133,0.0017972,0.050264,0.076473,0.0018577,0.026677,0.05507,0.0028192,0.34823,0.61131,3.8093,144.82,17.855,0.80006,4.0752,130.68,14.284,0.36468,6.2358,0.16518,0.030145,0.62123,0.26267
0.029205,0.0048229,0.073736,0.074993,0.0057773,0.038149,0.075036,0.0078453,0.052396,0.0027216,0.065748,0.031097,0.0027164,0.037633,0.066266,0.0085067,0.526,0.91604,3.9633,110.21,156.32,0.35679,3.7362,89.177,174.77,0.076252,0.99195,0.98771,4.6115,0.43906,0.77784
0.036731,0.0071306,0.090738,0.086616,0.0042285,0.016836,0.012994,0.0023212,0.039868,0.0099569,0.087731,0.025968,0.0078677,0.088781,0.093348,0.0010203,0.15906,0.69483,1.7092,174.58,194.31,0.90845,2.2905,169.34,28.66,0.049801,8.538,0.24066,4.5358,0.7011,0.92982
0.06184,0.0044762,0.032795,0.015698,0.0091442,0.06499,0.068058,0.0050748,0.072897,0.0010302,0.06969,0.024151,0.0029337,0.01836,0.010772,0.0086767,0.80314,0.80759,0.28561,228.2,3.2341,0.20336,2.5012,181.23,66.09,0.26226,1.0655,0.93263,1.5517,0.056217,0.2016
0.078532,0.0032858,0.091033,0.070094,0.0015742,0.033261,0.060833,0.003646,0.037013,0.0038504,0.06977,0.075512,0.0014218,0.067303,0.098478,0.0052218,0.35411,0.34398,0.97994,224.87,62.655,0.55788,0.81368,150.12,3.7263,0.72637,3.525,0.10467,2.4112,0.19201,0.99404
0.083913,0.0079201,0.024512,0.070859,0.0079477,0.074071,0.010398,0.0010855,0.032485,0.0072991,0.066596,0.070841,0.0026076,0.024352,0.027806,0.0075721,0.94175,0.26404,2.9192,216.25,244.32,0.1697,4.8408,101.09,21.038,0.84685,3.1191,0.95345,2.9186,0.8973,0.78727
0.05374,0.0026393,0.090849,0.01334,0.0032242,0.094475,0.099269,0.0094427,0.077629,0.0032977,0.017704,0.014326,0.0049343,0.017875,0.041988,0.0060674,0.92427,0.8534,4.6229,207.26,168.21,0.22054,0.46263,96.133,96.05,0.7774,2.6072,0.026646,1.234,0.56,0.52876
0.052293,0.0099867,0.072076,0.051072,0.008743,0.075222,0.094029,0.0018586,0.048316,0.0038213,0.054511,0.072772,0.0073141,0.078567,0.098711,0.0012699,0.61783,0.14428,1.8506,156.13,75.761,0.66095,4.5802,99.814,221.24,0.81166,5.5272,0.69249,2.1629,0.2378,0.66583
0.055046,0.0038912,0.097179,0.020919,0.0040276,0.05879,0.077644,0.0051523,0.076009,0.003646,0.045997,0.011716,0.0049299,0.058039,0.05349,0.0088556,0.98262,0.21783,1.2367,52.044,143.02,0.96232,0.55008,135.28,233.31,0.94776,6.8603,0.26316,3.0424,0.55492,0.1255
0.078214,0.0020859,0.04674,0.05047,0.0092688,0.090906,0.074106,0.0072963,0.051862,0.0061984,0.033881,0.083013,0.0039945,0.073731,0.025117,0.0049456,0.33516,0.36825,0.66945,128.94,63.403,0.75132,3.8314,109.76,46.467,0.24841,2.3318,0.20529,2.3794,0.96148,0.14708
0.036405,0.0079943,0.093084,0.091228,0.0043351,0.07672,0.056313,0.0046019,0.019076,0.0048352,0.091465,0.062048,0.0053737,0.020878,0.096275,0.0074371,0.4395,0.60981,4.4186,225.92,14.153,0.98322,2.4483,65.777,125.65,0.091253,3.6144,0.91327,2.3803,0.23931,0.81252
0.083267,0.0096603,0.039486,0.0115,0.0092835,0.053802,0.013137,0.0090013,0.061897,0.0057585,0.082111,0.089478,0.0010988,0.044116,0.097903,0.0015968,0.8041,0.49986,2.4112,53.589,47.477,0.61517,4.7455,89.741,33.471,0.22801,8.2139,0.29021,4.1424,0.013116,0.54263
0.073261,0.0045315,0.014854,0.092044,0.0043307,0.062032,0.078159,0.0065088,0.050627,0.0092753,0.021839,0.024049,0.0014847,0.062745,0.037404,0.00948,0.97604,0.93346,1.704,72.409,97.654,0.58814,2.1005,85.3,84.846,0.97715,0.50254,0.26564,1.8461,0.43793,0.86407
0.010467,0.0070805,0.066973,0.037777,0.0028866,0.090713,0.031201,0.0097874,0.070707,0.0013419,0.026178,0.058987,0.0042156,0.065916,0.069971,0.0080512,0.69455,0.99931,1.6158,88.254,230.55,0.79358,1.0336,66.358,145.82,0.91234,8.309,0.50657,3.8606,0.031485,0.14063
0.024193,0.0036717,0.027663,0.086586,0.0064166,0.014024,0.053517,0.0060741,0.035745,0.004859,0.010271,0.044859,0.0079207,0.033565,0.023952,0.0095557,0.18261,0.64129,3.5663,178.25,51.42,0.38378,3.2747,178.1,53.116,0.6353,0.46906,0.58119,1.2282,0.54611,0.077118
0.069313,0.0030633,0.012336,0.01606,0.0030269,0.021488,0.033271,0.0025994,0.075501,0.0019953,0.095233,0.045054,0.0065291,0.07776,0.048606,0.00436,0.80254,0.82994,1.9507,145.5,14.668,0.78831,4.0855,95.454,90.853,0.99238,6.847,0.029192,3.997,0.60411,0.18065
0.087234,0.0085661,0.062258,0.031987,0.0038168,0.019793,0.011187,0.0045296,0.089059,0.0030389,0.022,0.029465,0.0062554,0.097885,0.059034,0.0061387,0.584,0.83363,1.6557,94.966,91.81,0.3028,4.204,239.78,202.37,0.59167,4.7956,0.061755,3.9468,0.3772,0.20801
0.045415,0.0045086,0.055894,0.041152,0.0031671,0.052751,0.068774,0.0032337,0.013021,0.0024814,0.061999,0.054451,0.0073412,0.042116,0.029895,0.0011745,0.76711,0.15551,2.5387,155.34,209.3,0.55628,1.3784,79.668,9.3139,0.39978,0.094585,0.99548,2.3338,0.84492,0.57925
0.072281,0.0066014,0.067277,0.050127,0.0023121,0.086183,0.045793,0.0022179,0.077045,0.0051645,0.06441,0.074478,0.0055916,0.088406,0.095076,0.0053669,0.98857,0.2855,0.16592,186.29,247.41,0.91958,0.20494,130.13,243.69,0.33985,8.1133,0.6043,4.4752,0.73928,0.83581
0.098297,0.0083353,0.083405,0.02137,0.0043808,0.075764,0.047952,0.008446,0.072275,0.0041138,0.080809,0.049276,0.0061867,0.01734,0.051813,0.002791,0.26204,0.41436,3.9106,198.84,50.169,0.63576,2.2423,131.91,205.86,0.68082,0.58791,0.83055,1.9479,0.55858,0.040577
0.09267,0.0096132,0.081254,0.057085,0.0066489,0.066144,0.028408,0.0021493,0.088772,0.0078891,0.087683,0.091847,0.0096908,0.089108,0.052098,0.0042809,0.19686,0.28981,3.5398,213.65,179.94,0.12164,4.8627,168.93,75.371,0.67939,2.7593,0.36382,4.7618,0.25969,0.20481
0.056387,0.005461,0.04758,0.085981,0.0079523,0.099971,0.08142,0.001933,0.031706,0.0081878,0.058364,0.050778,0.0023269,0.078054,0.016844,0.0042777,0.59247,0.29229,3.8897,234.08,246.46,0.17904,3.5838,134.65,143.81,0.37739,8.1568,0.75774,1.0502,0.14274,0.53162
0.067032,0.0085939,0.035122,0.070428,0.0053267,0.087955,0.073847,0.0030289,0.084365,0.0067268,0.064043,0.048585,0.0079788,0.046449,0.036011,0.0058369,0.28475,0.39629,1.2721,221.59,243.23,0.17865,2.4578,230.67,122.71,0.45899,0.35907,0.61324,0.80563,0.051885,0.54263
0.044215,0.005898,0.069189,0.093546,0.0014692,0.015565,0.016831,0.005927,0.081946,0.0033,0.022095,0.054759,0.0072064,0.065293,0.084613,0.0079066,0.62725,0.34721,1.5339,155.03,21.713,0.79831,2.7236,51.791,100.71,0.69602,6.1749,0.85715,3.4756,0.29309,0.99067
0.01817,0.0064171,0.056992,0.050197,0.0089384,0.02594,0.088369,0.0088879,0.082175,0.0010138,0.023094,0.052568,0.0020642,0.070766,0.064023,0.0090044,0.88423,0.75929,4.0901,85.156,18.303,0.27628,1.441,185.15,0.57774,0.35401,2.4175,0.92783,1.0383,0.39585,0.99552
0.030838,0.0049926,0.013678,0.026958,0.0043582,0.07777,0.047543,0.0039881,0.018543,0.0086456,0.052324,0.068432,0.0078317,0.087179,0.037238,0.0012078,0.68053,0.73666,0.6858,159.11,117.71,0.0837,0.82923,237.73,81.185,0.15334,1.5854,0.5162,4.8544,0.57134,0.26387
0.017569,0.0071374,0.070952,0.046804,0.0048657,0.010541,0.013001,0.0043352,0.066968,0.007073,0.075311,0.052632,0.0040016,0.07685,0.022529,0.0062858,0.58026,0.35816,3.4878,228.86,167.56,0.83567,3.2834,177.14,90.243,0.37021,6.3963,0.76884,3.1795,0.98454,0.30489
0.098905,0.0070555,0.034557,0.019874,0.0028589,0.077361,0.04498,0.0080749,0.089591,0.0011848,0.0769,0.055018,0.0070904,0.086671,0.043468,0.0011468,0.29825,0.1058,4.6993,159.94,28.913,0.13405,2.5326,164.79,177.05,0.79015,3.5108,0.79117,1.1285,0.27418,0.31338
0.05157,0.0092701,0.042853,0.022341,0.0073877,0.073855,0.091612,0.0055009,0.0365,0.0040119,0.041209,0.065566,0.0045794,0.054058,0.044271,0.0014183,0.37036,0.37681,1.9798,113.17,6.8515,0.83037,4.7726,151.93,235.37,0.94697,3.5453,0.61777,1.2948,0.99833,0.63444
0.078932,0.006517,0.082659,0.020187,0.0058152,0.037942,0.056759,0.0018136,0.033284,0.0078933,0.015242,0.076175,0.0022017,0.018327,0.096246,0.0044289,0.43051,0.40606,1.8812,163.37,45.57,0.59076,3.1514,126.68,62.474,0.090625,4.9446,0.69261,0.30662,0.59601,0.24948
0.077256,0.0030949,0.095533,0.081654,0.0079919,0.097517,0.06467,0.0040323,0.060287,0.0056439,0.0475,0.052725,0.0065498,0.048206,0.089375,0.0071052,0.84574,0.49954,0.27984,148.61,209.86,0.50347,4.4179,223.72,145.69,0.90075,4.4277,0.35264,0.27314,0.48331,0.48994
0.052303,0.0022906,0.044875,0.092979,0.0023006,0.063693,0.073895,0.0015665,0.084714,0.0011749,0.052645,0.081196,0.0081686,0.032511,0.028254,0.0056643,0.84309,0.27912,0.64026,95.172,43.746,0.11132,4.24,172.86,190.46,0.8041,5.1989,0.07125,0.046256,0.97332,0.36677
0.050342,0.0025584,0.097818,0.049597,0.0033903,0.050376,0.045213,0.004149,0.076634,0.0038797,0.015116,0.056981,0.0062976,0.064729,0.01791,0.0094076,0.6161,0.43248,0.5099,249.45,82.791,0.1138,1.7638,190.21,241.4,0.74329,4.3199,0.63416,0.80944,0.95203,0.039302
0.082341,0.007777,0.018954,0.041809,0.0056551,0.082527,0.036347,0.0073433,0.026558,0.005128,0.06652,0.099299,0.0060828,0.087276,0.051229,0.0096085,0.10836,0.77259,3.7818,248.34,99.474,0.49048,3.7859,241,185.31,0.29076,1.1478,0.82794,2.9264,0.44118,0.39984
0.063956,0.0016791,0.093037,0.077631,0.0045308,0.048664,0.099009,0.0068267,0.086609,0.0059908,0.044055,0.068807,0.0026279,0.073529,0.020995,0.0083423,0.48857,0.38711,4.3301,216.17,166.89,0.87122,2.1215,95.67,1.2151,0.69473,7.3404,0.44139,0.43207,0.33263,0.61503
0.048419,0.0016658,0.010341,0.053327,0.0021779,0.02967,0.090549,0.0022904,0.07241,0.0055722,0.039748,0.058192,0.0056038,0.068609,0.082601,0.0047209,0.68473,0.98045,4.983,204.3,107.13,0.10303,4.4547,195.53,69.063,0.10585,0.27895,0.077444,0.32344,0.49682,0.65632
0.038097,0.0032947,0.083659,0.061017,0.001982,0.041966,0.020494,0.0012043,0.016256,0.0070051,0.066234,0.079745,0.0096827,0.080672,0.022936,0.0017138,0.14705,0.96378,0.49239,211.46,148.25,0.69453,1.1285,89.809,29.588,0.98157,2.1369,0.088372,2.6961,0.57565,0.20619
0.037872,0.0023872,0.088635,0.026807,0.0020623,0.063606,0.090306,0.002698,0.094318,0.0060546,0.039877,0.046308,0.0059256,0.047404,0.030807,0.001024,0.74277,0.86283,0.86286,177.47,48.634,0.13947,2.8776,138.3,33.141,0.90059,2.2432,0.10556,4.1285,0.96348,0.78737
0.074706,0.002714,0.080077,0.046543,0.009522,0.06681,0.067061,0.0055184,0.059749,0.0074159,0.090998,0.012518,0.0059892,0.020119,0.073625,0.0058784,0.61633,0.62995,2.4226,78.297,93.437,0.70775,0.68997,117.8,95.29,0.84721,8.0742,0.46306,1.7725,0.96742,0.27519
0.071851,0.0068234,0.091518,0.043412,0.0039458,0.03054,0.095309,0.0028603,0.057898,0.0097368,0.081063,0.087326,0.0027443,0.082195,0.080086,0.0065034,0.18821,0.19841,4.6863,232.29,98.202,0.46733,0.50243,183.8,180.25,0.65271,4.4932,0.83206,2.6036,0.98333,0.49925
0.059797,0.0080941,0.041724,0.018888,0.0013385,0.011657,0.048907,0.0085238,0.039267,0.0092443,0.012217,0.088492,0.0034259,0.040982,0.071936,0.0087584,0.60772,0.27403,2.548,103.94,127.58,0.51689,2.2052,246.48,143.63,0.68691,3.1752,0.23029,2.658,0.43864,0.14181
0.08912,0.0010742,0.088231,0.093618,0.0045837,0.070392,0.048904,0.0070567,0.075918,0.0044503,0.086274,0.093741,0.0093656,0.073262,0.020653,0.0042051,0.23868,0.54482,1.0815,248.43,204.99,0.88273,3.4,183.95,228.59,0.46711,8.2689,0.70875,4.2702,0.83023,0.47623
0.015818,0.0098528,0.065046,0.077754,0.0098589,0.061186,0.090015,0.0011509,0.037195,0.0036086,0.061983,0.064227,0.001927,0.068452,0.070001,0.0086248,0.50915,0.18016,0.25733,141.75,21.609,0.047098,2.0513,78.056,167.06,0.83288,4.4306,0.63091,4.0623,0.51287,0.96815
0.090217,0.0010707,0.09996,0.018117,0.0032174,0.017376,0.089608,0.0053411,0.029003,0.0034788,0.018374,0.028091,0.0026524,0.01006,0.056539,0.0050682,0.75345,0.93684,3.2498,177.12,51.218,0.85796,1.622,142.16,108.99,0.62388,4.5089,0.7266,0.33082,0.58127,0.25874
0.066281,0.0083037,0.034975,0.041063,0.0010448,0.096027,0.054653,0.0020662,0.023595,0.0080077,0.075211,0.033551,0.0031877,0.033563,0.014504,0.0078055,0.4101,0.88105,2.015,182.1,189.73,0.39097,4.8809,54.547,247.06,0.88371,4.397,0.21915,1.1437,0.45822,0.46058
0.015439,0.0019788,0.036496,0.033784,0.0070304,0.083916,0.038291,0.002511,0.018949,0.0044906,0.051088,0.019493,0.0077019,0.030983,0.091805,0.0084773,0.36775,0.72041,1.1041,60.818,219.15,0.14079,3.344,122.97,58.32,0.072259,6.1326,0.34163,2.225,0.47307,0.65926
0.098352,0.0092796,0.08802,0.053173,0.0034089,0.015102,0.040604,0.0024538,0.026274,0.0086679,0.05457,0.018398,0.0031953,0.084522,0.090269,0.0053699,0.13425,0.38812,0.24003,58.583,221.75,0.66878,1.2613,116.61,56.671,0.66072,2.0613,0.62161,0.71347,0.11311,0.41998
0.09056,0.0012629,0.039882,0.054432,0.0060929,0.096304,0.054496,0.0041775,0.085487,0.0086659,0.026084,0.074491,0.0047031,0.056108,0.020506,0.0060807,0.58733,0.36467,2.3323,105.48,236.31,0.28129,3.3403,235.43,104.69,0.96576,5.3122,0.43883,2.1914,0.38999,0.32871
0.037276,0.0064658,0.028834,0.092868,0.0078318,0.072151,0.023381,0.005049,0.040429,0.0030992,0.083679,0.030431,0.0033825,0.043921,0.04822,0.003201,0.29659,0.64087,2.8522,64.849,200.54,0.42311,1.0205,113.64,49.02,0.093546,4.7671,0.48257,4.7254,0.42948,0.83923
0.058888,0.0074942,0.051614,0.024822,0.002518,0.031174,0.013361,0.0085807,0.077622,0.003606,0.081604,0.08127,0.0052322,0.068071,0.064509,0.0093208,0.97358,0.33665,3.6475,176.44,219.98,0.43105,2.1922,176.91,34.536,0.17077,4.9398,0.25389,1.4957,0.22406,0.52786
0.04133,0.0017027,0.063218,0.085503,0.0094981,0.056086,0.090104,0.0092134,0.091298,0.0023974,0.03916,0.038445,0.0044584,0.024823,0.044228,0.0052069,0.14264,0.37711,4.8522,119.48,36.41,0.80722,4.2244,195.99,64.333,0.65468,4.628,0.92978,0.49307,0.37273,0.9632
0.042865,0.0075195,0.010947,0.079004,0.0049147,0.09558,0.017846,0.0078642,0.05642,0.0098439,0.036753,0.084555,0.0028791,0.062057,0.03267,0.0068055,0.564,0.36074,2.5136,162.81,242.52,0.71507,0.039452,92.021,71.69,0.24846,5.5865,0.77041,0.19962,0.35196,0.97361
0.056181,0.0092483,0.018981,0.058448,0.0014706,0.097351,0.026851,0.0012042,0.048594,0.0084821,0.078093,0.088371,0.0016965,0.06141,0.079701,0.0093707,0.10313,0.90824,1.8683,50.661,105.99,0.13548,2.9687,126.83,103,0.75622,6.253,0.31878,2.8304,0.92404,0.10936
0.082151,0.0072804,0.074988,0.022968,0.0046239,0.079485,0.070066,0.0093395,0.030595,0.0063994,0.067367,0.068404,0.0094678,0.049427,0.097047,0.0041311,0.79424,0.92606,3.7752,64.984,40.034,0.76775,4.6912,73.457,51.249,0.28992,7.9146,0.4973,4.8442,0.65207,0.63745
0.052897,0.0089843,0.014535,0.064117,0.0087675,0.014486,0.037931,0.0061514,0.043942,0.0047014,0.045827,0.09035,0.0056987,0.034036,0.058345,0.0042061,0.23977,0.56536,2.1365,200.16,37.758,0.52965,1.4349,75.808,84.881,0.41554,3.6492,0.78535,3.5309,0.060905,0.84194
0.099148,0.006421,0.039326,0.091069,0.0014517,0.056886,0.087376,0.0090615,0.099591,0.0025628,0.093236,0.065017,0.0035222,0.072255,0.07991,0.0078239,0.92452,0.54529,3.0947,60.083,138.07,0.74516,4.1523,186.77,125.86,0.4827,5.462,0.15064,4.6164,0.0004614,0.81252
0.043581,0.0097919,0.036643,0.030899,0.0014413,0.06191,0.075409,0.0089617,0.035889,0.0016538,0.098448,0.015615,0.0047523,0.097769,0.022266,0.0021965,0.43653,0.89246,4.1723,153.04,46.947,0.35654,0.68376,192.25,230.19,0.027253,2.1875,0.58885,2.0276,0.93897,0.47388
0.086236,0.0082769,0.09292,0.064264,0.0037772,0.076434,0.014967,0.0079103,0.021836,0.0097188,0.070836,0.075373,0.0033813,0.091496,0.038024,0.0060164,0.54106,0.65467,0.50529,85.033,74.487,0.99651,3.9725,130.91,231.16,0.69466,4.5451,0.26436,0.44479,0.922,0.24003
0.013063,0.0097097,0.073114,0.072335,0.004978,0.084615,0.076377,0.0025985,0.056049,0.0035694,0.052623,0.081545,0.0057216,0.070591,0.029085,0.0043471,0.90926,0.23041,2.5247,202.59,182.57,0.52703,0.80682,51.291,107.28,0.57495,7.7081,0.090868,1.1262,0.05901,0.11285
0.079896,0.004967,0.019052,0.012906,0.0047671,0.068673,0.07249,0.005135,0.076029,0.0084186,0.019967,0.033402,0.0046522,0.062803,0.075815,0.0050415,0.32622,0.20005,4.0759,169.14,240.25,0.78222,0.17116,119.45,102.42,0.93119,0.51621,0.52239,4.2555,0.44957,0.21272
0.039926,0.0073002,0.033131,0.039085,0.0050949,0.045746,0.091392,0.0066035,0.038471,0.008744,0.097427,0.047187,0.0059824,0.047821,0.08646,0.0051995,0.63488,0.23274,1.9007,229.16,157.89,0.038095,1.275,164.79,248.98,0.31403,6.1964,0.68979,3.0164,0.45157,0.76567
0.033424,0.0064826,0.029428,0.063629,0.0027199,0.043897,0.092816,0.0052374,0.015701,0.0058015,0.051828,0.094587,0.0034364,0.058391,0.054902,0.0026185,0.83561,0.9677,0.67686,214.26,52.634,0.25015,3.7941,156.49,240.68,0.041392,2.2304,0.56175,0.24741,0.61649,0.34273
0.068444,0.0045391,0.039357,0.060087,0.0013711,0.01509,0.038496,0.0054397,0.088027,0.0068744,0.070077,0.042212,0.0081308,0.043907,0.07025,0.0041726,0.20206,0.54164,3.6342,183.7,32.974,0.71756,4.5808,95.641,204.93,0.55227,1.1291,0.52286,3.6898,0.19585,0.16366
0.096963,0.0021969,0.041697,0.033364,0.0066561,0.046079,0.051986,0.007191,0.069294,0.009658,0.013645,0.015736,0.001287,0.020658,0.048708,0.0084917,0.58212,0.66717,0.49322,174.29,9.1852,0.44168,1.4985,246.04,164.66,0.52564,0.90649,0.3076,2.8883,0.82326,0.45125
0.062576,0.0068434,0.086042,0.031972,0.0081671,0.028627,0.022382,0.0013074,0.023089,0.0042256,0.06707,0.079544,0.0071256,0.097282,0.030298,0.0011179,0.83861,0.45535,3.8025,247.73,87.652,0.49624,0.10319,97.974,3.7266,0.78895,5.1399,0.47659,1.9534,0.57474,0.2722
0.088015,0.0060209,0.019773,0.039808,0.0060385,0.082407,0.018469,0.0018208,0.068469,0.0083371,0.073937,0.026723,0.0088533,0.078114,0.036851,0.0068549,0.67748,0.81215,3.5175,165.71,46.267,0.19426,3.4286,143.31,96.304,0.66934,6.3979,0.84494,4.3081,0.6053,0.50797
0.056971,0.0036633,0.022526,0.089512,0.0073528,0.026014,0.058524,0.0010224,0.027438,0.0071065,0.054552,0.092038,0.0099261,0.060607,0.09953,0.0098422,0.61919,0.72049,4.3896,147.97,6.6068,0.25016,4.8779,176.72,98.861,0.98644,5.0631,0.89627,4.9099,0.15371,0.90363
0.047098,0.0014422,0.028534,0.051471,0.0030553,0.044324,0.022332,0.0084049,0.091019,0.0031763,0.077662,0.056851,0.0081709,0.092746,0.083792,0.0034189,0.71016,0.7392,4.2305,182.41,165.9,0.07869,1.2653,248.93,21.438,0.6947,0.80924,0.20767,4.9436,0.4309,0.44345
0.058598,0.0073702,0.014138,0.014331,0.0016657,0.033756,0.040398,0.0065207,0.098225,0.001091,0.041991,0.074876,0.0068561,0.023874,0.03819,0.007019,0.96969,0.20446,1.6391,211.89,122.68,0.92118,1.8755,217.76,249.16,0.55455,2.1728,0.64246,4.0171,0.32621,0.82602
0.035816,0.0021429,0.061584,0.066382,0.0045856,0.01177,0.041643,0.0048772,0.058559,0.0020533,0.061036,0.092158,0.0058159,0.040749,0.094284,0.0018986,0.14908,0.94224,0.50593,79.461,208.61,0.28778,3.7905,149.92,100.5,0.63286,5.7192,0.23963,2.4631,0.70531,0.021022
0.071216,0.0090888,0.0864,0.094218,0.0038406,0.062502,0.055186,0.0094363,0.033605,0.0057568,0.055106,0.093374,0.0035866,0.053146,0.073193,0.0079679,0.92834,0.39025,3.465,71.288,15.231,0.99232,1.9293,89.555,107.1,0.97065,8.5376,0.62323,1.4337,0.94622,0.046416
0.046627,0.0015,0.038618,0.066927,0.00327,0.030917,0.070708,0.0012357,0.050497,0.0050126,0.079841,0.043784,0.0018858,0.034469,0.087583,0.0010648,0.36846,0.97904,0.42439,246.27,84.529,0.90607,1.8041,57.931,226.51,0.13393,6.3353,0.90002,2.3874,0.47492,0.65348
0.022126,0.0033762,0.01164,0.074243,0.0021835,0.069508,0.011635,0.0026353,0.010442,0.0031249,0.069035,0.064381,0.006309,0.088571,0.019957,0.0065138,0.6299,0.56319,2.5518,215.2,102.43,0.66809,3.9518,165.24,242.16,0.32619,3.6418,0.49841,2.2794,0.5306,0.84793
0.062374,0.001701,0.047805,0.013194,0.005959,0.013366,0.076581,0.0048504,0.044719,0.0080902,0.07825,0.064219,0.0092288,0.048584,0.030788,0.0034844,0.27606,0.561,2.1869,194.54,78.455,0.61257,3.7962,96.676,182.16,0.36908,1.3685,0.42694,4.6321,0.18403,0.33036
0.021138,0.0093858,0.071835,0.051231,0.0038486,0.024589,0.074942,0.0030082,0.059723,0.0060015,0.08127,0.036913,0.0043409,0.077576,0.052768,0.0046735,0.65091,0.20615,1.4123,86.165,140.35,0.57785,0.34973,136.41,128.62,0.71994,1.3732,0.93742,0.10262,0.96922,0.79357
0.094773,0.001066,0.023228,0.036026,0.003735,0.057875,0.032236,0.0072027,0.090251,0.0099218,0.011472,0.044233,0.0035573,0.090063,0.092621,0.0098555,0.67272,0.67809,3.4901,64.292,113.64,0.24625,1.4597,65.845,126.44,0.80009,5.9004,0.0087419,0.097581,0.55616,0.25148
0.03907,0.0021443,0.031976,0.096873,0.0069281,0.064917,0.095219,0.0037729,0.033534,0.0053877,0.075481,0.035469,0.0030046,0.031062,0.064077,0.0087759,0.34224,0.39981,2.8497,67.016,188.3,0.31697,4.2336,226.72,213.34,0.25352,0.31742,0.67066,0.969,0.99221,0.35542
0.074891,0.0099923,0.028121,0.047649,0.0046759,0.05891,0.020452,0.0050506,0.074723,0.0045365,0.066493,0.051876,0.0014782,0.082272,0.032887,0.0094149,0.50872,0.98572,2.515,208.17,172.9,0.44464,0.11971,143.95,102.84,0.2619,3.5146,0.63695,2.4522,0.38675,0.94972
0.084732,0.0039062,0.033892,0.014162,0.0054116,0.016305,0.02212,0.0022865,0.014753,0.0081526,0.08488,0.036114,0.0090841,0.096526,0.049889,0.0037229,0.79067,0.97926,0.25596,111.69,179.27,0.47469,3.7548,158.14,142.87,0.9733,6.1637,0.29694,0.30459,0.013103,0.48287
0.015633,0.0011927,0.066919,0.065758,0.001919,0.01874,0.023482,0.0083072,0.079677,0.0098299,0.024753,0.084615,0.0027947,0.024676,0.024768,0.0045905,0.83148,0.95254,4.5641,182.63,120.74,0.54255,3.2357,73.186,63.184,0.971,8.5773,0.27871,1.1146,0.43638,0.16935
0.031349,0.0026469,0.037063,0.05168,0.0018546,0.081397,0.093986,0.0094654,0.075412,0.0035675,0.098443,0.016257,0.0074284,0.068395,0.063018,0.006055,0.21582,0.12349,1.39,209.04,117.15,0.87726,3.1393,212.53,12.268,0.12397,3.794,0.17065,0.13539,0.75481,0.96919
0.06461,0.003018,0.04428,0.030378,0.0031816,0.036518,0.024249,0.0011235,0.045239,0.0050299,0.082742,0.044377,0.0075822,0.065469,0.057179,0.0020885,0.48902,0.42726,3.4568,173.45,125.39,0.46403,1.0346,144.54,97.218,0.97385,2.24,0.60689,2.3175,0.16872,0.81262
0.084646,0.0096019,0.064022,0.095915,0.0073629,0.027504,0.020615,0.0049904,0.061581,0.0089245,0.066725,0.046551,0.0030603,0.029656,0.077147,0.0033205,0.95781,0.15644,0.24717,162.48,95.201,0.65558,3.8555,175.3,153.48,0.81872,8.0063,0.92826,3.7227,0.83847,0.63047
0.071935,0.0021874,0.030406,0.064459,0.0082747,0.026665,0.042887,0.005993,0.044171,0.0081601,0.075127,0.053011,0.0071953,0.098819,0.023032,0.0086926,0.5094,0.23878,1.6212,217.06,227.69,0.99697,1.6777,164.67,216.25,0.61272,1.9291,0.8038,3.8263,0.27082,0.096121
0.014272,0.0041477,0.059791,0.084288,0.007543,0.026557,0.084869,0.0039003,0.043159,0.0010733,0.031839,0.029441,0.0078587,0.072232,0.08178,0.0026053,0.176,0.93765,0.10292,141.06,161.73,0.09066,4.9683,157.67,138.88,0.28937,5.5919,0.31519,2.4887,0.2836,0.79608
0.071573,0.009286,0.039157,0.023531,0.0013798,0.080566,0.095966,0.0088414,0.075405,0.0013355,0.072506,0.083655,0.0041505,0.067051,0.024737,0.009515,0.66095,0.40187,0.54774,85.925,212.05,0.41617,0.90795,172.32,61.591,0.73403,3.2998,0.25755,4.5288,0.088908,0.77084
0.090828,0.0045613,0.074421,0.063503,0.0019597,0.057068,0.085092,0.0023127,0.086955,0.005902,0.064674,0.094115,0.0032102,0.048373,0.029707,0.0089105,0.83921,0.39896,1.0738,52.053,160.75,0.58351,2.8141,81.648,157.74,0.041558,8.398,0.26009,3.5617,0.5747,0.4008
0.015202,0.0089011,0.025725,0.078046,0.0099977,0.079183,0.017553,0.0094977,0.06977,0.0057359,0.011147,0.088378,0.0030088,0.085638,0.011731,0.0073134,0.68424,0.53239,4.6297,231.78,38.236,0.78068,0.62146,208.1,125.57,0.75007,7.0114,0.4753,0.65178,0.24378,0.15701
0.018773,0.0063999,0.091193,0.021092,0.0084849,0.048124,0.064951,0.0062966,0.068063,0.0031,0.097887,0.053023,0.0032213,0.096133,0.077936,0.0048099,0.23122,0.72759,3.4357,181.94,28.913,0.32178,2.878,79.18,33.616,0.94219,4.6855,0.44606,0.3413,0.87535,0.23967
0.045819,0.0057142,0.015424,0.098922,0.0087222,0.082351,0.028195,0.0068865,0.062718,0.0043732,0.092196,0.09776,0.0075778,0.096078,0.047322,0.0066003,0.42114,0.41452,1.8297,124.62,78.271,0.33146,3.4381,173.86,53.815,0.52931,7.3518,0.8245,1.8814,0.93729,0.37403
0.090488,0.001832,0.082074,0.01617,0.0031273,0.094302,0.062962,0.002493,0.039439,0.0069476,0.053196,0.026679,0.0082393,0.054366,0.046123,0.009519,0.53004,0.32297,4.9664,173.78,83.78,0.19181,0.67296,114.65,47.68,0.66806,5.8749,0.49644,1.6686,0.70095,0.34231
0.070354,0.0096069,0.010878,0.027909,0.0099355,0.053918,0.09325,0.0068577,0.031003,0.0021202,0.064857,0.064589,0.0079914,0.079886,0.083013,0.0049996,0.60554,0.86875,0.32158,82.565,181.64,0.14922,2.6035,189.04,139.86,0.57345,8.256,0.54298,2.7949,0.58681,0.24698
0.084199,0.0058392,0.016447,0.030578,0.0044739,0.042803,0.046325,0.009721,0.06224,0.005416,0.037146,0.051178,0.0024617,0.041619,0.013142,0.0099261,0.26383,0.89398,2.5626,78.105,187.72,0.18403,2.9883,172.32,189.49,0.87069,7.9718,0.19149,0.5478,0.58488,0.26978
0.088169,0.0082993,0.041837,0.038553,0.0068885,0.047791,0.094426,0.008622,0.079299,0.0017967,0.078627,0.027602,0.0041246,0.090304,0.071808,0.0085431,0.79686,0.8818,4.0254,76.404,112.99,0.24532,0.72351,121.72,165.58,0.30369,3.766,0.64325,4.793,0.54771,0.22621
0.066736,0.0058788,0.046448,0.055828,0.00875,0.045054,0.076583,0.0057864,0.028689,0.001035,0.039903,0.037431,0.0012763,0.067088,0.032853,0.0053935,0.61265,0.25679,3.6511,241.86,185.01,0.25855,4.5832,81.244,177.69,0.020586,7.8123,0.55767,0.50921,0.45007,0.026914
0.061522,0.007297,0.049345,0.044726,0.0047086,0.069674,0.015946,0.0057729,0.076986,0.0029866,0.031893,0.038607,0.0013148,0.062567,0.037907,0.0092459,0.99519,0.29966,2.9873,172.17,204.67,0.71215,3.1202,101.53,136.29,0.43254,0.97766,0.24983,1.8811,0.44781,0.091573
0.051221,0.0098765,0.026857,0.095747,0.0060697,0.097132,0.022934,0.0052253,0.052273,0.0067748,0.044435,0.064471,0.00532,0.07603,0.053557,0.0027949,0.99225,0.49324,0.56314,114.04,240.21,0.53985,3.7428,143.73,140.06,0.24159,0.11511,0.22207,0.028686,0.72639,0.086191
0.049817,0.0018112,0.014827,0.03989,0.0056055,0.077572,0.087982,0.0077778,0.098683,0.0061245,0.015307,0.051882,0.0012165,0.041451,0.084493,0.0053823,0.94517,0.14157,2.733,107.3,157.03,0.8036,3.8863,96.463,81.387,0.45292,6.3366,0.76004,1.0138,0.15726,0.93883
0.017704,0.0095444,0.093698,0.069819,0.0033646,0.063388,0.039019,0.0093334,0.044585,0.0060453,0.063281,0.043386,0.0088917,0.085649,0.049175,0.006411,0.20251,0.66386,4.4409,70.224,12.091,0.44013,2.2548,61.157,241.59,0.53809,0.86403,0.0073566,4.1744,0.20316,0.60006
0.012627,0.0014379,0.064211,0.082551,0.0084382,0.098036,0.078659,0.0090899,0.098643,0.0012845,0.034371,0.094479,0.0071053,0.016101,0.038397,0.0060172,0.48263,0.18275,1.276,190.9,26.906,0.36414,0.30141,154.78,28.355,0.59447,7.9504,0.14083,3.4268,0.02157,0.66613
0.082648,0.0095468,0.09556,0.016992,0.0050443,0.059904,0.089253,0.0041594,0.056693,0.0066348,0.022852,0.09212,0.0083738,0.022896,0.073452,0.0088565,0.29052,0.61835,1.9779,223.04,191.61,0.21977,1.6424,233.96,167.46,0.7047,6.9933,0.037994,3.596,0.88552,0.76738
0.070706,0.002738,0.05881,0.017104,0.0044955,0.078,0.055472,0.0086753,0.074883,0.0067979,0.068512,0.097014,0.0027633,0.045732,0.058451,0.0076799,0.90177,0.69211,1.273,52.078,77.986,0.89037,0.14402,141.13,220.46,0.028552,6.156,0.6723,2.5601,0.25905,0.67348
0.035088,0.0028147,0.097033,0.015199,0.0080939,0.034259,0.052369,0.0077256,0.033288,0.0059098,0.092748,0.061762,0.0051131,0.016109,0.021824,0.0039263,0.58309,0.56732,2.1086,185.18,224.12,0.054196,2.8153,143.87,184.43,0.11219,3.792,0.27223,2.8615,0.1914,0.57807
0.027362,0.0040437,0.024567,0.043391,0.0042258,0.086533,0.071639,0.0030403,0.096792,0.0086148,0.093181,0.048573,0.0050407,0.079243,0.078507,0.0013918,0.19345,0.16288,3.3519,84.194,206.27,0.32961,1.5396,127.95,234.52,0.64468,8.5813,0.6449,1.5743,0.83827,0.49323
0.045445,0.0012086,0.010037,0.066517,0.0015887,0.064886,0.036541,0.0085974,0.093469,0.0081887,0.039346,0.010495,0.0030598,0.046275,0.047042,0.0041897,0.32743,0.88799,4.6153,163.88,49.612,0.15534,2.2279,246.89,116.54,0.87072,4.3887,0.17117,2.1029,0.13417,0.27249
0.066915,0.0042797,0.087595,0.08499,0.003174,0.054831,0.068943,0.0030503,0.024474,0.0088928,0.093804,0.012273,0.0019977,0.054353,0.078365,0.0078384,0.90106,0.39696,0.89422,201.5,219.82,0.60591,2.563,61.959,69.655,0.239,7.0956,0.27328,4.7594,0.67948,0.65041
0.030353,0.0053962,0.03876,0.044522,0.0060365,0.049549,0.091576,0.0077842,0.016657,0.0074012,0.047835,0.063707,0.0062608,0.048976,0.024473,0.009701,0.33259,0.9568,4.4908,81.908,61.781,0.92484,4.4341,207.41,119.62,0.43677,4.3115,0.026357,4.6833,0.96733,0.38221
0.013585,0.0025891,0.027565,0.055963,0.0018883,0.026979,0.082259,0.004629,0.028365,0.0025064,0.063008,0.021869,0.0062092,0.071245,0.069743,0.0079406,0.86448,0.91878,3.4283,149.85,202.56,0.41268,0.55428,126.42,221.4,0.98772,3.7214,0.89986,2.6214,0.027237,0.21195
0.018021,0.0084784,0.099943,0.034712,0.0060691,0.088535,0.074633,0.0040805,0.058875,0.0092164,0.029737,0.094347,0.0076859,0.023469,0.018873,0.0035716,0.30873,0.96111,3.6058,63.866,232.24,0.97082,3.5229,171.42,186.24,0.18515,1.1255,0.072355,3.7152,0.54167,0.011862
0.039107,0.0012245,0.028937,0.045448,0.0022008,0.018369,0.072458,0.0023326,0.05219,0.0079301,0.098397,0.037943,0.0079547,0.065546,0.079449,0.0042632,0.7492,0.31656,1.9563,74.752,42.496,0.42277,0.86024,159.96,84.93,0.71876,3.6563,0.089251,2.1022,0.64435,0.96499
0.064628,0.007006,0.034532,0.081481,0.0077396,0.078496,0.063993,0.00328,0.035602,0.0040151,0.098216,0.084813,0.0057485,0.068218,0.012028,0.0076191,0.23821,0.28874,4.1211,181.86,94.213,0.95705,1.3888,157.21,15.81,0.039949,5.5613,0.50911,4.7196,0.74157,0.61609
0.048528,0.0075497,0.095358,0.019024,0.0065382,0.010425,0.067999,0.0082969,0.091636,0.00902,0.031835,0.013004,0.0042226,0.093427,0.035891,0.0030257,0.16545,0.55258,3.1156,147,162.24,0.45937,3.5878,112.07,159.4,0.16554,5.4031,0.16111,3.5416,0.58883,0.77826
0.090875,0.0015178,0.011394,0.023934,0.0076858,0.016948,0.04402,0.0034535,0.041092,0.0085792,0.078542,0.087379,0.0040586,0.01593,0.07353,0.0091564,0.61925,0.58105,4.1579,149.43,118.76,0.08805,0.81906,228.11,234.26,0.66163,8.2177,0.20755,2.6754,0.90368,0.45433
0.057225,0.0064644,0.089845,0.014774,0.0024875,0.021589,0.06539,0.0025095,0.058645,0.0028135,0.013624,0.09146,0.0091166,0.095336,0.083097,0.0011501,0.41046,0.14125,0.42416,121.84,26.889,0.72316,3.4737,88.649,192.7,0.61149,7.2458,0.5936,4.983,0.92623,0.43612
0.084743,0.0010795,0.068868,0.049747,0.0026654,0.094424,0.016636,0.0098263,0.016696,0.007897,0.061917,0.027022,0.0070666,0.014358,0.074907,0.0080263,0.94173,0.13718,0.12945,79.804,172.95,0.20567,1.0888,90.585,224.45,0.66257,2.9824,0.0023553,1.0908,0.62706,0.89333
0.056576,0.0068597,0.095917,0.098686,0.0094013,0.079245,0.028835,0.0071132,0.049935,0.0058331,0.073075,0.056329,0.0039318,0.025341,0.084243,0.0066522,0.1369,0.787,0.053548,190.11,70.444,0.73951,2.7179,196.82,176.69,0.45518,5.2768,0.68567,1.6642,0.90734,0.6676
0.045666,0.0049729,0.044449,0.018873,0.0034002,0.059204,0.038168,0.0015524,0.07219,0.0044998,0.057716,0.034262,0.0087347,0.057834,0.090004,0.0052843,0.90017,0.52136,4.0299,52.6,164.66,0.60294,4.9892,81.394,26.007,0.20523,6.0199,0.4442,2.9448,0.69792,0.052908
0.028575,0.0064943,0.064015,0.083565,0.0088375,0.081874,0.089108,0.0052787,0.015927,0.0019744,0.054078,0.023045,0.0073316,0.022722,0.040933,0.0010088,0.39881,0.7119,0.48517,83.958,208.3,0.138,1.3593,205.8,82.02,0.21521,0.66822,0.11241,3.8822,0.020664,0.67936
0.074932,0.0023766,0.032766,0.066556,0.006584,0.060806,0.028276,0.0016298,0.061249,0.0026671,0.03155,0.0369,0.0092749,0.033004,0.052552,0.0016616,0.98773,0.63692,1.6744,83.226,152.74,0.10006,4.8776,56.372,141.25,0.35488,5.2664,0.92911,4.3846,0.17278,0.9991
0.042878,0.0023127,0.064046,0.054092,0.0016383,0.091187,0.033045,0.0044799,0.050512,0.0014213,0.044213,0.087195,0.0064704,0.090187,0.070569,0.0051271,0.32597,0.57594,2.055,235.19,16.351,0.6753,3.5883,134.42,56.349,0.70722,4.3876,0.57482,1.6783,0.44521,0.15478
0.059901,0.0097828,0.028281,0.051663,0.0085865,0.085921,0.084861,0.0066225,0.011601,0.005105,0.029338,0.087189,0.0038571,0.074784,0.019917,0.0063298,0.13161,0.9608,4.9585,191.66,141.87,0.43583,3.813,80.839,137.08,0.10983,2.0152,0.27306,3.7293,0.039334,0.65
0.067546,0.0075683,0.071531,0.058478,0.0075821,0.085035,0.049684,0.0090947,0.079035,0.0094169,0.061604,0.022528,0.0055769,0.045881,0.022353,0.0047553,0.88221,0.46372,4.9085,82.044,238.68,0.26345,1.7068,151.53,43.396,0.57852,8.2105,0.0061415,0.54675,0.14582,0.42395
0.077836,0.0011855,0.023655,0.04278,0.006181,0.027891,0.095434,0.0080265,0.059919,0.0057882,0.097924,0.036426,0.0087639,0.013646,0.085507,0.0073215,0.64449,0.82598,1.094,114.23,85.114,0.40157,1.9993,85.053,174.53,0.83682,0.23593,0.34542,4.7437,0.69511,0.34301
0.050597,0.0038999,0.039728,0.071471,0.0011103,0.068209,0.063119,0.0062211,0.011706,0.0012362,0.022415,0.088275,0.0010704,0.097721,0.045455,0.0072514,0.5323,0.99823,1.8502,188.15,205.59,0.31638,4.2934,130.32,201.65,0.06709,3.6223,0.81272,1.1159,0.59415,0.99744
0.01187,0.0043284,0.079651,0.094091,0.0082172,0.016615,0.059036,0.0071749,0.040693,0.0066328,0.019783,0.05839,0.0062866,0.071607,0.084737,0.0065575,0.45429,0.6632,0.9595,140.4,19.213,0.34418,0.51509,237.24,37.628,0.077183,8.146,0.37214,1.265,0.49933,0.49881
0.02769,0.0028272,0.040828,0.05415,0.0096222,0.090633,0.070435,0.0099264,0.065579,0.0068706,0.063955,0.027684,0.0086391,0.050005,0.011938,0.0046813,0.96425,0.32528,0.89457,54.966,140.69,0.52504,2.0823,108.27,172.46,0.12386,1.3591,0.84098,3.6112,0.73754,0.7888
0.033362,0.005425,0.01569,0.06204,0.0079914,0.072736,0.040591,0.0023653,0.022959,0.0063666,0.051972,0.08593,0.0023566,0.083089,0.097711,0.0042484,0.12911,0.88563,3.0902,117.89,237.32,0.23757,3.9489,78.788,173.54,0.05151,2.9985,0.91074,3.9255,0.30141,0.36844
0.056469,0.002358,0.075637,0.036449,0.0040164,0.02811,0.098538,0.0039135,0.011291,0.0055604,0.091655,0.038946,0.0040189,0.091944,0.01955,0.0011166,0.44004,0.15085,4.7165,206.68,125.05,0.99577,2.6042,232.66,105.51,0.29325,3.9468,0.59158,0.30459,0.34461,0.77971
0.032379,0.0085999,0.063809,0.068495,0.007649,0.066721,0.046591,0.002065,0.062266,0.0016127,0.071964,0.089657,0.0028713,0.028321,0.074426,0.0096867,0.73058,0.27919,0.79611,132.78,86.183,0.070336,0.76235,234.9,74.793,0.23976,0.21947,0.61152,4.8363,0.68718,0.18908
0.067343,0.0057686,0.013853,0.090477,0.0099289,0.011705,0.096094,0.0018444,0.065865,0.0023003,0.011457,0.058847,0.0055573,0.062547,0.096081,0.0022634,0.28892,0.93571,4.2331,198.7,126.13,0.36024,0.8112,85.339,36.428,0.91823,1.8528,0.60678,2.6197,0.034251,0.29814
0.0724,0.0063743,0.081348,0.081134,0.002754,0.08277,0.081484,0.0062095,0.063972,0.0089029,0.026574,0.052549,0.0082716,0.096167,0.08524,0.0029788,0.58029,0.50656,3.7034,135.47,132.83,0.28985,1.5929,57.586,117.95,0.38089,8.8187,0.90844,4.4265,0.44474,0.61557
0.078457,0.0038222,0.081774,0.011024,0.0026769,0.011504,0.095358,0.0052424,0.040192,0.0054528,0.081821,0.017574,0.0012044,0.034723,0.045822,0.003824,0.42397,0.80435,1.922,186.92,232.05,0.44073,1.7182,126.84,75.452,0.62821,1.0073,0.8358,2.4448,0.39022,0.22977
0.033495,0.0040837,0.092834,0.067148,0.0050562,0.086151,0.054991,0.0090445,0.083401,0.0064291,0.090174,0.019428,0.0096855,0.041936,0.080346,0.00901,0.74185,0.33613,1.3028,231.08,60.748,0.35761,2.0465,202.21,157.65,0.49571,4.8944,0.83239,4.6061,0.71204,0.49912
0.027582,0.0051317,0.060602,0.015525,0.0012625,0.02442,0.019977,0.0024054,0.045191,0.0055463,0.035701,0.085844,0.0041188,0.094567,0.052437,0.0020194,0.10624,0.98989,3.9208,205.41,163.09,0.82803,1.926,151.82,13.646,0.71513,5.0276,0.46246,1.6051,0.44651,0.60363
0.085615,0.0015955,0.02229,0.047046,0.0039058,0.074131,0.06045,0.0016954,0.089321,0.0039181,0.081887,0.089836,0.0062822,0.060197,0.039369,0.0024408,0.67562,0.64042,1.6202,142.33,145.88,0.50688,2.586,149.72,3.6516,0.95295,5.0876,0.13408,0.84905,0.38398,0.020456
0.029149,0.003653,0.040256,0.09409,0.0039429,0.043469,0.067612,0.0039693,0.010378,0.0067659,0.088857,0.053759,0.0036453,0.066754,0.031454,0.0014724,0.21363,0.47798,1.8942,137.81,60.895,0.35067,4.6644,181.92,227.89,0.19915,8.142,0.68336,4.4,0.62275,0.26911
0.074837,0.0072035,0.061701,0.013194,0.0061439,0.061247,0.068868,0.0028748,0.083586,0.0013041,0.027029,0.05358,0.0021511,0.084099,0.025146,0.0082592,0.79709,0.94147,4.7586,50.925,45.966,0.89358,0.15687,81.317,77.102,0.59324,3.284,0.085054,2.2388,0.029785,0.69952
0.063794,0.0023154,0.029486,0.080135,0.0046696,0.095966,0.08187,0.0029055,0.041101,0.0015428,0.046033,0.015153,0.0010155,0.090539,0.022642,0.0083818,0.58362,0.42956,2.1987,221.51,12.196,0.49573,2.7092,191.54,111.61,0.74782,8.3388,0.060305,4.2576,0.35782,0.48255
0.023518,0.0098074,0.077675,0.072611,0.0070026,0.066216,0.083751,0.0013603,0.037659,0.0090499,0.0729,0.015473,0.0026349,0.04588,0.05792,0.0041316,0.63386,0.62722,2.476,136.14,132,0.96972,2.5318,163.24,97.935,0.32651,3.7547,0.69139,0.7574,0.44743,0.52721
0.06157,0.0099117,0.071459,0.01002,0.0048595,0.015649,0.025909,0.0098459,0.036594,0.0044816,0.068573,0.027375,0.003438,0.05117,0.010641,0.0099739,0.20738,0.2609,0.29312,192.38,164.42,0.71511,1.9642,216.89,59.69,0.7331,6.8101,0.52309,0.29501,0.78113,0.94761
0.046151,0.0023174,0.0569,0.053871,0.0094999,0.028522,0.061295,0.0029356,0.032419,0.002185,0.022071,0.042054,0.0021148,0.053064,0.016459,0.0035037,0.65065,0.63903,1.5456,122.01,82.494,0.88285,0.046336,208.78,227.94,0.63451,8.8917,0.9175,1.7174,0.32275,0.62478
0.040549,0.0047977,0.067494,0.032074,0.0053811,0.016478,0.019515,0.0045921,0.084025,0.0081408,0.07435,0.094036,0.0076437,0.046013,0.086683,0.0053579,0.54038,0.60234,0.6401,206.29,42.086,0.5911,4.9014,55.028,177.3,0.90157,3.8837,0.45515,1.7353,0.96723,0.89486
0.059442,0.0072221,0.095251,0.064032,0.0076929,0.011647,0.082828,0.0015546,0.032631,0.0082857,0.09112,0.062044,0.0082821,0.085962,0.064273,0.0080491,0.44079,0.62382,0.09856,171.01,41.365,0.42157,4.49,139.49,32.692,0.42116,5.3781,0.78656,0.29564,0.38132,0.88948
0.087031,0.0064205,0.012329,0.067317,0.0024488,0.058502,0.038658,0.0050217,0.046422,0.0031523,0.068208,0.015015,0.0058054,0.040673,0.04562,0.0024465,0.11029,0.41419,0.67412,158.39,11.467,0.63665,3.647,109.26,185.01,0.29359,1.1833,0.37914,1.2196,0.01284,0.51886
0.050837,0.0091509,0.042306,0.071981,0.0036978,0.091115,0.077625,0.0076609,0.068787,0.0052685,0.023258,0.032762,0.0091098,0.050079,0.075436,0.0088407,0.87371,0.27407,1.5011,173.41,57.284,0.42913,2.0755,58.478,210.67,0.94357,8.7897,0.40926,4.7357,0.44449,0.046157
0.041915,0.0024784,0.051365,0.042749,0.0075719,0.084234,0.093709,0.0023042,0.091092,0.0021474,0.038857,0.078176,0.0018395,0.055575,0.012889,0.0078844,0.90217,0.59284,1.1636,77.509,144.2,0.30695,0.22716,211.39,2.3608,0.33393,8.2749,0.92306,0.37943,0.61477,0.26426
0.047299,0.0041125,0.03327,0.068162,0.0077332,0.049316,0.098358,0.0056055,0.098166,0.0011119,0.053489,0.032126,0.0018381,0.041255,0.058456,0.0054464,0.77897,0.81853,3.233,186.36,101.41,0.76971,4.2619,185.71,222.96,0.99724,0.11932,0.24848,2.8699,0.090421,0.90394
0.038953,0.0052744,0.040943,0.062604,0.0096677,0.018683,0.015098,0.0082924,0.058616,0.0046802,0.080985,0.098796,0.0063784,0.098463,0.057943,0.0064032,0.81983,0.43191,1.8921,146.66,40.835,0.83277,4.0145,144.39,168.41,0.97261,5.6297,0.048463,2.3381,0.22622,0.35312
0.091723,0.0041386,0.090976,0.010662,0.0015566,0.046613,0.085921,0.0033434,0.01365,0.0029156,0.09634,0.041926,0.0079783,0.071008,0.01675,0.0015697,0.22021,0.53135,3.7267,196.89,92.243,0.82085,2.5941,94.395,220.12,0.75955,8.6351,0.97316,0.29232,0.86693,0.32159
0.095484,0.0061935,0.087202,0.019393,0.0084796,0.044578,0.071238,0.0025847,0.093186,0.0080856,0.052957,0.092687,0.0087,0.027046,0.098653,0.0029416,0.34715,0.90079,0.87083,125.12,150.55,0.28121,1.0766,109.92,139.72,0.16462,8.0797,0.87881,0.54466,0.39592,0.8556
0.073461,0.0060477,0.062157,0.085984,0.0064848,0.067955,0.055522,0.0037083,0.038937,0.0010737,0.055582,0.096386,0.0084061,0.032088,0.01285,0.0025095,0.94329,0.84537,4.0427,149.14,240.72,0.8088,4.7552,157.39,188.18,0.81424,7.0219,0.79126,0.39341,0.21546,0.52907
0.018344,0.0096527,0.012986,0.023565,0.0043714,0.060696,0.036584,0.0019042,0.0145,0.0086131,0.062308,0.095653,0.0036519,0.018738,0.07048,0.001434,0.99602,0.88327,0.084428,194.86,247.8,0.44943,0.69278,100.82,49.187,0.97845,3.8447,0.65402,1.8571,0.59835,0.076839
0.082821,0.0053583,0.034541,0.02023,0.0084525,0.027499,0.036898,0.0041266,0.031617,0.0083934,0.078136,0.064336,0.0071711,0.067951,0.046774,0.0058708,0.9565,0.95269,2.9738,247.53,17.487,0.42921,3.2192,100.6,239.09,0.40679,6.4294,0.12769,3.2089,0.63088,0.9973
0.034382,0.0052725,0.077857,0.056766,0.0035543,0.065555,0.09347,0.0058744,0.01661,0.0073386,0.080442,0.031852,0.0021279,0.097579,0.041996,0.0095422,0.54969,0.35243,1.5005,216.41,57.956,0.74005,2.031,200.42,5.3656,0.11935,0.67654,0.44223,3.231,0.8993,0.15786
0.071814,0.0060299,0.080093,0.047485,0.001835,0.039078,0.097588,0.0018001,0.064242,0.0078862,0.030141,0.02655,0.0068709,0.07075,0.033133,0.0036225,0.66716,0.14339,0.80142,249.27,68.902,0.97158,0.12458,101.81,21.496,0.55519,5.3822,0.0030794,3.5182,0.64478,0.3394
0.092203,0.0072945,0.071563,0.071928,0.0062881,0.088598,0.098171,0.0067549,0.053999,0.0079021,0.024175,0.024331,0.0034554,0.059211,0.036428,0.0053062,0.11625,0.24308,0.091098,244.45,202.49,0.71489,2.7375,52.35,140.75,0.64116,5.6872,0.63401,4.9826,0.49061,0.18357
0.018435,0.0091007,0.086187,0.074049,0.007755,0.078135,0.068472,0.0056278,0.089571,0.0083857,0.062762,0.077088,0.0096104,0.063244,0.034744,0.0032659,0.43495,0.21099,4.1217,171.91,243.95,0.49205,1.4495,141.69,7.0302,0.79315,3.4379,0.65073,0.36596,0.11421,0.95774
0.036727,0.0035402,0.06813,0.096702,0.0032442,0.077685,0.023899,0.0010941,0.028837,0.0064359,0.056714,0.046994,0.0047376,0.073232,0.032295,0.0038816,0.10823,0.72094,3.5897,99.961,0.030766,0.86604,4.7102,94.808,146.89,0.067806,4.4856,0.16993,2.3399,0.13068,0.9189
0.079311,0.0073267,0.077657,0.046629,0.004533,0.058656,0.02738,0.0074601,0.070671,0.001751,0.086293,0.030076,0.0062442,0.020447,0.037343,0.0065197,0.59205,0.11414,3.8491,241.76,118.1,0.21934,3.8007,221.4,218.07,0.3746,3.5902,0.92293,0.1959,0.082009,0.93532
0.056708,0.0066041,0.07176,0.057686,0.0061056,0.05852,0.094449,0.007244,0.096505,0.0056213,0.060216,0.072333,0.0073141,0.018727,0.076959,0.0076277,0.48023,0.82187,4.8846,240.95,118.75,0.71524,0.12277,178.57,224.98,0.88565,0.011257,0.15764,3.2808,0.9142,0.40542
0.065539,0.0035805,0.011783,0.073692,0.009758,0.017049,0.032572,0.0061879,0.085877,0.0057747,0.033083,0.050376,0.0035894,0.066237,0.030144,0.0099224,0.80113,0.32364,1.5438,182.36,32.332,0.35039,0.78859,77.588,149.99,0.69414,6.6916,0.58405,3.52,0.69416,0.25271
0.020726,0.0091769,0.031331,0.089904,0.009344,0.041075,0.029916,0.0082731,0.063387,0.0058664,0.057141,0.067976,0.0022077,0.08972,0.055946,0.0011785,0.79239,0.91899,1.3732,131.78,91.613,0.16297,2.9053,208,226.93,0.57336,3.3393,0.68169,0.56624,0.5405,0.88164
0.060449,0.0080643,0.039571,0.099813,0.00817,0.072428,0.083236,0.0013406,0.06406,0.0043794,0.032915,0.083567,0.0087551,0.022332,0.065364,0.0091621,0.23345,0.34078,4.4205,68.81,121.15,0.70337,2.9314,163.89,184.69,0.94005,6.2272,0.90407,2.9182,0.60178,0.22207
0.096083,0.0094286,0.041594,0.048414,0.0028269,0.034722,0.049727,0.003884,0.054306,0.008143,0.02265,0.090698,0.0037667,0.068932,0.033509,0.0076077,0.23534,0.95722,2.069,70.911,200.92,0.92474,3.8702,74.442,172.18,0.31311,1.3815,0.6714,4.5967,0.2087,0.44459
0.075468,0.0090257,0.01229,0.040328,0.005921,0.022905,0.078701,0.0047331,0.07001,0.0041257,0.012693,0.089752,0.0085639,0.08311,0.091952,0.0025196,0.58278,0.41678,2.388,242.25,170.63,0.78066,1.204,166.28,188.81,0.80117,0.98892,0.55906,4.683,0.89749,0.37069
0.093099,0.0040233,0.044959,0.026118,0.0030466,0.065449,0.023524,0.0087434,0.044628,0.0056516,0.072224,0.039165,0.0058843,0.059501,0.016891,0.0094822,0.60531,0.81396,3.6451,235.38,5.2387,0.90106,2.6256,106.79,197.37,0.39818,0.46419,0.025325,2.2718,0.56068,0.38463
0.014798,0.0065719,0.027157,0.044002,0.0071522,0.059295,0.018271,0.0067878,0.03313,0.0037676,0.061529,0.028263,0.0024346,0.047232,0.054518,0.0031434,0.38093,0.18482,0.75465,219.99,33.329,0.36206,2.7698,235.93,203.07,0.94562,4.7742,0.75987,4.93,0.51007,0.19188
0.07528,0.0051898,0.048022,0.074305,0.008761,0.018854,0.025881,0.0045552,0.056503,0.0099921,0.057663,0.014884,0.0045631,0.035027,0.012614,0.0094239,0.28411,0.70088,2.0875,52.937,159.33,0.046457,1.6894,124.23,163.74,0.26532,1.315,0.39332,4.205,0.11145,0.2592
0.0174,0.0020921,0.037868,0.065918,0.0055355,0.072037,0.028853,0.0044184,0.053188,0.0059028,0.027502,0.086984,0.0016479,0.070633,0.05805,0.0040638,0.65732,0.34262,1.1726,147,103.77,0.85815,4.4276,56.22,138.46,0.57293,3.2655,0.44889,1.9469,0.93488,0.95426
0.075136,0.0094256,0.067167,0.036982,0.0053185,0.038004,0.057757,0.0070541,0.09673,0.0055297,0.050785,0.083911,0.0022766,0.064666,0.043158,0.0032214,0.51765,0.82534,0.85669,162.66,18.616,0.34666,0.9404,231.95,128.05,0.87512,7.6316,0.22832,4.397,0.087237,0.3676
0.014141,0.005758,0.025418,0.071561,0.0019488,0.092337,0.033073,0.0016759,0.017845,0.0016086,0.028849,0.020188,0.0066251,0.066556,0.026012,0.0065671,0.65379,0.89717,4.669,192.25,216.48,0.74105,2.9514,83.266,132.28,0.68434,1.2194,0.80044,3.0147,0.18151,0.0025049
0.062692,0.0092091,0.019459,0.033376,0.0085097,0.080156,0.097968,0.006583,0.028463,0.0049331,0.052957,0.096749,0.0014408,0.023384,0.031868,0.0093247,0.10555,0.1205,2.8774,112.33,88.304,0.46294,0.67653,134.06,0.26185,0.25691,1.8546,0.91487,0.22173,0.60805,0.97922
0.037107,0.0031454,0.037295,0.013937,0.0070923,0.058403,0.013706,0.0064181,0.026768,0.0025574,0.075208,0.082178,0.0019427,0.01495,0.061233,0.0067319,0.53574,0.7002,1.5443,178.57,216.39,0.15694,3.6453,120.27,79.371,0.59277,1.9205,0.71263,2.0322,0.090549,0.11611
0.047315,0.0039072,0.03845,0.029864,0.0016781,0.046202,0.080733,0.0071326,0.084337,0.0014016,0.013498,0.017101,0.0028162,0.021403,0.015962,0.0098126,0.40954,0.74624,0.61694,134.4,82.932,0.77918,1.2894,151.88,94.691,0.38096,2.2192,0.99183,4.0918,0.19279,0.30029
0.096274,0.0067788,0.013218,0.065228,0.0028857,0.082486,0.074483,0.0097849,0.037423,0.0026775,0.066559,0.073156,0.0059978,0.046125,0.028161,0.0082193,0.21057,0.48811,3.4899,176.43,173.86,0.32255,2.9931,55.721,220.61,0.99145,5.113,0.16434,1.6486,0.055122,0.045168
0.027862,0.0045103,0.033469,0.033286,0.0075685,0.025192,0.076536,0.0059012,0.060115,0.0045649,0.080984,0.082011,0.0059355,0.057099,0.085514,0.0053429,0.53195,0.26467,4.7981,98.35,161.32,0.11815,0.2385,94.245,240.84,0.71565,7.6122,0.73847,2.3259,0.85374,0.57499
0.054459,0.0014749,0.03998,0.040417,0.002543,0.076826,0.04746,0.0039375,0.090146,0.0023983,0.097097,0.038177,0.0047245,0.027879,0.075159,0.0062794,0.49287,0.78803,0.259,202.68,140.47,0.98497,0.5352,187.48,63.939,0.067975,5.0085,0.17556,4.794,0.80957,0.35932
0.01805,0.0081002,0.097044,0.051593,0.0036981,0.035702,0.056535,0.0067896,0.088919,0.0070528,0.011172,0.066342,0.0044449,0.051931,0.078574,0.0082875,0.7102,0.24375,3.5543,146.02,231.73,0.32785,0.95629,187.16,226.53,0.45349,2.219,0.26572,0.72225,0.77532,0.62543
0.085673,0.0070101,0.048662,0.038785,0.0089107,0.031966,0.048898,0.0073079,0.046991,0.0026255,0.091537,0.020466,0.0037413,0.078257,0.039078,0.0044634,0.69566,0.45627,4.3403,118.5,147.27,0.98605,2.7366,151.7,93.078,0.75215,1.8294,0.26279,0.039324,0.46679,0.70109
0.068001,0.0065545,0.075583,0.043073,0.0080699,0.033623,0.02613,0.0044552,0.015903,0.0088394,0.093189,0.017416,0.0097354,0.047026,0.074721,0.0069305,0.21958,0.89224,3.7099,76.498,102.92,0.19482,2.6957,54.618,99.898,0.10463,5.2915,0.033175,3.153,0.69283,0.88691
0.010682,0.0017329,0.027237,0.047359,0.0054227,0.042961,0.060281,0.0091023,0.086261,0.0079111,0.032434,0.028886,0.0084941,0.085046,0.029131,0.0064902,0.303,0.90667,4.837,176.46,130.41,0.30687,2.4634,192,224.44,0.29532,4.8346,0.3853,4.2745,0.25472,0.16675
0.096229,0.0034015,0.031242,0.096616,0.0016515,0.090918,0.036292,0.0017807,0.031246,0.0052086,0.096975,0.023848,0.0079006,0.051036,0.036561,0.005923,0.22058,0.54244,4.7068,141.58,219.55,0.97183,0.74407,69.522,234.41,0.45818,1.2571,0.015998,3.0255,0.69962,0.016517
0.030159,0.0064134,0.062786,0.063427,0.005271,0.086408,0.033203,0.0013408,0.015092,0.0047839,0.056686,0.089055,0.0025602,0.092144,0.038451,0.0028229,0.58301,0.41473,0.86121,56.846,115.3,0.89399,1.6195,94.312,228.63,0.87742,0.41539,0.34808,1.14,0.87666,0.98845
0.03068,0.0095869,0.067511,0.050343,0.0065071,0.056057,0.064068,0.0033365,0.085689,0.009218,0.031675,0.045506,0.0011518,0.018761,0.027452,0.0057752,0.14708,0.40668,3.5546,152.42,108.84,0.66618,0.19563,156.78,45.615,0.84309,4.3519,0.50528,4.8318,0.6338,0.94095
0.080027,0.0031144,0.048514,0.03461,0.0054388,0.0196,0.072162,0.0039171,0.018694,0.0037351,0.030063,0.071326,0.0025611,0.092733,0.034288,0.0062193,0.33015,0.8024,2.9421,50.525,148.46,0.65726,0.34943,173.88,36.464,0.58019,6.138,0.53291,3.1513,0.41268,0.36414
0.099307,0.0026001,0.067733,0.07808,0.0084362,0.063779,0.052958,0.0076265,0.02648,0.0052286,0.050784,0.069004,0.0049366,0.065856,0.015585,0.0030992,0.50117,0.92085,1.8499,53.323,18.74,0.36082,0.17377,136.67,214.8,0.78296,0.65347,0.40288,0.97633,0.46151,0.75169
0.059216,0.0045888,0.089999,0.046026,0.0014437,0.060495,0.020374,0.0090638,0.015762,0.0085955,0.097327,0.035245,0.0021914,0.039517,0.047855,0.0099878,0.28198,0.91566,2.5234,168.71,8.9488,0.69913,2.8175,158.43,108.84,0.6268,8.5711,0.14428,3.4003,0.018759,0.021601
0.019231,0.0048287,0.068942,0.042655,0.0037246,0.010771,0.067605,0.0076803,0.060649,0.00264,0.021661,0.084491,0.0081587,0.030608,0.086297,0.003834,0.89798,0.44005,4.1615,192.2,73.525,0.52597,2.6627,231.99,243.54,0.34924,2.5158,0.85287,0.75935,0.059239,0.87101
0.015054,0.0064131,0.044237,0.047336,0.0010735,0.056612,0.05244,0.0057304,0.088954,0.0044132,0.024504,0.088657,0.007524,0.053464,0.041605,0.0028239,0.61554,0.77813,1.1011,96.619,189.22,0.25955,2.9337,64.801,210.23,0.065395,6.278,0.86566,0.46516,0.10402,0.73594
0.030381,0.0018239,0.037363,0.058777,0.0084478,0.033886,0.099998,0.0096493,0.037468,0.0016183,0.010784,0.036016,0.0017987,0.018505,0.093283,0.0033578,0.64706,0.50085,4.7845,203.86,191.99,0.35827,1.2327,85.739,98.558,0.77138,1.2542,0.051397,1.9664,0.68202,0.68732
0.037859,0.009571,0.036701,0.076095,0.0092786,0.052124,0.040996,0.0032298,0.068707,0.008861,0.069675,0.046216,0.0016531,0.092893,0.070166,0.0083465,0.57246,0.72502,3.2012,98.498,22.41,0.18828,3.7644,205.31,63.306,0.38434,8.4186,0.95664,0.33934,0.76822,0.59463
0.083099,0.0026881,0.089779,0.098117,0.0095228,0.029738,0.0307,0.006085,0.030114,0.0018487,0.023204,0.083229,0.0011809,0.046061,0.060861,0.0088951,0.67869,0.77184,2.8805,183.61,76.354,0.69037,3.8701,177.15,111.96,0.11061,6.5235,0.36684,3.8426,0.19458,0.66395
0.087031,0.0097552,0.023533,0.076656,0.0038341,0.090742,0.016403,0.0063835,0.013153,0.0056894,0.028048,0.014494,0.0051571,0.049951,0.025376,0.0067559,0.36205,0.23599,2.2201,78.898,51.195,0.19625,2.7273,78.421,101.57,0.62053,6.7301,0.99926,1.1211,0.051859,0.54529
0.022987,0.0042465,0.091445,0.097914,0.0080699,0.02793,0.012699,0.0071381,0.067991,0.0056978,0.034582,0.018696,0.0021337,0.016036,0.054097,0.0092003,0.39255,0.70021,2.9981,155.46,2.9628,0.87052,4.1937,175.21,223.76,0.25506,3.6959,0.54392,4.551,0.56473,0.57437
0.029173,0.0097952,0.056412,0.022761,0.0067826,0.069435,0.024705,0.0064134,0.058552,0.0058372,0.029508,0.038411,0.0077521,0.058217,0.095074,0.0060834,0.81943,0.22811,1.5396,92.014,161.86,0.36147,1.0533,68.715,63.527,0.98236,2.449,0.80523,1.1007,0.58936,0.90518
0.012401,0.0022676,0.040323,0.029407,0.0068471,0.029629,0.029994,0.0037261,0.099647,0.005492,0.062946,0.0913,0.0067982,0.059864,0.071254,0.0061431,0.80373,0.7058,4.3517,151.49,176.53,0.72918,2.1338,205.05,62.559,0.91171,2.5202,0.78536,2.6688,0.92991,0.043113
0.040322,0.0032757,0.014451,0.07919,0.0022201,0.069399,0.043672,0.0039099,0.047731,0.0059693,0.022774,0.061848,0.0082823,0.033462,0.088118,0.0076301,0.66699,0.69834,1.6724,150.7,195.02,0.8457,0.60373,208.27,174.86,0.46762,7.4967,0.66631,1.7178,0.092873,0.30845
0.070869,0.0026512,0.08557,0.094476,0.0091181,0.034778,0.090132,0.0024188,0.095589,0.0027347,0.03769,0.025367,0.0054561,0.091858,0.097642,0.0020282,0.50413,0.11964,1.5588,155.72,211.86,0.86411,3.4585,105.72,120.22,0.1058,1.8592,0.098962,2.4881,0.2358,0.72992
0.095978,0.0047037,0.092743,0.084786,0.0083816,0.048699,0.024198,0.0063739,0.09934,0.0047099,0.054612,0.017225,0.0098392,0.011087,0.048916,0.0041485,0.11063,0.3738,3.7948,212.9,168.79,0.956,4.4493,164.88,26.282,0.81109,3.471,0.12803,1.3874,0.90967,0.43082
0.014502,0.0053963,0.09467,0.031201,0.0031427,0.098736,0.061554,0.0061965,0.027923,0.00286,0.010774,0.05922,0.0045344,0.075278,0.080743,0.005379,0.21009,0.2113,1.2957,205.65,171.44,0.87689,0.77021,235.32,120.52,0.5193,8.462,0.43734,0.75508,0.98723,0.74305
0.074049,0.0081427,0.037213,0.059544,0.0023176,0.018842,0.065425,0.0083503,0.088323,0.0026152,0.058878,0.085015,0.0054894,0.087087,0.06381,0.0020229,0.78115,0.62921,0.6526,170.8,203.66,0.40953,2.2199,118.24,213.41,0.80876,8.8659,0.78307,1.4484,0.65587,0.1342
0.030848,0.0061764,0.042666,0.065867,0.0081802,0.079315,0.045953,0.0029532,0.072835,0.0069858,0.045211,0.022824,0.0043292,0.057075,0.068901,0.0076162,0.49734,0.65217,2.89,236.33,0.85706,0.23742,4.9536,163.75,114.84,0.035872,3.3334,0.26755,0.34635,0.42735,0.99674
0.024401,0.0052814,0.037709,0.096545,0.0091452,0.097308,0.022945,0.0025522,0.030298,0.0064378,0.059641,0.091262,0.003286,0.063338,0.015517,0.0058995,0.74029,0.81174,0.66644,180.94,220.09,0.47723,2.7959,198.95,241.53,0.6588,0.070293,0.33005,2.8128,0.84657,0.55006
0.07694,0.0058425,0.045619,0.096034,0.0070657,0.020528,0.087815,0.0069726,0.064008,0.0013097,0.068592,0.045251,0.0037924,0.054628,0.042062,0.0021643,0.9624,0.74048,2.6556,67.889,111.87,0.45594,2.614,212.85,62.887,0.35602,1.1773,0.92008,2.7196,0.37382,0.73271
0.097391,0.0013616,0.02388,0.028234,0.0041364,0.072325,0.075808,0.0038046,0.01173,0.0098534,0.016396,0.019922,0.008272,0.015483,0.051513,0.0015303,0.32997,0.94737,2.7099,64.625,205.13,0.48431,3.8949,231.07,241.32,0.89775,5.548,0.48154,0.089742,0.26272,0.50686
0.043322,0.0051539,0.02471,0.036329,0.0088358,0.066595,0.074176,0.007475,0.074192,0.0031843,0.082997,0.037279,0.003929,0.067559,0.040485,0.0019434,0.19977,0.53381,1.3311,208.68,207.09,0.18516,4.4308,226.78,128.2,0.85276,2.6422,0.20897,4.31,0.12153,0.5748
0.068969,0.0074571,0.086766,0.06162,0.0061311,0.03981,0.032728,0.0022396,0.057109,0.0033816,0.016469,0.093715,0.005425,0.038851,0.01356,0.0016195,0.45094,0.59003,2.931,134.82,218.02,0.38653,0.54256,208.8,224.23,0.15501,7.3015,0.87955,2.0589,0.9951,0.063246
0.071341,0.0063764,0.079277,0.055413,0.0029395,0.067339,0.095469,0.0054873,0.075806,0.008096,0.019512,0.019108,0.0096962,0.099381,0.04607,0.0042421,0.32444,0.52261,1.1739,97.167,68.769,0.37349,3.1795,242.92,193.92,0.25925,1.7524,0.62543,1.1423,0.32231,0.91952
0.021401,0.0097394,0.054225,0.013659,0.0032267,0.066603,0.0717,0.0042472,0.05783,0.0013242,0.098368,0.076906,0.0010686,0.031369,0.086004,0.0049909,0.31008,0.7189,1.4052,200.68,22.277,0.432,1.6693,242.54,206.62,0.78777,6.2378,0.41222,2.1922,0.61256,0.66097
0.097078,0.006963,0.099924,0.029902,0.0013506,0.031188,0.028921,0.0024351,0.087959,0.0017913,0.062913,0.048418,0.0033142,0.068301,0.051082,0.0039773,0.56915,0.25061,2.83,162.82,1.1057,0.24323,1.0861,107.97,106.12,0.45964,6.4074,0.95042,0.73128,0.31533,0.21263
0.031822,0.0023647,0.046683,0.036139,0.0042976,0.070538,0.027355,0.0040998,0.037597,0.0081048,0.039311,0.036116,0.0091548,0.026403,0.08211,0.0023445,0.44323,0.3612,2.2518,182.21,233.58,0.63251,0.012737,226.54,165.98,0.78317,6.1198,0.92411,2.9188,0.60035,0.67093
0.057948,0.0021673,0.076146,0.013508,0.0069209,0.034956,0.06863,0.0014149,0.010507,0.0015655,0.099459,0.034186,0.0048955,0.038239,0.043983,0.0088688,0.35289,0.60941,4.2227,78.714,182.88,0.087692,0.033031,77.992,202.85,0.8001,5.8129,0.95949,4.9591,0.52494,0.78953
0.08483,0.009192,0.090688,0.067576,0.0075949,0.093526,0.02159,0.0038613,0.026986,0.0034113,0.047922,0.099255,0.0057607,0.059023,0.060258,0.0061702,0.57976,0.46055,0.18461,174.29,205.3,0.87277,2.5863,207.18,202.44,0.28536,7.9504,0.31661,0.44573,0.44601,0.085009
0.071407,0.0092784,0.054654,0.041963,0.0017279,0.073859,0.019691,0.0031135,0.092003,0.0033775,0.033633,0.038342,0.0031634,0.038787,0.046263,0.0099537,0.67388,0.20011,0.97791,158.74,35.32,0.28787,1.7527,62.529,3.1164,0.86525,0.44059,0.51022,2.9649,0.12,0.52169
0.056543,0.0022482,0.061821,0.060352,0.0025037,0.052767,0.091415,0.0044527,0.090575,0.0028471,0.087188,0.032667,0.005819,0.019275,0.076686,0.0034008,0.28142,0.86415,0.10666,236.75,175.37,0.50241,1.2943,50.041,25.216,0.99941,0.25768,0.058147,4.8743,0.85379,0.61518
0.046879,0.0014439,0.076272,0.029034,0.0087339,0.047004,0.03384,0.0034917,0.08563,0.0039152,0.063813,0.050032,0.0048766,0.078468,0.081255,0.0030662,0.5163,0.5298,2.8132,50.042,174.54,0.12208,4.1371,111.21,215.82,0.80565,0.16865,0.62092,4.4941,0.42117,0.73514
0.023059,0.0033158,0.085437,0.096541,0.0090957,0.078824,0.016926,0.0052892,0.033205,0.0012127,0.010196,0.090101,0.0069855,0.087261,0.06873,0.0055501,0.19492,0.44511,0.26918,66.711,93.082,0.66728,1.3671,97.07,12.836,0.1574,3.789,0.25947,1.367,0.048592,0.57538
0.03209,0.0094708,0.068217,0.060851,0.0090333,0.03725,0.037334,0.0095046,0.028783,0.0029173,0.087083,0.016914,0.0067859,0.033425,0.098728,0.0050133,0.41846,0.29592,1.681,180.03,142.26,0.57634,3.842,142.86,2.2986,0.5605,7.0616,0.31275,3.2316,0.57182,0.12194
0.072898,0.00458,0.050373,0.067562,0.0034381,0.095036,0.070034,0.0040289,0.041336,0.0096901,0.010808,0.038411,0.0061339,0.074168,0.098453,0.0062686,0.7013,0.61781,2.2924,141.69,92.88,0.1516,0.45817,104.01,45.415,0.29637,8.5553,0.091131,0.6565,0.10229,0.33862
0.04765,0.0044556,0.03636,0.010644,0.0065179,0.054216,0.066777,0.004637,0.048826,0.0020253,0.082548,0.092731,0.007394,0.05118,0.050291,0.008546,0.52326,0.52345,4.376,120.13,154.88,0.088291,3.5255,62.796,17.868,0.87898,4.0147,0.14234,3.6296,0.15601,0.5433
0.023709,0.0078678,0.018079,0.054718,0.0083424,0.07117,0.017213,0.0044508,0.063774,0.0031529,0.01115,0.034895,0.0025803,0.056418,0.098231,0.0045781,0.26855,0.55512,3.4479,149.02,173.81,0.50908,4.2792,216.14,177.16,0.76509,0.88572,0.15032,2.1856,0.52551,0.37633
0.083205,0.0024338,0.074753,0.038666,0.0077585,0.039086,0.043062,0.0040494,0.043964,0.0030043,0.059212,0.066137,0.0014353,0.03941,0.086131,0.0082033,0.12669,0.55676,1.1589,98.501,92.544,0.53352,2.0754,228.71,46.686,0.75586,8.4981,0.31312,2.6998,0.78348,0.69183
0.018646,0.0086354,0.089849,0.070422,0.0029516,0.044654,0.092903,0.0062445,0.096874,0.0068666,0.045742,0.054259,0.0099409,0.045756,0.013207,0.0035752,0.57191,0.39113,2.4434,110.98,94.802,0.75612,4.9256,67.425,200.72,0.9498,7.9758,0.86016,0.62177,0.74745,0.95293
0.088595,0.0040147,0.067779,0.021152,0.0053311,0.057233,0.083433,0.0054842,0.039224,0.0094843,0.035968,0.055579,0.0088525,0.056501,0.048139,0.0022676,0.44558,0.20096,3.2844,66.23,87.312,0.74389,2.8346,204.88,128.08,0.57455,4.149,0.64978,1.5539,0.90363,0.99263
0.056392,0.0067004,0.05729,0.011212,0.0094004,0.023763,0.033304,0.0058107,0.062016,0.0089053,0.056797,0.039636,0.0077475,0.058239,0.096223,0.0076242,0.59727,0.38296,1.0331,230.34,192.28,0.1855,1.9771,210.87,186.67,0.11178,4.3783,0.76092,2.5974,0.222,0.75897
0.024734,0.0012811,0.026932,0.057879,0.0064695,0.056587,0.04551,0.0026957,0.023501,0.0021324,0.050613,0.011392,0.0083424,0.097573,0.082814,0.0015474,0.94891,0.15929,4.8933,163.53,27.45,0.30749,3.4189,239.11,137.42,0.60009,5.9762,0.12596,2.6269,0.39734,0.5546
0.077126,0.0066698,0.032984,0.04873,0.0041965,0.049417,0.071071,0.0093195,0.067476,0.0016252,0.091751,0.065455,0.0085874,0.099234,0.036956,0.007298,0.60289,0.22474,4.6067,76.104,166.79,0.29655,0.99583,83.919,2.1893,0.93579,8.2081,0.76627,2.8025,0.1414,0.09298
0.048721,0.0080043,0.059472,0.071374,0.0097328,0.077206,0.010451,0.0078536,0.064974,0.0013597,0.014236,0.098471,0.0089687,0.082365,0.030338,0.0064008,0.19209,0.32861,0.5804,149.68,226.77,0.787,0.9106,231.92,74.865,0.96391,4.5673,0.52778,1.5073,0.22918,0.94808
0.024192,0.004961,0.039431,0.098264,0.0037138,0.096388,0.049778,0.0089491,0.040597,0.0041608,0.041973,0.064252,0.0071598,0.031167,0.026074,0.0013024,0.30098,0.2314,4.694,147.14,199.23,0.24872,4.0587,228.38,31.076,0.6588,6.7297,0.85224,2.4145,0.3677,0.66367
0.017651,0.0019779,0.024563,0.04035,0.0030386,0.049764,0.018541,0.0051786,0.012327,0.0077424,0.028794,0.056003,0.0046366,0.095017,0.044844,0.0093875,0.78584,0.89608,2.0667,135.53,51.848,0.55215,3.4734,191.47,155.64,0.85424,1.7377,0.65361,4.0422,0.23764,0.84045
0.087755,0.0017509,0.092061,0.044481,0.0052094,0.097246,0.056969,0.00626,0.075781,0.0095955,0.026907,0.054457,0.0096451,0.013295,0.032092,0.0097746,0.14958,0.20273,1.1848,129.48,140.94,0.22583,0.40903,140.26,151.06,0.53324,6.6308,0.42818,2.5475,0.57814,0.97313
0.079942,0.0066234,0.085285,0.077198,0.0072933,0.055013,0.045384,0.0052271,0.04295,0.0046162,0.028505,0.028897,0.0081738,0.048208,0.054812,0.005596,0.6833,0.93899,0.13194,139.58,149.89,0.66822,3.3149,50.131,170.8,0.15013,4.828,0.78523,4.1233,0.531,0.17342
0.034031,0.003827,0.070571,0.074694,0.0018088,0.029143,0.098884,0.0076489,0.048966,0.0073036,0.020353,0.067469,0.007129,0.045524,0.046658,0.0022913,0.25165,0.85665,3.0505,200.72,135.26,0.77542,2.554,59.535,15.551,0.7625,1.2098,0.22972,0.43768,0.33326,0.91991
0.035619,0.0086451,0.051419,0.09857,0.0012823,0.055814,0.069186,0.0035386,0.021122,0.0056295,0.041343,0.076395,0.0093419,0.063414,0.081538,0.0024675,0.56408,0.51597,4.5849,139.48,84.38,0.95504,0.8418,92.676,231.31,0.70312,4.7749,0.75085,1.1318,0.23053,0.83527
0.064629,0.0017253,0.014821,0.049267,0.0056712,0.014313,0.061962,0.0022074,0.092375,0.0055921,0.066049,0.032638,0.0048541,0.09473,0.060722,0.0020299,0.35377,0.27283,3.2297,50.339,37.313,0.79381,0.25979,145.19,160.67,0.28817,5.4918,0.43164,3.865,0.44039,0.28574
0.014259,0.0078365,0.014213,0.059903,0.0089384,0.076906,0.078669,0.008921,0.038987,0.0018367,0.028817,0.068927,0.0054406,0.059517,0.06726,0.0050737,0.68468,0.32701,3.1338,100.07,66.304,0.35874,1.9887,59.598,198.17,0.45517,4.0892,0.76509,0.28789,0.072349,0.50685
0.0852,0.0072422,0.033341,0.091212,0.0019493,0.01052,0.081893,0.0031363,0.011637,0.0064159,0.049669,0.06357,0.0050706,0.033421,0.021675,0.0058176,0.44842,0.83842,1.1013,147.61,167.29,0.65035,0.36175,189.35,138.55,0.84617,2.8148,0.15788,3.4147,0.44985,0.67643
0.097192,0.0073348,0.023751,0.02048,0.0078431,0.060769,0.091806,0.0084417,0.093296,0.0010958,0.037997,0.058515,0.0011009,0.068846,0.048055,0.0083806,0.46995,0.47828,2.7616,174.82,135.98,0.071084,2.9238,210.67,94.904,0.35878,4.4793,0.33525,4.3815,0.62101,0.24695
0.077509,0.0024589,0.068129,0.016938,0.0086135,0.03235,0.037812,0.0048845,0.06855,0.0090495,0.090882,0.017798,0.0094778,0.05885,0.047112,0.0085912,0.15989,0.36467,2.3495,105.72,79.072,0.10657,0.41497,143.83,212.25,0.96227,5.048,0.7228,1.8401,0.18453,0.70572
0.093181,0.0039492,0.027193,0.085837,0.0018078,0.049593,0.025024,0.0047115,0.049013,0.0015071,0.08797,0.099012,0.0080444,0.078488,0.031101,0.0037231,0.44161,0.89438,2.9257,115.82,211.94,0.68994,3.4591,129.59,242.17,0.18081,8.039,0.38311,0.15096,0.95981,0.12841
0.01963,0.0077689,0.080127,0.039066,0.0038877,0.083154,0.086981,0.0089883,0.077233,0.002692,0.01683,0.017036,0.0096539,0.071282,0.040152,0.0088086,0.57526,0.8821,2.6355,72.605,97.502,0.91809,0.54417,169.24,19.492,0.39536,1.5871,0.078461,1.7014,0.42918,0.075309
0.091826,0.002041,0.030286,0.05195,0.0025053,0.085513,0.035015,0.0037899,0.01554,0.0031179,0.047115,0.017969,0.0056521,0.056254,0.0646,0.0055563,0.50804,0.83602,3.7262,203.81,54.53,0.40814,0.39448,171.95,167.41,0.80974,3.4061,0.046681,2.7078,0.88927,0.53843
0.083762,0.0088075,0.051273,0.074142,0.008627,0.097353,0.027584,0.0077776,0.029515,0.0015812,0.091727,0.011397,0.0087112,0.048563,0.055012,0.0061583,0.63129,0.13858,3.0923,144.13,21.907,0.18819,4.73,78.256,108.03,0.31476,7.1711,0.23105,2.1687,0.72199,0.6781
0.067925,0.0059731,0.033439,0.050751,0.0053621,0.059235,0.047405,0.0084336,0.07795,0.0023776,0.018181,0.095882,0.0067898,0.08604,0.083693,0.0022048,0.97042,0.71529,2.8736,170.87,30.327,0.076813,2.4266,203.59,155.26,0.088353,4.5607,0.77242,3.7454,0.99633,0.69572
0.099895,0.0088435,0.078942,0.038155,0.0073007,0.034277,0.019027,0.0055896,0.030461,0.0044522,0.093573,0.059329,0.0024349,0.076771,0.031408,0.0093474,0.18447,0.85146,1.6272,160.33,68.08,0.079268,0.14225,208.39,146.57,0.83913,1.8648,0.78884,1.4107,0.89009,0.090347
0.029331,0.009776,0.085142,0.011955,0.0055536,0.011156,0.010921,0.003867,0.086397,0.0026225,0.089134,0.064536,0.0060711,0.057273,0.042536,0.0010636,0.15238,0.33569,2.8986,187.97,207.63,0.90515,3.1257,57.616,36.015,0.65647,7.0978,0.6485,4.7889,0.26977,0.33746
0.099166,0.0065677,0.037187,0.010503,0.0036441,0.05507,0.013811,0.0083111,0.026114,0.0013288,0.036984,0.011148,0.0095096,0.021352,0.051505,0.0028019,0.88075,0.16392,0.23747,153.87,165.38,0.43204,1.2313,200.47,182.81,0.9491,7.7685,0.74814,4.5688,0.30147,0.8164
0.012028,0.0034784,0.046505,0.016026,0.0066549,0.032203,0.061653,0.0088221,0.036151,0.0024878,0.010524,0.059422,0.0098673,0.019784,0.076769,0.0025643,0.72612,0.64062,0.74727,78.945,235.33,0.42136,1.9216,127.02,94.726,0.2248,0.40459,0.70397,4.7497,0.77351,0.60919
0.04557,0.0011102,0.093895,0.014123,0.0067191,0.04915,0.033448,0.0035724,0.099303,0.0017115,0.099676,0.055529,0.0046762,0.048643,0.069762,0.0097631,0.8616,0.1305,2.7342,125.24,237.42,0.54583,1.4921,133.61,81.292,0.60007,3.627,0.34393,3.1591,0.68783,0.20212
0.060672,0.0095984,0.028123,0.05511,0.0079162,0.011082,0.056524,0.0018532,0.046005,0.0083631,0.0624,0.082276,0.0095496,0.051201,0.019483,0.0065329,0.6398,0.58331,4.3261,90.899,108.27,0.81548,0.71712,123.07,4.5103,0.088282,0.95516,0.80993,1.0079,0.13725,0.93098
0.06075,0.0072552,0.079171,0.031963,0.0067575,0.064766,0.064866,0.0050001,0.094496,0.0026387,0.034778,0.055822,0.0063656,0.085665,0.01892,0.0053676,0.80936,0.30077,0.84101,56.22,128.76,0.49731,0.6551,113.67,149.78,0.833,8.7741,0.24107,4.2937,0.28933,0.16112
0.05225,0.0023625,0.066635,0.042623,0.0072571,0.034641,0.025974,0.0075046,0.098948,0.0086301,0.061237,0.078211,0.0040864,0.09121,0.069473,0.0059206,0.42441,0.70758,2.1816,95.097,14.319,0.40404,0.33644,139.93,83.641,0.7409,2.8746,0.54554,3.6204,0.0075774,0.33174
0.049921,0.0067104,0.032315,0.087435,0.0024681,0.091781,0.016171,0.0044927,0.036108,0.0031184,0.058122,0.098108,0.0097583,0.067636,0.071293,0.0072819,0.9079,0.11709,1.0279,99.093,217.54,0.35078,4.0126,51.701,61.405,0.36729,6.029,0.40316,0.17566,0.2261,0.00035252
0.028141,0.0028392,0.044899,0.093204,0.009674,0.087215,0.095499,0.0081196,0.091049,0.0032836,0.033879,0.092199,0.0050672,0.08005,0.070061,0.0021524,0.21475,0.86155,3.5036,85.834,80.463,0.90046,2.281,129.16,214.4,0.17116,4.6491,0.52833,2.0365,0.24363,0.95169
0.027656,0.0094245,0.033055,0.094883,0.006956,0.048566,0.071169,0.0067716,0.084986,0.0085679,0.056623,0.039244,0.0035834,0.027561,0.051605,0.0042313,0.6179,0.29457,1.2628,215.29,123.53,0.27795,3.0059,152.84,182.84,0.86028,8.8925,0.9671,3.0681,0.95299,0.49302
0.086701,0.003047,0.090699,0.011038,0.0031196,0.029639,0.075696,0.0012418,0.069913,0.0032085,0.087944,0.059456,0.0045406,0.07153,0.095134,0.0035612,0.74892,0.78648,0.42158,170.4,150.52,0.7096,1.6672,215.17,95.077,0.041033,2.1885,0.48726,2.2311,0.04516,0.97809
