0.04001,0.0056515,0.03549,0.035653,0.0046641,0.047054,0.0041258,0.010149,0.087466,0.0077871,0.7782,0.87954,0.26769,105.42,165.89,0.47059,1.013,208.58,52.885,0.86328,0.66905,0.90312,0.81666,0.16973
0.011085,0.0041243,0.016018,0.052388,0.0068744,0.043161,0.0071193,0.050604,0.084499,0.0091929,0.4913,0.69312,3.9903,60.706,156.84,0.059284,0.97334,100.99,95.08,0.91632,7.6279,0.88578,1.1177,0.13215
0.084325,0.0035763,0.096961,0.086605,0.0027457,0.044439,0.0053841,0.034685,0.020105,0.0027093,0.5671,0.83419,1.3548,202.31,53.313,0.54313,3.3828,142.01,168.12,0.57276,6.0905,0.67394,1.0714,0.94865
0.06204,0.0014736,0.07613,0.037251,0.0070063,0.061261,0.0098507,0.010351,0.064914,0.0019568,0.35599,0.79231,3.8081,100.18,186.52,0.87335,3.6156,96.166,136.05,0.92916,3.3002,0.37996,4.7391,0.91496
0.078804,0.0059903,0.036245,0.048863,0.001468,0.081393,0.0022963,0.096168,0.066657,0.0066683,0.4544,0.5748,3.2955,120.12,178.43,0.86157,3.7801,233.27,60.699,0.17576,8.9404,0.91359,3.8905,0.40379
0.027014,0.009609,0.042029,0.037906,0.0024571,0.012076,0.0040179,0.036197,0.062696,0.0096178,0.21164,0.44897,3.731,152.9,3.8272,0.54752,0.95064,67.838,56.645,0.10984,1.5915,0.193,2.5612,0.49498
0.080544,0.0048752,0.065201,0.095244,0.0044535,0.040363,0.00477,0.082092,0.045085,0.0072599,0.20439,0.78766,0.11469,181.67,1.0053,0.53996,0.79012,63.055,244.21,0.95792,6.1,0.75952,0.38778,0.97545
0.029304,0.0036718,0.073214,0.062103,0.0018502,0.096477,0.0076455,0.081727,0.088424,0.0089733,0.71046,0.26541,2.9829,72.639,210.4,0.73082,4.1256,73.067,37.516,0.36488,4.773,0.6983,2.459,0.79534
0.052641,0.001211,0.061857,0.083802,0.0075015,0.054333,0.0020761,0.064374,0.034242,0.0017575,0.38855,0.77539,2.0974,167.3,111.81,0.59455,2.7702,174.25,73.718,0.68873,5.979,0.782,2.7062,0.46038
0.019707,0.0027893,0.083853,0.031425,0.0033436,0.011278,0.005771,0.086687,0.087125,0.0085716,0.51512,0.27473,4.0496,186.43,141.31,0.59307,1.7795,206.9,120.04,0.99153,1.513,0.78769,4.3653,0.24445
0.019071,0.0096424,0.024444,0.077576,0.0084691,0.045353,0.0077997,0.031367,0.038806,0.0012295,0.51359,0.69494,3.0699,59.421,81.679,0.12628,3.4091,175.23,16.252,0.96246,5.9907,0.45161,1.4001,0.042302
0.057117,0.0052778,0.089366,0.082409,0.0086846,0.042278,0.0098747,0.044395,0.041294,0.0075191,0.71429,0.97725,4.5817,199.1,101.88,0.12417,2.6986,157.97,92.262,0.507,4.3985,0.27298,0.74252,0.51347
0.097194,0.0056293,0.013107,0.09732,0.0037581,0.05493,0.0037253,0.048577,0.053184,0.003509,0.81892,0.47934,1.4394,69.494,243.31,0.61878,4.9839,234.91,223.14,0.99212,6.0717,0.92217,4.5114,0.80154
0.044397,0.003113,0.0715,0.064521,0.0064147,0.075493,0.004399,0.089534,0.013877,0.009523,0.30158,0.95332,1.2286,52.051,19.855,0.87225,0.55217,192.8,55.052,0.73691,6.2306,0.071296,2.3817,0.13533
0.078597,0.007934,0.041452,0.089248,0.0011685,0.047937,0.0046835,0.039546,0.071271,0.0066077,0.31514,0.53014,2.9435,162.63,193.41,0.71835,3.1021,188.05,89.973,0.49016,6.1528,0.39044,4.395,0.62074
0.015476,0.0023521,0.018308,0.038794,0.0052631,0.094319,0.0069895,0.011114,0.068563,0.005274,0.12771,0.24364,2.4027,68.017,185,0.96537,1.3562,243.69,22.853,0.67214,4.9726,0.13883,0.80449,0.15172
0.058926,0.0095366,0.020486,0.093224,0.0094817,0.069542,0.004367,0.05044,0.087734,0.0067643,0.52525,0.93755,2.1361,239.96,11.538,0.84072,3.7376,235.57,165.41,0.56787,2.4018,0.052419,0.11966,0.035272
0.079924,0.007268,0.074863,0.010716,0.0030438,0.019146,0.0069174,0.077492,0.092271,0.0090607,0.37369,0.49619,4.8071,101.07,237.03,0.35737,3.2517,146.24,157.1,0.25408,7.991,0.65124,2.9664,0.0036498
0.068125,0.0064504,0.036988,0.036292,0.0045981,0.089915,0.00672,0.098335,0.032677,0.0040385,0.94699,0.37716,1.9344,173.47,200.45,0.3054,1.2076,145.74,223.02,0.43323,6.7359,0.28196,2.1406,0.93524
0.037508,0.0064877,0.05097,0.071484,0.0037913,0.08243,0.002633,0.051312,0.016211,0.0011542,0.82218,0.7671,4.1153,249.64,174.52,0.47879,0.5713,107.71,88.127,0.6167,7.614,0.30122,4.7507,0.90246
0.046193,0.0051273,0.098523,0.08963,0.0024106,0.07219,0.0081993,0.02867,0.023751,0.0010405,0.43089,0.74029,1.16,158.73,102.17,0.36135,1.1112,111.41,74.873,0.82768,3.263,0.73098,0.84271,0.66676
0.010251,0.0063621,0.098335,0.07362,0.007182,0.089129,0.0082179,0.071508,0.055141,0.0049456,0.20549,0.51178,4.5703,107.58,110.79,0.24243,4.2854,223.48,17.238,0.61316,8.5765,0.92528,1.7078,0.24853
0.024714,0.0044822,0.08754,0.019143,0.0068432,0.075009,0.0066397,0.011202,0.083972,0.0073397,0.31983,0.47604,2.6723,64.973,1.4776,0.97788,0.35667,85.727,100.12,0.027039,0.66917,0.38441,1.6294,0.7185
0.074456,0.0042099,0.032507,0.049415,0.009491,0.060275,0.0084474,0.056619,0.055012,0.0030286,0.79037,0.11925,4.8435,123.8,215.18,0.15213,2.313,185.07,71.09,0.63364,7.8198,0.72835,3.1627,0.29413
0.030966,0.0091435,0.014564,0.022206,0.0018793,0.016655,0.0059464,0.07892,0.093419,0.0091279,0.76997,0.82097,0.77692,77.917,46.665,0.084327,4.3255,203.47,81.675,0.90117,4.7747,0.37042,4.7173,0.24503
0.013182,0.008926,0.092397,0.030131,0.0042902,0.069055,0.0073554,0.054626,0.080677,0.0011309,0.56613,0.66344,3.2637,75.6,62.691,0.37846,0.91572,96.148,104.34,0.78476,0.86451,0.21599,0.89798,0.28536
0.054941,0.0074708,0.055008,0.08316,0.0099068,0.011853,0.0013213,0.040061,0.010412,0.0027172,0.48199,0.52394,3.015,237.71,220.76,0.55588,1.2238,126.81,112.71,0.11771,0.97705,0.49269,1.5365,0.89808
0.052383,0.0050717,0.047006,0.077122,0.0068772,0.016034,0.0014111,0.016217,0.022314,0.0073946,0.75031,0.56293,3.0051,139.15,78.57,0.84089,0.56878,55.76,4.016,0.24006,4.1161,0.9471,2.3821,0.50967
0.058808,0.0026677,0.057975,0.030615,0.00276,0.092286,0.0094223,0.070151,0.06001,0.0078755,0.29511,0.68825,3.0676,190.23,83.815,0.16992,0.13869,105.74,0.13039,0.3419,1.65,0.36434,1.9687,0.67228
0.079453,0.0020732,0.073802,0.090546,0.0068531,0.083778,0.0028525,0.050964,0.023762,0.002825,0.28744,0.88943,1.9527,106.08,159.6,0.62841,1.0943,109.11,126.11,0.66116,8.7376,0.31397,3.5293,0.8341
0.011191,0.0091705,0.081803,0.088766,0.0021014,0.043826,0.0031543,0.088137,0.024621,0.0093863,0.71696,0.86503,1.9325,215.42,21.504,0.31408,3.1591,116.55,58.272,0.8837,7.5424,0.29404,1.9262,0.21733
0.03643,0.0040332,0.03169,0.071807,0.0081436,0.033984,0.0031978,0.066812,0.065852,0.0045732,0.97636,0.28824,2.8503,226.17,201.76,0.32724,2.5457,144.5,9.4217,0.61322,1.5616,0.80436,3.2324,0.28385
0.019969,0.0012181,0.031541,0.085482,0.0028605,0.059227,0.0076636,0.058834,0.048402,0.0023756,0.49625,0.75554,3.0956,220.54,41.715,0.59018,0.32933,54.911,248.7,0.68805,2.9642,0.28075,3.4823,0.3831
0.061546,0.0064303,0.064122,0.083981,0.0010943,0.031102,0.00411,0.086319,0.036562,0.0073156,0.83807,0.93362,0.44338,171.11,230.19,0.67072,0.56958,123.42,186.47,0.52056,1.9754,0.44873,4.0339,0.93937
0.016535,0.008228,0.092596,0.037817,0.0018679,0.097299,0.0023937,0.027019,0.038386,0.0063999,0.57326,0.61067,4.928,65.093,220.05,0.8611,4.1497,191,53.998,0.78161,7.8665,0.72907,1.1816,0.91898
0.035095,0.0078292,0.057164,0.05774,0.0015516,0.058973,0.0048263,0.04393,0.025257,0.0029017,0.67936,0.77703,3.4548,51.06,112.2,0.62383,4.2641,119.31,76.937,0.36205,2.5666,0.5841,1.186,0.84283
0.052513,0.004153,0.030759,0.074482,0.0058183,0.053396,0.0061438,0.070584,0.09829,0.0041204,0.60701,0.21301,0.63314,98.139,234.34,0.24306,3.9993,246.15,205.73,0.70765,4.4648,0.76193,0.16771,0.0087151
0.064253,0.0086776,0.053308,0.054168,0.0045771,0.012153,0.0073465,0.065575,0.062709,0.0090295,0.52102,0.95327,2.1016,214.99,152.44,0.55132,0.12498,105.19,23.722,0.29969,2.0955,0.81285,0.72306,0.061171
0.094109,0.00995,0.010598,0.026443,0.0056245,0.070238,0.0087893,0.048921,0.059147,0.0067905,0.2749,0.43412,3.5029,220.32,124.88,0.10707,4.9011,216.32,78.711,0.71684,4.4893,0.20454,2.2545,0.80272
0.029421,0.004919,0.089907,0.054134,0.0047216,0.098648,0.0098884,0.024198,0.08943,0.0098591,0.79826,0.62534,1.8194,96.435,206.36,0.58068,2.169,190.43,60.066,0.99372,1.6137,0.60226,4.9895,0.071156
0.029327,0.006355,0.072409,0.063909,0.0042907,0.084411,0.0015361,0.077321,0.073673,0.0063465,0.67696,0.85822,3.8894,152.21,233.71,0.54714,4.1742,65.518,168.93,0.97041,2.4309,0.56965,4.5961,0.81129
0.079615,0.0047847,0.043343,0.027815,0.0085991,0.08086,0.0058466,0.09832,0.070634,0.0076935,0.8286,0.10902,4.61,197.94,182.47,0.45633,0.18349,86.278,220.33,0.87713,5.8787,0.15105,4.1133,0.24975
0.018832,0.0093745,0.0196,0.070823,0.0099208,0.021605,0.0066389,0.065196,0.097056,0.0093524,0.42594,0.91361,3.3663,65.775,236.57,0.33141,2.1183,196.58,77.698,0.891,2.8914,0.75574,0.68008,0.10363
0.035455,0.0050206,0.087626,0.017863,0.0025864,0.09973,0.0048214,0.085363,0.086767,0.0099803,0.37694,0.90869,0.29612,141.54,30.275,0.86211,4.6781,90.351,231.76,0.3282,4.2427,0.2084,2.8026,0.76469
0.099891,0.0047154,0.078343,0.056124,0.002083,0.047291,0.0085845,0.032673,0.057035,0.0054969,0.72239,0.70983,3.1577,196.15,79.445,0.1237,0.83919,113.98,143.17,0.96938,6.4811,0.60649,0.91923,0.71958
0.032857,0.0016702,0.062314,0.010507,0.0089246,0.096372,0.004888,0.041111,0.051659,0.0048447,0.54269,0.93842,1.0317,108.86,206.65,0.061601,2.9547,138.33,116.2,0.86629,8.0661,0.56495,0.4679,0.2967
0.07534,0.0049553,0.018108,0.070503,0.0089458,0.027176,0.0097337,0.042741,0.065314,0.0081128,0.75719,0.24337,0.307,98.708,215.8,0.61176,0.35119,139.88,140.82,0.99916,1.1464,0.90985,0.1141,0.73015
0.076273,0.0035193,0.081154,0.018712,0.0047154,0.077279,0.00587,0.087885,0.091981,0.0086672,0.22914,0.20213,1.2199,108.32,166.61,0.62978,2.5064,197.5,83.939,0.79185,5.9996,0.12597,2.1209,0.11821
0.094601,0.0065034,0.062862,0.01345,0.0026152,0.094627,0.0071854,0.057183,0.097369,0.0099484,0.35553,0.75329,3.4198,57.177,24.47,0.84454,4.3542,129.12,115.58,0.029253,0.95317,0.56834,1.5068,0.69457
0.088922,0.0036753,0.075896,0.061613,0.0070162,0.038991,0.0074654,0.089749,0.083356,0.0035577,0.15594,0.40125,0.52284,111.68,207.24,0.24341,0.25147,66.328,220.66,0.55488,4.2275,0.021925,4.3408,0.33367
0.077354,0.0092701,0.069376,0.012448,0.006954,0.010096,0.0036577,0.063925,0.096705,0.0020479,0.65154,0.20662,0.12718,94.275,249.85,0.22346,1.4402,194.03,148.48,0.18481,5.9287,0.81328,2.6155,0.89539
0.097247,0.0092337,0.016137,0.060924,0.0067194,0.076617,0.0098822,0.068144,0.078528,0.0079671,0.29026,0.57549,1.6298,248.11,78.205,0.67671,4.1548,102.21,122.47,0.059049,5.2492,0.31839,2.368,0.15043
0.059522,0.0044051,0.083365,0.038999,0.0036323,0.04916,0.0035622,0.064205,0.033202,0.0075585,0.22665,0.26522,4.329,76.47,197.12,0.55742,3.8152,139.22,9.4262,0.31535,2.8255,0.35811,3.4277,0.9864
0.040188,0.0099877,0.012585,0.061476,0.0072961,0.076262,0.0026893,0.027592,0.067775,0.0052936,0.30335,0.68074,0.021771,209.04,98.169,0.94153,1.7397,203.26,128.14,0.83525,1.9306,0.12828,4.3684,0.57161
0.062799,0.0080455,0.016869,0.011052,0.0019126,0.061232,0.00866,0.050308,0.088761,0.00185,0.27338,0.48721,3.4712,186.24,81.439,0.99171,0.37335,108.72,168.01,0.6754,3.2541,0.99654,0.22118,0.026781
0.054601,0.0079963,0.027933,0.029269,0.0045918,0.011935,0.0084264,0.085125,0.075532,0.004525,0.78401,0.26274,4.4609,113.7,150.04,0.66664,1.5178,231.26,246.77,0.57085,1.2365,0.89238,2.4076,0.19063
0.029243,0.0047768,0.04622,0.033646,0.0035972,0.014559,0.0041281,0.016096,0.072389,0.00122,0.96672,0.4574,4.8675,233.46,93.161,0.78364,1.5421,210.09,184.89,0.088526,2.6597,0.78441,4.1783,0.64717
0.056103,0.0098994,0.050943,0.016887,0.0040066,0.021509,0.0073123,0.039089,0.095599,0.0045728,0.27945,0.69769,2.2817,132.74,19.195,0.63471,4.1918,104.73,28.752,0.63131,2.4509,0.45978,3.3219,0.26185
0.038754,0.0053426,0.063664,0.04889,0.0056034,0.059735,0.0094741,0.025583,0.061182,0.0060279,0.57684,0.75532,2.8461,236.64,81.484,0.72929,2.612,134.41,31.517,0.86795,8.2766,0.80509,4.7258,0.67289
0.085586,0.0083153,0.087006,0.073699,0.0043593,0.038243,0.003932,0.020241,0.053332,0.0048566,0.11772,0.93008,4.6173,64.867,226.6,0.53574,3.7301,159.23,119.17,0.40775,4.0809,0.38974,3.3882,0.28763
0.016746,0.0029255,0.094104,0.091103,0.0040185,0.066498,0.005759,0.040245,0.022251,0.0045647,0.49108,0.47466,4.0389,127.98,152.19,0.96652,0.018358,67.661,212.04,0.33496,3.4979,0.19914,3.7401,0.7298
0.069699,0.0051867,0.01972,0.043256,0.0011078,0.084674,0.0044625,0.027232,0.044882,0.0066675,0.64951,0.17171,4.2783,148.37,237.42,0.71787,1.1321,181.47,20.349,0.01732,6.6082,0.050727,3.285,0.75954
0.054323,0.0056522,0.08974,0.038291,0.0050565,0.07812,0.0048986,0.02932,0.028476,0.0056802,0.2948,0.91917,1.6274,140.72,59.866,0.76206,1.4381,212.4,227.88,0.8978,7.1734,0.46664,3.6267,0.2353
0.057518,0.0023841,0.087997,0.030487,0.0090707,0.033458,0.0079875,0.087711,0.086408,0.0079967,0.8848,0.9237,3.0801,147.92,209.87,0.58807,4.5012,224.08,21.157,0.18415,3.3386,0.078659,1.7745,0.80575
0.05314,0.0038386,0.087674,0.044834,0.0028679,0.088078,0.0042738,0.057536,0.075322,0.0070238,0.89811,0.14016,4.5443,170.81,71.339,0.23912,4.8594,78.692,185.52,0.89846,6.4373,0.23848,1.7057,0.68893
0.079541,0.0095958,0.069895,0.018921,0.0080316,0.077274,0.0053511,0.014001,0.032844,0.0010945,0.47467,0.31246,4.3368,210.75,193.22,0.063704,2.0432,223.23,220.49,0.012812,2.6351,0.049354,1.5906,0.46854
0.086935,0.004122,0.086962,0.084594,0.006909,0.090663,0.0090699,0.027718,0.016404,0.0043708,0.81838,0.68821,4.4585,58.782,31.744,0.8603,0.12294,72.456,109.44,0.8454,3.0613,0.83751,2.178,0.07174
0.055474,0.0094745,0.030651,0.032388,0.0094348,0.084672,0.0086169,0.096483,0.040799,0.0099399,0.35697,0.71196,2.0726,92.665,144.54,0.21915,1.375,155.99,169.97,0.79692,1.0713,0.43835,4.8602,0.59108
0.025798,0.0072618,0.024837,0.078606,0.0084716,0.032786,0.0040613,0.025001,0.075581,0.0091731,0.95384,0.11249,1.7337,148.86,134.33,0.87154,0.37838,174.88,232.97,0.095805,6.2071,0.73984,3.4079,0.48468
0.067706,0.007383,0.027855,0.032066,0.0034073,0.062938,0.0018908,0.027012,0.024101,0.0064281,0.2248,0.61924,0.94768,117.83,144.51,0.88357,1.5642,99.878,95.595,0.6813,6.6219,0.72059,3.6115,0.6276
0.01016,0.0020076,0.052264,0.063267,0.0016801,0.044358,0.0041617,0.084061,0.074286,0.0041356,0.39416,0.56072,3.1641,162.15,181.42,0.88364,3.3854,63.503,103.83,0.79685,8.0683,0.79416,1.4662,0.44617
0.05738,0.0051637,0.034675,0.03542,0.0082389,0.06131,0.006379,0.076676,0.071982,0.0056201,0.34216,0.51887,2.5376,80.383,157.4,0.80678,1.1617,212.99,173.15,0.40246,6.0449,0.46699,3.4622,0.013291
0.034167,0.0084738,0.091138,0.052653,0.0070406,0.045997,0.0022071,0.012663,0.029688,0.0041069,0.66021,0.71644,2.8581,120.39,140.05,0.2625,3.5025,65.521,192.73,0.12914,0.62229,0.32926,3.3758,0.2853
0.055982,0.0039801,0.090934,0.021653,0.0042323,0.060596,0.0049056,0.036511,0.093128,0.0093286,0.80307,0.66948,2.0594,143.67,69.397,0.75077,3.9606,59.432,55.369,0.11416,4.6523,0.72647,0.70209,0.67927
0.04902,0.0019037,0.053185,0.011237,0.0046411,0.055925,0.0022327,0.04375,0.040728,0.0089213,0.21806,0.7872,2.7299,121.48,101.69,0.96879,4.5523,115.56,165.97,0.98129,5.7318,0.88806,1.6469,0.58946
0.086885,0.005341,0.035937,0.049638,0.0097046,0.014486,0.0050835,0.067208,0.057809,0.0058442,0.98652,0.60334,2.5821,138.34,59.303,0.68334,4.5337,93.783,85.132,0.61427,6.0236,0.1549,3.1819,0.33248
0.032888,0.0066346,0.091333,0.023603,0.0074105,0.03597,0.0044742,0.033654,0.024697,0.0090634,0.66203,0.80435,2.3072,184.12,92.233,0.92039,3.5703,118.9,204.32,0.28251,5.6994,0.20226,3.0908,0.35017
0.023637,0.0027619,0.032238,0.06217,0.0016502,0.021134,0.0076389,0.050208,0.081701,0.0097642,0.6248,0.33533,4.2345,72.719,14.419,0.20448,0.11664,122.57,223.8,0.42843,1.6294,0.16415,4.2755,0.60111
0.072527,0.0082034,0.027061,0.038861,0.0037487,0.034591,0.0086242,0.072834,0.095111,0.0030786,0.18924,0.24135,4.1771,63.347,30.393,0.25095,4.3837,122.27,20.108,0.29514,2.4216,0.64011,3.2255,0.27332
0.076486,0.0012834,0.057136,0.081516,0.0087689,0.084505,0.0013065,0.07656,0.058609,0.0026662,0.33872,0.93282,2.3381,189.04,55.371,0.37419,4.1581,249.92,16.906,0.3322,7.2651,0.14557,0.97,0.73748
0.078046,0.0072794,0.02988,0.01104,0.0044605,0.091122,0.0043379,0.010915,0.052326,0.0038461,0.54649,0.82894,1.8759,228.63,36,0.62406,1.7207,237.36,118.12,0.23366,4.7368,0.08952,3.5686,0.30239
0.063162,0.0057823,0.068009,0.014764,0.0062882,0.057872,0.0074242,0.011001,0.036717,0.0011131,0.55667,0.50154,4.6892,176.97,56.487,0.48029,4.0262,243.75,187.92,0.64544,7.4977,0.68625,0.58712,0.45715
0.069201,0.0043089,0.043199,0.090924,0.0093996,0.033922,0.002837,0.010058,0.064799,0.0080598,0.45011,0.53042,3.2549,124.36,247.07,0.93721,1.3802,115.55,6.3756,0.25939,7.5382,0.50912,0.90202,0.30764
0.08361,0.0097478,0.020124,0.033135,0.0018367,0.056755,0.002653,0.06403,0.074232,0.0041465,0.85871,0.15007,1.9109,147.08,208.66,0.1253,4.2876,66.659,83.989,0.054242,1.9637,0.91033,1.5168,0.52531
0.039373,0.0086187,0.054695,0.041752,0.0084575,0.094954,0.006538,0.048881,0.041322,0.0062694,0.42809,0.45889,4.4349,156.77,60.29,0.63198,2.8463,245.6,200.26,0.88961,3.8353,0.98234,1.0477,0.90409
0.019918,0.0012067,0.063752,0.011435,0.0020458,0.040364,0.0043362,0.035807,0.030116,0.0077019,0.55852,0.98718,0.1537,158.83,172.94,0.086113,0.97943,159.61,216.17,0.68641,1.1294,0.28112,3.5645,0.76038
0.020443,0.0074812,0.053315,0.05676,0.0096457,0.089073,0.0060807,0.067645,0.068357,0.0024286,0.71057,0.36138,1.7858,236.64,226.35,0.58374,0.13773,178.36,193.56,0.49242,6.6657,0.17839,1.1934,0.27643
0.063289,0.0065908,0.013867,0.036987,0.0048811,0.073643,0.0069502,0.060926,0.028979,0.0033025,0.37311,0.47578,1.1745,59.363,179.36,0.88346,2.0936,75.12,66.18,0.33644,5.5936,0.50586,0.99676,0.1504
0.040741,0.005088,0.019568,0.032614,0.0077663,0.094722,0.0079817,0.019009,0.097795,0.0087016,0.88039,0.95382,2.3204,202.04,70.145,0.41443,2.6619,109.24,85.879,0.65844,1.1745,0.97196,1.1737,0.13796
0.018046,0.0043541,0.092869,0.024288,0.003938,0.092349,0.0066713,0.033703,0.021582,0.0025235,0.60229,0.69511,4.8815,147.26,230.54,0.27474,0.010201,243.82,51.206,0.38327,6.3104,0.18121,0.73103,0.49756
0.022219,0.0087034,0.068314,0.074432,0.0040688,0.097113,0.0069978,0.060298,0.049209,0.0085668,0.79196,0.82093,3.5171,114.67,151.15,0.016455,4.106,88.226,235.67,0.69683,3.598,0.085802,3.617,0.50374
0.059996,0.0058846,0.09298,0.06611,0.0041683,0.024602,0.0015702,0.028227,0.079436,0.0077149,0.66346,0.60675,4.0622,122.73,21.958,0.085532,3.6512,61.506,127.58,0.8111,6.2149,0.095962,1.1557,0.29879
0.010595,0.001014,0.054648,0.078591,0.0060083,0.08536,0.0024185,0.016148,0.051892,0.0049342,0.6632,0.68442,4.0353,194.78,124.49,0.98214,3.0879,65.879,157.6,0.49627,8.6105,0.6129,3.6568,0.96104
0.087124,0.0062949,0.050604,0.092066,0.001035,0.096505,0.004686,0.06968,0.013756,0.0049708,0.10565,0.83626,1.4449,248.97,241.53,0.78807,4.9487,156.95,150.35,0.34245,3.7695,0.30633,1.553,0.64192
0.067598,0.0013279,0.080794,0.046663,0.009964,0.077139,0.0080291,0.026899,0.01739,0.0090846,0.1116,0.67621,0.81186,226.39,221.1,0.42724,3.3346,138.11,231.1,0.14465,4.081,0.032433,0.48937,0.42688
0.073116,0.0045707,0.036814,0.092802,0.0019261,0.093305,0.0095121,0.023209,0.072814,0.0064892,0.65116,0.89436,1.8522,173.46,244.17,0.35629,2.6489,160.09,25.942,0.67698,4.5998,0.87724,2.3658,0.40344
0.036576,0.0061978,0.09929,0.058922,0.0040145,0.010136,0.0082714,0.010011,0.036997,0.0058494,0.15266,0.32065,0.81913,151.64,106.26,0.33267,4.163,211.72,174.07,0.413,8.7837,0.5331,0.67264,0.48521
0.059497,0.009363,0.040174,0.028643,0.0090192,0.079801,0.0029818,0.015054,0.062703,0.0014348,0.31769,0.46221,4.4341,67.888,213.99,0.20866,2.5479,151.46,44.013,0.51315,5.4993,0.38778,2.4281,0.27957
0.031139,0.0033448,0.0436,0.022571,0.0085978,0.072674,0.0094324,0.025616,0.042323,0.0061578,0.19991,0.98237,0.55092,208.47,113.57,0.24132,4.5621,231.49,157.05,0.23901,1.0309,0.61363,3.7594,0.071123
0.013987,0.0042062,0.085831,0.036327,0.0098455,0.018584,0.0019203,0.026073,0.095048,0.007922,0.12506,0.13695,3.0965,143.15,5.4453,0.011471,4.8846,96.819,26.097,0.45787,2.3876,0.86736,1.1193,0.27663
0.018882,0.0014106,0.06794,0.022342,0.0070423,0.06159,0.0029964,0.09273,0.045772,0.0053275,0.29849,0.89568,1.8164,128.64,82.652,0.48986,0.53336,164.55,197.65,0.87615,4.1424,0.36342,0.60282,0.46417
0.019011,0.0091632,0.038899,0.01487,0.0078495,0.097355,0.0024672,0.016386,0.078154,0.0091063,0.39606,0.54179,0.19065,186.41,52.705,0.024623,0.56927,244.34,66.935,0.26807,1.4096,0.86915,2.3817,0.043553
0.079116,0.0074906,0.064851,0.087727,0.0098549,0.082007,0.0097053,0.010822,0.098475,0.0066989,0.39093,0.14976,0.39604,161.45,215.39,0.35089,2.4852,179.52,102.89,0.38422,0.46164,0.034834,4.1063,0.46563
0.045695,0.0085322,0.089543,0.046489,0.0041687,0.023879,0.004585,0.026938,0.02014,0.0053471,0.75921,0.30904,1.3815,197.53,110.47,0.73715,4.8097,185.34,34.426,0.80586,2.3173,0.10161,3.3529,0.66889
0.025709,0.0013187,0.094246,0.09424,0.008208,0.087029,0.0040551,0.044808,0.088753,0.0013251,0.36685,0.22129,4.6854,232.69,139.62,0.12329,3.0307,138.89,128.48,0.97518,1.2043,0.76942,3.6158,0.41805
0.043876,0.0027711,0.038941,0.063624,0.0044508,0.090164,0.0010936,0.031536,0.044855,0.0034647,0.99411,0.3638,3.0377,153.45,128.49,0.94443,1.6519,52.384,11.422,0.55558,6.8366,0.26682,1.4547,0.13583
0.0896,0.0099562,0.029335,0.014138,0.004255,0.051855,0.0077314,0.066519,0.098403,0.0054217,0.44809,0.49366,1.8168,216.41,167.57,0.57315,1.294,184.9,161.54,0.54209,6.9592,0.30061,2.8891,0.00079946
0.04902,0.0092526,0.032147,0.098735,0.0094999,0.012672,0.0035245,0.068278,0.084855,0.003802,0.78545,0.79307,3.4255,233.68,64.575,0.13571,4.7632,166.09,49.12,0.054652,8.1192,0.28433,2.0979,0.35334
0.065441,0.008442,0.041448,0.09022,0.0039138,0.098962,0.0052931,0.083923,0.096929,0.0047936,0.87655,0.94967,0.2669,141.82,141.62,0.71341,1.287,231.3,75.903,0.4771,6.4678,0.36161,0.0013706,0.13666
0.038868,0.0067757,0.073083,0.016565,0.0066264,0.010023,0.0083915,0.094526,0.03075,0.0091388,0.63157,0.4729,4.5709,118.46,173.66,0.22262,2.2444,166.29,94.518,0.89081,5.7681,0.90465,3.6963,0.86778
0.058867,0.006864,0.050141,0.087983,0.0046508,0.090601,0.0030135,0.079393,0.011573,0.0071374,0.3716,0.20515,2.9541,140.84,152.54,0.23173,2.2925,241.67,192.48,0.78928,3.7049,0.17614,1.3347,0.96345
0.042213,0.0079511,0.035759,0.088418,0.0080032,0.03067,0.0049256,0.095762,0.021035,0.0064952,0.42753,0.68262,1.3418,90.76,231.71,0.43109,0.087348,53.858,95.871,0.84217,1.7874,0.87334,2.4497,0.20703
0.083653,0.0017992,0.022772,0.070977,0.0035529,0.072102,0.0071277,0.019561,0.08695,0.0082666,0.40993,0.84568,3.6471,149.11,26.883,0.4168,1.9814,151.99,7.3793,0.84963,6.4329,0.44492,3.9135,0.38634
0.064965,0.0073354,0.041147,0.047049,0.0034811,0.065455,0.0098784,0.072551,0.079937,0.0091131,0.12754,0.77218,4.0701,224.74,40.255,0.27441,3.3931,94.748,169.44,0.42471,6.3669,0.82228,1.4323,0.94722
0.075999,0.003064,0.015894,0.073949,0.0078087,0.043444,0.0072519,0.075469,0.03052,0.0040389,0.82615,0.79265,3.1425,135.13,136.35,0.41406,2.3474,121.63,32.61,0.13009,8.0458,0.98024,0.75325,0.72343
0.073224,0.0096896,0.060439,0.078529,0.0054364,0.011969,0.0073888,0.067563,0.018727,0.0097706,0.31762,0.91647,1.9855,108.47,41.722,0.5878,0.65548,192.27,206.52,0.87592,1.2782,0.43942,1.1592,0.87269
0.084495,0.0034506,0.054572,0.098859,0.0028837,0.099134,0.0067872,0.051461,0.09728,0.0020139,0.41379,0.17343,4.6959,103.44,94.402,0.25719,0.74948,99.134,104.82,0.57707,4.1421,0.67418,2.2556,0.1443
0.016079,0.0012428,0.016697,0.062584,0.0087215,0.017435,0.0097444,0.075099,0.071738,0.005648,0.11967,0.50225,0.52314,83.45,13.507,0.20574,4.1199,90.821,99.268,0.78767,1.3534,0.045534,3.3018,0.13593
0.059385,0.0011604,0.066061,0.06292,0.0047346,0.07977,0.005498,0.086896,0.060062,0.0085814,0.58654,0.59193,3.0031,133.78,221.9,0.53122,4.6698,246.92,117.96,0.43292,8.4341,0.86504,0.24183,0.53048
0.095234,0.0080472,0.09012,0.066191,0.0042778,0.082019,0.0085008,0.077384,0.080849,0.009967,0.17537,0.77127,2.6236,159.65,173.83,0.57207,1.9222,178.56,191.59,0.49618,2.6808,0.33203,1.8439,0.5389
0.077706,0.0039763,0.056942,0.065671,0.0066655,0.037625,0.0084261,0.076653,0.039632,0.0010927,0.95979,0.44885,2.1328,103.06,1.2242,0.60828,2.9515,129.81,186.5,0.85891,1.0896,0.53025,4.9569,0.62658
0.064904,0.0021755,0.077254,0.027451,0.0060589,0.072427,0.0015513,0.098926,0.024609,0.0097491,0.63474,0.13907,2.5807,117.61,186.1,0.48927,0.93554,231.8,151.47,0.012095,5.8913,0.42385,2.6829,0.46203
0.094182,0.0070624,0.086453,0.081067,0.0071032,0.075029,0.0029971,0.013875,0.061949,0.0096388,0.58467,0.14207,4.315,127.77,127.57,0.021597,1.9159,90.933,27.424,0.098818,6.7891,0.015323,4.5039,0.90435
0.099867,0.0085185,0.060981,0.057983,0.0061405,0.084801,0.0068337,0.011779,0.033718,0.0083149,0.43522,0.6963,2.5143,59.602,158.52,0.24036,0.90175,178.99,88.185,0.92545,8.6156,0.35203,1.4868,0.28705
0.053813,0.0056666,0.036959,0.084676,0.0054561,0.013992,0.0047703,0.027132,0.031383,0.0047157,0.5304,0.93083,2.5179,115.89,142.97,0.59899,4.8529,129.75,12.608,0.8122,8.8162,0.35304,0.3779,0.62827
0.050604,0.007936,0.056316,0.055744,0.0036298,0.062969,0.0010915,0.067172,0.041251,0.0091163,0.72586,0.37668,4.9912,63.773,12.899,0.17544,1.4123,165.3,7.6103,0.32925,6.149,0.70729,3.6559,0.79681
0.062798,0.008793,0.035725,0.092185,0.0078015,0.064599,0.0054514,0.078509,0.05319,0.0050487,0.22833,0.90098,2.3192,240.33,159.65,0.61067,1.5813,212.26,157.41,0.89484,7.612,0.42723,2.8727,0.01655
0.077725,0.0076358,0.020199,0.072904,0.0069938,0.031314,0.0048588,0.079528,0.096642,0.0077371,0.62562,0.99231,0.45304,62.335,108.32,0.80963,2.8589,134.54,82.646,0.75737,1.361,0.49537,2.9583,0.95248
0.089886,0.0092483,0.048629,0.049097,0.0046544,0.055354,0.0062689,0.076377,0.046875,0.0084492,0.95873,0.23565,1.7793,146.36,94.073,0.13539,2.1572,89.939,32.982,0.71372,8.7612,0.84696,2.8423,0.027983
0.083196,0.0018586,0.034121,0.045638,0.0096327,0.058431,0.0092372,0.096191,0.020707,0.0089593,0.86201,0.60107,0.60615,92.822,9.1952,0.85639,0.19792,212.1,122.39,0.78563,2.0871,0.18019,1.8619,0.49503
0.095132,0.0016105,0.028669,0.085873,0.0073839,0.014911,0.0018863,0.06314,0.010831,0.0042844,0.9378,0.86393,0.44735,64.313,107.69,0.86557,0.39292,150.77,146.24,0.74191,4.1447,0.81802,3.519,0.60808
0.068891,0.0042387,0.037175,0.092888,0.0039685,0.041961,0.0015265,0.0338,0.048761,0.0037019,0.40299,0.98299,1.1566,152.17,31.653,0.55331,3.6843,90.332,194.55,0.47611,6.6715,0.84717,4.3146,0.015542
0.056916,0.0028144,0.011541,0.034986,0.0080084,0.035379,0.0067831,0.092177,0.09888,0.0083837,0.53803,0.20274,1.4542,147.54,55.021,0.81354,2.3834,150.58,172.8,0.66584,0.44465,0.56755,2.1804,0.040009
0.036469,0.0053543,0.038382,0.037922,0.0099417,0.074458,0.0047405,0.064225,0.032984,0.0023627,0.22917,0.2527,0.98686,139.52,66.41,0.037035,2.2689,73.602,145.55,0.81493,2.1269,0.97638,1.3295,0.53804
0.04884,0.0058732,0.030808,0.019188,0.0056148,0.076653,0.0050932,0.095121,0.08906,0.0098892,0.28969,0.35163,1.9695,246.37,11.601,0.79069,0.60271,116.77,92.995,0.38321,2.0773,0.70707,1.7409,0.73083
0.073659,0.0079288,0.027929,0.060559,0.0078862,0.08048,0.0069909,0.09932,0.057845,0.002122,0.54477,0.45513,2.8624,203.08,17.158,0.57794,4.6419,100.95,66.123,0.78669,4.0475,0.39916,1.5428,0.99894
0.013798,0.001453,0.04326,0.069375,0.0028718,0.052316,0.0068117,0.064428,0.078181,0.0074529,0.8231,0.15725,3.4586,181.49,12.452,0.46808,4.8978,232.96,0.52574,0.90118,8.3339,0.39986,0.82611,0.7339
0.011165,0.0030004,0.086857,0.064202,0.0046491,0.076508,0.0064016,0.066089,0.071038,0.0017993,0.52855,0.95843,4.1173,121.61,157.73,0.14429,1.0246,166.34,245.04,0.30719,0.55449,0.52819,3.2874,0.59991
0.098992,0.0015187,0.050455,0.094001,0.0093129,0.098958,0.0086937,0.018513,0.082079,0.0042104,0.44782,0.22894,2.2259,165.51,27.624,0.27914,0.38248,171.83,102.81,0.34972,3.0934,0.20194,4.5252,0.39415
0.050249,0.009165,0.058128,0.061726,0.0084537,0.011849,0.0019909,0.066445,0.023205,0.004493,0.35593,0.91585,3.1362,147.05,2.7942,0.50935,0.0080131,201.3,59.017,0.3235,7.6758,0.58231,3.6381,0.37849
0.064275,0.0030606,0.085837,0.059146,0.0010115,0.055365,0.0054347,0.063142,0.02031,0.0044427,0.96764,0.35119,4.2188,79.859,237.7,0.54726,3.312,132.42,17.132,0.34601,0.63832,0.68223,3.2768,0.69557
0.038242,0.0051513,0.030054,0.065824,0.0045369,0.086896,0.0076039,0.01564,0.033233,0.009908,0.15312,0.57708,1.9849,139.45,0.98077,0.44786,4.7853,55.901,133.44,0.090137,1.9103,0.67824,3.8871,0.7137
0.099236,0.0046991,0.099817,0.096647,0.0082476,0.046378,0.0042851,0.073536,0.029611,0.0012236,0.70745,0.80163,3.6329,194.33,48.368,0.012902,3.2906,65.106,15.962,0.4719,0.4226,0.41404,1.2951,0.88276
0.046399,0.0029106,0.011463,0.052047,0.0080587,0.082261,0.0097177,0.094963,0.017473,0.0076366,0.99168,0.15135,1.7477,50.667,11.559,0.78009,3.7114,198.07,42.429,0.59321,3.9264,0.41285,4.5796,0.17427
0.045917,0.0079436,0.047521,0.056839,0.0023952,0.023223,0.0023228,0.090526,0.087446,0.0037508,0.25364,0.84597,4.8424,214.52,198.59,0.43896,2.9581,221.33,215.01,0.24882,8.7881,0.6701,4.1181,0.4347
0.036431,0.0017116,0.068242,0.088226,0.0088699,0.054749,0.0034653,0.064508,0.019002,0.0029786,0.99811,0.56288,2.5839,93.25,100.45,0.66709,0.30721,129.59,230.11,0.924,0.11176,0.74692,3.4378,0.28802
0.057186,0.0019319,0.093666,0.048438,0.003387,0.069145,0.0076806,0.0489,0.095644,0.0063168,0.42222,0.41337,3.7101,233.71,21.654,0.8599,0.77813,226.88,115.51,0.21967,4.684,0.34234,3.4829,0.17694
0.078567,0.0018147,0.024843,0.055228,0.004498,0.044883,0.0086067,0.039665,0.034137,0.0067232,0.57324,0.94882,2.9006,66.532,0.46929,0.25727,1.4292,132.48,71.194,0.45972,1.8981,0.76882,3.972,0.31592
0.031104,0.0043209,0.082847,0.03035,0.0068661,0.035397,0.0063181,0.099864,0.085514,0.0080088,0.18702,0.54144,0.61599,125.84,49.917,0.24533,4.6297,98.343,138.53,0.9426,1.4433,0.0062137,1.5247,0.37879
0.084371,0.0018283,0.04411,0.052954,0.0096164,0.037708,0.0085481,0.027156,0.032175,0.0014988,0.75363,0.30507,1.5532,129.4,107.9,0.16806,3.1399,164.66,194.36,0.72436,4.3877,0.17271,1.9163,0.53097
0.055763,0.0045831,0.080717,0.029182,0.008544,0.026236,0.0073404,0.023547,0.034703,0.0090746,0.74852,0.32873,2.3258,72.14,153.14,0.68139,4.8235,186.36,151.83,0.72328,1.2497,0.12776,3.6894,0.73883
0.091612,0.002749,0.06403,0.010244,0.0018927,0.091103,0.0026736,0.091099,0.038175,0.0027674,0.64801,0.94283,3.4855,197.29,173.93,0.32472,4.0447,86.953,115.93,0.64645,4.8954,0.77155,0.96487,0.58739
0.020825,0.0057627,0.096957,0.023275,0.006409,0.039921,0.0092888,0.091849,0.050084,0.0089532,0.45449,0.77804,1.3382,78.342,155.85,0.089343,2.5696,65.283,4.2419,0.83983,5.4738,0.39938,0.75955,0.63178
0.064148,0.0079332,0.032906,0.083302,0.0023047,0.085398,0.0034177,0.08759,0.064424,0.003914,0.2421,0.7248,0.15743,90.537,110.31,0.02392,4.209,92.187,142.6,0.39593,5.2561,0.48348,2.1273,0.26737
0.08812,0.0092426,0.055059,0.070106,0.0013458,0.029375,0.0092216,0.054664,0.058854,0.003056,0.55598,0.83283,4.0251,209.78,137.2,0.75594,2.9207,61.616,125.14,0.92837,0.6745,0.33453,2.9299,0.029936
0.057562,0.0019298,0.013703,0.010944,0.0038445,0.041599,0.0079368,0.076789,0.021971,0.005053,0.40734,0.72438,2.4901,207.58,141.86,0.46876,2.2124,80.984,83.554,0.99329,4.6049,0.48118,2.6763,0.56646
0.055796,0.0070536,0.091446,0.043354,0.0071491,0.085758,0.0041577,0.039369,0.025899,0.002122,0.91653,0.71837,1.3819,101.65,36.192,0.18733,2.1748,162.7,240.86,0.14906,5.2068,0.33159,4.7801,0.75533
0.065411,0.0039019,0.030744,0.065161,0.0041553,0.045075,0.0078717,0.015181,0.021971,0.0068629,0.56653,0.59546,2.0125,226.27,50.991,0.30761,0.72292,69.789,15.117,0.54609,6.6519,0.55242,2.1424,0.77683
0.053016,0.009733,0.080528,0.091069,0.0070033,0.046761,0.0024903,0.040255,0.052745,0.0010927,0.84605,0.87542,4.9407,107.4,166.68,0.85616,4.3415,116.52,162.46,0.54979,7.1165,0.96524,0.97103,0.44407
0.029781,0.0091831,0.013485,0.058816,0.0032527,0.029338,0.004951,0.085248,0.082703,0.0059894,0.27743,0.39987,1.7627,173.64,99.515,0.46844,2.765,110.17,139.08,0.59435,6.2017,0.68802,4.4591,0.29085
0.06636,0.004469,0.022126,0.010805,0.0090391,0.0625,0.0031207,0.057417,0.034966,0.0089329,0.97531,0.94788,3.7797,237.05,110.82,0.99434,4.8618,79.65,101.73,0.96521,7.6812,0.42839,3.5954,0.13729
0.073035,0.0055897,0.082108,0.010544,0.0095237,0.089311,0.0012535,0.024693,0.066056,0.0082668,0.68517,0.59192,4.732,183.82,213.68,0.52981,3.125,81.618,152.35,0.2423,5.0303,0.10225,1.3213,0.013335
0.056787,0.006052,0.089906,0.080194,0.0043507,0.089885,0.0081992,0.044992,0.050828,0.0015773,0.71423,0.96303,0.84238,142.87,208.81,0.27593,4.9307,108.07,82.003,0.20437,0.08348,0.01143,4.1835,0.82946
0.05877,0.0057925,0.081228,0.054878,0.00717,0.09818,0.0048552,0.012156,0.033968,0.0035206,0.89203,0.23262,2.1847,162.17,118.74,0.94765,2.7638,78.779,66.745,0.34338,6.8936,0.50601,1.1036,0.36625
0.027552,0.0056554,0.016292,0.090275,0.0099215,0.036198,0.0077498,0.031784,0.043292,0.0085838,0.24278,0.80283,3.2151,116.78,60.088,0.72072,0.51071,70.283,10.423,0.031901,6.4402,0.39283,3.8769,0.35043
0.090941,0.0058327,0.086141,0.068442,0.003428,0.014133,0.0033563,0.040118,0.01905,0.0042054,0.55159,0.14057,0.3725,141.21,19.881,0.17954,3.4281,175.18,35.08,0.23329,0.91514,0.79952,1.5005,0.13465
0.015305,0.0050838,0.016067,0.028443,0.0020804,0.091595,0.004924,0.090587,0.06106,0.0011684,0.87133,0.36579,1.2298,192.53,98.595,0.2806,4.7956,223.99,202.23,0.40903,3.6205,0.50948,0.16882,0.92874
0.097625,0.0077817,0.022836,0.020061,0.0071923,0.077744,0.0051608,0.064209,0.06855,0.0058522,0.23733,0.90529,4.3402,120.04,241.73,0.28614,3.8998,187.87,212.78,0.012618,1.1772,0.44694,2.7197,0.25218
0.022445,0.0015324,0.015783,0.082977,0.005787,0.065981,0.0017862,0.06772,0.086256,0.0036182,0.27542,0.13294,2.7831,60.351,232.79,0.47515,0.24135,65.66,74.157,0.94242,7.7053,0.42875,2.6914,0.83868
0.018139,0.0086569,0.057863,0.064476,0.003093,0.029639,0.0018242,0.043079,0.032043,0.0094906,0.31806,0.95307,4.0882,115.85,33.245,0.027797,2.8956,191.55,131.69,0.69446,4.5266,0.79272,1.3322,0.47033
0.053656,0.0050307,0.089629,0.074917,0.0013455,0.073487,0.0045165,0.065233,0.012379,0.0041409,0.53189,0.25181,0.29113,51.473,58.717,0.66053,2.945,79.661,116.92,0.61872,4.4543,0.54632,3.4312,0.68389
0.084337,0.0077706,0.062832,0.095059,0.0077591,0.023712,0.0094523,0.017488,0.068131,0.0089904,0.86325,0.54833,1.8108,133.58,60.809,0.99934,2.6594,68.532,128.32,0.18096,4.8406,0.86073,2.0595,0.22154
0.089508,0.0014272,0.07158,0.024683,0.0085725,0.049525,0.009025,0.065994,0.086384,0.0031393,0.85623,0.35987,1.7664,55.643,140.39,0.28005,4.3512,135.8,98.826,0.57,0.33098,0.99916,1.1827,0.93392
0.018979,0.0028704,0.033821,0.083257,0.0067622,0.029099,0.0078007,0.075601,0.045803,0.0094839,0.45251,0.90895,0.53256,187.92,146.8,0.97522,2.5656,62.598,205,0.69167,1.6384,0.86789,2.9372,0.083003
0.074548,0.0011174,0.066001,0.068337,0.005947,0.065638,0.0051136,0.090327,0.093757,0.0063139,0.49705,0.12093,0.73656,70.96,79.376,0.32722,2.6949,71.307,13.255,0.69543,2.6268,0.96386,1.295,0.3319
0.074305,0.0071401,0.054411,0.057662,0.0031126,0.020912,0.0022673,0.049242,0.033752,0.0036139,0.25436,0.39684,1.7219,158.9,30.512,0.27742,2.7117,55.133,110.88,0.16788,5.1994,0.8042,2.9041,0.79746
0.076921,0.0045986,0.092616,0.034462,0.0091007,0.09937,0.0044924,0.076395,0.035403,0.0063888,0.46664,0.51583,3.7345,216.63,57.303,0.73232,0.28048,182.4,73.346,0.91164,5.6494,0.46997,1.9304,0.13996
0.034042,0.0061801,0.077719,0.064807,0.0010183,0.013253,0.008523,0.017281,0.071125,0.0070668,0.66342,0.78377,3.2134,134.76,210.49,0.85765,1.8753,241.05,71.606,0.51145,2.2137,0.091568,0.82143,0.91493
0.041839,0.0079815,0.041842,0.019708,0.0062245,0.034491,0.0022785,0.092199,0.053292,0.0083771,0.9714,0.26456,0.14359,225.86,70.422,0.48112,2.5896,211.14,207.08,0.13353,2.4182,0.37389,0.045054,0.33104
0.082958,0.0062362,0.056586,0.068604,0.0037129,0.079834,0.006214,0.09194,0.083036,0.0012408,0.67332,0.8684,4.6765,95.188,37.038,0.53982,4.8859,135.8,236.54,0.42733,2.4209,0.56901,3.1749,0.42399
0.040994,0.0043782,0.029706,0.049434,0.0060025,0.088482,0.0068092,0.089407,0.094194,0.0017568,0.8818,0.92095,0.64911,59.678,144.07,0.19909,2.49,153.04,247.73,0.42901,8.9252,0.23114,2.6127,0.39857
0.056968,0.0029832,0.080488,0.077258,0.0079369,0.094733,0.007464,0.06068,0.013924,0.0071747,0.22156,0.21457,4.5538,57.078,17.948,0.29492,2.7331,243.35,128.7,0.18237,0.49543,0.62615,3.6555,0.62754
0.028654,0.0063156,0.099689,0.04654,0.0098404,0.01929,0.0057712,0.053178,0.027523,0.0055435,0.67718,0.52879,1.2288,174.6,243.09,0.79658,1.096,158.29,91.229,0.66532,3.2352,0.69582,3.1551,0.83106
0.067599,0.00347,0.022697,0.056083,0.0056581,0.040668,0.005554,0.020556,0.032993,0.0097947,0.2944,0.28225,4.4044,170.12,95.337,0.57501,4.1008,240.17,200.86,0.48315,3.7631,0.75676,2.3411,0.17575
0.082664,0.008234,0.061813,0.09789,0.0090648,0.054969,0.0069178,0.04188,0.047403,0.0097459,0.63039,0.54847,4.0066,201.13,170.55,0.47236,3.5364,157.12,232.17,0.42119,1.5342,0.4431,3.4846,0.13181
0.086052,0.0074898,0.087413,0.079817,0.0085663,0.05246,0.0078537,0.089255,0.053885,0.0073289,0.70069,0.97523,2.3878,168.89,228.69,0.022504,4.1943,201.52,198,0.75434,3.9615,0.74129,4.0863,0.4536
0.012043,0.0028272,0.054768,0.016382,0.0038933,0.064151,0.0068849,0.071976,0.071233,0.0018633,0.90508,0.21199,2.7181,153.8,221.52,0.89094,3.45,168.03,194.46,0.64872,8.0447,0.74009,3.4173,0.46612
0.061155,0.0094514,0.023003,0.064355,0.0011105,0.072362,0.0081171,0.040134,0.042248,0.0010672,0.11109,0.54979,0.018458,236.21,166.73,0.099798,3.3819,204.57,199.6,0.59026,2.6595,0.59958,4.9076,0.79987
0.0518,0.0075844,0.061758,0.067647,0.0043622,0.022029,0.0066343,0.067512,0.028878,0.0025778,0.46959,0.36279,4.5015,99.984,153.8,0.41819,4.3525,249.84,201.24,0.11606,5.8655,0.17313,2.2948,0.199
0.038293,0.0049241,0.05244,0.068212,0.0039924,0.067707,0.0095315,0.089949,0.042811,0.0063004,0.24233,0.6749,4.1579,225,40.928,0.93107,3.1975,131.34,52.941,0.36401,4.4185,0.3509,4.4371,0.2497
0.019024,0.0094266,0.060071,0.023472,0.0022916,0.044912,0.0069307,0.022597,0.093862,0.0037668,0.94436,0.86537,2.1016,173.15,96.976,0.99248,2.1423,237.76,52.822,0.2702,7.821,0.53865,1.3309,0.83281
0.078607,0.0069863,0.08316,0.026679,0.0079921,0.030233,0.0076544,0.012718,0.064434,0.0015831,0.86031,0.42189,3.8864,213.44,106.28,0.72086,2.7329,247.13,229.13,0.2459,2.5269,0.050744,2.2029,0.44926
0.071338,0.0028141,0.036061,0.028879,0.0094007,0.019611,0.00121,0.050816,0.044525,0.0092319,0.50762,0.42273,3.4132,123.53,239.42,0.96696,2.5864,103.67,132.25,0.94628,3.0893,0.69632,3.7149,0.39518
0.042129,0.0033787,0.081603,0.067841,0.0053524,0.061188,0.0087863,0.028393,0.094449,0.0012151,0.83298,0.63016,4.0765,111.09,214.13,0.9074,1.5883,241.48,51.461,0.29209,3.7578,0.78026,2.5633,0.013202
0.091262,0.0071088,0.020016,0.094719,0.0012067,0.032584,0.0024616,0.061685,0.097764,0.0082482,0.42753,0.29701,0.42531,211.34,35.611,0.69006,4.6148,153.11,186.28,0.079099,3.1928,0.37922,4.5948,0.026258
0.086721,0.0085018,0.038542,0.051828,0.0040604,0.031683,0.005465,0.097543,0.096758,0.0083799,0.55095,0.74936,0.79771,171.6,103.06,0.11173,0.93666,106.13,170.83,0.18262,7.8297,0.3768,0.88667,0.77684
0.053814,0.0034322,0.015394,0.059235,0.0084395,0.035486,0.0027367,0.027985,0.033216,0.0065868,0.56104,0.42385,2.1764,79.41,64.188,0.71647,0.076211,50.712,70.416,0.63336,0.021928,0.09012,4.3257,0.81995
0.082332,0.0036696,0.067083,0.040209,0.0089613,0.097699,0.0013537,0.062701,0.043622,0.0089651,0.89205,0.45068,1.9731,60.538,7.0635,0.2288,2.8706,221.53,85.449,0.95038,4.4528,0.96494,1.8159,0.38722
0.064332,0.0013892,0.059034,0.064433,0.0039415,0.035816,0.0055006,0.038091,0.057185,0.0062971,0.52118,0.63374,2.7973,157.17,236.52,0.97554,4.0856,159.69,58.027,0.92768,4.2836,0.57933,0.51684,0.76047
0.037424,0.0053925,0.084567,0.041671,0.0049689,0.091224,0.007015,0.035635,0.035635,0.0011159,0.73474,0.31201,0.16603,88.695,29.68,0.31477,4.9038,246.12,35.098,0.11018,2.7399,0.34881,0.36575,0.729
0.065109,0.0083989,0.015019,0.012984,0.0085697,0.071216,0.009978,0.056914,0.036296,0.0077057,0.77023,0.38537,2.6561,115.62,103,0.60274,4.1276,200.74,27.795,0.94474,7.23,0.3301,0.49683,0.12299
0.06267,0.0084045,0.038106,0.089017,0.0029292,0.08344,0.003117,0.091137,0.060718,0.0081737,0.16396,0.47774,4.0494,196.3,249.74,0.65162,2.7594,136.4,101.58,0.27338,3.4211,0.88285,3.6059,0.56603
0.061528,0.0064253,0.021488,0.069443,0.0093006,0.044575,0.0039889,0.010805,0.026083,0.0028421,0.26798,0.99457,2.8238,235.04,134.72,0.8557,2.4473,102.66,9.4918,0.6895,7.5157,0.58017,3.782,0.43941
0.083983,0.0037289,0.046612,0.030754,0.0019941,0.086943,0.0045887,0.075676,0.083542,0.0060182,0.75295,0.26705,4.3191,207.1,181.83,0.61092,0.18094,177.34,1.4898,0.75386,1.0844,0.49009,0.83529,0.95366
0.079313,0.0085855,0.093883,0.078612,0.006691,0.0109,0.0097426,0.033585,0.032096,0.0086407,0.86116,0.19659,2.4149,226.83,64.485,0.75446,3.3174,188.06,6.199,0.85106,7.3373,0.52511,2.1184,0.77856
0.038665,0.004674,0.073377,0.068536,0.0068998,0.09234,0.0085204,0.091822,0.031376,0.0080046,0.58645,0.21341,4.242,56.016,151.99,0.89695,4.6434,202.28,211.27,0.67703,7.8941,0.38019,4.2484,0.594
0.090179,0.0092096,0.090591,0.075241,0.0058206,0.070058,0.0036437,0.080428,0.034623,0.0013255,0.15139,0.9098,1.778,84.17,185.08,0.57586,4.353,165.22,185.3,0.87668,5.3127,0.6372,1.8896,0.43335
0.058142,0.0097385,0.02611,0.062035,0.0075783,0.091374,0.0021161,0.020095,0.084253,0.001992,0.7258,0.89414,4.4357,212.76,16.359,0.8519,2.2093,171.8,46.818,0.2149,4.6932,0.6472,4.8998,0.61733
0.059204,0.0026125,0.04834,0.069452,0.0074361,0.093069,0.0044567,0.022432,0.082296,0.0069034,0.47252,0.78723,4.3641,90.465,0.97461,0.16466,4.0117,87.164,1.163,0.16854,8.7961,0.74118,4.8759,0.7627
0.024032,0.0097203,0.031866,0.065472,0.0049408,0.082017,0.0042919,0.082944,0.077359,0.0045275,0.20469,0.48936,1.7776,237.97,102,0.1442,4.1468,85.788,142.38,0.97103,0.31032,0.79967,0.45767,0.2482
0.042022,0.008841,0.056481,0.078136,0.0091082,0.088386,0.0021877,0.024128,0.08947,0.0055107,0.99576,0.57299,1.5348,108.32,106.78,0.058104,2.5125,160.99,51.428,0.63868,2.4143,0.46456,2.6762,0.91512
0.097931,0.0031815,0.072933,0.050544,0.0062239,0.094239,0.0011115,0.087674,0.093063,0.0058096,0.48418,0.8001,3.2422,79.654,121.43,0.34986,3.665,156.81,212.85,0.38297,1.1193,0.99049,4.0553,0.32845
0.027259,0.0017533,0.089117,0.033303,0.0096747,0.089637,0.001832,0.064394,0.089096,0.0063986,0.76156,0.45859,3.0924,84.001,64.591,0.29739,0.14962,60.53,150.81,0.32364,3.4124,0.89368,4.6485,0.97172
0.058573,0.0068626,0.089617,0.027641,0.0020581,0.026743,0.0059413,0.040147,0.042105,0.0015483,0.73573,0.49845,1.6916,83.881,147.49,0.93606,4.6441,209.78,221.41,0.9765,3.5054,0.35218,1.2727,0.44569
0.038845,0.005296,0.023932,0.099681,0.0085637,0.040167,0.0013578,0.06106,0.053811,0.003679,0.2909,0.96332,4.9104,79.873,65.497,0.99439,0.78354,74.583,76.748,0.67601,6.925,0.6707,1.9889,0.64261
0.073567,0.0020916,0.085036,0.057161,0.0097652,0.057793,0.0073224,0.078738,0.038565,0.0044052,0.90884,0.35724,0.75194,66.305,180.73,0.85037,4.1927,145.51,59.225,0.17611,0.57649,0.17977,2.2563,0.9658
0.01719,0.0022537,0.084076,0.036901,0.0098241,0.037988,0.0012206,0.06449,0.02618,0.0030516,0.50514,0.78297,0.79411,223.96,111.54,0.46637,4.8518,75.921,162.34,0.24164,7.5515,0.17352,3.6751,0.38549
0.051568,0.0071322,0.03721,0.068363,0.0099814,0.067516,0.0032037,0.011926,0.017571,0.0014145,0.83607,0.91727,1.2939,195.36,94.506,0.90491,2.6351,145.31,103.35,0.49204,8.8335,0.89525,1.1416,0.79092
0.03335,0.0039757,0.031166,0.016418,0.0025131,0.078012,0.0042206,0.059897,0.032556,0.0015587,0.29339,0.36224,0.32057,204.78,102.26,0.30819,0.021552,83.791,12.034,0.67918,3.163,0.39048,4.0172,0.65393
0.064236,0.0021101,0.030194,0.092406,0.0022676,0.040866,0.0032537,0.079557,0.067298,0.0088894,0.42461,0.66648,0.73296,84.091,42.061,0.7885,0.82931,140.16,60.113,0.44296,2.4268,0.93821,3.441,0.7139
0.039322,0.0074983,0.09065,0.04882,0.0049443,0.031909,0.0025694,0.072936,0.0442,0.0076255,0.18767,0.15859,2.9909,243.93,125.97,0.96617,3.2688,154.54,35.176,0.24799,2.2201,0.32732,3.8903,0.63325
0.02777,0.0011297,0.029575,0.045386,0.0023761,0.036071,0.0085559,0.029461,0.085202,0.0058545,0.68453,0.12712,0.79786,120.13,179.44,0.24591,0.25317,76.955,87.009,0.83026,6.8111,0.36115,3.1458,0.98286
0.075916,0.0099348,0.030875,0.025006,0.0062966,0.0812,0.0043491,0.016453,0.090229,0.0042603,0.84921,0.77293,4.424,223.82,53.406,0.83221,1.8568,249.07,56.176,0.89888,6.9481,0.10865,0.88559,0.11699
0.051368,0.0024116,0.061929,0.088687,0.0086631,0.054535,0.0023177,0.098475,0.083339,0.0065651,0.76657,0.59833,1.5013,132.75,16.901,0.65807,3.7297,249.45,220.85,0.6239,7.1114,0.9298,2.9765,0.49471
0.071703,0.008702,0.036954,0.020742,0.005001,0.010245,0.0086442,0.050819,0.072839,0.0038026,0.23957,0.77185,2.5281,232.87,17.274,0.092404,0.061698,168.94,46.351,0.82874,3.9046,0.67622,0.31899,0.66249
0.073932,0.0079314,0.03909,0.056499,0.0073714,0.09486,0.0057772,0.068377,0.087274,0.0016632,0.54288,0.34169,3.7087,217.32,23.622,0.79304,3.6781,139.89,6.5257,0.73918,5.4323,0.12383,1.7628,0.023707
0.050582,0.0056306,0.038223,0.036882,0.0025674,0.020861,0.0027528,0.037862,0.058833,0.0066979,0.87247,0.35508,0.89205,207.27,188.84,0.94114,0.11423,236.14,239.48,0.48371,7.256,0.73864,4.9686,0.64992
0.027201,0.0044606,0.075105,0.024326,0.0072595,0.069714,0.0019008,0.067945,0.079418,0.0088499,0.33777,0.46191,2.0583,52.166,200.55,0.67673,4.4797,54.717,75.482,0.45174,1.739,0.025331,3.925,0.79268
0.026922,0.0012008,0.090997,0.07878,0.0019989,0.010989,0.0096324,0.082649,0.062472,0.0045082,0.93145,0.54785,0.14319,129.66,153.43,0.90178,2.7517,133.71,181.83,0.93081,4.9917,0.40439,1.5955,0.25212
0.096566,0.0079392,0.093063,0.054125,0.0011418,0.09049,0.00744,0.064339,0.095566,0.0024951,0.16657,0.13674,1.1444,55.175,20.273,0.92791,0.92269,132.68,155.59,0.82816,2.1173,0.31377,3.7673,0.24329
0.08037,0.0029046,0.017918,0.08079,0.0015778,0.059928,0.0024757,0.099343,0.079617,0.0095287,0.88458,0.66738,1.889,66.127,40.571,0.89492,2.3704,116.68,134.49,0.24881,3.2326,0.56398,4.1825,0.70173
0.099126,0.0088948,0.048983,0.072465,0.0013796,0.050527,0.0060477,0.081604,0.079899,0.0053518,0.37747,0.70578,3.9351,64.365,125.96,0.61446,2.8665,247.65,3.7988,0.7832,7.4719,0.50526,0.27622,0.89675
0.079705,0.0024509,0.054825,0.022295,0.0074134,0.050268,0.0067708,0.029893,0.035891,0.0035389,0.65009,0.73551,2.4229,225.27,147.29,0.14527,1.1411,216.03,82.857,0.64277,0.45152,0.14744,3.2717,0.35444
0.028912,0.0090814,0.059093,0.077724,0.003081,0.055298,0.0061807,0.034177,0.049687,0.0084965,0.6421,0.27953,2.6087,69.458,208.52,0.86001,3.9789,143.14,63.369,0.30282,1.857,0.68427,0.47146,0.93364
0.010147,0.002453,0.076927,0.052601,0.0078757,0.031458,0.0061671,0.086577,0.091556,0.0046546,0.65918,0.53722,1.1996,72.3,134.43,0.77128,2.4456,88.645,0.42989,0.14738,5.7079,0.52207,1.2527,0.73187
0.049437,0.0053822,0.098312,0.064371,0.0093997,0.045957,0.0064434,0.052503,0.039473,0.0061926,0.90853,0.64044,3.7532,219.2,124.49,0.78343,0.061736,190.81,54.56,0.83695,5.3871,0.57942,4.0777,0.030439
0.04338,0.0068392,0.070195,0.047077,0.0036016,0.036232,0.0018866,0.077673,0.050016,0.0064845,0.91628,0.74692,3.3177,194.49,3.273,0.29319,0.54104,66.002,63.219,0.37437,3.3575,0.31366,1.9963,0.148
0.013655,0.0042402,0.082564,0.061174,0.007301,0.054261,0.0067686,0.087654,0.053157,0.009238,0.56377,0.35752,1.8604,212.05,129.53,0.5166,3.3576,143.51,42.442,0.98211,7.6544,0.86574,3.837,0.50168
0.030482,0.0068205,0.058749,0.055956,0.0082875,0.022162,0.0035478,0.078257,0.076171,0.0068309,0.56503,0.91882,2.6655,54.706,66.092,0.26581,2.5998,140.64,157.6,0.072063,2.2295,0.52161,4.2817,0.034318
0.060205,0.0092923,0.029992,0.067054,0.0039422,0.094909,0.0031791,0.050258,0.011356,0.0073844,0.70253,0.89183,4.1002,208.12,42.252,0.075325,0.45582,186.87,249.02,0.70795,7.9856,0.24419,0.2081,0.4438
0.067801,0.0098684,0.038274,0.016975,0.0091998,0.092754,0.0033959,0.088835,0.016357,0.0032194,0.79653,0.67824,2.2075,94.621,96.712,0.45333,1.2927,236.43,24.653,0.17347,6.2656,0.73506,4.9682,0.15106
0.076572,0.0043453,0.064321,0.036766,0.0028484,0.058159,0.0063558,0.025552,0.072789,0.0070777,0.12699,0.38203,3.7209,96.893,16.799,0.37955,0.032167,85.558,59.971,0.80756,6.1463,0.19297,3.7613,0.94947
0.030199,0.0087295,0.024315,0.017156,0.0011122,0.065085,0.0074673,0.04741,0.040476,0.0060783,0.77443,0.52169,2.2831,229.36,170.66,0.67102,0.068437,53.487,137.2,0.14514,8.9302,0.97983,2.5736,0.031669
0.015371,0.0024529,0.028455,0.056327,0.0048853,0.081925,0.0078213,0.043629,0.099069,0.0071453,0.91124,0.63907,1.5387,195.09,142.01,0.20551,4.5131,134.07,28.379,0.80499,0.48785,0.50165,1.084,0.24912
0.044375,0.0013278,0.079379,0.023218,0.0052414,0.0895,0.0046814,0.044341,0.016139,0.0050106,0.90035,0.68011,4.1907,217.66,84.288,0.55309,4.9944,51.064,224.22,0.014051,5.1752,0.96213,0.48515,0.064092
0.023747,0.0063161,0.040645,0.093532,0.0097511,0.014955,0.0086645,0.074729,0.082434,0.0070631,0.436,0.90237,3.7188,230.61,72.233,0.73936,1.9588,202.69,78.793,0.082252,1.2132,0.14654,3.9727,0.66418
0.058876,0.0083821,0.081021,0.037146,0.0062481,0.047905,0.0039206,0.01491,0.067317,0.0049628,0.90319,0.79537,4.8617,164.7,137.12,0.089214,1.0485,182.22,16.341,0.044387,2.0269,0.56651,3.5935,0.094487
0.039112,0.0032308,0.078117,0.088795,0.0029768,0.058321,0.0038214,0.031463,0.09553,0.0037409,0.86011,0.99588,4.8673,196.07,189.32,0.67431,3.1228,69.59,85.368,0.8051,2.6552,0.50739,2.9727,0.91771
0.037106,0.0054413,0.02063,0.06162,0.0031435,0.078624,0.0099737,0.083816,0.031957,0.0074889,0.65531,0.23377,2.5523,191.12,21.788,0.83385,3.2229,234.65,105.79,0.54171,7.4949,0.081415,2.6071,0.59719
0.027402,0.0013026,0.035673,0.082565,0.0095952,0.072349,0.0097323,0.063003,0.0263,0.0042236,0.84843,0.37661,3.3787,179.05,168.38,0.73543,3.8155,140.46,52.348,0.21241,0.46697,0.012712,3.6165,0.06575
0.042025,0.0092653,0.066509,0.087058,0.005422,0.07384,0.0057393,0.089922,0.035797,0.008341,0.86785,0.15023,1.4661,207.48,9.3667,0.85187,0.58527,236.19,92.931,0.81093,4.9379,0.39408,1.8693,0.4175
0.034478,0.0087488,0.07852,0.038616,0.0040683,0.089812,0.0050053,0.093946,0.083765,0.0090195,0.24704,0.73398,0.44249,168.32,235.92,0.02532,2.3768,146.99,48.343,0.27297,1.8035,0.60504,4.6532,0.87505
0.033116,0.0071601,0.037467,0.087065,0.0086937,0.020899,0.0057617,0.095478,0.032734,0.0076588,0.23202,0.16972,2.1982,81.369,10.697,0.020078,2.0005,211.37,200.03,0.49623,8.2505,0.12591,1.5219,0.16092
0.067199,0.0061319,0.051011,0.080337,0.0075799,0.018093,0.0020334,0.084015,0.062305,0.0012271,0.40364,0.98438,0.55258,201.99,207.57,0.6408,1.4087,189.01,0.45777,0.24763,7.407,0.052861,2.9446,0.69765
0.052457,0.0029399,0.063862,0.07354,0.0027602,0.039817,0.0068211,0.066001,0.080753,0.0048347,0.4297,0.83944,2.7118,183.12,133.96,0.21567,4.0411,214.64,55.884,0.81741,8.9802,0.84938,3.0631,0.45162
0.090016,0.0050405,0.073158,0.052134,0.0091353,0.068709,0.0028959,0.065458,0.064244,0.0042368,0.83464,0.8091,4.3074,99.398,84.317,0.31409,0.32014,174.01,98.846,0.12198,2.9203,0.012046,2.0035,0.38302
0.043521,0.0048929,0.072624,0.096146,0.0095507,0.032983,0.0050351,0.014925,0.099469,0.0088144,0.5679,0.44734,3.9782,81.051,153.1,0.95344,0.92998,144.69,126.04,0.93066,4.6916,0.98288,2.0725,0.0098099
0.066431,0.0050835,0.069408,0.041465,0.0041102,0.034263,0.0010956,0.054307,0.04571,0.0058769,0.46154,0.47614,3.5779,103.92,217.51,0.2177,4.1043,183.14,68.91,0.92289,0.2608,0.010234,1.9037,0.13391
0.053562,0.0090496,0.049756,0.099596,0.0027405,0.016447,0.001983,0.039008,0.036013,0.0071893,0.12489,0.54156,4.9887,126.21,12.057,0.53915,1.3128,125.07,230.31,0.73869,5.8453,0.87241,3.5817,0.25294
0.087998,0.0091013,0.011624,0.054838,0.0031354,0.030373,0.0049449,0.054833,0.036845,0.0049799,0.5344,0.24337,2.0744,199.98,54.662,0.43744,0.03664,245.79,232.34,0.86081,0.4279,0.23964,4.3864,0.13114
0.077132,0.0088656,0.047998,0.061258,0.0029775,0.098637,0.0039641,0.079125,0.060742,0.0033756,0.46148,0.78162,1.8473,89.597,248.51,0.48477,1.7819,110.51,13.909,0.40642,0.94508,0.36976,0.13908,0.11164
0.028809,0.0046739,0.061589,0.026759,0.0088335,0.084247,0.005972,0.069548,0.01981,0.0075886,0.56312,0.56873,1.0105,243.85,101.83,0.39173,4.1677,57.854,42.398,0.73665,0.43233,0.60498,1.4664,0.29466
0.022087,0.0022023,0.061314,0.031784,0.001321,0.091106,0.0077493,0.035809,0.033194,0.0028207,0.50447,0.44905,4.4979,78.251,62.933,0.29442,4.8157,169.2,93.407,0.90399,4.4955,0.57978,0.42003,0.13975
0.029481,0.0032354,0.025362,0.02517,0.0066497,0.041356,0.008261,0.0461,0.039582,0.0031397,0.14795,0.88449,1.7725,83.628,33.669,0.58763,4.719,51.105,53.082,0.03423,7.0518,0.36446,0.61484,0.46822
0.098741,0.0034037,0.078707,0.034087,0.005046,0.032991,0.0071543,0.063318,0.037879,0.0038501,0.48054,0.92663,0.70647,96.289,81.497,0.62306,2.4382,199.19,161.97,0.45204,3.6826,0.92828,3.7687,0.38209
0.07429,0.0034593,0.018857,0.042534,0.0080171,0.029567,0.0011545,0.024174,0.032239,0.0018447,0.22303,0.86355,4.7126,216.95,37.865,0.19014,0.047854,112.7,82.961,0.74173,7.4255,0.16929,2.3873,0.1689
0.06415,0.0057733,0.037337,0.06014,0.0053796,0.079654,0.0065656,0.096932,0.021472,0.0068837,0.1541,0.36099,4.451,232.19,50.792,0.79534,3.2961,241.18,172.84,0.5686,8.568,0.93017,4.7898,0.33688
0.067923,0.0045324,0.021407,0.082755,0.0096984,0.059964,0.0089595,0.017241,0.013156,0.0059938,0.44799,0.86956,2.7554,55.783,216.64,0.16124,4.0624,60.719,235.27,0.52766,0.37284,0.84658,0.26729,0.26045
0.039968,0.0021675,0.030459,0.038078,0.001243,0.093235,0.0020144,0.04052,0.065768,0.00712,0.15422,0.3841,0.32607,105.43,192.4,0.29818,2.6182,92.594,183.46,0.74417,0.8412,0.33574,3.1399,0.63363
0.024607,0.0052103,0.081329,0.043558,0.0093775,0.049561,0.0023952,0.038244,0.076574,0.003148,0.48798,0.48343,3.347,117.63,124.3,0.6936,0.12861,214.98,182.12,0.94896,3.398,0.24197,4.337,0.70458
0.086193,0.0023677,0.074044,0.079622,0.0013075,0.019602,0.0043403,0.019769,0.020308,0.0094306,0.684,0.84851,2.6234,56.63,7.4593,0.32017,0.83856,72.566,12.193,0.84322,1.2246,0.13081,4.6593,0.63456
0.092185,0.0037318,0.048924,0.090681,0.007301,0.096879,0.0046178,0.039331,0.069846,0.0073027,0.42492,0.62539,0.0032859,149.71,116.88,0.55604,0.73923,62.889,70.769,0.6522,7.7357,0.85736,3.7971,0.78399
0.042649,0.0080726,0.011446,0.020597,0.006607,0.0354,0.007883,0.097369,0.016169,0.0047925,0.64093,0.99936,1.8404,130.03,115,0.87864,1.1824,86.364,210.9,0.55006,1.9017,0.51332,0.98819,0.64336
0.068813,0.0051254,0.056063,0.019261,0.005407,0.096749,0.0040161,0.097215,0.086093,0.0010783,0.18695,0.23161,3.705,208.62,240.5,0.9548,3.68,85.887,92.879,0.75737,7.906,0.361,0.22524,0.40667
0.085202,0.0047027,0.01206,0.054625,0.0017087,0.042845,0.0073909,0.072077,0.024424,0.0082355,0.31974,0.95972,1.7615,220.59,38.566,0.98635,4.3202,94.79,137.9,0.024437,7.5784,0.58359,0.31176,0.3446
0.050073,0.004622,0.016677,0.020144,0.0025442,0.075341,0.0078677,0.088486,0.078418,0.0040675,0.46588,0.2773,0.15664,109,27.692,0.72584,2.2173,128.82,44.208,0.95032,6.4175,0.464,0.032251,0.42429
0.037851,0.0013707,0.065333,0.067769,0.0079776,0.014255,0.0020105,0.077126,0.032753,0.0022883,0.33752,0.30671,4.5547,199.93,96.037,0.074977,2.7069,229.1,197.11,0.40827,4.0563,0.52729,0.56794,0.21931
0.077777,0.0019754,0.015006,0.044856,0.0023551,0.044361,0.0020989,0.076747,0.040464,0.0065695,0.21315,0.90144,0.26348,242.73,99.487,0.093184,1.5987,170.79,163.16,0.98448,2.3043,0.1396,1.0234,0.78168
0.021579,0.0027203,0.018932,0.049388,0.0099862,0.050317,0.0086966,0.095173,0.088574,0.0029463,0.20033,0.72537,1.8255,75.451,228.26,0.57575,0.89449,242.09,133.55,0.50493,0.62948,0.61035,4.2338,0.7344
0.09975,0.003746,0.099677,0.012329,0.0017269,0.090952,0.0061642,0.027806,0.078263,0.0049578,0.79216,0.50537,0.62756,225.75,108.35,0.58125,2.9943,147.85,103.78,0.54422,1.0095,0.5462,4.6188,0.19358
0.070854,0.003124,0.017172,0.034949,0.0089424,0.018749,0.0094404,0.022913,0.015528,0.009555,0.44805,0.95823,4.842,121.79,127.24,0.33124,0.88948,222.95,92.09,0.4259,6.8559,0.80082,3.269,0.36229
0.047122,0.0054131,0.019174,0.072552,0.0051461,0.018533,0.0029718,0.098473,0.083489,0.0061998,0.80826,0.897,3.1678,176.29,141.91,0.016438,3.7946,81.369,10.786,0.77757,7.9802,0.51335,2.3462,0.36125
0.02915,0.005609,0.05133,0.081126,0.0056483,0.032943,0.0078105,0.066229,0.062753,0.0086813,0.24579,0.78839,2.1763,118.87,41.694,0.11524,0.13937,218.62,242.37,0.67739,7.7134,0.36361,2.7367,0.91953
0.030322,0.0028675,0.018478,0.046188,0.0049918,0.067601,0.0063906,0.021765,0.03789,0.0056026,0.90032,0.24375,0.7282,234.3,30.319,0.76093,1.7608,168.47,77.953,0.70926,3.5508,0.27655,0.90985,0.989
0.073883,0.0061492,0.059974,0.015032,0.0096096,0.097161,0.0052975,0.045944,0.020711,0.0049849,0.80197,0.9659,0.057969,119.22,106.43,0.3961,0.39281,127.04,76.108,0.14829,8.0098,0.6226,4.1934,0.70198
0.06182,0.0077914,0.023467,0.038055,0.0065764,0.032723,0.0096075,0.054312,0.074067,0.0025203,0.13244,0.95377,0.4981,139.95,119.34,0.64514,2.4429,192.22,34.312,0.92171,4.233,0.56249,2.8374,0.22761
0.043351,0.0024956,0.095799,0.033225,0.0040213,0.020199,0.0087714,0.02044,0.037057,0.0064216,0.63264,0.34494,3.1544,194.96,97.777,0.93796,1.283,78.375,171.62,0.75236,2.7806,0.79367,3.7541,0.062955
0.097099,0.0027042,0.085016,0.045542,0.0050127,0.063093,0.0016942,0.045759,0.041431,0.0016783,0.16583,0.14587,1.9959,135.34,207.63,0.2011,1.8565,95.715,218.51,0.11952,1.1833,0.94513,4.0355,0.48342
0.078331,0.0083516,0.064946,0.025574,0.0077073,0.023733,0.0014832,0.069179,0.030997,0.0075719,0.55976,0.54883,0.90491,181.45,159.58,0.64091,0.82389,75.735,174.75,0.65052,4.8214,0.32437,2.9525,0.59195
0.049429,0.0033796,0.08816,0.039411,0.0059846,0.023147,0.0024875,0.075429,0.072864,0.0020017,0.67746,0.93524,4.7159,138.66,100.19,0.2735,0.1233,211.95,46.785,0.35308,2.4611,0.20457,0.89772,0.21274
0.020489,0.0015911,0.080503,0.021392,0.0076942,0.067597,0.0040375,0.025479,0.073677,0.0053817,0.58781,0.693,0.0092364,162.17,142.16,0.21347,1.9394,134.36,233.72,0.57536,3.3235,0.9071,0.54717,0.80599
0.087105,0.004196,0.090393,0.095888,0.0066767,0.042257,0.0048461,0.04814,0.063236,0.0045075,0.44287,0.30748,1.2118,168.5,244.8,0.64461,0.72219,205.63,198.6,0.70552,0.54188,0.66062,1.8241,0.84128
0.082786,0.0055127,0.091872,0.070231,0.0024799,0.030049,0.0038054,0.096433,0.094745,0.0083692,0.22091,0.13684,1.2295,116.16,60.195,0.80297,1.7236,235.01,84.738,0.90393,2.1436,0.80974,1.0422,0.44318
0.044119,0.0091601,0.036907,0.031545,0.0064081,0.019756,0.0095662,0.029005,0.024179,0.0060541,0.48361,0.90811,2.6272,50.427,160.56,0.71101,2.0075,206.61,1.7264,0.33784,6.8935,0.91378,2.311,0.96735
0.025641,0.0029396,0.056421,0.093844,0.0045297,0.076059,0.001683,0.012558,0.07685,0.0028405,0.1298,0.35508,4.8437,147.61,237.84,0.08159,0.1401,162.12,226.23,0.34659,7.8719,0.90053,3.8159,0.34769
0.016773,0.0022622,0.081581,0.087537,0.0063357,0.010638,0.0019746,0.029178,0.019311,0.0046396,0.70745,0.67644,3.205,93.232,214.08,0.82519,4.3277,136.55,19.014,0.41286,6.3664,0.21445,0.33492,0.36261
0.016096,0.0088412,0.060315,0.027285,0.0022729,0.07302,0.0030526,0.018614,0.082867,0.0015749,0.9274,0.98682,2.7577,101.56,71.285,0.24691,1.8327,180.72,235.18,0.25714,3.5493,0.16542,3.1889,0.99918
0.05113,0.0069128,0.029885,0.02657,0.0046886,0.092922,0.002207,0.057244,0.064235,0.0080464,0.44994,0.24408,0.5426,231.98,55.013,0.33514,1.4719,143.51,21.224,0.51707,0.097508,0.44301,1.2221,0.64955
0.013551,0.006629,0.017288,0.065279,0.0075319,0.071064,0.0039812,0.067679,0.06764,0.0038042,0.57602,0.9288,3.4694,218.65,60.085,0.011408,0.068818,219.99,3.2947,0.33847,0.27743,0.68132,4.6549,0.49408
0.084898,0.0012774,0.098251,0.010102,0.0064795,0.097756,0.0024419,0.055247,0.019184,0.007321,0.49628,0.32439,4.4663,238.47,212.12,0.052144,4.69,64.81,222.46,0.64684,1.8849,0.9458,0.61309,0.3712
0.019218,0.001253,0.034847,0.099326,0.0060693,0.042083,0.0029645,0.060601,0.086434,0.0092357,0.33121,0.90602,1.3633,237.82,31.853,0.47913,1.6933,76.186,118.78,0.48786,5.1593,0.72852,4.5029,0.91698
0.064803,0.0079393,0.062267,0.047854,0.0010732,0.079785,0.0031205,0.06861,0.043059,0.0073335,0.10255,0.76801,2.6271,176.3,0.97261,0.43117,0.83238,205.19,145.82,0.57097,4.0821,0.46509,2.7461,0.6639
0.096074,0.0050987,0.094848,0.018215,0.0022614,0.05175,0.0035822,0.027795,0.060153,0.0066173,0.84672,0.9728,1.9204,143.98,100.54,0.69136,0.57583,229.93,191.19,0.32033,6.5405,0.58508,3.3974,0.16038
0.076765,0.0049522,0.065519,0.015798,0.0073703,0.052808,0.0074532,0.063402,0.079288,0.0039291,0.4947,0.31078,2.9007,128.2,238.57,0.94739,2.3263,198.54,123.58,0.69697,5.9072,0.25753,3.9142,0.70024
0.010452,0.0041994,0.044043,0.031864,0.0033128,0.091364,0.0043439,0.036409,0.050675,0.0094088,0.40081,0.31176,1.0719,125.33,67.332,0.55927,0.092475,59.648,108.13,0.85168,5.1671,0.93518,3.7446,0.071995
0.011866,0.0031885,0.042956,0.040511,0.007509,0.078043,0.0089483,0.040474,0.023303,0.0027982,0.27019,0.81449,3.1899,115.88,112.22,0.8496,2.7617,120.88,249.74,0.83902,7.6541,0.42723,4.622,0.61849
0.098965,0.0048815,0.099173,0.014877,0.0060348,0.093334,0.0069701,0.031687,0.034547,0.0032123,0.39581,0.42221,2.5019,92.45,11.539,0.71921,3.6736,142.21,37.32,0.79237,8.1519,0.99838,0.84741,0.8471
0.054402,0.0072162,0.038499,0.019953,0.0040182,0.035363,0.0058948,0.097261,0.023803,0.0041405,0.29661,0.36412,3.608,166.3,242.94,0.76518,2.8916,58.453,40.053,0.55871,4.359,0.18571,1.3111,0.94559
0.080248,0.0025416,0.053033,0.047937,0.0046263,0.053106,0.003207,0.08609,0.082586,0.0056054,0.33596,0.75582,1.6825,199.71,75.792,0.77398,1.257,163.68,74.921,0.98576,6.9442,0.52803,1.1226,0.41735
0.072162,0.0062614,0.032143,0.028513,0.0083258,0.060111,0.0099545,0.048294,0.059508,0.0089499,0.933,0.77164,2.7944,224.75,139.88,0.012775,1.4327,86.072,9.3971,0.86104,4.8957,0.55898,1.2858,0.13178
0.010089,0.0067509,0.017337,0.037881,0.0041901,0.081071,0.0031789,0.017266,0.039996,0.0018778,0.86642,0.60842,3.9964,195.64,18.482,0.018444,4.5873,236.83,209.41,0.23001,0.77234,0.18414,0.75312,0.82392
0.041526,0.0069011,0.090491,0.076073,0.0050772,0.025735,0.0055678,0.040342,0.016339,0.0099558,0.73209,0.48189,1.3228,237.11,142.1,0.63474,4.8017,168.59,166.2,0.23146,8.5077,0.59574,3.0025,0.15518
0.058803,0.0052227,0.042503,0.060328,0.0073627,0.073358,0.0025566,0.080293,0.014332,0.0094205,0.81401,0.65127,2.404,139.62,39.618,0.23797,0.50939,105.83,227.24,0.2559,7.5548,0.28852,1.5633,0.62104
0.013991,0.0071429,0.036412,0.051305,0.009703,0.02156,0.0053523,0.081945,0.050218,0.0035032,0.33158,0.77206,4.4365,192.66,57.733,0.46777,4.38,197.29,119.2,0.56332,6.4748,0.19893,2.3192,0.93488
0.020309,0.0029154,0.083518,0.088858,0.0081206,0.010537,0.0036672,0.097917,0.016997,0.0082249,0.86459,0.80959,4.6476,143.05,193.71,0.40547,1.9419,86.581,243.27,0.92694,4.7652,0.87511,3.7604,0.16997
0.067817,0.0068708,0.033476,0.052772,0.0050533,0.061538,0.0090133,0.097309,0.079472,0.0078235,0.59731,0.17866,4.7163,55.135,199.37,0.84676,3.2536,103.77,87.61,0.41629,0.24453,0.80736,1.7681,0.96145
0.089622,0.0019261,0.057913,0.010766,0.0086706,0.011454,0.0066426,0.065591,0.032146,0.0038935,0.5465,0.90704,2.0767,228.8,103.15,0.12716,1.9654,139.07,216.47,0.38736,6.0853,0.27368,3.1471,0.85999
0.054001,0.0060121,0.091848,0.020142,0.0042891,0.037762,0.0076108,0.018719,0.026308,0.004473,0.60193,0.36505,0.6789,100.32,189.88,0.85536,4.9256,229.5,60.397,0.75027,6.1251,0.1348,0.44625,0.24743
0.080639,0.0049554,0.01368,0.011761,0.0099912,0.095219,0.0076121,0.096452,0.05846,0.0035391,0.98689,0.80643,2.9194,178.11,217.58,0.78293,0.88959,183.27,240.95,0.80628,4.1203,0.094589,1.7864,0.29009
0.065411,0.0010323,0.027483,0.072357,0.001754,0.040106,0.0038822,0.05513,0.089618,0.003386,0.11231,0.79484,2.1837,80.046,198.74,0.42869,1.2926,71.063,36.074,0.79044,7.4712,0.11575,1.9995,0.60544
