0.11096
0.10371
0.11718
0.11826
0.089564
0.10274
0.10391
0.082393
0.12694
0.10093
0.087243
0.086434
0.10452
0.11572
0.10169
0.089973
0.090284
0.091336
0.10209
0.12024
0.10817
0.084055
0.08271
0.11589
0.090545
0.11612
0.11335
0.084978
0.1187
0.12503
0.11273
0.12114
0.11624
0.11562
0.10086
0.10523
0.085313
0.082575
0.10374
0.11401
0.090217
0.088653
0.10153
0.085363
0.089198
0.1191
0.12327
0.088737
0.10428
0.081264
0.11595
0.090892
0.08064
0.099023
0.1155
0.094452
0.11456
0.11756
0.1216
0.093537
0.10668
0.11508
0.10596
0.088316
0.081416
0.090247
0.11332
0.11685
0.094399
0.11322
0.10322
0.11341
0.081588
0.11832
0.098737
0.11792
0.10631
0.10024
0.083412
0.092327
0.10699
0.080456
0.11661
0.095458
0.12084
0.082904
0.1151
0.11697
0.096921
0.089973
0.12002
0.084892
0.099885
0.11686
0.10406
0.083911
0.095941
0.088401
0.10914
0.088761
0.081015
0.083488
0.11328
0.084745
0.11794
0.081638
0.10563
0.10435
0.10414
0.081133
0.11412
0.090626
0.10917
0.097241
0.082468
0.1157
0.10532
0.086591
0.10946
0.1144
0.09404
0.11592
0.083887
0.10755
0.10876
0.10717
0.1136
0.11408
0.092146
0.086567
0.095247
0.08646
0.11125
0.08674
0.12204
0.094453
0.11005
0.11781
0.094094
0.10202
0.091139
0.11755
0.098821
0.1011
0.11504
0.099911
0.12127
0.09256
0.080607
0.10904
0.10296
0.10064
0.082128
0.08632
0.10651
0.089091
0.085833
0.1057
0.11965
0.11008
0.082593
0.094537
0.08222
0.11011
0.11991
0.10022
0.11153
0.079485
0.10359
0.10288
0.097661
0.093686
0.084035
0.10599
0.081077
0.082669
0.08438
0.083443
0.11542
0.10763
0.12286
0.099277
0.11045
0.081701
0.10707
0.091269
0.10514
0.10259
0.11039
0.10572
0.086216
0.083666
0.10265
0.11543
0.11528
0.085956
0.10112
0.11493
0.080067
0.10687
0.10979
0.091147
0.10693
0.10127
0.10177
0.10246
0.10618
0.082741
0.093397
0.086705
0.085065
0.088534
0.11294
0.12206
0.1058
0.095064
0.086638
0.089762
0.080017
0.11681
0.10361
0.088904
0.11077
0.1041
0.1166
0.11007
0.082386
0.088339
0.084841
0.1129
0.082809
0.10765
0.086479
0.085197
0.088456
0.11303
0.082376
0.10724
0.11087
0.081995
0.080665
0.1119
0.11171
0.088254
0.084463
0.088458
0.12315
0.085997
0.085978
0.10214
0.094611
0.087521
0.11164
0.11735
0.11273
0.10661
0.10994
0.083683
0.084351
0.11543
0.0873
0.10869
0.095734
0.11794
0.10069
0.096374
0.084431
0.11726
0.10238
0.11571
0.10827
0.12242
0.097729
0.089758
0.084117
0.10676
0.10947
0.1211
0.10181
0.12156
0.11065
0.10636
0.086404
0.11422
0.092376
0.11423
0.12196
0.10318
0.10489
0.10564
0.11475
0.11494
0.085261
0.10898
0.10316
0.081747
0.10902
0.08728
0.084442
0.08033
0.10352
0.12332
0.086864
0.11501
0.088339
0.089768
0.13024
0.083266
0.11929
0.11103
0.087761
0.082189
0.10279
0.09914
0.085997
0.11969
0.08071
0.11834
0.10482
0.094605
