0.082847,0.0076292,0.03147,0.072912,0.0012553,0.051417,0.0053574,0.078577,0.060166,0.0039594,0.97297,0.94572,1.9176,188.94,119.68,0.58996,1.8747,159.95,71.915,0.83272,2.9266,0.12423,4.2767,0.3833
0.039912,0.0084348,0.073536,0.022421,0.0067441,0.072995,0.0086994,0.020159,0.078088,0.0069098,0.60094,0.24696,1.9508,198.3,156.78,0.66847,1.9579,82.1,1.1431,0.65662,0.45911,0.22602,0.94894,0.26875
0.014052,0.0069623,0.024949,0.067492,0.009422,0.019686,0.0060677,0.072297,0.036647,0.0059528,0.46726,0.99788,1.3127,242.12,124.11,0.68761,2.8101,115.45,131.2,0.68101,7.8646,0.03183,1.0835,0.90341
0.017072,0.0073933,0.042666,0.072923,0.0056061,0.088162,0.0086633,0.015384,0.03614,0.0091964,0.44772,0.19071,2.2427,165.82,194.6,0.6908,4.8955,172.82,218.03,0.97985,6.0864,0.44704,0.46197,0.95654
0.065322,0.0035484,0.017939,0.081707,0.0025348,0.083467,0.0049486,0.075251,0.089244,0.004771,0.27759,0.84191,2.0709,242.89,241.29,0.49183,3.1645,235.52,55.421,0.045907,8.5474,0.54525,1.9853,0.81518
0.045961,0.0058953,0.029257,0.068226,0.0067116,0.069865,0.0041353,0.032605,0.095394,0.004909,0.49578,0.71758,3.0194,249.58,203.68,0.27019,3.9215,175.36,98.223,0.33639,1.1895,0.24383,3.8086,0.42182
0.096508,0.0074371,0.031674,0.09525,0.0072286,0.065339,0.0045973,0.012877,0.056283,0.0077631,0.35957,0.96333,2.3433,104.02,108.87,0.20973,4.6949,249.76,155.72,0.14529,1.4349,0.47237,4.1339,0.51886
0.098502,0.0093102,0.032056,0.089052,0.0097933,0.099912,0.003896,0.065605,0.023365,0.0049385,0.79688,0.53646,0.1958,165.54,71.834,0.48967,0.68071,68.822,14.453,0.34988,3.2815,0.54717,4.6755,0.8876
0.039779,0.0064297,0.065213,0.076517,0.0081721,0.012416,0.0027944,0.056707,0.01123,0.0072219,0.45477,0.80918,0.76633,68.706,198.98,0.99184,3.2747,57.662,47.639,0.049834,8.9379,0.75412,2.4502,0.17467
0.017933,0.0047639,0.018633,0.045986,0.0047201,0.0804,0.0048684,0.011085,0.022365,0.0033383,0.99543,0.77952,2.382,70.456,10.326,0.45851,3.7466,54.628,42.139,0.26013,1.7296,0.72074,0.46055,0.71602
0.07868,0.0015009,0.017875,0.044057,0.0078991,0.070424,0.0089501,0.086308,0.04237,0.0017159,0.53668,0.75054,3.7976,201.21,44.285,0.92618,3.8781,96.311,113.64,0.58981,3.7799,0.63674,1.4164,0.3652
0.046182,0.0095935,0.027946,0.038745,0.0043327,0.09123,0.00639,0.043496,0.021817,0.0035828,0.52536,0.33816,0.10202,84.312,96.661,0.46454,0.42846,92.849,25.744,0.61822,6.9704,0.44515,0.12768,0.769
0.0102,0.004306,0.07749,0.028583,0.0096678,0.074772,0.0081202,0.03396,0.091481,0.0096222,0.29783,0.71956,3.9767,87.069,206.95,0.32882,1.6459,120.63,157.09,0.93826,3.8482,0.54826,0.26665,0.63409
0.085179,0.0020638,0.076165,0.078021,0.0058448,0.016646,0.0014144,0.081603,0.097862,0.0086846,0.60645,0.93909,1.3303,86.011,184.36,0.83072,2.7022,153.15,235.68,0.58185,6.0389,0.20977,1.8352,0.82825
0.036615,0.0070116,0.051235,0.095711,0.0041743,0.047733,0.0088924,0.054225,0.028567,0.0012364,0.53143,0.18122,2.2323,164.38,157.54,0.5974,2.858,235.45,219.66,0.29512,8.8101,0.068294,0.062046,0.7962
0.047779,0.0027841,0.086514,0.047968,0.0078446,0.091805,0.002834,0.079528,0.017219,0.0050389,0.71219,0.61505,0.94356,159.59,35.162,0.12361,4.3899,85.807,103.61,0.010752,0.99728,0.12948,0.57618,0.44806
0.023339,0.0033235,0.026837,0.089019,0.0098405,0.02333,0.001195,0.052549,0.097585,0.0020978,0.55315,0.6211,0.65065,137.28,232.12,0.091906,0.17836,226.4,246.45,0.74191,7.6609,0.33891,2.7145,0.51811
0.024288,0.0041773,0.095421,0.021206,0.0044326,0.018175,0.0088977,0.014307,0.028161,0.003054,0.66738,0.84276,2.6461,235.6,129.93,0.41337,0.05932,183.62,49.955,0.14953,0.32636,0.45154,3.6128,0.066797
0.064563,0.0044309,0.011831,0.076685,0.00981,0.05572,0.0079678,0.058869,0.041554,0.0082886,0.98217,0.39989,4.1993,107.41,160.96,0.26225,0.98012,232.91,32.99,0.86525,3.0019,0.31405,3.1496,0.071565
0.060949,0.0053887,0.021522,0.0353,0.0017309,0.049726,0.008621,0.015927,0.064641,0.0042021,0.80105,0.10569,4.2241,148.16,238.18,0.75335,1.8145,164.28,145.34,0.10317,6.2334,0.098132,1.054,0.43282
0.026049,0.0075106,0.068933,0.043494,0.0046042,0.084927,0.0094728,0.042216,0.059347,0.0088462,0.16648,0.70411,0.26643,114.68,205.03,0.98523,0.73794,242.67,16.36,0.56625,0.84547,0.75094,2.5509,0.12836
0.073401,0.0087829,0.088372,0.098598,0.002574,0.01322,0.0057616,0.025607,0.022052,0.002633,0.74327,0.31556,2.3583,141.76,68.72,0.27659,0.81596,125.16,239,0.0427,7.9457,0.34963,4.7503,0.67722
0.029461,0.0056362,0.095632,0.075132,0.0053461,0.01749,0.0017176,0.022204,0.066386,0.0062898,0.12109,0.88014,4.5837,52.988,36.324,0.41505,0.30933,153.94,132.79,0.72282,4.2386,0.96884,4.172,0.08312
0.031927,0.009417,0.096125,0.098758,0.0017246,0.098915,0.0012142,0.052393,0.018225,0.0015829,0.3099,0.86589,1.3949,213.91,208.37,0.22769,1.7926,88.347,124.61,0.30837,6.5039,0.94108,2.3438,0.69551
0.044738,0.0073632,0.059325,0.065251,0.0012365,0.01328,0.0021436,0.070038,0.06749,0.0071749,0.749,0.98064,4.0148,239.31,142.64,0.7916,4.9308,196.64,110.84,0.96944,6.1381,0.87841,3.3789,0.2376
0.084148,0.0053091,0.020289,0.030665,0.00606,0.030463,0.0066099,0.03128,0.054842,0.0080113,0.88356,0.84184,0.43983,94.596,104.64,0.53691,3.6664,134.62,227.85,0.84457,0.2816,0.17699,2.1643,0.62723
0.084321,0.0042767,0.081879,0.030909,0.0047653,0.092638,0.0015006,0.027485,0.044454,0.0099334,0.31764,0.14438,1.6504,143.15,218.06,0.31694,3.6607,151.17,30.204,0.090414,0.059264,0.28614,2.353,0.60332
0.046429,0.0066958,0.079547,0.042428,0.0031016,0.081944,0.0031109,0.072012,0.058467,0.0040207,0.21926,0.90182,1.228,62.339,3.7735,0.66485,3.9934,146.15,145.84,0.5888,2.7824,0.52165,4.5043,0.37996
0.05254,0.006672,0.079653,0.017934,0.0015722,0.018905,0.0059579,0.062492,0.036664,0.0030654,0.82652,0.41051,1.3737,208.75,206.41,0.11656,4.0836,202.5,73.806,0.38258,8.5087,0.96232,3.4255,0.94251
0.051712,0.0090706,0.073237,0.02527,0.0011221,0.037026,0.0054546,0.079942,0.023098,0.0078351,0.70937,0.18071,2.5208,146.69,51.515,0.20435,3.235,161.15,191.23,0.21758,8.4625,0.76706,2.5443,0.0037487
0.020644,0.0074848,0.079701,0.079665,0.0080302,0.076042,0.0068901,0.044715,0.068949,0.008798,0.78914,0.93403,1.9739,228.96,36.674,0.1572,0.5152,127.26,0.035447,0.47173,5.7827,0.52794,0.17318,0.72779
0.075901,0.0040123,0.010347,0.050883,0.0070038,0.09337,0.0098852,0.010423,0.011657,0.0077227,0.37752,0.86953,0.53157,210.31,103.12,0.26896,2.6311,202.54,244.98,0.29931,4.9804,0.65578,1.7203,0.54112
0.057676,0.0086022,0.083092,0.049237,0.003508,0.098653,0.0012911,0.019708,0.065662,0.0055243,0.57622,0.84256,4.5357,78.802,210.36,0.83244,1.387,89.324,117.03,0.59403,5.9732,0.3819,1.8951,0.21882
0.075903,0.0056278,0.01453,0.011523,0.004669,0.02776,0.0015211,0.01834,0.02206,0.0061945,0.61594,0.33877,2.0669,116.07,204.88,0.12675,3.5732,98.868,22.229,0.48915,8.2399,0.56735,1.4133,0.1919
0.033954,0.008087,0.094653,0.045778,0.0039361,0.067984,0.0097033,0.078509,0.097737,0.0036285,0.8189,0.78886,4.6638,64.249,248.28,0.26219,1.1424,195.89,188.79,0.90203,0.59254,0.88141,2.0456,0.48715
0.035014,0.0046683,0.023915,0.072606,0.0090906,0.018941,0.003988,0.081401,0.019008,0.005624,0.87081,0.26154,1.8551,65.728,168.25,0.74981,0.68227,118.62,137.28,0.27002,3.586,0.50119,1.0489,0.70427
0.067721,0.0087629,0.075466,0.080577,0.0046816,0.028007,0.0057918,0.053746,0.086672,0.0013942,0.73664,0.58649,1.7357,220.91,23.471,0.99761,1.2922,144.2,221.44,0.68909,1.4822,0.46633,0.61349,0.073888
0.087652,0.0071716,0.023922,0.071798,0.0068262,0.040295,0.0091305,0.040922,0.069385,0.0045389,0.15521,0.85675,3.0755,113.01,40.517,0.15483,1.0997,132.66,66.744,0.95173,5.5134,0.46579,1.8676,0.97687
0.053476,0.0054336,0.015707,0.090607,0.0073391,0.077538,0.0084268,0.076711,0.022696,0.0087761,0.35411,0.26742,1.2669,87.917,222.04,0.66586,2.6923,156.92,229.86,0.31546,8.127,0.78818,4.5426,0.43635
0.026384,0.0075966,0.04464,0.046546,0.0018468,0.026247,0.0036861,0.020315,0.08666,0.0083445,0.40454,0.98665,2.1046,179.15,20.562,0.1354,3.2008,237.29,66.95,0.31888,6.2012,0.46392,3.9275,0.63436
0.077264,0.0018037,0.051195,0.053828,0.0041521,0.068354,0.0065719,0.042784,0.077185,0.0068699,0.29003,0.85267,1.7193,191.61,25.664,0.25039,2.8067,243.36,245.01,0.67792,4.0534,0.41324,2.0159,0.34788
0.05884,0.0022461,0.019029,0.092197,0.0073485,0.026426,0.0091016,0.085218,0.038382,0.0031996,0.78694,0.58932,2.4168,136.45,114.9,0.94027,4.8086,180.08,20.988,0.94339,2.8758,0.84273,1.2674,0.0081699
0.049862,0.0072341,0.034791,0.061444,0.0051338,0.065891,0.008971,0.096899,0.020739,0.0099606,0.75399,0.82603,2.7513,225.19,65.075,0.14788,3.8143,207.35,24.335,0.12665,3.1869,0.38511,0.15587,0.87138
0.017751,0.007472,0.074767,0.074673,0.0064612,0.078026,0.0017059,0.047254,0.037691,0.0054523,0.49718,0.43532,1.552,229.17,50.118,0.10017,0.30403,59.822,163.8,0.88096,1.7316,0.88017,4.3696,0.012014
0.063146,0.008791,0.042538,0.067845,0.0028918,0.032136,0.006658,0.057969,0.045259,0.0067497,0.20987,0.48271,4.955,80.264,61.373,0.10509,3.0399,185.66,218.18,0.70746,1.6401,0.74374,3.2003,0.19287
0.070902,0.0039159,0.0447,0.063176,0.0058223,0.017984,0.0093389,0.012866,0.025341,0.0085341,0.73013,0.7433,2.7713,116.1,170.78,0.79894,0.92357,91.366,58.024,0.93131,1.891,0.75048,4.6976,0.55903
0.079216,0.0054935,0.018348,0.076814,0.0046178,0.085124,0.007392,0.010485,0.078004,0.0030896,0.97692,0.24141,3.0804,152.5,162.31,0.14755,2.4723,127.2,139.7,0.41947,3.5018,0.52759,3.8565,0.3041
0.084146,0.0069903,0.09654,0.080309,0.0038238,0.058324,0.005083,0.073743,0.022462,0.0085509,0.39032,0.58504,0.099842,228.76,96.611,0.11162,1.2516,220.54,248.86,0.12813,8.6141,0.48901,3.4752,0.26985
0.055139,0.0017833,0.067188,0.029493,0.0043607,0.017032,0.0084159,0.025753,0.09605,0.0021667,0.81289,0.60513,4.5664,50.511,245.11,0.48253,2.1623,107.21,61.463,0.16096,2.0973,0.1427,0.48324,0.33497
0.038422,0.0079381,0.081862,0.096499,0.0014051,0.052729,0.002323,0.069406,0.06417,0.0071213,0.17886,0.56543,3.0982,239.74,50.848,0.090913,2.5314,155.76,70.056,0.52039,4.459,0.96545,3.7061,0.83883
0.076554,0.0082774,0.069083,0.030208,0.0020608,0.07994,0.0035271,0.076402,0.091359,0.0097523,0.68605,0.97471,2.1324,113.43,160.74,0.59666,0.27103,125.76,71.163,0.68585,1.4043,0.88666,0.50347,0.36027
0.018712,0.0053278,0.08699,0.061813,0.0011393,0.014977,0.0075756,0.030422,0.015649,0.0044619,0.91891,0.30006,0.4455,119.66,116.89,0.15606,0.89805,239.82,11.477,0.37008,3.7752,0.53634,1.504,0.033658
0.028587,0.0042239,0.089954,0.059631,0.004244,0.059659,0.004691,0.038567,0.015607,0.0010992,0.16569,0.28475,1.4272,162.88,109.83,0.90759,2.2019,121.16,196.02,0.8639,7.7023,0.92496,0.3483,0.14255
0.093371,0.0094485,0.037117,0.068635,0.007284,0.047861,0.0046574,0.035961,0.043575,0.0064318,0.46485,0.273,1.2246,118.99,80.944,0.3558,1.7981,94.091,26.597,0.3585,0.039713,0.73419,1.6083,0.30199
0.056864,0.0028804,0.07453,0.076201,0.0075337,0.023588,0.009214,0.046749,0.044081,0.006913,0.86092,0.42683,0.9732,153.82,171.59,0.30502,3.5763,105.29,209.12,0.15602,0.88055,0.42324,4.0629,0.36948
0.032289,0.001874,0.03911,0.042196,0.0033276,0.099507,0.0078013,0.018027,0.069618,0.001021,0.52525,0.53824,0.67579,117.14,63.645,0.45943,4.1359,191.8,193.21,0.92091,8.398,0.016824,3.8911,0.20689
0.047722,0.0060651,0.035637,0.052089,0.00851,0.08749,0.0053825,0.042428,0.06361,0.0062913,0.93337,0.63806,3.2239,83.441,32.043,0.68908,4.1765,139.42,161.85,0.97207,2.6221,0.34668,3.6539,0.93678
0.046239,0.0025071,0.031726,0.098935,0.005511,0.085744,0.0031369,0.084031,0.062635,0.0024615,0.72213,0.91188,0.89618,140,41.598,0.045404,3.8345,196.31,192.23,0.16608,8.784,0.17559,3.2276,0.96276
0.029516,0.0076494,0.085,0.048361,0.0052226,0.086263,0.004359,0.022867,0.043683,0.0020206,0.27723,0.17758,0.72402,99.545,4.5879,0.67538,4.2696,66.894,27.629,0.98799,4.2153,0.34518,4.5099,0.87862
0.067282,0.0095948,0.057779,0.073582,0.002561,0.081996,0.0089099,0.022898,0.058816,0.0020648,0.58743,0.83157,2.3986,208.55,31.84,0.735,4.1292,218.29,63.393,0.11308,8.2843,0.68711,0.65208,0.66395
0.034857,0.0030209,0.048003,0.030664,0.0023694,0.051927,0.0086669,0.081334,0.051657,0.0080445,0.27467,0.51522,0.30014,241.63,54.049,0.12281,4.2899,107.12,66.011,0.65694,7.9328,0.33924,1.9301,0.020358
0.072794,0.0035763,0.047219,0.017183,0.0052168,0.05442,0.0018588,0.08363,0.08604,0.0081531,0.33821,0.18613,3.7889,145.2,159.89,0.42434,1.0431,51.307,135.13,0.53702,3.7843,0.17778,3.556,0.27842
0.03755,0.0031982,0.084353,0.011938,0.0036934,0.025547,0.0030094,0.087319,0.038938,0.0014801,0.96658,0.22167,2.3706,84.645,109.75,0.68411,4.2927,201.4,94.6,0.019361,6.8628,0.56472,1.9416,0.041198
0.080039,0.0053486,0.074939,0.09957,0.0061689,0.021902,0.0077035,0.070032,0.05927,0.0013806,0.3291,0.29179,3.4521,189.11,65.272,0.45498,0.15382,115.47,22.236,0.88177,3.8068,0.7658,3.5623,0.99994
0.083708,0.0028204,0.063842,0.051058,0.0096552,0.086318,0.0049446,0.083856,0.095255,0.0026243,0.15536,0.32261,1.4608,112.56,215.15,0.36172,0.22993,50.448,175.48,0.13635,1.7788,0.53686,0.72367,0.73685
0.046089,0.0039374,0.038343,0.06881,0.0094288,0.053224,0.0087881,0.07979,0.093761,0.0053035,0.39461,0.32111,0.58713,117.62,17.371,0.59272,2.6892,82.413,93.371,0.33943,7.986,0.06072,4.8113,0.41419
0.065769,0.0023562,0.024524,0.080442,0.0076063,0.092958,0.0018446,0.032221,0.068268,0.0053539,0.74399,0.53252,3.5893,86.031,133.24,0.45575,2.4471,227.18,152.12,0.31719,3.1946,0.95088,4.7934,0.414
0.029998,0.0051555,0.017533,0.053769,0.0082394,0.021278,0.0081118,0.053231,0.014719,0.0081175,0.14465,0.13353,3.7247,241.53,223.89,0.70573,1.7941,183.19,81.572,0.1412,8.1714,0.058975,3.1832,0.85077
0.032785,0.0069023,0.02426,0.085249,0.0027615,0.067831,0.0071787,0.058668,0.022289,0.0044168,0.58585,0.75079,1.6072,95.879,138.75,0.011733,1.5707,93.215,135.53,0.9238,4.3896,0.48195,1.6773,0.21048
0.064577,0.0016926,0.080101,0.040921,0.0054978,0.023893,0.0070975,0.039606,0.098563,0.0041522,0.62741,0.87937,4.2825,199.11,217.93,0.53693,1.9567,170.63,192.18,0.327,0.21531,0.76594,1.4418,0.21221
0.05857,0.0041547,0.012895,0.054327,0.0080018,0.09923,0.0039243,0.041302,0.040837,0.0074519,0.20166,0.26193,2.1912,224.94,118.81,0.5451,1.166,197.98,103.34,0.77023,3.3088,0.21331,3.3064,0.88412
0.061201,0.0029145,0.087364,0.031024,0.0077482,0.032377,0.0048074,0.064696,0.044933,0.002534,0.95321,0.97905,4.3798,69.668,179.57,0.74524,3.2308,241.08,68.008,0.072495,5.93,0.43588,4.6586,0.17661
0.030086,0.0088855,0.024085,0.039808,0.0015112,0.086672,0.0010736,0.092155,0.072101,0.0025747,0.73393,0.3993,3.9131,58.782,136.36,0.89049,0.7687,118.31,53.323,0.12942,3.453,0.92868,1.7267,0.27874
0.02753,0.0059852,0.042065,0.04288,0.0073873,0.080598,0.0010737,0.023116,0.052941,0.0033792,0.50114,0.12104,3.0159,233.92,61.51,0.25895,1.7064,209.49,116.59,0.19133,1.7444,0.041673,2.1078,0.37162
0.056581,0.0089564,0.010327,0.057509,0.0013987,0.090809,0.0063372,0.067158,0.057543,0.009885,0.69088,0.58115,1.9587,234.28,196.32,0.76976,4.262,88.445,154.38,0.94766,4.5984,0.39627,2.7173,0.16306
0.032661,0.0042002,0.08831,0.095676,0.0027477,0.085788,0.0013854,0.088857,0.014866,0.0018018,0.44819,0.39684,3.2378,229.14,121.24,0.13636,4.5668,167.44,127.61,0.20203,7.7823,0.26685,3.4335,0.1637
0.064091,0.0098755,0.010435,0.02626,0.0055045,0.027317,0.0018758,0.058532,0.079262,0.008723,0.24875,0.32644,4.9059,69.536,127.92,0.047706,4.9627,229.07,70.026,0.59985,4.0584,0.7753,1.4561,0.55056
0.01625,0.0083933,0.081846,0.024261,0.002023,0.094752,0.0021733,0.078086,0.02738,0.0044813,0.59829,0.16389,2.143,228.05,234.14,0.41067,1.6591,235.24,91.645,0.8369,3.4246,0.97633,1.6998,0.00034839
0.066885,0.0087482,0.034776,0.057657,0.005743,0.028283,0.006799,0.053229,0.062369,0.0034139,0.8947,0.17705,4.3845,89.222,94.415,0.18177,0.29689,171.74,205.58,0.59203,5.961,0.88768,1.3552,0.16682
0.022242,0.002526,0.013455,0.095949,0.0033752,0.054372,0.0078638,0.059538,0.031044,0.0080795,0.44669,0.56256,0.50817,180.34,38.881,0.81597,0.24346,172.55,238.85,0.38097,4.375,0.10951,3.8828,0.55975
0.050675,0.0037667,0.030726,0.030519,0.0064798,0.018918,0.0088352,0.039295,0.056262,0.0028676,0.78697,0.63175,3.1351,93.763,85.068,0.49599,1.7345,212.46,24.917,0.92828,5.0523,0.54945,1.4008,0.70534
0.034775,0.0076827,0.067563,0.083034,0.0052924,0.018143,0.0056491,0.014413,0.017182,0.0099008,0.30855,0.77736,1.513,66.86,7.2526,0.4099,0.92006,239.74,107.79,0.86774,0.59906,0.66086,3.9333,0.47297
0.032245,0.0086038,0.030336,0.050629,0.0072447,0.027637,0.0097796,0.079787,0.090744,0.0049562,0.86756,0.55947,2.4573,142.27,176.06,0.92589,4.5046,208.27,228.61,0.79407,8.4743,0.16855,3.8063,0.089595
0.086716,0.0098916,0.020001,0.074241,0.0048282,0.059988,0.0068485,0.074467,0.067348,0.0028861,0.52873,0.60057,3.7097,63.094,182.7,0.7833,2.8854,227.01,214.18,0.46612,4.68,0.42641,0.44658,0.36138
0.063124,0.0024081,0.017651,0.055434,0.0028017,0.081144,0.0042315,0.081072,0.081638,0.0092564,0.68073,0.35337,3.6967,85,21.98,0.65926,1.1401,119.56,191.91,0.94691,6.8916,0.22102,0.73554,0.62687
0.059831,0.0088404,0.061026,0.069363,0.0089886,0.056878,0.0090167,0.086184,0.02001,0.0019792,0.32079,0.80265,1.5616,79.975,2.9115,0.89625,0.048379,230.53,12.585,0.50492,1.3557,0.64425,1.3559,0.87416
0.028385,0.0079414,0.087554,0.091772,0.0075576,0.041053,0.0074733,0.097442,0.019459,0.0054111,0.73568,0.49909,3.6119,86,175.73,0.64525,3.2294,187.15,228.72,0.029701,6.6532,0.10325,4.2099,0.56575
0.085934,0.0073252,0.021382,0.052281,0.0075084,0.034004,0.0058564,0.033717,0.048311,0.0014841,0.65742,0.87135,2.0311,212.96,125.19,0.41413,3.6194,220.58,77.568,0.30816,2.0961,0.74029,1.1306,0.5145
0.064547,0.0054623,0.075652,0.079809,0.0066264,0.059037,0.0015903,0.01161,0.070423,0.004217,0.94635,0.71512,2.6533,199.76,60.093,0.28574,1.5609,182.39,46.65,0.92898,4.3697,0.11341,0.19664,0.4008
0.080254,0.0030251,0.026983,0.027174,0.0017394,0.018881,0.0097666,0.018738,0.052171,0.0030351,0.25324,0.57911,0.872,238.72,130.93,0.019268,2.903,178.71,163.82,0.24588,1.5959,0.10398,3.7024,0.64065
0.025104,0.0073594,0.025317,0.037002,0.0047268,0.061931,0.001055,0.044508,0.070574,0.0080597,0.70027,0.12211,3.4793,186,104.65,0.21899,4.9972,133.87,200.97,0.26636,6.9663,0.90754,1.1034,0.77825
0.019278,0.0020601,0.024923,0.03433,0.0020441,0.0243,0.0099411,0.011702,0.041187,0.0045001,0.60532,0.74011,1.6713,68.163,70.841,0.46118,0.241,176.4,177.72,0.60552,2.2893,0.52032,4.3634,0.15973
0.058108,0.0034486,0.082009,0.052892,0.0022943,0.026524,0.0045076,0.077479,0.081054,0.0025302,0.62461,0.9554,4.0792,70.766,161.59,0.79717,1.3988,70.291,215.89,0.34283,3.619,0.56499,4.9983,0.53298
0.084588,0.0051422,0.051658,0.099086,0.0021751,0.024008,0.0085232,0.044699,0.030873,0.0075814,0.17333,0.31711,1.6398,203.71,10.954,0.11519,1.8297,80.444,45.24,0.47932,1.9045,0.47655,2.1361,0.26886
0.058302,0.0018878,0.088121,0.015481,0.0089841,0.010106,0.0082439,0.055046,0.039889,0.0013248,0.33842,0.20033,1.7694,50.318,86.462,0.6803,1.7894,131.78,12.637,0.53506,2.2351,0.74031,1.2254,0.76759
0.077178,0.0039178,0.037209,0.019383,0.0026704,0.023501,0.0087737,0.091369,0.022388,0.005664,0.64631,0.13388,2.0056,216.51,245,0.17563,1.9314,92.729,181.44,0.15266,0.24025,0.45085,0.34424,0.87528
0.022985,0.0053238,0.033914,0.038721,0.0035907,0.089537,0.0087067,0.050337,0.07487,0.0043391,0.47138,0.21594,4.9226,117.82,20.773,0.47568,3.4786,194.31,194.87,0.77434,0.37833,0.85741,2.1598,0.55992
0.02313,0.0033044,0.03017,0.078228,0.0051944,0.057786,0.0093009,0.038846,0.078645,0.0077666,0.59228,0.97113,1.0101,224.7,92.916,0.063646,3.6565,93.085,66.785,0.692,0.89173,0.3649,1.6172,0.2868
0.093593,0.0026664,0.094626,0.068773,0.0083273,0.084196,0.0086582,0.016389,0.056657,0.0034492,0.78898,0.56496,0.49957,52.489,217.48,0.64147,2.0022,56.644,147.88,0.87591,3.6586,0.054356,1.5763,0.38183
0.068637,0.006709,0.08668,0.046707,0.0039196,0.012997,0.0089549,0.093005,0.068067,0.0019255,0.29198,0.63322,3.4799,98.705,119.71,0.24663,3.4064,116.23,45.393,0.82192,0.93327,0.93411,2.9727,0.45886
0.090062,0.0098864,0.061242,0.021532,0.0080348,0.085826,0.0011225,0.080589,0.092312,0.0043808,0.64965,0.76175,0.20374,206.45,22.994,0.22072,4.9241,108.97,164.73,0.43645,4.3606,0.50655,3.221,0.16068
0.057338,0.0084827,0.013171,0.087748,0.0058676,0.038353,0.002973,0.029072,0.073299,0.0073361,0.59775,0.57821,2.9124,91.671,245.57,0.53583,1.4585,90.489,107.28,0.14624,3.2946,0.93532,0.17417,0.6176
0.046546,0.0064062,0.056613,0.018262,0.0087037,0.077814,0.0027975,0.073372,0.033713,0.0063377,0.68263,0.95335,1.0294,189.68,86.985,0.065852,4.7661,96.837,243.14,0.63205,2.2414,0.34881,3.4387,0.4163
0.084402,0.0028313,0.098282,0.075268,0.0093973,0.041825,0.0096213,0.029239,0.018405,0.0091363,0.49254,0.44311,2.6311,67.532,99.186,0.47276,2.2951,148.35,105.49,0.90023,2.1999,0.6739,2.0429,0.80708
0.036061,0.0034019,0.070648,0.017025,0.0041191,0.010932,0.0044623,0.072602,0.061247,0.0017831,0.80144,0.6088,3.7708,215.32,155.99,0.049975,2.2451,182.98,56.168,0.77481,7.5822,0.011008,3.1121,0.6015
0.025154,0.0059795,0.086549,0.034724,0.0058757,0.093945,0.0092703,0.011272,0.060311,0.0051533,0.20296,0.19454,1.9581,136.38,129.55,0.88057,1.1986,99.803,201.97,0.89716,0.11414,0.67772,1.4341,0.64831
0.05192,0.0013495,0.024981,0.097248,0.0087592,0.097199,0.0077485,0.084848,0.064801,0.0043709,0.39118,0.66731,3.6236,111.72,98.895,0.94966,3.9172,78.184,153.17,0.97362,8.9237,0.90513,1.7847,0.91832
0.064794,0.0097293,0.044064,0.086925,0.0018207,0.067799,0.0044782,0.08355,0.024654,0.005489,0.97057,0.43208,1.3628,217.55,242.43,0.048985,4.1973,158.74,3.5647,0.23792,0.88944,0.24948,3.1832,0.71514
0.01197,0.0028896,0.017123,0.092532,0.0016222,0.045995,0.0096069,0.085149,0.099539,0.0095808,0.87593,0.73906,0.71009,141.31,65.439,0.8683,2.2863,70.072,189.09,0.97314,8.8327,0.37557,2.4921,0.72747
0.090699,0.005223,0.09415,0.099021,0.009941,0.083009,0.0056543,0.077882,0.041365,0.0055335,0.88401,0.74585,0.97247,66.299,46.841,0.63243,2.1065,98.76,61.482,0.1597,5.08,0.33589,2.8174,0.25678
0.019777,0.0073847,0.097902,0.068701,0.0067433,0.028784,0.0022442,0.081905,0.049664,0.007287,0.34496,0.15288,1.4222,71.518,29.925,0.77942,3.207,64.309,146.61,0.91494,8.4511,0.059386,3.6618,0.15063
0.050346,0.004611,0.07631,0.035358,0.0080221,0.080514,0.0045727,0.045239,0.071742,0.0083598,0.58338,0.90391,0.58365,246.42,156.95,0.47418,3.576,172.95,100.31,0.31101,1.3764,0.14688,1.7517,0.0030907
0.024514,0.0033142,0.059328,0.050594,0.0040828,0.020794,0.0088436,0.089584,0.07087,0.0037495,0.57044,0.93837,0.30532,172.92,240.81,0.97071,4.0717,65.792,39.068,0.88861,4.7147,0.28035,3.4101,0.58456
0.086032,0.003391,0.079443,0.016719,0.005471,0.034633,0.0037693,0.086828,0.035309,0.0072264,0.2968,0.86997,3.6003,106.15,138.96,0.74338,0.15756,154.67,174.62,0.096789,5.1964,0.13328,4.87,0.54832
0.063948,0.0038301,0.074618,0.059414,0.0045648,0.061906,0.0073193,0.062519,0.023352,0.0056367,0.43176,0.26774,4.9754,61.33,77.043,0.64908,2.5154,148.97,206.58,0.82689,0.091805,0.90593,1.5544,0.37242
0.040555,0.0097019,0.037282,0.028671,0.0084833,0.052231,0.0064401,0.037578,0.013433,0.0053304,0.68524,0.38176,1.3602,128.66,223.71,0.96666,4.401,79.789,26.5,0.32053,5.7731,0.12447,0.21108,0.95631
0.035884,0.0062568,0.034749,0.057565,0.0044768,0.09334,0.0070478,0.060767,0.088327,0.0072575,0.35079,0.4811,4.5839,84.955,79.026,0.5598,2.2784,111.8,58.939,0.6327,8.1066,0.75408,2.1265,0.62235
0.055494,0.0025791,0.025851,0.087127,0.0093293,0.058182,0.0042322,0.07401,0.041743,0.0054731,0.79116,0.46241,0.24656,128.1,120.77,0.68694,4.8958,86.058,164.21,0.47276,5.0682,0.06712,1.6778,0.69829
0.053357,0.0014262,0.070448,0.0516,0.0045252,0.037355,0.0052547,0.046095,0.0932,0.0068084,0.22963,0.19012,3.86,128.77,22.275,0.95914,3.6137,237.99,176.8,0.89978,4.8706,0.076737,2.399,0.46691
0.08718,0.0039109,0.024552,0.027125,0.0064088,0.059259,0.0060113,0.026865,0.059844,0.0085582,0.61925,0.3488,3.8521,87.552,213.4,0.32572,3.5078,216.6,73.305,0.85809,7.955,0.2881,4.2456,0.99647
0.03761,0.0040179,0.035871,0.01811,0.0037988,0.010105,0.0041747,0.059098,0.077182,0.0068623,0.94563,0.43903,3.1282,121.46,148.16,0.76974,1.8499,178.08,67.624,0.047774,6.6275,0.22438,0.90598,0.47173
0.098539,0.0051801,0.049797,0.047095,0.0033654,0.067076,0.005568,0.093203,0.056327,0.0052071,0.16772,0.99424,3.2511,109.61,179.94,0.64047,3.8616,186.38,82.32,0.77619,0.95685,0.39223,1.28,0.98886
0.057923,0.0059798,0.063351,0.030184,0.0089829,0.071745,0.0095233,0.060661,0.022574,0.0033395,0.59552,0.48451,3.6732,69.999,62.351,0.031524,0.47819,177.74,118.44,0.47802,8.358,0.5377,0.062766,0.94126
0.054412,0.0087777,0.019022,0.092038,0.0056809,0.048568,0.0031465,0.096916,0.020055,0.0081124,0.87729,0.34241,1.0911,161.88,137.53,0.10056,0.72291,68.817,66.776,0.16851,0.88114,0.49135,3.2412,0.13687
0.075306,0.0030499,0.076558,0.014995,0.0064219,0.037716,0.0072869,0.030938,0.089094,0.0022555,0.32958,0.13846,0.90479,85.581,88.04,0.78118,0.47052,76.933,146.38,0.73595,8.3602,0.26556,3.3911,0.32211
0.026548,0.0058579,0.021662,0.055331,0.006471,0.053375,0.006289,0.038857,0.078297,0.0078682,0.3529,0.1116,2.1826,76.989,237.74,0.03848,3.0181,113.96,224.05,0.0576,4.2494,0.93939,1.5991,0.77276
0.089762,0.0057116,0.080172,0.077291,0.0087224,0.091821,0.0057106,0.013543,0.033554,0.007895,0.71013,0.11387,0.46254,90.676,25.755,0.1245,1.2361,95.483,222.8,0.96453,2.0288,0.426,4.6421,0.0055266
0.071239,0.0026282,0.084782,0.043514,0.0055536,0.019259,0.0035552,0.016634,0.032492,0.0017611,0.24797,0.18989,3.8288,52.287,29.968,0.077975,3.7169,223.59,73.62,0.59763,8.888,0.38456,2.0504,0.93805
0.020816,0.0026779,0.097717,0.061229,0.0075399,0.055963,0.0071201,0.023788,0.087498,0.0027998,0.40016,0.67274,2.2117,220.92,126.68,0.37884,1.6832,93.725,57.16,0.59951,1.7799,0.73653,1.3132,0.46064
0.069704,0.0099445,0.034626,0.038171,0.0091987,0.019478,0.0067587,0.068532,0.010759,0.0037571,0.31151,0.14321,0.64056,171.68,92.71,0.13074,3.8017,96.288,223.11,0.075227,2.077,0.35852,2.9364,0.46758
0.082975,0.0088103,0.099462,0.036367,0.0090936,0.091462,0.0036438,0.039709,0.036638,0.0058615,0.79809,0.91897,1.4129,56.76,25.305,0.051543,4.1568,163.31,137.78,0.40644,6.3384,0.36896,0.91332,0.41363
0.062068,0.0067982,0.097657,0.016132,0.0091499,0.092343,0.0071194,0.016275,0.061633,0.0091905,0.48885,0.45572,2.8684,66.327,56.74,0.5946,3.7481,184.95,93.955,0.78719,4.9471,0.55676,4.1365,0.013937
0.061214,0.0060558,0.076058,0.041153,0.007376,0.021804,0.008986,0.094476,0.095436,0.0042926,0.44255,0.36702,4.8129,214.91,144.63,0.98123,1.6129,53.635,92.921,0.85554,4.719,0.94596,3.3908,0.20876
0.033314,0.0019201,0.0705,0.098849,0.0097975,0.030415,0.0091962,0.037967,0.061191,0.0084538,0.67891,0.55096,3.4189,188.98,125.4,0.92851,4.0282,240.98,226.27,0.35305,5.9832,0.65916,1.9389,0.58369
0.089201,0.0066057,0.077411,0.022389,0.0071449,0.076865,0.0090796,0.089142,0.058651,0.0034011,0.74316,0.49455,2.5526,68.62,71.908,0.26743,2.1432,213.75,48.668,0.79255,2.4235,0.63609,2.2509,0.55651
0.077419,0.003154,0.068161,0.067373,0.0056926,0.028254,0.0011726,0.038565,0.051544,0.0096518,0.92577,0.1531,3.6726,81.279,133,0.2382,2.5516,79.368,70.477,0.8955,4.3525,0.67373,0.15604,0.39084
0.032566,0.0058991,0.095921,0.054135,0.0079315,0.062562,0.0075888,0.080771,0.036292,0.009051,0.3779,0.90288,2.9379,211.92,209.74,0.93488,0.71627,84.514,162.43,0.86798,4.1543,0.47044,2.2557,0.88048
0.023745,0.0088933,0.023712,0.062151,0.0080231,0.020764,0.0083011,0.015996,0.05895,0.0092535,0.43729,0.99201,0.068308,205.59,87.336,0.91431,4.6259,137.1,129.48,0.69352,2.0717,0.50169,4.257,0.5726
0.058972,0.0085404,0.024203,0.064629,0.0040786,0.042104,0.0029846,0.045523,0.021735,0.0076938,0.90931,0.22584,2.0097,89.848,163.98,0.99799,2.301,65,217.48,0.39262,5.8485,0.31352,1.565,0.93158
0.084748,0.0051481,0.090643,0.035686,0.0021118,0.022955,0.0023663,0.07836,0.097478,0.0084259,0.74162,0.73329,2.5613,196.25,187.8,0.66885,1.3193,229.84,123.79,0.24068,2.9193,0.12648,4.541,0.59517
0.030745,0.002394,0.030249,0.027744,0.0060745,0.025954,0.0096077,0.043649,0.016911,0.0051146,0.95018,0.71531,0.16212,217.23,86.836,0.56067,3.9777,95.466,158.29,0.76688,6.3516,0.37729,1.9154,0.53955
0.018247,0.0047755,0.08726,0.049281,0.0029823,0.016334,0.0082095,0.048978,0.092957,0.0068291,0.42018,0.93854,2.4394,239.59,247.53,0.85187,0.29716,185.63,109.96,0.26211,3.8037,0.46268,2.0772,0.3196
0.030358,0.0071129,0.088629,0.048351,0.0040993,0.036079,0.002945,0.024538,0.070794,0.0041645,0.63889,0.3556,4.6556,95.098,150.93,0.73083,0.77889,215.95,206.79,0.011007,8.5962,0.94171,3.351,0.99404
0.099101,0.0041014,0.013173,0.076014,0.0011117,0.06671,0.0077435,0.097561,0.043917,0.001339,0.52943,0.50648,1.1225,171.84,1.0366,0.24967,3.1836,205.08,86.513,0.32595,3.7392,0.12517,1.4424,0.88127
0.013935,0.0024362,0.043442,0.056847,0.0013213,0.082541,0.0017469,0.046085,0.036468,0.0049946,0.11982,0.88891,3.7103,57.657,247.94,0.72768,2.7449,214.92,107.7,0.8886,6.8696,0.1555,4.6708,0.49732
0.097811,0.0049222,0.01334,0.026832,0.0028189,0.030794,0.0017539,0.032971,0.098173,0.0052903,0.28025,0.27805,2.8082,156.47,169.22,0.24736,4.3714,184.69,22.177,0.92745,5.6458,0.10703,1.7133,0.5013
0.046212,0.0027648,0.031258,0.050242,0.008063,0.09453,0.0043105,0.085713,0.04954,0.0083742,0.35737,0.61514,0.54199,147.2,168.88,0.20779,1.0326,172.98,151.13,0.46675,8.0561,0.81344,0.039974,0.60548
0.046687,0.0087429,0.048973,0.035104,0.0067987,0.025319,0.0094997,0.099411,0.02403,0.0050822,0.27557,0.46094,3.2971,146.63,5.8359,0.4694,0.65884,184.49,75.577,0.60952,7.6096,0.54456,0.29862,0.77483
0.07652,0.0034997,0.098865,0.092825,0.0018405,0.02717,0.0025573,0.047657,0.094151,0.0031156,0.58769,0.47086,3.3774,51.179,205.18,0.46542,3.5916,113.97,117.86,0.3326,2.312,0.41155,0.65795,0.89112
0.032189,0.0072458,0.025958,0.096684,0.0029109,0.04992,0.0083572,0.052431,0.022959,0.0052655,0.52175,0.26999,1.1478,64.003,75.602,0.46789,1.4169,137.33,85.431,0.6295,4.9856,0.34378,3.2879,0.76251
0.031886,0.004036,0.078404,0.082096,0.0057634,0.042981,0.0033428,0.090153,0.092284,0.0087314,0.41221,0.72803,2.9216,163.66,37.532,0.46668,3.4569,118.16,165.41,0.58772,8.9711,0.74802,0.93763,0.69067
0.065876,0.0068868,0.058117,0.084491,0.0064301,0.066063,0.0010565,0.084606,0.094067,0.006701,0.2849,0.73302,4.8739,243.4,69.961,0.67435,0.96553,70.113,9.4521,0.022324,6.9822,0.23869,4.817,0.92714
0.089654,0.0049872,0.064392,0.031102,0.0011372,0.016405,0.0068989,0.059857,0.088399,0.0090627,0.43869,0.90211,1.0919,203.65,83.295,0.23796,3.0221,73.557,218.71,0.02783,0.79372,0.033741,0.41842,0.22861
0.031457,0.0076087,0.024343,0.062058,0.0038299,0.060939,0.0019352,0.076122,0.037087,0.007654,0.15042,0.24571,3.6932,245.21,75.684,0.49952,3.1689,163.54,147.3,0.57669,4.9325,0.12659,1.1931,0.44382
0.040091,0.0055861,0.078123,0.056797,0.0035201,0.011255,0.0066688,0.082141,0.09918,0.0043614,0.10098,0.33915,4.7248,97.265,129.53,0.87202,2.6021,150.37,209.17,0.20278,8.2664,0.81845,0.5651,0.5941
0.063427,0.007395,0.090064,0.08402,0.0081824,0.030569,0.008376,0.039244,0.036292,0.0068025,0.28746,0.47769,0.22133,119.13,197.18,0.44661,1.537,131.01,171.75,0.43424,3.7462,0.13502,4.8863,0.74651
0.016603,0.0052047,0.086128,0.073189,0.0065096,0.048322,0.0071528,0.090156,0.033385,0.0016345,0.7075,0.95648,1.9216,221.06,84.376,0.56287,1.7036,62.627,51.641,0.83212,0.13858,0.7116,1.3924,0.71871
0.074684,0.0050287,0.037177,0.062481,0.0054732,0.081356,0.0037166,0.0895,0.055937,0.0083268,0.48869,0.74662,3.724,63.851,147.88,0.033654,0.32065,65.273,12.217,0.84313,8.3059,0.65582,4.3849,0.65597
0.044028,0.0058903,0.039509,0.053066,0.0047015,0.042283,0.0073714,0.055585,0.043868,0.0015512,0.98413,0.21628,4.6976,161.04,141.33,0.56942,3.3474,76.319,102.99,0.48042,4.2366,0.33959,3.8797,0.5878
0.09279,0.0018629,0.023955,0.043584,0.0058525,0.028912,0.0069445,0.02789,0.088061,0.0083387,0.99543,0.92311,0.82669,184.39,55.608,0.32717,3.4645,215.41,87.104,0.2912,8.5813,0.77119,0.41006,0.93563
0.066464,0.001137,0.017946,0.088907,0.0020287,0.064207,0.0092728,0.064776,0.016478,0.0096268,0.16787,0.26667,1.7522,148.95,194.43,0.4851,1.9743,64.528,0.78111,0.4734,1.3974,0.72221,2.574,0.63878
0.055874,0.0063391,0.020001,0.026794,0.005651,0.049039,0.0091023,0.045297,0.077383,0.0062707,0.54499,0.36255,2.9347,180.8,101.22,0.9586,2.5659,89.745,39.283,0.048957,0.85504,0.081465,2.9909,0.22367
0.071234,0.0078019,0.084869,0.049311,0.0022769,0.078011,0.0039091,0.081001,0.014331,0.00279,0.98331,0.66478,1.536,90.828,43.686,0.094867,2.431,140.09,190.19,0.028956,1.8968,0.79949,2.5648,0.16934
0.01711,0.0025194,0.069171,0.048201,0.0045821,0.05548,0.003997,0.05263,0.031396,0.0059783,0.61363,0.15795,4.3347,86.887,76.378,0.93814,0.12751,247.69,68.96,0.41647,3.7014,0.05319,4.5987,0.39094
0.015816,0.0028677,0.075024,0.084659,0.003842,0.085374,0.0078435,0.050993,0.096828,0.0040323,0.41652,0.85562,2.7798,221.87,200.99,0.78493,1.5843,183.39,173.66,0.81142,0.68463,0.41539,0.14753,0.45901
0.023683,0.0090645,0.067599,0.069138,0.0035842,0.012398,0.0090844,0.015879,0.092272,0.0023807,0.41925,0.89934,4.9114,54.608,228.53,0.40717,1.7798,140.31,45.722,0.29035,1.0776,0.83508,0.59093,0.84544
0.062076,0.0059189,0.05159,0.04241,0.0040249,0.080156,0.0070858,0.038098,0.066173,0.0025989,0.49081,0.95263,1.1601,96.001,215.32,0.057349,4.6647,62.661,104.72,0.4565,1.6004,0.97623,0.73491,0.53328
0.055104,0.0082621,0.027906,0.046467,0.0096507,0.039787,0.0037377,0.011687,0.098276,0.0093518,0.45711,0.41852,4.2715,205.65,231.59,0.18299,1.3659,176.09,222.7,0.28789,8.8568,0.66536,3.2692,0.071279
0.024539,0.0052067,0.018624,0.040043,0.0059553,0.053338,0.0013121,0.047664,0.097241,0.0078569,0.77624,0.49272,2.0735,139.83,200.87,0.91757,1.4236,87.082,86.786,0.98102,5.6046,0.4833,3.1039,0.35362
0.025727,0.0014133,0.039188,0.050322,0.0089316,0.07422,0.0025098,0.068901,0.01831,0.0078042,0.35073,0.79814,1.7913,154.36,103.7,0.63573,1.7825,62.21,246.91,0.30965,3.0543,0.74503,0.49135,0.92796
0.025321,0.0059775,0.033084,0.060569,0.0042484,0.082674,0.0097163,0.028513,0.012435,0.0054595,0.85686,0.76953,2.8565,201.45,77.424,0.38079,1.0376,203.95,118.87,0.81701,7.6188,0.30811,2.7581,0.41425
0.043897,0.0066617,0.028462,0.06108,0.0048628,0.092602,0.0048822,0.024643,0.014359,0.0024165,0.80055,0.78681,1.8144,179.56,85.787,0.32546,4.2491,92.339,116.66,0.090745,7.843,0.7455,1.5562,0.36895
0.037369,0.0062952,0.049015,0.09238,0.0077724,0.010564,0.0081185,0.072586,0.070561,0.0066786,0.61051,0.59567,3.3119,200.12,122.63,0.018808,4.3365,185.53,209.65,0.89611,7.6733,0.29961,1.239,0.8509
0.049001,0.0036372,0.080528,0.071043,0.0046734,0.078665,0.0049927,0.098362,0.084435,0.0079489,0.88981,0.80511,1.6066,183.57,211.21,0.8153,2.7801,204.71,180.58,0.25811,2.4612,0.34918,4.3766,0.7976
0.089763,0.003152,0.043227,0.031898,0.0058349,0.062455,0.0074666,0.068316,0.039259,0.0074254,0.20659,0.8578,0.67848,133.35,25.704,0.51433,4.2046,201.76,231.69,0.26104,5.3843,0.27708,1.0676,0.35024
0.043398,0.0052039,0.02697,0.096587,0.0026261,0.039418,0.0024447,0.067563,0.052092,0.0093072,0.87127,0.56692,4.4136,73.445,140.81,0.66608,2.7227,232.25,133.96,0.68797,4.44,0.24894,0.34604,0.7764
0.016828,0.0046236,0.07449,0.062719,0.0040317,0.038372,0.0067075,0.085571,0.018774,0.0067241,0.92302,0.52939,0.54223,112.9,63.319,0.98406,2.4193,230.34,192.61,0.5733,6.7324,0.77707,3.3113,0.04847
0.070945,0.0092825,0.084924,0.090767,0.0047656,0.07106,0.0016227,0.07803,0.02393,0.0051997,0.30968,0.4959,3.9485,75.61,30.435,0.92226,3.1851,167.19,193.67,0.22162,2.0056,0.22995,3.8457,0.59027
0.095838,0.0012708,0.098592,0.030629,0.0061717,0.023497,0.0055497,0.040173,0.074465,0.0024045,0.95941,0.74277,2.959,190.76,26.423,0.21249,3.9602,139.6,189.06,0.9209,7.4599,0.6439,1.713,0.15824
0.053987,0.0076644,0.083012,0.048613,0.0023703,0.040765,0.0085725,0.08117,0.060888,0.004894,0.15458,0.77727,4.5752,186.86,173.85,0.34265,4.0183,218.07,153.68,0.16481,4.2976,0.8827,1.5677,0.93762
0.021832,0.0069226,0.059528,0.093521,0.0036351,0.097603,0.001017,0.045286,0.077907,0.0082292,0.6118,0.82663,4.142,58.013,219.59,0.33529,2.1531,236.09,208.97,0.35374,7.5665,0.76298,2.1564,0.20851
0.080367,0.0072312,0.010773,0.065483,0.0091893,0.042334,0.0066391,0.093154,0.089619,0.0089448,0.48766,0.93692,0.0037942,224.7,245.52,0.75626,3.4398,232.48,69.093,0.84082,0.07556,0.87186,4.7755,0.40803
0.041289,0.0013966,0.020124,0.087394,0.0079132,0.088426,0.0015789,0.08654,0.059621,0.0091823,0.6813,0.51562,3.299,180.08,234.65,0.20475,1.5077,128.23,116.93,0.33513,1.0831,0.41859,4.6293,0.56068
0.043665,0.0031401,0.01368,0.042206,0.0015827,0.063491,0.0093691,0.046177,0.094666,0.0089665,0.81723,0.97822,1.024,245.22,124.99,0.31656,0.0056957,217.74,85.577,0.48368,4.2185,0.26529,0.61019,0.41266
0.025928,0.0089194,0.016162,0.059769,0.009947,0.067363,0.008498,0.046574,0.051231,0.0070224,0.84674,0.6141,4.4048,93.074,143.91,0.15613,0.042563,130.6,127.62,0.63011,0.53108,0.02752,1.6827,0.26901
0.021779,0.0031841,0.025096,0.059469,0.0066839,0.037906,0.0083922,0.023113,0.088825,0.0074158,0.82048,0.41619,1.5192,94.994,126.67,0.65396,4.6736,53.677,226.08,0.37967,4.8926,0.887,2.1848,0.76546
0.050978,0.0084572,0.06993,0.077371,0.0098767,0.022531,0.0078831,0.014802,0.041152,0.007727,0.14468,0.2186,0.48843,173.99,237.2,0.22632,0.57626,133.22,136.18,0.74813,2.5861,0.89739,3.5122,0.20646
0.09161,0.0045771,0.08557,0.064665,0.0094997,0.066849,0.0072772,0.057309,0.032025,0.0032915,0.29504,0.56982,0.44321,129.57,9.5719,0.24739,1.2725,164.62,96.231,0.90723,4.8838,0.83626,0.32445,0.61463
0.044572,0.0044063,0.074038,0.055424,0.0022429,0.081964,0.008196,0.017902,0.017405,0.0054251,0.25051,0.17093,1.8,157.53,44.661,0.16976,4.3545,87.952,243.35,0.9819,7.1641,0.45818,0.1989,0.94092
0.095284,0.0024716,0.064106,0.019778,0.0074826,0.052861,0.0090933,0.08523,0.078795,0.0095861,0.39938,0.6186,0.59494,127.03,163.43,0.97893,2.069,200.72,1.6052,0.86547,4.4027,0.93598,0.40223,0.41051
0.095779,0.0055356,0.095378,0.055294,0.0097795,0.046555,0.005678,0.02369,0.041908,0.0045165,0.72677,0.97778,2.6119,101.98,47.395,0.71546,3.8198,133.08,60.526,0.90594,2.8958,0.017145,0.90005,0.026688
0.098831,0.0023078,0.077666,0.064177,0.0019103,0.028591,0.0030977,0.042571,0.032645,0.0036991,0.48384,0.95243,2.9875,185.92,22.094,0.39554,1.3733,147.5,40.151,0.074396,3.3009,0.060028,3.9489,0.50414
0.054788,0.0041507,0.035931,0.086712,0.0046617,0.030043,0.0010422,0.034341,0.084414,0.0081326,0.6415,0.19133,2.9214,194.36,111.57,0.088706,0.78837,174.64,129.34,0.82849,4.7846,0.50087,0.39998,0.022768
0.012661,0.0010273,0.0544,0.010469,0.0029817,0.031926,0.0044225,0.039254,0.03752,0.0027112,0.96299,0.48034,1.2082,105.59,76.137,0.14481,1.4211,211.51,197.72,0.20785,3.7891,0.89617,1.8388,0.25926
0.086852,0.0032961,0.038084,0.080897,0.0065025,0.078059,0.0059501,0.063293,0.035009,0.0026097,0.50009,0.69801,3.2,53.935,119.11,0.72807,1.2512,81.019,83.511,0.91851,0.85386,0.15568,1.438,0.16734
0.010224,0.0051611,0.022139,0.072493,0.0013957,0.088528,0.0049597,0.040484,0.078209,0.0028056,0.33151,0.8283,0.061307,186.58,87.334,0.067868,0.51259,249.44,71.58,0.4508,3.1046,0.22853,1.4208,0.82997
0.078086,0.0067142,0.0959,0.080018,0.0016714,0.026457,0.0064553,0.028019,0.094424,0.0064295,0.46854,0.87544,4.4537,135.99,93.012,0.60111,1.529,128.1,60.735,0.5786,0.80706,0.95981,1.323,0.42591
0.033673,0.0048785,0.078433,0.033973,0.0092926,0.089839,0.0018404,0.054862,0.07442,0.0023854,0.84717,0.79018,2.7947,118.43,221.59,0.96722,1.9504,158.71,239.84,0.17088,7.5231,0.27161,4.6519,0.19809
0.089403,0.0092292,0.015691,0.051434,0.006885,0.038942,0.0049236,0.040093,0.024672,0.008601,0.56167,0.85818,2.0466,70.805,97.485,0.85759,3.5335,165.45,224.48,0.38861,5.7562,0.63647,3.5024,0.80856
0.051109,0.0075983,0.050022,0.084723,0.0065481,0.020019,0.0097323,0.087386,0.068632,0.0061459,0.93427,0.78059,3.5037,95.624,47.933,0.50475,1.33,131.21,240.58,0.68183,4.4552,0.63788,1.4457,0.62918
0.041538,0.0092796,0.081446,0.049643,0.0069707,0.034842,0.0031582,0.065661,0.040836,0.0077106,0.68997,0.61039,2.3215,70.736,33.688,0.19175,4.8649,103.46,187.9,0.91547,8.9609,0.48368,0.60646,0.23479
0.072518,0.0066208,0.092067,0.015569,0.0095703,0.036634,0.0069556,0.097577,0.036372,0.0065897,0.25315,0.64016,2.24,155.05,114.85,0.4633,2.33,175.41,116.41,0.17831,7.9681,0.61041,1.2619,0.016909
0.087648,0.0018931,0.086723,0.078745,0.0033429,0.074858,0.0024269,0.043748,0.071011,0.0083952,0.4784,0.21039,4.4111,51.187,95.716,0.054242,1.9474,192.85,0.14164,0.90996,1.5411,0.94276,3.3321,0.33959
0.069665,0.0077127,0.02337,0.094504,0.0040902,0.01927,0.0038374,0.083384,0.048252,0.0064456,0.20025,0.40097,4.8863,92.141,207.83,0.55728,1.8311,113.23,78.591,0.63025,0.70373,0.65642,2.6919,0.36952
0.066306,0.0018283,0.075294,0.011232,0.0069129,0.039638,0.00158,0.021847,0.089292,0.007431,0.16755,0.97411,2.9596,119.1,75.449,0.92234,0.60886,77.519,37.663,0.41473,5.7032,0.08313,3.9068,0.80696
0.052057,0.004918,0.028689,0.0145,0.0016347,0.087488,0.003233,0.023935,0.050381,0.0096423,0.51443,0.56025,3.098,57.019,210.9,0.5647,1.989,109.87,246.08,0.16189,2.0166,0.46886,1.7747,0.52937
0.017924,0.0098371,0.097812,0.017358,0.0039951,0.057067,0.0049324,0.07819,0.076845,0.0076504,0.15882,0.38838,3.4427,241.87,236.28,0.5052,4.1938,125.55,222,0.94026,8.2824,0.2747,1.184,0.18408
0.071713,0.0090352,0.090572,0.046883,0.0049815,0.043397,0.0073094,0.065267,0.010898,0.0044894,0.65963,0.59767,0.0078717,187.24,0.99241,0.71141,4.7411,190.78,212.85,0.72813,5.0164,0.57346,3.1844,0.64276
0.025103,0.0055531,0.013081,0.04905,0.005023,0.032614,0.0091792,0.080907,0.092599,0.0017884,0.10102,0.40983,0.19471,175.72,158.6,0.93843,2.9072,70.026,211.76,0.72607,7.6111,0.39202,2.1016,0.16835
0.085117,0.0066349,0.080659,0.025443,0.0072932,0.064213,0.0015962,0.082715,0.012672,0.0071528,0.37091,0.68094,3.8779,155.91,228.7,0.13481,3.5179,130.78,74.255,0.84408,4.5137,0.60984,4.4325,0.21017
0.058475,0.0054363,0.066759,0.060998,0.0027994,0.069247,0.0042164,0.026463,0.08017,0.0025469,0.13654,0.62861,4.6034,133.91,1.6669,0.96857,1.2242,192.61,227.39,0.70404,7.1628,0.22397,2.5312,0.40029
0.071917,0.0039785,0.060263,0.095816,0.0083708,0.012679,0.0034257,0.025298,0.025739,0.0063136,0.41541,0.46838,3.2386,184.2,31.829,0.49744,4.7261,189.26,74.811,0.075221,1.4433,0.98399,2.7012,0.0011858
0.076726,0.001022,0.090283,0.042054,0.0063808,0.022902,0.0091005,0.031833,0.072046,0.0039791,0.26719,0.3363,3.1479,106.66,180.63,0.20031,1.3635,55.638,187.55,0.25835,5.8706,0.27838,0.84045,0.58748
0.059153,0.008557,0.058101,0.054695,0.0060762,0.099966,0.0021273,0.049063,0.026675,0.0048845,0.34985,0.22406,2.8651,61.145,201.2,0.59903,2.4385,64.578,143.58,0.044927,0.62331,0.90544,4.0641,0.16181
0.061644,0.0052507,0.071748,0.096828,0.0048024,0.021535,0.0076849,0.089051,0.031493,0.0055818,0.2286,0.74217,3.1023,75.89,206.4,0.77493,2.5617,167.85,169.84,0.092827,5.8605,0.96811,4.5301,0.51323
0.046299,0.0095527,0.095827,0.098189,0.0037046,0.054829,0.0097223,0.078059,0.026378,0.0047243,0.33556,0.50815,0.39746,181.73,82.062,0.55558,1.4869,104.68,55.288,0.80396,4.6235,0.55735,4.2355,0.53316
0.041401,0.0062779,0.075843,0.029821,0.0021468,0.062689,0.0015561,0.0447,0.058174,0.0036875,0.42728,0.86108,0.92057,119.62,81.22,0.17866,2.3679,72.346,96.915,0.068507,2.979,0.92428,4.0269,0.77202
0.027141,0.0033525,0.040366,0.089064,0.0060782,0.020885,0.0066132,0.074913,0.041463,0.0031946,0.56696,0.13504,1.7689,200.92,38.437,0.79991,0.048286,84.133,222.27,0.63991,3.9974,0.13464,0.62442,0.39344
0.080415,0.0016101,0.037948,0.030204,0.0077487,0.012143,0.0061368,0.040697,0.025194,0.0035208,0.44734,0.37004,0.59556,108.94,71.376,0.085846,2.2273,175.58,17.53,0.75401,3.7331,0.17631,2.0102,0.10893
0.068733,0.0017266,0.028535,0.052765,0.0050285,0.095459,0.0014623,0.02072,0.064833,0.0083805,0.48605,0.17237,4.3212,91.983,102.39,0.8724,0.67343,103.11,78.806,0.73439,0.85021,0.78044,3.7381,0.69934
0.052535,0.0069686,0.06202,0.088081,0.0090787,0.066816,0.0085848,0.036087,0.059588,0.0092948,0.42832,0.28168,2.0419,109.05,235.79,0.54062,4.8813,86.932,20.578,0.078537,3.0025,0.037547,3.8964,0.47683
0.066404,0.0079973,0.082752,0.091549,0.0037679,0.06869,0.0076253,0.037139,0.031544,0.0079649,0.47153,0.20486,4.1418,158.21,134.21,0.072286,2.1188,128.09,130.94,0.9234,0.85502,0.032687,0.23077,0.94126
0.010304,0.0027788,0.066642,0.069114,0.0064161,0.072901,0.0082536,0.084286,0.085717,0.0095344,0.82785,0.28464,1.8554,147.02,82.137,0.22307,1.9749,200,101.84,0.053396,0.5489,0.067454,4.3337,0.15274
0.083436,0.0048287,0.048488,0.08937,0.0025822,0.040003,0.0060544,0.054898,0.025937,0.0024619,0.23488,0.94548,4.3233,61.599,238.97,0.66566,2.8531,235.55,64.639,0.49088,7.9869,0.59325,0.71932,0.01871
0.062078,0.0068793,0.042301,0.074651,0.0014264,0.077215,0.0091354,0.05841,0.04727,0.009321,0.73146,0.34241,1.4145,147.08,205.82,0.23104,0.42715,236.91,2.0895,0.8969,0.064036,0.73529,1.7843,0.80162
0.09643,0.0095442,0.092493,0.031566,0.001189,0.068395,0.0060061,0.056422,0.037374,0.0047547,0.79554,0.23839,1.8423,121.47,238.5,0.65179,1.3034,141.79,116,0.61624,5.5952,0.55255,4.1054,0.10431
0.095997,0.0074362,0.023811,0.098014,0.0034932,0.094629,0.0067256,0.026183,0.06673,0.0039608,0.93796,0.69017,4.3994,75.037,103.66,0.1252,0.061107,113.79,36.54,0.36161,4.5669,0.46622,0.83079,0.49731
0.072904,0.0041621,0.039197,0.033844,0.0043341,0.01152,0.0051297,0.070646,0.055188,0.0061375,0.92877,0.47396,2.1239,195.46,33.207,0.1201,3.4225,72.139,56.13,0.44203,5.5685,0.34363,4.0437,0.036429
0.080662,0.0047807,0.028154,0.015917,0.0090415,0.046321,0.0029117,0.059185,0.065027,0.0011878,0.69418,0.64433,0.34205,86.364,123.45,0.87568,3.4987,60.079,8.9645,0.85069,8.069,0.49854,3.1771,0.49706
0.056608,0.0026,0.08597,0.042977,0.0025071,0.094082,0.0099757,0.024898,0.096648,0.0049505,0.7189,0.22715,4.6903,161.45,87.354,0.32573,1.5653,225.81,235.63,0.090394,7.5801,0.28377,0.69312,0.85433
0.094188,0.0038348,0.051877,0.0394,0.0070843,0.092882,0.003326,0.015457,0.045188,0.0043011,0.2873,0.81821,0.92963,92.985,13.079,0.98205,3.2383,158.83,83.481,0.16762,1.2243,0.57562,2.8221,0.085066
0.072262,0.0023349,0.096364,0.038761,0.0080831,0.076577,0.0030227,0.022656,0.021455,0.0092059,0.47311,0.79826,4.9148,213.03,190.59,0.97532,2.8719,169.39,215.18,0.89141,4.0253,0.15474,2.9765,0.35753
0.075302,0.0025774,0.011194,0.032791,0.0024275,0.027173,0.0094008,0.097082,0.083745,0.0034627,0.19394,0.249,0.79852,228.22,122.79,0.40748,4.4842,240.82,0.078188,0.66809,3.0736,0.81136,4.8539,0.42459
0.027717,0.0040829,0.021656,0.014763,0.0071544,0.097576,0.0039577,0.059746,0.042492,0.0043639,0.80799,0.31998,4.319,164.96,42.017,0.96367,0.11563,122.86,65.868,0.24425,8.9669,0.91288,2.1684,0.0072832
0.049046,0.0075466,0.092246,0.012637,0.0041035,0.074406,0.0089076,0.063932,0.032638,0.0092061,0.53514,0.83394,3.2094,137.22,82.807,0.12069,2.1817,70.187,8.9952,0.80095,8.8583,0.084887,3.2656,0.63573
0.099304,0.0038076,0.027333,0.031313,0.0068389,0.037869,0.0039438,0.055017,0.081484,0.0016496,0.49142,0.89612,1.531,178.37,200.76,0.32709,4.8349,209.77,197,0.73832,3.7947,0.47132,1.1171,0.33479
0.042874,0.0057852,0.049416,0.07569,0.0073932,0.080956,0.0050533,0.039845,0.038587,0.0019416,0.62573,0.46633,0.12104,122.43,41.778,0.99707,3.7453,94.677,135.14,0.53677,7.7231,0.71771,3.0335,0.28211
0.039457,0.0034475,0.039494,0.075575,0.0053779,0.03809,0.0055243,0.097526,0.026043,0.0069819,0.63461,0.62498,4.74,236.35,145.98,0.66534,2.5936,59.775,92.115,0.10128,8.4314,0.93928,0.85583,0.29994
0.089196,0.0056935,0.078152,0.083558,0.0061819,0.081082,0.0058625,0.070621,0.031361,0.0069405,0.18446,0.38397,2.8447,99.144,9.5033,0.41563,2.161,208.48,11.611,0.096865,4.0649,0.16289,4.7846,0.21776
0.086302,0.0097437,0.027364,0.07024,0.0025375,0.090376,0.0055991,0.019945,0.093815,0.0084439,0.98931,0.75741,1.2886,241.07,98.995,0.21916,4.609,191.68,127.45,0.51132,1.2791,0.13763,4.8431,0.42668
0.064292,0.0015483,0.074686,0.094276,0.0041575,0.010092,0.0015952,0.074402,0.067306,0.0023862,0.68141,0.57309,0.8332,138.37,87.957,0.95386,1.5864,167.27,225.25,0.11986,6.8818,0.41518,0.96706,0.10216
0.051163,0.0032492,0.029622,0.063078,0.0049322,0.020424,0.0064035,0.090633,0.050077,0.0074362,0.42615,0.72604,2.2017,152.35,21.543,0.52806,1.6496,133.79,143.29,0.85507,6.7305,0.015293,0.68463,0.53195
0.028192,0.00295,0.066759,0.083845,0.0063612,0.029221,0.0065395,0.098717,0.077456,0.0020153,0.77696,0.51142,0.90165,201.31,23.698,0.93845,2.0558,197.32,0.82738,0.73362,7.4938,0.326,2.4849,0.54927
0.093646,0.0035127,0.059609,0.067701,0.0096054,0.040666,0.004458,0.084962,0.034378,0.0088471,0.11347,0.44337,0.35808,88.295,128.76,0.44896,0.035304,205.71,9.6646,0.95518,6.6175,0.33767,2.2629,0.51622
0.011527,0.0084336,0.019716,0.09026,0.0075155,0.01537,0.0059038,0.078957,0.054434,0.0060519,0.14561,0.89272,1.8889,227.12,77.391,0.093694,1.1047,85.75,73.873,0.54327,1.7913,0.89808,0.23549,0.53714
0.026539,0.0040215,0.068312,0.078471,0.0077309,0.080989,0.0047178,0.023537,0.06915,0.0069382,0.33563,0.689,2.2471,131.16,158.36,0.24215,0.93244,155.02,226.93,0.89292,6.5043,0.27558,2.067,0.57611
0.099061,0.0029942,0.093732,0.080983,0.0069758,0.017309,0.0010748,0.014821,0.084901,0.0049286,0.99269,0.54557,1.6936,62.16,43.916,0.76053,0.98144,83.938,46.752,0.87466,5.0729,0.32297,4.7229,0.55467
0.081379,0.0024951,0.056014,0.044921,0.0010786,0.025639,0.0067244,0.058289,0.083165,0.0056641,0.75188,0.85119,2.1036,168.9,94.286,0.43645,1.3983,51.819,96.973,0.56898,3.4296,0.58626,1.655,0.96356
0.028814,0.0038053,0.051325,0.075067,0.0058995,0.078531,0.0076132,0.078149,0.053155,0.0070277,0.10195,0.78571,0.81747,110.23,206.32,0.60431,3.6256,237.49,116.17,0.45228,8.2555,0.46022,2.8122,0.76242
0.086154,0.004212,0.024862,0.039771,0.0023494,0.026504,0.0081197,0.020518,0.076184,0.00427,0.50688,0.98864,0.77196,172.35,130.81,0.5466,1.5548,80.573,173.57,0.39256,2.0737,0.51387,4.4818,0.6527
0.09409,0.0039154,0.071913,0.076796,0.0054344,0.022861,0.0051573,0.041396,0.069195,0.0073142,0.42842,0.65172,4.5544,190.97,63.001,0.72185,1.0403,245.04,61.746,0.97665,8.396,0.36028,2.5099,0.36222
0.019678,0.0035022,0.044477,0.02647,0.0012282,0.078208,0.0034441,0.076703,0.085252,0.0029954,0.5882,0.22544,1.0832,235.62,54.888,0.54338,0.9718,149.78,208.89,0.50278,5.2889,0.025699,1.9631,0.2607
0.023662,0.00366,0.061341,0.03318,0.0023504,0.026119,0.0030608,0.060986,0.061484,0.009243,0.13995,0.68829,4.5145,61.306,218.35,0.76268,3.1145,238.38,100.18,0.49363,4.5413,0.90714,2.8683,0.95995
0.058927,0.004438,0.029978,0.021085,0.0092838,0.094415,0.0089556,0.029601,0.015271,0.0077843,0.95714,0.75587,4.5405,183.93,34.141,0.96115,1.8007,206.13,144.5,0.85034,3.6231,0.10953,0.59866,0.74039
0.086662,0.0087662,0.057812,0.046697,0.0051066,0.028743,0.006866,0.06184,0.081399,0.0012062,0.68155,0.51246,2.3784,142.22,4.2421,0.57239,3.5951,184.17,38.514,0.63277,6.0105,0.20934,0.24113,0.15833
0.051923,0.007337,0.026539,0.064013,0.0053319,0.035661,0.0012291,0.042863,0.029608,0.0044048,0.45972,0.33007,2.0455,242.57,174.08,0.39988,2.0263,112.83,105.42,0.98712,2.2147,0.37156,2.4272,0.23656
0.055374,0.0077051,0.04101,0.087462,0.0021065,0.098084,0.0044518,0.088981,0.094418,0.0076929,0.54357,0.88954,4.9013,67.427,134.48,0.11118,4.6538,120.37,142.65,0.14771,3.1242,0.69309,3.0942,0.52188
0.09969,0.0031481,0.098494,0.015834,0.0032056,0.052773,0.0089214,0.021196,0.013269,0.0056675,0.62602,0.72212,3.5913,210.99,50.893,0.72081,4.9063,117.01,126.45,0.017109,5.5146,0.46501,4.304,0.15954
0.027023,0.0021367,0.047,0.076815,0.0094344,0.034256,0.0044662,0.017159,0.089637,0.0059712,0.74726,0.35893,1.1947,93.567,6.6082,0.15903,0.65478,131.51,212.09,0.64664,6.9578,0.23245,2.9898,0.85517
0.034783,0.003736,0.071463,0.059567,0.0079759,0.013679,0.0086996,0.095494,0.028274,0.0035108,0.71804,0.72608,1.0113,100.58,225.66,0.26764,2.2038,83.27,192.95,0.20218,3.8842,0.17845,2.6359,0.71889
0.04389,0.0085082,0.020932,0.052369,0.005471,0.077932,0.0086208,0.063643,0.099482,0.0067576,0.81824,0.61292,3.4632,74.971,235.08,0.70282,3.6232,85.722,228.59,0.3952,3.3776,0.3213,3.6579,0.5993
0.014019,0.0052359,0.055503,0.053347,0.004117,0.032096,0.0047681,0.047021,0.042215,0.0071698,0.36853,0.91371,0.46059,129.32,246.53,0.58659,2.1465,123.15,128.57,0.92264,2.0468,0.26602,0.34471,0.37716
0.020604,0.0028357,0.077925,0.028822,0.0083983,0.091426,0.0054186,0.099472,0.099982,0.0065427,0.80692,0.17301,4.4313,211.08,25.953,0.86835,0.65289,146.47,124.54,0.2945,2.4415,0.60463,0.11069,0.52764
0.054285,0.0060471,0.034694,0.069956,0.0025102,0.051435,0.0092981,0.086219,0.024457,0.0049208,0.3676,0.23701,1.8731,54.955,140.88,0.35277,3.6926,174.41,91.062,0.77173,5.2175,0.88402,0.89454,0.28762
0.037585,0.0077884,0.026804,0.065028,0.0028021,0.074992,0.0091713,0.069429,0.071361,0.0083706,0.9448,0.779,3.2682,211.17,109.83,0.78151,4.2793,223.66,168.76,0.37991,7.5095,0.14055,2.4127,0.86957
0.029818,0.0074681,0.094944,0.098266,0.0051464,0.015295,0.0047765,0.084636,0.075985,0.0062102,0.20865,0.67657,2.2788,128.55,134.46,0.18623,4.2852,89.327,71.244,0.12287,4.1933,0.53556,0.54803,0.51285
0.012947,0.0075574,0.083647,0.017197,0.0096659,0.011061,0.0071413,0.035037,0.062771,0.0042282,0.87232,0.97588,1.8628,243.41,189.2,0.53328,2.9859,219.67,92.422,0.18218,3.1233,0.96947,3.2824,0.12159
0.011473,0.0077691,0.040381,0.065127,0.0095937,0.046023,0.002486,0.020983,0.029819,0.0025938,0.74258,0.76206,2.7059,239.1,100.32,0.3633,4.1404,182.54,123.34,0.29449,6.6736,0.020175,4.4424,0.13659
0.03948,0.0050421,0.088686,0.079521,0.0088299,0.099562,0.0010009,0.038282,0.03545,0.0085881,0.7977,0.14981,3.026,245.32,76.609,0.26478,1.7359,176.31,157.17,0.29098,4.7042,0.69369,0.94262,0.77351
0.054698,0.0030022,0.076404,0.035238,0.003712,0.09418,0.0062957,0.042308,0.051876,0.0097877,0.17778,0.63371,0.78908,88.708,137.09,0.70923,3.4529,134.48,121.82,0.94103,4.2939,0.57585,0.46221,0.96244
0.080416,0.0093515,0.022695,0.011012,0.0084793,0.075172,0.0081964,0.026008,0.067648,0.0071995,0.44563,0.88174,4.0666,194.19,103.65,0.768,0.48133,241.79,127.26,0.51315,4.3818,0.13106,2.1599,0.6606
0.0399,0.0099339,0.029517,0.020665,0.0033595,0.094683,0.0085982,0.095,0.03908,0.0056538,0.53368,0.46767,1.3586,102.89,132.21,0.5995,1.6754,153.31,178.25,0.98332,1.7897,0.93706,1.0957,0.41779
0.082054,0.0079431,0.034236,0.014961,0.0054365,0.034975,0.0019067,0.051219,0.012651,0.0097617,0.27101,0.93097,1.1673,163.26,72.877,0.4593,3.8177,207.1,128.44,0.24214,7.0546,0.18454,3.5416,0.23932
0.088915,0.0068963,0.098953,0.077404,0.0014797,0.045514,0.0051417,0.096271,0.049786,0.0018516,0.44203,0.69606,3.8227,84.882,121.85,0.97051,1.3719,82.128,230.87,0.93402,1.4929,0.76065,1.4758,0.84862
0.038564,0.0076481,0.094549,0.094021,0.0045008,0.031465,0.0073047,0.091344,0.072262,0.002977,0.55659,0.61896,2.4211,140.38,219.43,0.82811,3.1602,226.94,34.775,0.28251,7.151,0.79543,3.6354,0.2852
0.07267,0.0052435,0.056684,0.013433,0.0089856,0.079853,0.0046676,0.093304,0.038789,0.0017751,0.47178,0.85286,0.29255,149.75,59.047,0.208,4.9636,213.47,224.63,0.71872,4.544,0.10442,1.2822,0.67041
0.093144,0.0057347,0.089048,0.022286,0.0065191,0.016083,0.0026558,0.069788,0.019858,0.0017011,0.85826,0.16897,0.83772,132.15,179.3,0.38248,2.852,127.03,225.49,0.68493,6.0039,0.76448,4.5295,0.8435
0.09006,0.0041556,0.029487,0.026277,0.0075594,0.054614,0.0071262,0.088585,0.052963,0.0060679,0.31068,0.25253,4.9721,216.74,77.614,0.43733,0.11466,217.08,156.2,0.15201,3.8509,0.457,0.6995,0.58411
0.063927,0.0093801,0.092998,0.087679,0.0071404,0.017875,0.0052868,0.074388,0.028103,0.0018311,0.59717,0.27416,3.954,167.4,177.26,0.91233,3.5367,221.24,223.61,0.64655,0.90509,0.11233,3.4453,0.067026
0.020532,0.0051865,0.091088,0.042925,0.006115,0.06594,0.0088491,0.045965,0.07169,0.0041164,0.60204,0.54566,2.4655,140.59,15.228,0.96456,0.93266,95.41,178.5,0.19088,3.4079,0.14044,0.40787,0.50564
0.022456,0.0059519,0.020979,0.060063,0.0084085,0.0385,0.0035886,0.022694,0.096031,0.0058774,0.96334,0.37423,3.7002,100.84,239.58,0.55311,0.57772,175.12,242.77,0.37288,0.86798,0.39858,4.951,0.51159
0.041438,0.0010606,0.068806,0.084674,0.0049273,0.018296,0.0064062,0.055536,0.086262,0.0040115,0.27091,0.44289,0.72204,135.6,119.07,0.34655,0.19294,246.13,95.028,0.27257,8.2054,0.012928,2.6998,0.14796
0.016563,0.0037479,0.055112,0.063554,0.0090771,0.092706,0.0047883,0.041694,0.016399,0.0065862,0.22162,0.65707,0.20518,59.049,56.271,0.88594,2.9518,129.81,198.78,0.25082,8.5948,0.066105,0.28968,0.74653
0.054516,0.0059389,0.091275,0.014757,0.0038222,0.022467,0.0080416,0.061745,0.061513,0.0050482,0.83029,0.22726,0.7548,91.907,124.43,0.70414,4.7915,183.81,89.747,0.99668,1.5095,0.99948,3.7781,0.92534
0.015908,0.0033876,0.081847,0.078187,0.0074866,0.099807,0.0059751,0.075796,0.035089,0.0074615,0.38425,0.35099,3.7703,97.212,100.84,0.98362,0.59485,205.4,202.46,0.91851,3.2534,0.30529,0.16875,0.15241
0.075289,0.0065955,0.023998,0.075979,0.0030636,0.086059,0.0011665,0.05079,0.054435,0.0063677,0.28357,0.36069,1.3625,56.387,189.29,0.95011,1.3143,164.36,196.95,0.76952,5.2322,0.39881,4.6757,0.35705
0.076877,0.0099048,0.016603,0.065386,0.0025051,0.071871,0.0039857,0.098165,0.045095,0.0068884,0.90613,0.48611,0.78597,104.98,146.54,0.81814,2.4397,143.04,6.3052,0.6511,2.0581,0.29983,4.538,0.28578
0.048113,0.0089857,0.023445,0.013428,0.002472,0.093858,0.0077747,0.079836,0.092642,0.0095901,0.95484,0.92004,1.3593,144.36,106.51,0.48396,1.2256,220.31,56.957,0.99184,7.2424,0.13373,1.7707,0.55457
0.05022,0.0088711,0.072811,0.043732,0.0058422,0.061475,0.0071022,0.028445,0.069789,0.0040962,0.57094,0.62981,0.5287,83.494,239.56,0.59228,1.0505,121.21,242.45,0.10378,3.4792,0.4536,1.4649,0.4073
0.063764,0.0077882,0.077279,0.044006,0.0076962,0.035944,0.0050812,0.038515,0.047886,0.0095161,0.55814,0.65793,0.52607,243.91,10.34,0.23482,2.4566,137.94,165.97,0.17302,8.0947,0.98975,4.5864,0.91844
0.036277,0.0072365,0.044207,0.062866,0.0025679,0.06463,0.0014484,0.028859,0.095147,0.0077414,0.90683,0.6372,2.6028,113.51,53.066,0.45357,0.24995,141.55,57.097,0.78207,1.3056,0.57618,0.42533,0.41125
0.069755,0.0071157,0.059021,0.029926,0.0076171,0.0515,0.0081977,0.087699,0.083112,0.009244,0.50631,0.11349,1.0352,137.43,111.13,0.5537,3.7373,154.66,31.902,0.37385,5.7717,0.81863,4.0853,0.33293
0.019869,0.0056839,0.03793,0.067028,0.0068573,0.031311,0.0081755,0.080691,0.084888,0.0029819,0.44696,0.30642,0.57387,194.49,175.38,0.63291,2.6005,170.09,183.45,0.080823,4.8727,0.2819,2.0693,0.71215
0.019734,0.004847,0.045509,0.029576,0.0083381,0.084733,0.0076532,0.029642,0.011414,0.0066989,0.60203,0.11445,3.8499,182.23,110.48,0.53662,2.0334,210.93,162.77,0.40221,6.7067,0.13102,1.2233,0.33109
0.031713,0.00745,0.0953,0.016289,0.0094829,0.035199,0.0080272,0.036248,0.056103,0.0088062,0.29638,0.18049,4.4303,104.45,135.28,0.54947,2.9161,55.372,85.117,0.051443,7.5433,0.54539,0.39635,0.54157
0.043291,0.0040584,0.065443,0.070004,0.0019814,0.088671,0.001733,0.08896,0.013225,0.0094308,0.1175,0.72536,0.66205,152.26,118.18,0.53924,4.3242,130.84,50.196,0.8538,8.5579,0.057096,0.49736,0.2268
0.019367,0.0019068,0.083624,0.091013,0.0076311,0.019578,0.0084151,0.04182,0.051481,0.0046518,0.43351,0.60412,3.7443,246.06,207.23,0.26734,0.15553,112.82,135.26,0.31096,2.2115,0.033057,0.47987,0.68935
0.025843,0.0099957,0.060316,0.099636,0.0065127,0.023706,0.0058979,0.094156,0.044326,0.0015051,0.15154,0.6079,2.261,86.937,221.16,0.17602,3.9625,168.18,137.51,0.59885,6.6275,0.28241,1.9266,0.10261
0.032665,0.0073611,0.035611,0.070352,0.0038627,0.07487,0.0042827,0.08265,0.066464,0.0081757,0.81386,0.104,3.6499,78.092,7.3508,0.73434,1.3195,113.24,80.42,0.29689,2.3633,0.62249,0.17957,0.36224
0.090219,0.00567,0.082959,0.093963,0.0080974,0.015234,0.0066768,0.087224,0.051461,0.0093047,0.82436,0.67681,3.7582,229.94,71.772,0.65309,2.8001,108.71,14.04,0.31634,1.5939,0.67977,1.1104,0.033465
0.076398,0.0017884,0.02385,0.059691,0.0016624,0.011752,0.0042753,0.057547,0.030739,0.0058681,0.59434,0.66467,3.7286,91.415,19.442,0.78791,3.9397,119.39,158.81,0.56882,4.077,0.63011,4.2777,0.94199
0.053306,0.0091946,0.088824,0.072225,0.003892,0.038939,0.0017279,0.038657,0.036448,0.0085551,0.53981,0.62312,3.8563,64.782,247.08,0.20351,0.77197,186.19,172.86,0.22871,6.6203,0.87523,4.9213,0.44035
0.064129,0.0052043,0.034536,0.053527,0.0012362,0.071305,0.0014486,0.085328,0.089368,0.0036356,0.71628,0.78152,3.7559,207.25,85.4,0.39916,4.0617,176.74,42.189,0.6714,7.9202,0.24617,2.1301,0.18147
0.011331,0.0059389,0.098222,0.025505,0.0052426,0.084455,0.00691,0.010717,0.029484,0.0096515,0.9669,0.21989,3.6592,225.01,38.376,0.23712,3.412,76.364,133.67,0.60907,0.69851,0.20256,4.8936,0.86705
0.029546,0.0013162,0.066822,0.043784,0.0070661,0.027286,0.0094267,0.078302,0.057166,0.003826,0.71058,0.51137,1.9506,157.93,177.18,0.97372,2.414,193.71,244.65,0.79516,5.18,0.46206,3.0373,0.58165
0.043521,0.0021037,0.02838,0.080416,0.0029447,0.09262,0.0093506,0.04206,0.091359,0.0023725,0.67929,0.15276,4.9822,159.6,70.017,0.9805,0.18618,163.58,79.869,0.056684,2.8657,0.74535,3.4004,0.052473
0.073001,0.0050646,0.05805,0.031326,0.0088636,0.056201,0.0046544,0.063249,0.087059,0.0027247,0.48086,0.77869,0.15734,190.47,148.56,0.99446,4.3845,247.58,24.195,0.13001,7.1426,0.16579,4.3964,0.8871
0.059289,0.0025934,0.081446,0.079569,0.0042586,0.068433,0.008035,0.054029,0.094824,0.0021439,0.69911,0.78108,3.8844,222.55,60.037,0.64475,2.5614,211.36,60.396,0.60325,3.3206,0.69543,0.60115,0.059856
0.095157,0.0044839,0.068352,0.016881,0.0069875,0.037926,0.0057657,0.018714,0.024026,0.0091051,0.92893,0.35415,4.4965,223.83,234.26,0.78765,1.188,213.17,105.09,0.57043,0.2732,0.55175,1.2369,0.90864
0.095623,0.0028677,0.077717,0.034016,0.0066987,0.058486,0.0096065,0.01431,0.045175,0.002532,0.62184,0.61973,1.1995,99.393,37.281,0.04484,0.16452,134.48,62.591,0.36488,8.6785,0.24886,4.2827,0.5299
0.070736,0.004159,0.014307,0.021261,0.0022181,0.094624,0.0075632,0.053295,0.099875,0.0043051,0.22827,0.69463,0.13992,95.076,124.14,0.32508,4.754,234.94,58.907,0.76774,8.179,0.29206,1.6576,0.4183
0.056803,0.00878,0.030819,0.044495,0.0029048,0.076997,0.0092934,0.095481,0.026369,0.0077352,0.29927,0.21501,4.7427,73.81,190.22,0.097723,0.5307,102.96,199.43,0.58856,8.4748,0.82323,3.6585,0.39603
0.025433,0.0072092,0.01348,0.083886,0.0021973,0.020192,0.0080472,0.081291,0.048437,0.0037345,0.64637,0.79874,2.2489,81.986,237.76,0.60603,1.1545,238.91,206.98,0.22345,7.0865,0.39394,4.2224,0.91996
0.012776,0.0074098,0.019272,0.033518,0.0082494,0.08039,0.0061241,0.064188,0.033404,0.0051547,0.21805,0.10788,0.52419,230.58,60.313,0.4182,1.9075,241.58,149.7,0.99561,7.1128,0.31142,1.4407,0.7955
0.013207,0.0012801,0.044973,0.017842,0.0016528,0.087994,0.0021404,0.087711,0.039319,0.0014947,0.76555,0.83407,1.6793,90.491,171.85,0.68182,4.2839,109.16,37.729,0.33103,3.574,0.51702,1.2971,0.79748
0.089658,0.0062719,0.012335,0.013364,0.0013388,0.05449,0.005823,0.099273,0.0194,0.0024632,0.55884,0.63633,3.8066,184.09,4.0844,0.35659,0.80377,242.62,127.39,0.62385,2.0297,0.59043,1.8714,0.25428
0.030911,0.0059902,0.03583,0.044551,0.0081671,0.085947,0.0055153,0.021256,0.017894,0.007016,0.43554,0.98482,1.9075,215.86,228.63,0.012327,2.6182,230.27,44.772,0.73712,1.2372,0.19284,4.1939,0.71398
0.01436,0.0096452,0.090837,0.073291,0.0010587,0.027835,0.0027627,0.039486,0.025059,0.0040299,0.14768,0.29318,2.9574,108.5,226.07,0.99777,3.6815,90.836,126.88,0.64062,2.7545,0.70295,0.049165,0.37778
0.023718,0.0092655,0.064009,0.086479,0.0014848,0.047021,0.0029596,0.079933,0.014646,0.0085895,0.96772,0.49557,2.5262,226.96,81.785,0.94237,4.2547,202.1,184.53,0.65711,6.8756,0.93985,2.5594,0.62464
0.042275,0.0078276,0.015098,0.083103,0.007365,0.059262,0.0065656,0.062271,0.089127,0.0074995,0.13977,0.51658,3.9586,174.15,218.1,0.58682,1.5859,135.31,80.539,0.59357,0.48655,0.87621,3.7988,0.33499
