0.0833251318,0.00256049752,0.0597062207,0.00828283466,0.949358387,0.705043214,4.47711758,105.807837,224.102445,0.952604056,1.24476139,89.5820115,5.4824557,0.898793513,0.262088963,2.23944822
0.0915212743,0.00451844022,0.0666895047,0.00773756985,0.594242279,0.488360065,2.91259262,185.075064,120.557601,0.976095431,1.932114,171.138613,202.070138,0.502257828,0.5697455,3.25624332
0.0214288135,0.00848241769,0.0128791914,0.00208168316,0.755548142,0.724963519,2.91373403,230.732905,3.5232688,0.0406053933,2.15716688,214.740729,44.8023752,0.773590395,0.359553045,0.847509353
0.0922038271,0.00823027952,0.0653242077,0.00572540648,0.619082468,0.331106107,4.27462969,231.70518,155.720086,0.498943025,4.15443242,212.122993,41.3480617,0.0697586071,0.026838629,2.65724621
0.0669123322,0.00154424061,0.0426170316,0.00393250266,0.123271724,0.108782785,0.1743285,199.439389,57.7738408,0.864094907,4.1232341,210.447403,45.4008668,0.26983289,0.500419192,3.16900429
0.0187786364,0.00459331994,0.0144579321,0.00591804496,0.50187788,0.579054764,4.42710048,102.102301,131.858491,0.250447405,2.26499306,191.622675,172.859141,0.654558675,0.827014908,0.0704800209
0.0350648397,0.00574188247,0.054061299,0.00458992677,0.681671762,0.351452769,2.03865406,187.927568,181.24799,0.835927462,1.90280085,221.875571,53.4408798,0.142267871,0.258982421,2.35185668
0.0592193367,0.00475119521,0.0273259356,0.00473584048,0.569082657,0.951607138,0.181910152,76.3661331,151.853948,0.81545528,4.62934271,206.216904,74.5262149,0.642160279,0.0458850066,4.43162986
0.0961756152,0.00691173902,0.0210775373,0.00262663984,0.435081395,0.91579894,3.73073971,74.7001665,147.091611,0.632683373,3.70421814,90.7593702,192.083787,0.391093664,0.246471604,0.570142178
0.0968399682,0.00665176023,0.0284944754,0.00329848066,0.9434212,0.453416118,0.774143854,88.1805706,108.35871,0.0122158166,3.68816537,248.66865,125.287524,0.768041144,0.660732145,2.21270576
0.0241851774,0.00362785672,0.023186342,0.00118482197,0.846579542,0.12236971,0.719541643,79.1464199,61.0432234,0.3859267,4.73458,68.7249056,227.366202,0.656386525,0.329409691,3.29773944
0.0973533504,0.00488486053,0.0270164957,0.00931308051,0.864176932,0.704293117,3.02979527,167.008723,107.240088,0.90536164,2.55049853,180.123709,14.4632258,0.387674175,0.659496248,1.47386485
0.0961450253,0.00113938413,0.013838717,0.006883299,0.435280816,0.853453572,1.27240422,64.672338,2.54436388,0.683548148,3.95939592,93.0353052,109.187982,0.307018397,0.0130041243,4.75184201
0.0536838084,0.00985657352,0.0671678125,0.00939352215,0.633866118,0.974349674,1.62077103,214.465244,152.205362,0.385034899,2.26086751,98.7746204,143.063686,0.34673816,0.718067857,3.47143124
0.0820252422,0.00250451569,0.035368017,0.00247161132,0.885297308,0.151239597,2.00895459,194.580595,239.493797,0.635635164,4.24599354,117.937561,141.26679,0.919737271,0.391118812,1.03403264
0.0227697705,0.0019559471,0.058473701,0.0092898753,0.940151448,0.505291431,2.03186661,235.171608,23.8616309,0.250836827,1.95215415,89.5724681,205.954142,0.461704145,0.0335052597,2.77381163
0.0479585154,0.00435168766,0.0725646735,0.00815192097,0.701617847,0.624223272,1.93095569,148.52772,8.89764085,0.575698941,3.69188256,151.366675,31.5247069,0.448071983,0.406015403,4.39639242
0.0924161973,0.00278306562,0.0549204412,0.00619654777,0.286098812,0.717974033,3.04900912,180.97658,221.558778,0.981911486,4.88219279,240.151597,75.0291944,0.459643961,0.716307637,2.78928845
0.0812986597,0.00540718874,0.058222095,0.00496032036,0.688465533,0.747489477,0.834453613,228.024696,61.7353413,0.851185199,2.61649529,128.921444,0.530506208,0.945829189,0.921336415,3.7616703
0.0963543184,0.00405544072,0.0500664849,0.00331852363,0.164846396,0.685036677,0.940460366,157.705115,2.22876406,0.290609744,2.14957651,166.892968,237.776839,0.226927763,0.984015743,4.47450396
0.0690166629,0.00956467418,0.021153905,0.00776751754,0.466054224,0.754223096,0.473144349,106.441033,203.730068,0.685633088,1.03579041,171.307449,191.574841,0.883578768,0.983420873,4.20922087
0.0132140511,0.00928298836,0.0541321564,0.00305802534,0.70023838,0.436462899,1.61593136,245.191504,35.1248591,0.364543286,1.6170069,192.928573,187.826041,0.0296766686,0.896306093,0.654283413
0.0864216375,0.00147409298,0.086769834,0.00157768379,0.940353094,0.623423875,3.84798465,57.2851031,219.96661,0.987057502,0.554351092,130.307271,34.7162093,0.348347234,0.86570321,0.945769669
0.0940593923,0.00764072286,0.0886534665,0.0079059656,0.829855029,0.204506662,1.17059001,115.248915,23.8441965,0.0931464328,1.87605027,221.738204,87.3298857,0.768367171,0.800960972,0.768199154
0.0710861639,0.00342207484,0.0343264899,0.00704081967,0.536093445,0.151888925,3.70182735,244.602725,88.1400253,0.257802827,1.6495199,234.096996,37.8351401,0.349375665,0.554978851,0.144510328
0.0781966118,0.00480552054,0.0287615223,0.00743691263,0.781074289,0.981788702,3.46409207,123.006525,148.355142,0.813233149,1.71052586,200.167778,124.18017,0.62261834,0.418872148,0.0454244925
0.0768819221,0.00593083811,0.0608481614,0.00677854746,0.475342708,0.356341354,4.12039107,111.829924,146.29541,0.0935788728,4.08559426,107.118341,202.163063,0.45849095,0.127122507,2.98225871
0.0453004318,0.00948463286,0.0676280643,0.00477143464,0.974607394,0.635476869,4.13988775,74.1824769,166.920441,0.535941424,2.65842657,209.363158,158.217198,0.0200609766,0.654620743,3.04524662
0.0689930101,0.00475969694,0.0475326056,0.00451685874,0.989177231,0.965944928,1.46683967,233.153141,162.006779,0.802616749,2.60561024,78.553166,172.100374,0.603090356,0.863964912,4.59461716
0.0254068019,0.0098474722,0.0285377964,0.00834526093,0.877732776,0.267200437,1.54684621,77.0956411,108.342267,0.74143501,3.87154854,150.910038,159.892554,0.605552665,0.274598435,3.66787222
0.0735441479,0.00371309454,0.0953139809,0.00385685077,0.449995398,0.273735834,2.61514899,116.423578,34.9396898,0.15024635,0.601313854,172.13759,182.330432,0.652923276,0.840163937,1.50573476
0.0128649562,0.0073098888,0.0173864086,0.00833085796,0.509267645,0.407479694,1.62649496,229.495978,187.982377,0.443515315,3.12725076,190.759347,214.961427,0.349293426,0.0707552443,2.4778724
0.0349230686,0.00699704966,0.0195138484,0.00810166163,0.322018478,0.939608106,4.15921255,149.929756,60.4466984,0.356876569,1.73324343,126.667986,156.738845,0.498366263,0.378792075,1.29081512
0.0141554252,0.00585213819,0.022783701,0.00867037501,0.805980784,0.451600783,4.05147395,173.057648,162.614831,0.483712522,1.67309693,195.736687,45.1478432,0.704756206,0.268169434,3.66427182
0.0187418603,0.00728294968,0.0249814397,0.00555072956,0.894553845,0.345895037,2.78499131,166.626594,214.343515,0.591529366,2.87308282,227.456936,143.326637,0.888924575,0.152921179,0.583803755
0.0841112045,0.00699875122,0.065886278,0.0067209525,0.922340513,0.236752372,1.31482017,189.650785,21.0926178,0.154347638,4.31968821,61.1696643,40.8915391,0.0645072677,0.63099958,3.73020782
0.0725345761,0.00260319209,0.0616338788,0.00955804974,0.602456431,0.457397958,3.40283101,55.8664686,243.02229,0.906277301,0.992815361,77.6432685,226.512934,0.107378331,0.316374816,4.04894554
0.0385389532,0.0021521296,0.0146870101,0.0049956774,0.638981292,0.43725022,1.16826573,155.576538,7.86498389,0.643792306,3.36225482,222.612996,19.3356963,0.653284958,0.959111853,3.72616841
0.0955199844,0.00999172355,0.0938081246,0.00154016938,0.233989048,0.218003236,2.28212682,56.4145693,208.851138,0.171310176,4.50915685,134.349297,84.6336625,0.766430182,0.498673989,1.68571657
0.0131001472,0.0025400896,0.0755795514,0.00880074907,0.909742136,0.491536646,1.92283447,215.428465,208.928337,0.570251485,0.995785908,132.262835,145.154387,0.988079352,0.738608517,2.9216249
0.0494869924,0.00129340738,0.0764057488,0.00668069861,0.505354223,0.18236185,2.69300719,117.997241,12.4643753,0.932299976,1.49142075,241.828268,118.808789,0.134071544,0.0127556689,2.34476052
0.0443402611,0.00605079813,0.0157064051,0.00419566287,0.285105106,0.653164262,4.9585186,219.342192,136.471552,0.785270865,2.48260135,200.049059,201.330122,0.370832403,0.605353189,0.436325172
0.0788965109,0.0089367985,0.0874396507,0.00997302944,0.909685891,0.109881183,3.77610201,99.2139134,235.79246,0.688830266,4.44952116,246.199423,132.694535,0.679467789,0.576451321,4.14358713
0.0815679911,0.00702257774,0.0940964607,0.00301754349,0.786326985,0.615934345,4.90227425,166.29825,80.3682675,0.471557092,2.50707295,96.7031611,56.8275829,0.38200059,0.807378821,3.42972354
0.0268185344,0.0027138994,0.0985958481,0.00687205966,0.894237677,0.810756872,1.1739132,237.535376,201.616701,0.267714915,1.3849762,69.2453522,177.371244,0.864823907,0.654968062,1.33662528
0.0540787956,0.00432024891,0.0873044935,0.00644491578,0.356455196,0.311830096,2.64279544,59.5574585,150.349689,0.573575489,2.66979089,126.91644,37.1581383,0.299056983,0.878228395,4.84741782
0.0501027581,0.00514653344,0.080700309,0.00448520888,0.705903388,0.503217742,0.257180268,60.7955318,197.405116,0.256282956,2.87124777,150.05451,164.529045,0.142140241,0.902372925,0.918871013
0.0681681709,0.00983474156,0.0562039677,0.00227968443,0.697851914,0.612422365,3.78437735,54.1236068,199.796259,0.326108576,2.06402201,164.051174,158.495637,0.675924009,0.152232857,1.49970461
0.0738428348,0.00240764457,0.0259842214,0.00122621487,0.210533495,0.155261298,3.00989883,186.295703,12.3911914,0.91169421,0.073818314,245.326319,57.3265629,0.210559131,0.192580087,2.05592445
0.0779218014,0.00869970525,0.0458730547,0.00479001028,0.466586581,0.546659997,4.28584355,169.725705,70.7996585,0.886367841,3.51382402,148.571036,45.5570038,0.869830046,0.790975649,1.18244594
0.0348422569,0.00680288083,0.0220538126,0.0026569026,0.347758256,0.678083711,4.9413857,72.8060069,163.364206,0.79664353,2.53373576,130.176573,41.5881269,0.753645749,0.0607051042,0.975276613
0.0711732409,0.00438644989,0.0127800594,0.00753197741,0.745002767,0.299139157,4.64742236,209.24907,122.413836,0.926551709,1.90633049,248.998052,37.4017729,0.425185853,0.389827192,3.5268964
0.0689588204,0.00271831326,0.0945227535,0.00433326418,0.355045943,0.853350801,2.04757467,173.570117,243.213059,0.187051551,0.324657674,102.199602,50.6868494,0.0102287545,0.299965854,0.902741268
0.0246350562,0.00485427694,0.0371175458,0.00857404079,0.906578971,0.973967708,0.00170731109,64.0427048,187.122477,0.522365737,1.7928998,183.064942,238.739725,0.157969095,0.734179907,2.61166459
0.0207097913,0.00533819855,0.0365980451,0.00760806722,0.843921003,0.861735599,2.70439161,63.8557945,141.960287,0.630735263,1.17125621,242.851323,3.9770847,0.281095959,0.104209254,1.48085912
0.0548527647,0.00208550452,0.0399642654,0.00613923286,0.451023862,0.55539951,1.03865311,77.2014777,74.7410409,0.914050522,1.01752026,184.230207,239.378588,0.873700769,0.792575488,2.31390944
0.0963769563,0.00630556736,0.0520361368,0.00259169552,0.548112649,0.35098805,1.09641794,207.778264,64.0274453,0.667328571,4.06889792,109.834971,6.42307134,0.605238632,0.782728943,4.62616208
0.0406347154,0.00303568912,0.0683378566,0.0096164562,0.725324673,0.7719555,1.62903131,68.4796916,221.640949,0.395300895,1.96717297,156.225305,242.777666,0.327976568,0.532397693,1.07944571
0.0626740976,0.00446157212,0.0122705363,0.00338789833,0.850932101,0.313237346,0.479747083,97.5737584,111.700216,0.742607506,0.267875854,50.292635,74.3989192,0.291450144,0.253352342,0.00504439254
0.0301430746,0.00624687744,0.0857985951,0.00932122806,0.648666721,0.961610753,3.73766831,98.7295825,203.996813,0.819458511,1.87525789,226.757762,131.26827,0.440962648,0.070954585,4.53303122
0.0776140353,0.0032662551,0.060312929,0.00301393364,0.617263445,0.658234032,3.74254479,70.9644425,24.5843254,0.604341345,3.87497089,130.876771,215.584803,0.904721461,0.625803331,3.40020973
0.0329585604,0.00361396598,0.0868689954,0.00436207427,0.393437954,0.640235931,2.71649717,221.670552,214.898363,0.0941470939,0.826488104,110.241117,224.101226,0.925854589,0.0246814701,2.57475903
0.0555361346,0.00655381796,0.0413091275,0.00178750315,0.510782141,0.255344051,1.69066158,189.639953,6.90725204,0.923134421,4.56109449,240.116318,47.2526389,0.510239528,0.0620424925,2.61034441
0.072916905,0.00338752819,0.0501423983,0.00676104893,0.742416025,0.181312064,4.16166831,196.748427,224.789109,0.0630618372,1.59602891,142.129639,165.179889,0.631305991,0.129611982,0.514592896
0.0901812927,0.0084193864,0.0148815536,0.00262555199,0.895964541,0.329735982,2.76286089,180.106125,224.983875,0.531754703,1.64889834,107.529502,235.307734,0.722071288,0.450614072,4.98440244
0.0963362283,0.0098439706,0.025939678,0.00140545997,0.748770104,0.872713478,4.78771558,153.254113,131.026502,0.127664744,1.02117835,66.9253277,243.926781,0.0336737525,0.672335844,1.7948441
0.0592493977,0.00757223913,0.0696527256,0.00750856131,0.116751497,0.919960348,4.4641666,115.277627,30.0498782,0.38634156,3.83607368,166.436267,26.9838133,0.579183177,0.856110833,3.12621299
0.0224761999,0.00409489304,0.0397746096,0.00412693881,0.70729882,0.729670391,1.78251809,182.355239,44.448523,0.814704208,0.349865745,80.6137395,44.724807,0.0560691194,0.498445424,1.96683261
0.0234364605,0.006256624,0.0908637524,0.00694555142,0.494657942,0.75266412,2.73200946,73.5130969,176.526899,0.251654956,4.75016974,64.6188612,186.637857,0.428306074,0.048784504,0.0383122275
0.0331757429,0.00196992114,0.0206339679,0.00445481741,0.494038161,0.306897471,1.73340876,79.5634828,207.839939,0.885578433,0.791048925,166.112955,12.3671306,0.473056919,0.31383236,2.72642467
0.085664553,0.00915677336,0.0989576136,0.00664611852,0.205333138,0.618448111,3.11401395,53.9529327,8.70845514,0.715520327,1.43222933,107.40295,17.8212205,0.0324017069,0.641631168,2.54555187
0.0328853961,0.00891688352,0.0585983889,0.00119484833,0.833213521,0.829565295,3.98312343,242.858346,189.459678,0.384366954,3.43564557,122.384017,122.28138,0.074423302,0.786386644,1.2338946
0.0832856343,0.00835984503,0.0736225677,0.0091951299,0.392369895,0.463459032,3.72937451,244.07458,239.278045,0.256430415,0.705749118,194.964939,212.473455,0.924716772,0.289150493,0.226976373
0.0319172472,0.00334655199,0.0999542458,0.00820502791,0.321605303,0.98959534,0.627681157,74.7721014,85.7176287,0.260325208,2.56043325,221.662336,249.260361,0.538801435,0.497868011,4.20864872
0.0936337261,0.00634920626,0.035906441,0.00771262736,0.408441899,0.180998933,4.11197003,143.482005,159.560927,0.769571159,3.60663464,119.583137,1.09815315,0.373128504,0.818434616,0.241249588
0.0414985389,0.00120261333,0.0473070285,0.00831801532,0.438122926,0.388846929,0.125752507,181.338801,85.751453,0.0593632662,4.64422568,242.349121,135.651866,0.370306718,0.595128293,1.58160249
0.0276935725,0.00482733388,0.0518355947,0.00444975687,0.591898414,0.560268045,2.0721444,108.037113,54.117849,0.688435682,3.66051925,240.71381,215.337044,0.159859929,0.536424609,3.91709715
0.0325975472,0.00381446998,0.0787561371,0.00655551309,0.605728139,0.15454573,3.65703734,200.907328,196.550157,0.624075341,3.7492401,91.2074754,227.284756,0.158112513,0.330873141,4.8620003
0.0654440209,0.0024533627,0.0836383635,0.00617945374,0.456240006,0.753119131,3.90687,161.62361,180.77249,0.749217784,2.03659802,203.648972,211.337641,0.357294071,0.411690226,2.9323204
0.0525959964,0.00260889568,0.0190199386,0.00577046534,0.458317792,0.600900174,1.83642958,135.558519,69.7097262,0.977483092,1.19745848,173.106376,219.718221,0.342606435,0.794006241,3.89021925
0.0416493556,0.0048059712,0.0260305258,0.0034756278,0.563830497,0.576423912,3.72433928,103.438811,145.607857,0.390074378,2.60425238,233.784497,186.545559,0.786187568,0.343208221,3.63848722
0.0847745765,0.00184806405,0.0423671422,0.00323766064,0.691777488,0.846984189,4.46133594,200.747215,105.251445,0.267603546,1.0953868,170.507452,29.372345,0.49187182,0.462606736,3.25493399
0.0626737682,0.00638671302,0.015103422,0.00506474893,0.955823678,0.872883131,1.21301693,229.675265,23.0171767,0.878694841,4.21193952,190.427646,127.255564,0.470150033,0.367823668,3.3230751
0.0594751247,0.00523831831,0.0569697106,0.00304941543,0.750113663,0.810126031,0.647984879,195.688807,6.00683125,0.808035024,3.31466455,198.734991,42.207941,0.139940026,0.67957062,4.693899
0.0925474297,0.00726354382,0.0402264077,0.00824004625,0.460071771,0.386049748,1.12533941,131.366027,122.786451,0.466509869,4.08117643,127.020455,207.777876,0.887527556,0.567779032,2.67540633
0.0357255117,0.00729899065,0.0258102127,0.00987493818,0.848684205,0.506986708,1.7500696,237.663168,69.566755,0.100052071,3.969388,100.300758,232.002714,0.677811851,0.651776846,1.99220059
0.0781480206,0.00674677682,0.0288052007,0.00126992755,0.220904508,0.777005173,1.43542307,101.085491,84.939291,0.568626137,2.34552602,57.3519475,42.3711072,0.836808042,0.491113748,3.35228831
0.0778356185,0.00130243452,0.0914638203,0.00582097772,0.154420095,0.198875535,4.63744004,156.632648,71.8374024,0.19550906,1.5476249,144.424575,220.93433,0.659923056,0.398458235,2.20267236
0.0442401262,0.00161925489,0.070785206,0.00178369498,0.175822347,0.198768132,0.256568784,240.950974,42.7258088,0.53637269,3.43789624,179.014466,96.9657237,0.984077807,0.477484209,0.664369724
0.0611039477,0.00387639762,0.052162138,0.00821882297,0.247508486,0.342895297,2.96333378,103.549507,99.8158286,0.361482989,4.93426112,105.793988,95.6423651,0.979991973,0.066587623,2.19601874
0.0168268861,0.00577777853,0.0920919227,0.00990230419,0.391797928,0.572173611,0.814494501,100.016924,174.412392,0.32163567,3.84966938,153.572182,67.863231,0.257651483,0.411028487,2.73821371
0.0148555107,0.00689001137,0.0193610417,0.00160251633,0.371554099,0.975385969,4.19202885,235.534544,50.9191093,0.729474054,4.14790423,99.1333277,216.970786,0.628324997,0.969091958,1.97568188
0.0577717798,0.00466857277,0.0770991466,0.00945458526,0.110512892,0.739367817,0.837804651,63.7164697,166.581622,0.52061513,3.53042383,109.501635,185.375614,0.730959999,0.780721031,1.99135997
0.0801250507,0.00837983101,0.076264071,0.0011635978,0.585914584,0.380673951,2.51100308,109.880077,110.766522,0.792738449,2.97668209,180.094819,111.968183,0.503188612,0.729017889,3.75674326
0.0940609616,0.00746523049,0.0605675283,0.00715454752,0.185835423,0.362311415,4.9966474,168.316707,108.323816,0.212447656,3.7643706,228.278661,177.409714,0.851330012,0.765650616,2.61175173
0.0216915588,0.00971784397,0.0265774688,0.00805362832,0.231863371,0.865321604,1.77703576,90.6598291,43.8098606,0.681325017,2.48361102,222.221293,236.082821,0.199009022,0.756580804,2.45216517
0.0611941295,0.00578200516,0.0637490215,0.00580723811,0.668027086,0.920482682,0.235388548,177.17664,48.3005779,0.0619606872,4.32566327,91.9830154,43.5294684,0.132902349,0.843270317,0.443394673
0.0522451577,0.00392631114,0.0369943291,0.00896823506,0.87338837,0.675348533,1.06830293,209.674052,154.105333,0.803160639,0.340138471,129.818782,61.149071,0.0127625171,0.77015685,1.25425817
0.0110711863,0.00195066283,0.022071064,0.00909104409,0.976799468,0.329833268,1.98919562,150.34021,67.252652,0.681782952,4.8427297,227.576605,160.232281,0.161423262,0.978660929,2.23779511
0.040341038,0.00649862793,0.029134138,0.00663343863,0.613754585,0.179799256,1.6683409,180.162427,139.919483,0.946548856,0.49378156,101.305602,202.153127,0.538819216,0.111359443,3.18980448
0.0245964077,0.00800922018,0.0905447508,0.00224082093,0.997165193,0.854430029,1.14801266,209.190997,236.195998,0.100642561,2.73488543,243.360321,213.342752,0.515527269,0.396076941,3.54722646
0.0814856087,0.00481107627,0.0164307532,0.00296021434,0.598187416,0.626246757,4.68060089,96.6747536,178.617909,0.909353987,2.01484954,173.831471,99.5294117,0.391363721,0.492060651,4.96309905
0.0380093538,0.00181740957,0.0318237903,0.00263926968,0.563912609,0.953297862,3.41594392,170.167788,169.804914,0.514853507,0.535200777,83.0691533,28.8734522,0.317490489,0.258094618,4.66097435
0.0575679822,0.00339824342,0.0148378953,0.00137637878,0.397613859,0.154926036,4.81056898,72.4924757,239.845145,0.618754529,3.62083085,215.239806,20.0702379,0.013519893,0.0369662213,0.461147482
0.0249083857,0.00238291046,0.0497549851,0.00196247493,0.487001619,0.626177173,2.18986589,153.153131,193.833578,0.322910489,3.06841174,181.13862,90.116905,0.817090021,0.974381323,4.76769986
0.0641783747,0.00352904772,0.011195488,0.00654799137,0.542625628,0.356597277,4.70168327,217.568138,151.931742,0.0867126067,3.91484096,159.290517,207.226387,0.642034274,0.726425979,0.813978294
0.0336674156,0.00496076625,0.0907472216,0.00945694909,0.163933376,0.844958956,0.0291716229,234.158022,237.00059,0.852107925,2.83310291,100.265857,53.6524266,0.453855987,0.14796483,4.85227544
0.0688671189,0.00574428468,0.0276992372,0.00419010158,0.898965294,0.271887797,3.05153515,149.645586,14.9104059,0.153081638,4.05659579,58.0312769,197.760081,0.251644913,0.147894557,2.98503333
0.0720293053,0.00511681929,0.0184033465,0.00469566181,0.158170232,0.498276966,4.00537878,105.522224,67.1780863,0.376780935,2.8838793,96.6750825,163.672079,0.805351235,0.704824099,1.2011356
0.0773336434,0.00887834439,0.037663021,0.00985914475,0.49256646,0.454070356,1.16490767,180.503992,246.670011,0.626167519,4.72014597,122.222587,6.53661202,0.825731178,0.380993522,0.351475807
0.0505487439,0.00566246898,0.05104519,0.0095102127,0.843966556,0.843916581,4.66234338,233.459761,193.051683,0.997576383,4.35726074,176.691007,196.444071,0.853668743,0.0764114442,1.50020608
0.017543924,0.00949260362,0.0191502454,0.00708980211,0.455081216,0.709183984,3.81631388,151.967891,118.838575,0.522170692,2.53801104,247.219619,230.640761,0.472579238,0.410840343,4.06772412
0.0306079272,0.00673938188,0.0995850755,0.00989472036,0.652127394,0.286842731,4.1322477,244.838297,170.224889,0.990606103,3.94411583,91.4313292,123.078283,0.970991983,0.142990554,0.383549371
0.0922003625,0.00961924546,0.039888355,0.00790148248,0.836776662,0.386294254,2.86731794,89.4557884,104.233689,0.234269118,2.3651532,201.416788,208.502914,0.842831575,0.798920121,1.77236548
0.0237140217,0.00316636332,0.0367612134,0.00403029338,0.897611535,0.220429887,3.96290832,72.2369968,95.0373007,0.404025135,4.14400849,227.265622,32.8384213,0.0877627243,0.930248163,0.660054372
0.084323528,0.00708510073,0.0155840699,0.00696143674,0.938000465,0.704316601,1.64520598,109.470859,53.3175973,0.699603003,1.61240794,144.445972,189.945868,0.245222899,0.00471947788,0.790898152
0.0584508192,0.00360158115,0.0368419575,0.00319748758,0.271706183,0.613891968,1.11730988,129.283707,95.7344973,0.0739943519,4.88073268,81.7827052,231.434045,0.819395172,0.650040581,0.310735258
0.0996521245,0.00704627349,0.0141716138,0.00365956526,0.332724026,0.252790359,1.56193171,134.151137,7.41693788,0.750184967,1.3910552,212.184157,208.176894,0.411770428,0.678532461,3.50921739
0.0170357976,0.0072562645,0.0554885328,0.00712160534,0.908079116,0.232890199,2.92261739,112.295072,118.080266,0.426196427,0.364154024,145.301551,64.8502902,0.471649098,0.253622842,0.432408485
0.0498410443,0.00161193492,0.0785283298,0.00575062147,0.634025674,0.528471746,4.14957071,188.768634,83.3431717,0.813204246,3.75611803,73.2575064,53.2554418,0.952020856,0.843180913,3.0839362
0.0195987493,0.00329311141,0.0667962999,0.00470434162,0.553456074,0.917292175,1.45231246,68.3743667,243.961201,0.385809233,4.1559431,225.144123,130.578695,0.965355253,0.293958774,0.868857916
0.0965708273,0.00301636028,0.0180902486,0.00642374396,0.65152863,0.596957524,2.01277196,130.417724,138.860885,0.325877142,4.61169047,177.037276,99.3392752,0.767632018,0.0268603842,3.25700532
0.0104170802,0.00701049454,0.0172776181,0.0077546805,0.837480018,0.129645903,4.31028649,109.036161,211.575909,0.986190556,1.63512147,69.4562698,119.777446,0.578788254,0.0933071629,2.49348203
0.0797419418,0.00859952941,0.0799516483,0.00625179857,0.578700253,0.148476634,3.07369775,111.299356,102.015874,0.720999096,4.02034631,231.687891,248.47591,0.916765775,0.797884972,1.42255344
0.0835572899,0.0041001617,0.091462127,0.00596613263,0.281867587,0.824556906,4.95593894,71.1122261,115.504541,0.419051525,2.69125167,57.0032043,151.119614,0.500478085,0.711402626,4.15279869
0.0881825235,0.00802467687,0.0580394757,0.00625213557,0.508504119,0.506237369,1.01849438,168.765521,206.57668,0.107643935,2.3164744,57.9499388,236.227162,0.174352253,0.783406784,4.09179941
0.0175992261,0.00707798859,0.0198238791,0.00560637928,0.485119828,0.444381607,4.13604542,106.545503,247.8008,0.737213534,4.10375125,247.713578,122.610554,0.332737693,0.623922644,4.69084702
0.0459804384,0.00106043783,0.0843227972,0.00174333454,0.969447475,0.810679333,3.37930809,81.0443242,130.986912,0.640933227,4.75953253,187.23632,109.48664,0.303471745,0.82541546,0.0016304817
0.0333883363,0.00641953439,0.0404287947,0.00747613121,0.658049549,0.427858183,1.24474735,50.1317335,231.359222,0.083103458,0.381364447,125.337839,193.163893,0.562715507,0.0350225851,3.20194612
0.0820061632,0.00448094075,0.0364575748,0.009965405,0.725850957,0.579114941,2.37892813,106.719083,184.755465,0.129303085,3.54335532,150.864851,186.016642,0.076802035,0.405474972,0.0367784639
0.0488272445,0.0092439212,0.0771682085,0.00419080874,0.748148151,0.740491035,1.99537613,160.162175,141.857514,0.981780247,1.17463222,202.699136,110.726017,0.0782880677,0.249668755,0.532105533
0.0919582835,0.00101035951,0.0109302957,0.00974132934,0.412205671,0.884328866,2.99719125,224.180438,242.194416,0.501831428,1.99447779,59.7749594,13.2500131,0.175116736,0.480896842,0.533972066
0.0263662325,0.00516204243,0.0143602605,0.00411803885,0.565291378,0.395820651,4.00261383,58.4506851,206.124855,0.0321895179,1.34062213,195.185531,21.955461,0.94796388,0.880839127,1.83554522
0.0337422625,0.00481914136,0.0701124509,0.00897889476,0.601025169,0.685106223,0.525343856,230.944396,239.90232,0.0632932335,4.16256658,190.265612,199.496489,0.812977533,0.280684818,1.1980385
0.0230985082,0.00514824729,0.0643121185,0.00509225378,0.240845697,0.977352533,4.10721097,76.1948173,161.586516,0.14946506,4.97686905,141.778165,163.895593,0.713351136,0.599142509,1.73070101
0.0222461703,0.00793143756,0.0573492219,0.0047208456,0.605850441,0.168370625,4.20543165,216.74579,94.8933714,0.894539569,3.24875491,166.458962,8.08388836,0.970543106,0.0262261386,1.24809918
0.0882362987,0.00390224626,0.0756738503,0.00295958862,0.72532296,0.62831725,1.77253122,210.093675,119.14367,0.471161872,3.51976416,117.81796,139.266707,0.998442521,0.155198666,1.93532157
0.0621734129,0.00806265365,0.0736528137,0.00213089129,0.483809982,0.472497848,2.15034731,233.576018,227.972453,0.565248171,4.66151599,84.1250827,179.950389,0.987580259,0.833910871,2.10519185
0.0594874182,0.00524221438,0.0803239347,0.00378023134,0.852643379,0.378222784,2.86119609,77.4607317,3.71346394,0.499511784,3.43826274,129.838681,27.6020122,0.158585712,0.194893367,3.20038645
0.0230459318,0.0013218646,0.0359179278,0.00753493988,0.75824836,0.337450637,3.50412365,150.946464,39.1734618,0.0771076336,2.84176959,233.955439,54.1618441,0.958894016,0.829788035,3.93776486
0.0867728006,0.00258286974,0.0723278788,0.00804584866,0.424027938,0.782889639,3.71234878,130.991696,117.891969,0.898670077,1.90423765,95.2090875,202.755054,0.535154459,0.338074859,1.34997212
0.0659849618,0.0074958223,0.0601002851,0.00724408853,0.508791135,0.995694383,3.78942075,84.7144323,135.747924,0.295679656,3.17289742,122.201339,34.6654707,0.0833456522,0.67111655,4.2199118
0.0415857143,0.00526137394,0.0456868713,0.00108822027,0.447750909,0.2679143,1.94564382,165.036722,14.9227581,0.276356347,1.81614311,114.912403,220.4748,0.318702695,0.0523663191,3.7023419
0.0561924586,0.0023744908,0.01554316,0.00858892004,0.797999178,0.803030742,2.14651242,171.243587,164.507576,0.598252234,2.03809722,66.7164227,230.889015,0.896219072,0.734309066,4.13050974
0.046162723,0.00407012146,0.0802157978,0.00930098798,0.760843995,0.276218183,4.78172329,92.8891481,222.408826,0.481120234,1.84349862,152.533107,3.18889071,0.836420628,0.499481778,0.910961237
0.0168370023,0.00646650292,0.0403825478,0.00793858799,0.487250061,0.993123076,2.86485684,153.986451,27.4081515,0.374627928,2.3419938,216.572965,94.2898133,0.0123252681,0.943299937,0.327180914
0.0315924538,0.0027257073,0.0647079317,0.0013839387,0.724377317,0.822035413,4.24861027,247.837162,109.443279,0.65905498,2.51706922,230.9227,41.9529222,0.643807748,0.289772416,3.05175131
0.0210987041,0.00764584156,0.0767128645,0.00440367523,0.950692138,0.481804039,1.38172658,147.983032,70.0575224,0.938818402,4.55267891,194.719182,135.055699,0.805150749,0.376560427,3.50776405
0.0265517009,0.00318564638,0.0194331918,0.00733905662,0.805809338,0.755977481,3.11161808,188.974642,246.311578,0.624220934,1.03215511,126.599165,25.4156087,0.252679448,0.113755362,0.558088564
0.0315957273,0.00925681908,0.0215099542,0.00756561741,0.735014672,0.548518224,2.94180842,132.284365,152.189677,0.290011691,1.69301838,109.603411,9.81693647,0.0734810094,0.964850707,0.479118662
0.0475540362,0.00342155428,0.0594586096,0.00301849364,0.198400816,0.82809124,4.81734233,56.955348,63.4373017,0.213129439,2.87062811,188.342327,233.307278,0.270516836,0.432511567,2.98916886
0.0144688987,0.00788950015,0.0536706468,0.00342149259,0.450937591,0.42085804,0.429513475,108.566311,33.1536817,0.444742741,2.4346622,226.091385,242.897971,0.111693158,0.084563201,4.06116305
0.0912444499,0.00269795779,0.0901428111,0.00705728049,0.631814257,0.165919091,2.50249446,210.288348,136.251223,0.0369777175,1.31109493,234.909662,90.232005,0.488881835,0.716676413,4.07289087
0.0950308471,0.00358748356,0.0819064251,0.00529742978,0.513442043,0.63189231,2.60794838,119.300398,206.950983,0.877422493,2.89796731,66.2505551,161.051351,0.424695618,0.50678738,0.447184826
0.0541777683,0.00182002117,0.0760906975,0.00661344771,0.145305988,0.919169048,0.450830011,66.663189,209.251568,0.613991324,4.39163849,146.534603,16.9868255,0.387476118,0.328087741,3.65639353
0.0540327375,0.00618588443,0.0146198698,0.00312800439,0.305818826,0.274389343,4.5233324,152.221274,208.337162,0.211556456,0.304751112,75.6530111,51.9779991,0.887897464,0.753524141,4.51928288
0.0403947469,0.00715026919,0.0165596769,0.00259411379,0.850770155,0.489131012,4.42194469,123.366682,50.9288586,0.524717657,2.20438234,100.582232,9.90096169,0.42635194,0.836005825,2.26115894
0.0910048462,0.00591933803,0.0179674714,0.00846679047,0.114080223,0.774243756,2.19494833,197.895901,136.104425,0.0632860591,0.421290007,226.792307,117.339828,0.29100939,0.253716352,0.353438382
0.0432322103,0.00483155958,0.0818515778,0.00790229501,0.877339779,0.135266038,3.90861306,154.948033,218.73568,0.863565557,2.81618808,89.2553826,37.5241807,0.0576993326,0.534425017,1.20639078
0.020008248,0.00679998503,0.0948707326,0.00941030446,0.170262148,0.951692491,0.742325115,210.904175,30.2500215,0.448505319,2.6965529,74.2707309,247.82673,0.226974323,0.435165233,3.6593253
0.0802226861,0.00682855867,0.0715344015,0.00197100015,0.702138331,0.787305991,3.09907964,213.382236,214.087692,0.552529066,3.8402895,158.738999,106.765587,0.246784254,0.157704146,0.202458078
0.0450764953,0.00711115079,0.021887466,0.00264004755,0.550190192,0.602938495,1.3031184,87.8942963,224.944005,0.571192223,1.16545136,112.92415,238.843026,0.0389659022,0.600481204,2.12261381
0.0317522157,0.00672208039,0.0750452086,0.00189185754,0.296194419,0.26545865,2.22828106,74.7386914,54.466281,0.683591041,2.93680871,126.408183,181.061758,0.705287809,0.93745076,2.70107544
0.0463520931,0.00950656702,0.0199318133,0.00540787422,0.614454153,0.548153934,4.21999756,214.199296,19.2447712,0.377664792,2.29486933,208.307853,145.222928,0.0175591992,0.107758579,4.76913919
0.0186809073,0.0028804143,0.0205743567,0.00273920797,0.209970236,0.56606104,0.981024594,177.579524,118.55379,0.0874464221,4.30490761,217.835896,135.064477,0.614811473,0.899981435,1.04452871
0.0218775963,0.00738353532,0.0676646131,0.00906302416,0.70404961,0.99481871,1.51925811,53.2239604,208.756866,0.461787216,3.30418047,186.047277,176.360298,0.414008642,0.550464991,0.581660481
0.0947845532,0.00312607519,0.0395932793,0.00189180685,0.639626993,0.869366515,2.41647284,229.190926,117.348376,0.0573653622,1.76939583,133.384401,1.25722083,0.256457208,0.427356687,3.23110034
0.0960521086,0.00207456623,0.068843082,0.00139749015,0.150378542,0.966163546,1.68906022,153.075011,103.442485,0.740874422,1.73593149,178.577962,195.628945,0.655935127,0.15238083,0.542055449
0.0617687736,0.00646573547,0.0774218317,0.0060156564,0.150708717,0.711046908,3.99242915,158.904388,125.686566,0.04762152,1.26859051,92.8162903,231.714893,0.327074317,0.247546003,4.91748462
0.0153801589,0.00505123927,0.0624867158,0.0079524556,0.237250573,0.46315125,4.93743788,171.288442,31.35999,0.954701881,4.76264073,173.454161,2.07391435,0.112635403,0.447368794,1.24172019
0.0311301922,0.00512852944,0.0766029095,0.00380746052,0.11765896,0.941481178,0.795237774,202.087244,33.0713314,0.744948611,1.49100495,185.038229,206.157086,0.540209246,0.532783438,3.0317786
0.0417842714,0.00695750277,0.0311344223,0.00261084231,0.491657991,0.531536091,1.18439892,221.069374,217.618841,0.938075071,0.792030389,170.204697,191.833967,0.17322154,0.354651134,4.08347636
0.0839074636,0.00793256963,0.0761461788,0.0040506011,0.848999328,0.30861245,3.51118316,126.57369,150.737545,0.518230346,1.80648528,119.261901,249.284224,0.884604315,0.773114812,4.15027106
0.0113863094,0.00415196212,0.0973538673,0.00289131073,0.655651154,0.456661224,1.87735831,66.9298377,66.3254315,0.248495751,3.70814546,122.880274,56.913268,0.669792442,0.881681142,2.44519666
0.0138721421,0.00695808639,0.0880237263,0.00559137268,0.568116474,0.734569728,4.86852451,196.77466,216.200645,0.267365626,3.52950005,84.2962154,229.885552,0.849265067,0.734092093,3.80364128
0.0252091027,0.00474542731,0.0177611077,0.00915727891,0.877481401,0.602703131,4.86152778,116.397867,14.5273646,0.76138442,3.50446086,209.072314,160.499826,0.765034453,0.406432206,4.57553968
0.0684203927,0.00857736237,0.0429792955,0.00666031545,0.187928126,0.780967631,3.21849025,217.949907,114.438471,0.993409336,0.0311289371,148.533382,26.3300457,0.808943637,0.604178746,4.50487478
0.0758550147,0.00849625137,0.0432278924,0.001913805,0.917246983,0.995932953,4.30049438,124.344662,180.552411,0.363138692,1.87172801,120.924571,67.0402284,0.636622919,0.641105052,1.07118755
0.0682971367,0.00330796893,0.0716525625,0.00451769277,0.197215025,0.966188264,2.00941699,215.643054,84.7497879,0.755329263,4.5074781,205.01224,190.960941,0.713323035,0.127466836,2.73530553
0.0505831336,0.00652114663,0.0638147472,0.00149154954,0.565297082,0.581560395,3.15965399,85.3037258,100.304964,0.118948012,1.59172414,97.3609614,201.377539,0.691776904,0.496191997,3.9235474
0.0592308003,0.00624024248,0.0810427549,0.00551154622,0.22884042,0.967483117,4.9261832,75.9039722,131.744938,0.601074777,2.98541462,218.96669,26.0632494,0.327738383,0.310469356,0.972205471
0.0366688725,0.00586665403,0.0430887627,0.00488549055,0.603433515,0.204063291,2.79738703,225.976716,223.558929,0.436289248,1.48897591,213.305394,117.439694,0.53633201,0.578574464,3.73444576
0.0770223526,0.00882946929,0.0285425074,0.00997804315,0.104121662,0.146303464,4.66795958,58.8158257,194.590165,0.733410837,0.625071906,219.245673,54.7654727,0.874462018,0.943608937,2.37779112
0.0270059514,0.00338301124,0.0177999893,0.00830442323,0.790013799,0.373914051,3.60171603,187.344004,17.3419007,0.268564409,1.94177834,124.03737,230.676977,0.0639942772,0.426939609,2.91629291
0.071809789,0.00386266668,0.0794740525,0.00537086503,0.863838304,0.62217265,2.42019258,196.754581,69.6961322,0.103859605,4.08843872,126.645906,80.080658,0.505396768,0.0331284412,1.30274041
0.026516004,0.00207293087,0.0285107069,0.0090500298,0.925139143,0.577868007,3.19515546,137.434487,94.8424587,0.456453854,4.90587852,222.26695,214.385952,0.438435582,0.929433879,0.424112298
0.0431636137,0.00945846523,0.0449444468,0.00223791935,0.988271447,0.911087283,4.43818433,125.967783,216.168137,0.643673765,4.30994918,142.781839,64.9616669,0.905239667,0.924982251,1.49066426
0.0663056705,0.00680996687,0.0596600679,0.00451004423,0.554619792,0.586495383,0.99368375,245.931488,104.990092,0.140718429,0.41910441,164.109644,219.515736,0.633881518,0.35830692,4.58564679
0.0802204692,0.00531516902,0.0306057927,0.00934620602,0.344279462,0.48878255,1.97683137,129.798685,59.9693684,0.458294206,1.68855995,189.061362,47.0669042,0.98320586,0.259989116,2.35259096
0.0173013192,0.00675385265,0.0677746558,0.00925744449,0.190675461,0.588400289,4.96087651,138.037383,149.413629,0.655677603,1.18064583,242.183455,189.798459,0.589348336,0.786859646,1.34733777
0.0936447374,0.00590244499,0.0536032335,0.0074221661,0.557063948,0.741173325,2.01175808,81.3615775,119.851101,0.828728348,1.58902694,159.262596,7.92232503,0.842230152,0.511582243,3.81485238
0.0798141411,0.00682580332,0.0236660973,0.00656503645,0.627048213,0.115007242,3.29428241,115.206857,224.636875,0.314996139,4.92224203,177.315315,160.584789,0.474125643,0.562527153,3.86086053
0.0538112469,0.00589497341,0.080373877,0.00408959101,0.786598386,0.820828794,4.50674062,112.812386,233.677309,0.408339943,2.74125446,164.178498,141.717728,0.549770106,0.684793764,0.106498121
0.049227273,0.00748941959,0.019054569,0.00942424594,0.174666384,0.228258392,4.97690888,228.900133,204.471708,0.885389003,3.7462563,235.422429,94.1023864,0.18731308,0.0923965953,4.39993096
0.0502105374,0.00570245775,0.03646597,0.00212296637,0.695436574,0.530627026,3.26581641,99.4048359,177.227245,0.703573715,4.20925867,222.753114,53.1370949,0.63811708,0.872578967,3.99085092
0.0375714525,0.00994334162,0.0313635718,0.00757526825,0.565281113,0.331151819,0.542182139,112.135803,185.805143,0.249453572,0.834448535,83.9678502,198.03921,0.963329188,0.94293788,1.62082619
0.055765779,0.00296808969,0.0577785031,0.00681829689,0.253943216,0.43218252,0.180570154,131.773782,224.927446,0.762233498,4.51548805,85.7398058,36.36087,0.538673614,0.0965942366,3.34522208
0.0559694408,0.00195218446,0.0182348858,0.00849836787,0.944702078,0.695588422,3.0904562,191.602179,16.3099512,0.29801648,0.525620639,98.7008735,122.285613,0.48481811,0.845882505,1.48146932
0.0835864937,0.00198727718,0.0464783878,0.00458454005,0.631434859,0.252647932,2.83572181,78.727519,83.9777928,0.284664332,3.72546548,200.355871,3.21143672,0.795729422,0.909395615,4.64976022
0.0815348275,0.00157232234,0.0194361622,0.00774839988,0.496571213,0.350905618,4.80982329,224.264413,1.08376815,0.016046725,3.64685969,89.826875,46.6530062,0.101786582,0.0113411406,1.40980217
0.0679886317,0.00464121996,0.0201055566,0.00851698459,0.947727037,0.278399615,3.73052735,66.6311794,207.023901,0.38096403,3.58734801,246.588102,121.307614,0.881991547,0.523682704,0.844399857
0.0440748444,0.00503535621,0.0805985102,0.00390214358,0.690322438,0.27556438,3.31258049,142.347568,126.858844,0.442563453,0.667158839,191.92774,209.556519,0.0138348002,0.650345274,3.72583302
0.0830422412,0.00429234559,0.0362413286,0.00597035455,0.506751138,0.394155684,2.61656659,56.0778047,91.540609,0.311255484,2.228945,85.0872291,35.2642421,0.516413801,0.385145351,2.38567176
0.057954303,0.00787154177,0.0643180095,0.00981216219,0.855727679,0.892304074,1.29947141,200.640107,56.6599294,0.297951727,2.54393616,221.659478,183.054247,0.681678998,0.649302049,3.26722271
0.0415654393,0.00665106742,0.09679804,0.0059437768,0.579361152,0.523991679,4.80996883,190.008534,133.707927,0.250091146,2.65245145,231.882297,172.766729,0.57009017,0.76285348,4.83287967
0.0945101406,0.00794782347,0.0489236495,0.00397381249,0.598498359,0.463572435,2.70102019,92.9024492,72.3712166,0.937316774,4.29858522,242.332616,8.62315495,0.48367406,0.575685981,1.56513744
0.088834853,0.00939568213,0.0725276975,0.006575244,0.712058977,0.261308329,0.151350817,185.980937,17.0927244,0.861588338,3.38862455,164.119941,122.214316,0.327307716,0.631919149,0.382197289
0.0595140709,0.00975466769,0.0782289348,0.00424572914,0.430470915,0.972032497,3.48157232,161.458536,21.2426864,0.403255978,4.02919129,162.575846,242.847603,0.605564,0.278204004,3.95707573
0.0660227577,0.00272825514,0.0489378094,0.00780858589,0.315361546,0.466710164,2.59858079,220.135781,17.084867,0.484624913,2.65621435,85.3322409,28.1128448,0.914021215,0.839836423,1.8269199
0.0628340234,0.00224986783,0.0689948236,0.00472510674,0.621031143,0.860038657,0.295152778,161.713098,102.454125,0.569346132,4.77947919,152.735812,185.803444,0.685692639,0.426834956,2.92549695
0.0286968063,0.00726639703,0.0198779546,0.00543110594,0.880198349,0.653792587,4.45018117,230.354733,30.8453456,0.494723196,0.333384723,159.694383,159.635343,0.947266136,0.631622378,0.916683531
0.0371121697,0.00184438024,0.0940383864,0.0072526891,0.466099084,0.43894997,1.65101121,133.903541,110.754148,0.277113516,2.70759014,83.0554885,148.545728,0.108098119,0.833466982,0.384594711
0.0523831014,0.00572863963,0.0268714726,0.00975460497,0.201353627,0.889463574,1.14850599,121.625671,224.734934,0.989842741,1.40830172,148.778608,124.655628,0.515918635,0.270185464,0.768313833
0.0307439344,0.00577309797,0.0339560955,0.00394979464,0.499461253,0.806367185,0.56974321,147.797503,88.4097504,0.191838939,2.40450168,157.023453,141.963165,0.119027057,0.400800736,4.13437995
0.0859877913,0.0087502583,0.0818047234,0.00854022865,0.370165961,0.518458855,1.55461357,101.192428,30.0445299,0.863040158,3.42431891,89.761432,106.626063,0.549809259,0.554254592,1.50478371
0.0275287861,0.00536368,0.0538843398,0.00765165005,0.461248168,0.832579234,1.14216161,235.833854,142.277756,0.0423062464,1.04129194,174.633782,19.0598606,0.69189804,0.443865357,1.91942245
0.0303329603,0.00454110725,0.0792062438,0.00958757011,0.850027207,0.908599723,3.25998584,143.351363,218.758182,0.338638439,3.04080494,55.2630787,72.6466634,0.155942818,0.090384122,3.25374474
0.0253637242,0.00704288026,0.0456406071,0.00128730367,0.463265796,0.486314689,0.330800623,100.80157,87.1437443,0.751259526,1.63088086,113.758192,140.333762,0.779785427,0.74438131,4.08685262
0.0304897868,0.00767132149,0.0345644915,0.00421182088,0.451158344,0.400896478,1.3771569,136.243689,10.4802512,0.647922794,4.40423601,156.599907,158.333367,0.405060721,0.0326154493,3.8313311
0.0492128816,0.00568047221,0.0133511171,0.00696388451,0.424404004,0.636982394,1.40910119,190.506002,35.5849298,0.177545583,0.666973067,115.354747,232.693965,0.899316949,0.429742543,1.87087779
0.0379992058,0.00412941404,0.0705965423,0.00353351403,0.226229823,0.911791728,4.4003313,130.465974,19.1482087,0.95268305,0.512038949,170.438088,244.442289,0.313973435,0.0372622795,0.949312389
0.0931041678,0.00234997528,0.0486608013,0.00307344761,0.334117175,0.731859804,2.22165179,86.3680157,185.131647,0.547837533,4.79558452,122.386545,23.3991365,0.0704406348,0.975797753,3.23250878
0.0487186652,0.00627482861,0.0506565311,0.00740015696,0.178133591,0.439709592,3.7795706,221.250223,114.131282,0.258899341,0.764509998,76.9841273,165.433736,0.227276433,0.522339908,0.0180265225
0.0266334688,0.00335930786,0.0648871452,0.00662115625,0.486457603,0.761460333,3.01648188,166.840245,167.062329,0.582786587,0.762690405,232.762701,150.693225,0.0920046077,0.909629979,1.41443953
0.0914392872,0.00140008683,0.0153462967,0.00631547788,0.331554506,0.958692508,3.91632969,124.715757,174.811519,0.916321833,0.77776294,178.111767,118.454466,0.950891382,0.383247921,3.19300297
0.0981773541,0.00779439941,0.0384230295,0.0069439417,0.367799846,0.588531802,0.569653193,94.3389094,142.839303,0.896640561,0.447847015,181.754828,89.0640856,0.0262069542,0.884452237,2.9603729
0.0494982976,0.00318506822,0.0795449918,0.00142799206,0.482372571,0.586095249,4.89281943,93.7988235,157.173335,0.487681551,2.27212281,185.066066,118.89461,0.123521749,0.255017609,1.62644602
0.0200007301,0.00498162082,0.072678969,0.00413906328,0.207286533,0.379998676,4.24298338,154.446489,219.440981,0.448312578,3.34447846,198.911543,167.755505,0.0222858465,0.909049842,4.94475626
0.0332258226,0.00719016477,0.0212798963,0.00506206522,0.545560231,0.164111115,0.253232488,136.684543,165.587935,0.318637403,4.15650841,218.435515,239.911299,0.224065056,0.894560445,0.616179231
0.0467847862,0.00423305389,0.0217136305,0.00316814497,0.735766505,0.26378242,2.33100917,198.260798,218.853403,0.0647606343,3.95117568,153.331434,22.2710664,0.0213132535,0.398517161,3.67938493
0.0635406467,0.00762706067,0.0183117105,0.00743540512,0.319216035,0.183690034,1.62826637,64.0899265,116.879255,0.756253856,3.56355459,80.3737403,199.435615,0.646024773,0.625020002,0.783085101
0.0335990573,0.00455236728,0.0107038264,0.00870564063,0.806563074,0.517140323,3.15102562,219.466687,35.3340071,0.140628005,2.36298753,126.132855,147.693937,0.52182103,0.567597286,2.17323706
0.064255878,0.0071507428,0.0480798447,0.00353356926,0.166680619,0.108399261,1.15149582,185.976047,17.0336143,0.362362898,3.54294076,214.20388,228.049189,0.253086723,0.894511885,4.16121609
0.0740094202,0.00733642687,0.0690015857,0.00757945747,0.454495084,0.923523321,2.89942487,77.3303044,178.560602,0.401912254,4.79029741,84.2728759,25.2823297,0.201809867,0.214165804,1.79954781
0.0299572061,0.00498074872,0.0750630272,0.00223986603,0.103054711,0.678467565,3.0157816,221.680438,76.996507,0.886666015,2.52887781,115.995056,73.3236607,0.0999618724,0.00385915886,0.381190238
0.0205675886,0.00117619861,0.0578088364,0.00853050504,0.298609203,0.101277152,2.99939548,89.9668249,167.790993,0.0310271531,1.52526558,243.294397,12.8970513,0.374757249,0.880581461,2.78462773
0.0367008286,0.00397772092,0.0197936144,0.00224741544,0.101170512,0.127346745,2.2421394,171.467984,163.105209,0.845639912,3.94905592,211.258519,126.032045,0.0177149815,0.235121635,1.36965112
0.0386900472,0.00481878547,0.0668589736,0.00629388447,0.270261704,0.287623201,0.177117303,158.608997,132.76221,0.295189937,1.18193482,94.437586,192.093938,0.606674306,0.244864622,0.660273397
0.0481750084,0.00343243381,0.0213849879,0.0042954112,0.228235649,0.509469531,2.56907418,82.4649384,178.776758,0.257839454,1.17151417,249.954625,70.7463441,0.484066197,0.640917035,3.49827424
0.0557072456,0.00277348418,0.0220872974,0.0082608359,0.341268399,0.21453943,2.03865081,51.1306136,126.202656,0.493495839,2.32349699,62.7477395,56.3400614,0.315036512,0.304524481,2.42952454
0.0176964217,0.00839549066,0.0188734683,0.00553402707,0.257402859,0.107782919,0.540230183,204.297029,121.99984,0.731745754,3.09693401,135.096624,82.8224107,0.747000003,0.825620812,0.913581254
0.0336234011,0.00486929268,0.0227824524,0.00540634905,0.224784074,0.754371641,2.29937814,202.957511,124.459577,0.210589935,3.076647,130.86763,113.312838,0.840955785,0.883688711,0.506072691
0.082091316,0.00898993859,0.0251426169,0.00889343851,0.638997049,0.418704819,2.25441377,134.21387,233.993888,0.224113443,0.613119508,130.058577,184.34616,0.269807601,0.945372958,1.00792164
0.012629825,0.00452064696,0.027662403,0.00417827632,0.910952115,0.802401351,2.75570168,61.3626362,97.3204207,0.97657117,0.618967642,72.3845288,127.471414,0.519095681,0.390795338,0.673730054
0.0935968726,0.00792202949,0.0385731798,0.00504499201,0.945441789,0.492990977,4.02702159,167.149399,29.2862914,0.597303435,1.42229496,134.862155,95.628548,0.452306386,0.801320065,1.61894577
0.0757297777,0.00457112365,0.0384786099,0.00967177258,0.29906601,0.492899304,3.50425036,84.8310489,60.1058885,0.311359542,3.67866403,172.709177,226.370804,0.347799034,0.157113288,4.75272524
0.0539748076,0.00827662686,0.0295806978,0.00138068018,0.534404238,0.144291862,4.36117752,195.722132,171.227124,0.968025854,2.05654051,247.612257,241.314437,0.840750387,0.625165397,2.6606528
0.0620672555,0.00779569389,0.0325937661,0.00975662501,0.438410004,0.144668711,0.260960762,156.85821,209.813404,0.897010132,4.14490946,93.9801558,157.066838,0.982667576,0.698985353,1.23842855
0.0313555222,0.0043965599,0.0903630165,0.00270286159,0.571402033,0.181990158,1.09840656,100.612858,242.536158,0.198125222,4.67557058,120.816216,33.0077925,0.630199856,0.0858689331,2.18638127
0.0512963945,0.00294417024,0.0732900902,0.0070040827,0.338385334,0.634633328,2.29821005,233.41135,53.7924032,0.0117813306,1.99533329,103.248376,154.575445,0.189462419,0.531179573,3.34543892
0.0966779685,0.00811366496,0.0600164148,0.00627795653,0.161521498,0.31697565,4.79266798,201.638906,190.085837,0.714646126,0.261056901,108.299607,95.755026,0.131786847,0.888566522,2.73847855
0.0592125147,0.00954373521,0.0265990301,0.00707601175,0.49269437,0.857232192,3.95022678,227.406146,146.025712,0.869049521,2.85593051,87.6779083,247.798437,0.584169023,0.263666008,3.04527247
0.0569022248,0.00394808891,0.0290827758,0.00424919844,0.256467734,0.871491488,2.25937305,63.7596342,100.737894,0.127124831,3.73834988,54.5719247,71.7068212,0.335250445,0.234785525,4.3156738
0.0308434948,0.00704137933,0.0169612127,0.00658250584,0.123496397,0.967250981,1.66714093,86.7056391,127.510084,0.048632747,1.60121779,139.880836,176.547857,0.275504509,0.839657228,1.90347975
0.054000797,0.00494780484,0.092242037,0.00830035797,0.959210447,0.540009808,0.295476563,197.414531,123.911055,0.60221258,2.46467159,98.7280387,133.801474,0.554736713,0.49554003,3.74477808
0.0661654079,0.00850150536,0.0736043696,0.0011733173,0.487536868,0.298279091,3.70452651,189.342971,162.842086,0.608270371,1.10826377,223.745309,48.3027596,0.188711727,0.152366366,0.783483988
0.0711221987,0.00791968827,0.060201007,0.00175486157,0.965402716,0.303587777,2.53397262,205.398581,185.926536,0.521268086,4.69636871,155.722153,172.358775,0.681706951,0.230768156,0.290619089
0.0455963694,0.00250528191,0.0382086091,0.009773215,0.786173036,0.583109024,0.999627066,150.380684,75.4883673,0.0174323301,2.41152645,232.827034,12.6137508,0.0651316054,0.657953957,1.69853481
0.0430692984,0.00875782431,0.0249583207,0.00686214579,0.106613795,0.785898738,2.13596776,135.099366,22.4029838,0.69204403,2.69998043,244.786035,46.1085289,0.0437166126,0.562948381,4.08588208
0.0989183803,0.00990884938,0.0660247533,0.00308114035,0.712034776,0.412810435,0.843451394,172.247426,206.491371,0.946560172,1.1052855,167.085192,11.4145809,0.29365327,0.291828738,1.88773835
0.013396498,0.00562981111,0.0989141261,0.00463142029,0.735355679,0.515108583,3.75847295,221.154378,97.3967522,0.874801092,0.479725009,73.7950765,221.260376,0.0866161466,0.622304985,4.86302466
0.0896651207,0.00895852921,0.0253388821,0.00209818466,0.680615908,0.675391386,1.84175421,184.159422,193.826213,0.122143688,0.300827082,235.306518,209.948596,0.901566567,0.715905408,3.02659295
0.0921958145,0.0062922345,0.0332013026,0.00341594939,0.59707886,0.925602437,4.70908898,154.718409,44.8422738,0.361023648,4.09754437,168.712154,29.5388113,0.848139888,0.280731034,1.69118083
0.0816565486,0.00239277114,0.0457119387,0.00332061553,0.296297857,0.245415317,0.0858627046,109.763082,27.3403024,0.249517462,3.85739152,226.723061,102.603713,0.401741488,0.412273159,4.63991861
0.0188841051,0.00279876541,0.0166595293,0.00398498715,0.795129592,0.744071864,4.14527954,190.793816,226.289585,0.564729977,0.978478655,134.895186,30.0571475,0.177523113,0.362205713,4.49212347
0.0335684065,0.00466259353,0.071568646,0.00237010612,0.305225491,0.619964989,3.13295487,126.322175,219.087751,0.616599836,4.47559077,171.451477,143.023131,0.43614779,0.781392022,4.2535323
0.0401821156,0.00773835146,0.0462149499,0.00413206894,0.433778247,0.489969079,2.69373258,163.537,249.948141,0.307801,3.42150073,64.1527165,237.347534,0.422055956,0.135487151,1.28395959
0.0711755156,0.00843025434,0.0984551681,0.00209492609,0.901835939,0.895818504,3.25253818,227.572191,216.063672,0.800160297,3.28423241,234.954486,64.0962899,0.731475848,0.902069515,1.4274775
0.0222897824,0.00810966727,0.0461965587,0.00895737752,0.870739217,0.45374658,3.63314766,218.589858,9.21938057,0.79768521,4.95190601,178.415883,247.466359,0.412408942,0.289636086,3.89973455
0.0749104749,0.00386671821,0.0658604752,0.00184850551,0.462190195,0.261077637,0.47244282,229.759711,136.170611,0.783281343,0.168458966,70.8999336,87.4520103,0.952289382,0.499557926,3.50697614
0.0196085675,0.00580657715,0.0238932825,0.00937036563,0.386217206,0.670000222,4.38786967,237.800618,249.404046,0.357587448,2.12126635,190.045015,52.1305935,0.912865171,0.783590388,2.46255888
0.0688381614,0.00180955611,0.0443210684,0.00459117972,0.647771888,0.661600499,0.0718107197,213.087031,127.752039,0.0637543804,2.44991836,129.160866,166.45679,0.951900173,0.677062063,4.83833874
0.0544756543,0.0020053517,0.0245020575,0.00142661316,0.919175704,0.395147437,1.47151313,50.2715658,218.378044,0.711617571,2.91752235,66.9809502,243.336177,0.352541191,0.14981173,2.38080747
0.0801146551,0.00222663294,0.0782301188,0.00408136153,0.918188369,0.822668784,0.899574393,50.6181395,17.5553681,0.992999157,0.416348738,92.8957735,155.674955,0.297341767,0.69661948,4.97452759
0.0743533371,0.00710787074,0.088400001,0.00762369543,0.632434968,0.999530073,4.63147134,67.4937633,246.884684,0.17085172,3.30077315,99.7597795,15.8844731,0.887833755,0.129013043,2.45289311
0.0913348505,0.00545659317,0.041569907,0.00815213942,0.399314267,0.982880345,0.340902184,102.14547,230.678357,0.122430675,0.261526104,95.3306275,93.3773833,0.217930489,0.945946287,2.51726698
0.0901830254,0.00270739365,0.0716982138,0.00590415308,0.867757266,0.214333248,2.90546614,54.5597341,141.06523,0.913746672,2.78415267,190.600878,41.5628839,0.139567782,0.886411849,3.84386438
0.0400746747,0.00545505242,0.036473377,0.00717601117,0.498158104,0.309016131,3.18575611,134.816964,107.865513,0.486840411,3.56012625,200.830517,57.8195195,0.525310728,0.515004613,1.94042241
0.0728871249,0.002328474,0.0577566373,0.00904269426,0.91391993,0.12126922,3.25634632,118.212994,84.4611413,0.853287892,2.43955313,159.457327,13.0521583,0.906408122,0.679408746,2.2662963
0.0278028844,0.00149476732,0.0849181048,0.00149312611,0.129861465,0.646689349,4.32311006,158.270787,180.180857,0.811814665,3.08800323,160.696684,225.439079,0.408504933,0.976793358,0.664269841
0.0127486852,0.00865641407,0.0637741173,0.00373295242,0.579183834,0.199728389,0.279762647,235.233817,3.41389167,0.194891949,1.06888787,176.114558,198.322925,0.22360364,0.125460357,3.79253164
0.0769666834,0.00604503575,0.0401780198,0.00141572401,0.744847612,0.466713557,4.08427587,109.699889,93.5150482,0.254727858,3.22829331,247.09139,93.2535812,0.0879520884,0.752243051,2.82618467
0.0550020192,0.0093664798,0.0369302521,0.00275929087,0.261371659,0.895669126,2.64461233,117.616959,230.671305,0.063646953,1.90321146,176.855641,208.013676,0.933729263,0.827051909,3.243183
0.0531929927,0.0072700048,0.0507333287,0.00748149222,0.402879633,0.5933195,3.4717528,221.896021,136.619912,0.612871842,0.518564201,170.091123,188.458639,0.606842845,0.781430327,3.99029032
0.0914250014,0.00624511869,0.0480381088,0.00749577946,0.268941654,0.432102769,1.06202448,118.095662,118.471717,0.779460105,1.88755759,231.837391,155.465774,0.383717251,0.190882667,1.10224121
0.0648879984,0.0083385749,0.0423645686,0.00890019164,0.389734465,0.287511385,2.71639973,77.6240806,124.13433,0.515953448,1.31430404,164.167327,98.5232952,0.668282127,0.428641341,4.28945386
0.0655899751,0.00891112514,0.060248728,0.00624189668,0.46347104,0.496848949,3.51260136,151.559791,77.2427703,0.0374725876,1.20642806,117.083984,89.8194904,0.794268362,0.0144567471,4.5236446
0.0873498075,0.00990020454,0.0768290829,0.00163615902,0.59370967,0.960576537,4.78217279,221.331295,237.70939,0.990481429,3.11462025,241.427832,22.2131152,0.340157209,0.325285489,1.46009943
0.0824940482,0.00100470138,0.0481901305,0.00930470113,0.143864734,0.211623325,2.22271081,126.862724,245.49832,0.505930525,2.61463881,137.984624,85.4192509,0.695732276,0.134702029,3.62934879
0.0619049364,0.00878894732,0.048642021,0.00820334883,0.59745892,0.523686921,0.426989154,189.138185,128.390776,0.338677512,2.06618873,170.308519,137.167649,0.21177752,0.450517462,1.69722902
0.0264630222,0.00651309823,0.0212385483,0.00357352171,0.347330264,0.871206695,0.286700738,175.580836,248.147455,0.182144309,1.08896018,194.052472,115.136865,0.95912646,0.57227493,1.36340613
0.031593881,0.00990955185,0.0121990614,0.0058929691,0.317351568,0.139051424,3.14725243,140.077631,113.960926,0.629380031,4.29276809,185.755668,161.363093,0.714714132,0.792023282,0.851372949
0.089786074,0.00574912062,0.0361166739,0.00986298613,0.318830661,0.722462631,3.98089533,144.723588,106.51022,0.579383484,4.30504127,92.551802,128.38021,0.175237526,0.41973661,3.32009113
0.0125806737,0.00531571047,0.0385768525,0.0074411026,0.238743504,0.98108692,3.45595666,239.941271,53.3036947,0.753475531,1.41969506,66.324675,203.606617,0.448349401,0.532536544,2.67925829
0.054091125,0.00821212845,0.0688321121,0.00855072638,0.960774725,0.354941109,1.72653931,66.6995124,48.3123701,0.161983612,3.07696424,104.895882,24.2958015,0.636663633,0.925704392,4.14554709
0.0251134431,0.00305058642,0.0961242332,0.00489934505,0.942095238,0.22040245,4.73408334,105.965784,208.188561,0.363219325,3.89744751,223.503677,115.92839,0.9306675,0.899081838,1.3368104
0.0980812585,0.00548284862,0.0942157786,0.00523562244,0.836842993,0.716751716,2.60095159,139.401462,181.659275,0.152511292,4.77423656,161.871413,147.454372,0.53403766,0.544833398,0.880778903
0.0741425025,0.0091076724,0.05120977,0.0060464207,0.755435663,0.9185091,4.76906513,167.514253,132.436423,0.852101579,4.59801623,142.925554,46.7930176,0.63020968,0.90112395,2.15593183
0.0550424462,0.00617195097,0.0316430557,0.00342182389,0.258230555,0.649782084,0.367978179,225.526828,207.270184,0.344491043,1.92407852,136.06018,152.832537,0.684010734,0.0518267089,2.37827519
0.0523979537,0.00860660367,0.078750815,0.00774116621,0.424333879,0.909984517,1.03515974,143.820104,127.968608,0.282444528,0.813215082,204.797184,12.9854953,0.923965548,0.808602519,3.92610454
0.0153656981,0.00764776263,0.0783394645,0.00553498996,0.269910975,0.274090377,3.87513907,137.483695,137.990462,0.0159508634,3.9837571,180.784084,143.931737,0.161305801,0.334904579,0.653257987
0.0713774714,0.00627388332,0.0766583258,0.006821287,0.101078557,0.778982123,4.57093911,199.236988,53.3212235,0.803892849,0.569085898,181.545854,210.586175,0.411663586,0.228683117,0.256778663
0.0138188024,0.00322061073,0.0769319507,0.00376971024,0.384777562,0.411634645,3.91275324,143.582093,146.955157,0.502434202,0.794121493,82.2041809,124.931493,0.319351239,0.822401808,3.13753238
0.0164300918,0.00699774596,0.0195328375,0.00224852172,0.729655288,0.476762873,1.47767098,222.16547,35.6908063,0.542464413,1.77914058,136.475365,109.756222,0.696959969,0.348234579,0.145437759
0.0569484858,0.00175134532,0.0713404387,0.0052801564,0.662729662,0.240147847,0.759228612,143.302402,13.055882,0.872203399,4.23879282,151.017217,37.2642708,0.891780995,0.165470595,0.680973048
0.0187057023,0.00663363807,0.0516934521,0.00426213353,0.588755958,0.837100526,4.23955261,149.620897,170.826979,0.725615133,2.91390598,125.066456,7.06986272,0.495764257,0.028133568,3.47277799
0.0836333698,0.00694850102,0.0290946885,0.00809302086,0.495133483,0.662431175,3.92427296,147.486131,152.13987,0.671405072,2.93088833,146.074446,189.167447,0.807765274,0.955369765,2.57839479
0.0835792383,0.0075677667,0.0188666864,0.00802266239,0.358684541,0.764704379,1.35415751,95.8937549,54.9139837,0.187039514,4.62918994,118.484281,199.026559,0.33317452,0.680290712,2.7129121
0.0750195633,0.00901676905,0.0841217027,0.00701660993,0.551493196,0.824601179,1.13905352,67.1104465,101.569986,0.554990401,2.87539134,205.429288,73.3888986,0.554380354,0.860562115,4.04241754
0.0234878898,0.00984072901,0.0257508764,0.00220153474,0.785391567,0.160500392,1.60511609,63.4766627,157.476986,0.960276328,0.0498869748,126.788772,28.8016865,0.394896492,0.939093515,3.96843015
0.0693644728,0.00792126177,0.0247212919,0.00119400298,0.786167244,0.955711285,4.14780902,227.678187,138.826906,0.600061455,4.04688643,192.311285,93.7729077,0.897860717,0.680193964,2.50933544
0.0566735448,0.00623301839,0.0699388495,0.00603856635,0.618450311,0.54781931,4.11091097,96.6335371,31.8947655,0.810485002,3.0440418,146.186681,207.223436,0.67935888,0.917423748,1.38316029
0.0975677099,0.00935481756,0.0904950438,0.00370737116,0.772896554,0.779631314,2.85341425,222.319152,42.2995829,0.984687031,2.3995684,195.836044,210.444145,0.830112979,0.256691671,0.598324706
0.0684092343,0.00622081329,0.0564902388,0.00945468742,0.680981055,0.768164564,2.85914818,192.347019,0.249854529,0.887065203,1.34220079,237.511848,166.309613,0.118987959,0.885618134,4.4329888
0.0820297518,0.00115284645,0.0732432076,0.00982813272,0.210897566,0.848016618,1.43009136,224.562599,104.540618,0.221698633,1.29048192,153.450881,240.034994,0.286435061,0.92004279,4.85144496
0.0508417938,0.00208773614,0.0238231339,0.0035795835,0.553958074,0.240851662,3.4956678,237.600401,122.12142,0.0442837607,2.40504768,230.61375,235.779473,0.769959804,0.30006344,4.71263156
0.0489152353,0.00876439647,0.0958111363,0.00820738258,0.412535181,0.511577848,3.98128972,77.9378557,39.9672108,0.456612553,1.13670742,93.6385284,28.1748731,0.22389603,0.0733909467,3.19064066
0.0842782416,0.0053586686,0.0586795673,0.00906500216,0.182932916,0.656290446,2.20794528,128.780029,166.709644,0.0236566112,0.243011491,224.643868,162.071862,0.0437215069,0.767398735,0.45295076
0.0175122833,0.00860370107,0.0711760508,0.00637773919,0.233064521,0.93896502,2.23107806,246.112566,4.48009226,0.478973642,0.846209073,66.5385864,120.201013,0.442186379,0.0849522159,0.373540574
0.0219853907,0.00288464576,0.0132906716,0.00895615062,0.278352731,0.851579412,2.32831204,178.958805,29.9188391,0.95168512,1.29223154,143.080683,16.630173,0.937495073,0.72876408,0.912254681
