0.11975
0.12895
0.11957
0.1264
0.12533
0.12157
0.12359
0.12638
0.12008
0.12123
0.12006
0.12062
0.13582
0.12545
0.12013
0.12948
0.13496
0.11864
0.1302
0.12016
0.1258
0.12354
0.11855
0.12242
0.12497
0.12155
0.12691
0.12169
0.12087
0.1219
0.13089
0.12003
