0.0864603351,0.00107139992,0.0601496161,0.0432094719,0.00268849837,0.0545877154,0.00686610229,0.02684486,0.0704083799,0.00843171363,0.10799477,0.383350423,3.30504463,158.243128,65.2280069,0.331820083,3.67610256,210.080353,163.285965,0.0374666539,0.315814864,0.759698802,0.433298408
0.0314564088,0.00518202308,0.0442961485,0.0480898379,0.00873221251,0.0717922627,0.00903405215,0.065881088,0.0853245195,0.00610236694,0.521617106,0.468913033,2.93989198,145.66945,32.0564917,0.58307861,3.37248279,213.187689,229.166357,0.947925144,0.112685422,1.14925219,0.84505995
0.020423984,0.00205079987,0.0412619612,0.0614291783,0.00563772158,0.01331835,0.00505197078,0.0876314297,0.0670964376,0.00618536634,0.364639824,0.563836609,1.28810575,93.3539642,189.792412,0.898387947,4.9514336,113.408903,179.547332,0.113147687,0.0586131681,4.1794783,0.34033216
0.0682450237,0.00746679885,0.0176840965,0.0629308212,0.00522086978,0.0325515872,0.00880242869,0.0377932729,0.0290633834,0.0037375233,0.333406461,0.354464382,3.40243936,208.700375,201.200566,0.891248908,2.19950918,90.6564023,28.2350465,0.565524382,0.87889013,3.91215899,0.651618845
0.0196809045,0.00700808155,0.029095119,0.0125871207,0.0010474827,0.0384800446,0.00775437717,0.0254786452,0.0916031285,0.00360574504,0.567530933,0.527392208,4.47623677,177.64286,66.0003429,0.310807272,3.52004572,82.2958191,171.256348,0.767659963,0.0765384054,3.49953249,0.527396724
0.0356988372,0.00603282668,0.0179714433,0.0182017183,0.00781841064,0.0250128623,0.00503346307,0.075172649,0.046463078,0.00344266167,0.55095922,0.125742316,1.90564499,202.914096,199.996653,0.271730118,4.34643034,232.272423,59.4584033,0.54429058,0.5050591,4.23943131,0.0674691535
0.0188572635,0.00610506198,0.0783581066,0.0550919135,0.00562316438,0.0513663447,0.00645986255,0.0627502106,0.0899773697,0.00738512193,0.158101791,0.224904178,1.57169621,197.961762,107.383325,0.670961024,0.320941467,191.455467,219.553117,0.477228498,0.171054737,0.64820087,0.30256402
0.0357661306,0.00519966344,0.0162659495,0.0926427632,0.00497713758,0.0926056255,0.00730218309,0.0510641484,0.061754564,0.0031634845,0.536347721,0.206958331,0.788731016,75.432874,222.038381,0.314867013,0.931378478,74.1356466,157.396498,0.710499643,0.091001876,0.807344179,0.49399948
0.0921155158,0.00433703361,0.0627199341,0.0322854437,0.00977007933,0.0144113809,0.0031012347,0.0508442008,0.0115038621,0.0060398546,0.837367385,0.559904047,3.35459038,186.80506,194.609748,0.638167351,0.0277850106,178.076532,14.1357475,0.282521046,0.0826940617,1.00842161,0.668417397
0.0562449506,0.00131542276,0.0354512638,0.0687644108,0.00415292615,0.0353735639,0.00508674262,0.0206480521,0.0586364048,0.00393426017,0.693698127,0.945020274,2.65859189,199.456611,66.2131426,0.564709341,4.32556873,79.7899774,174.913077,0.47514359,0.254483089,2.6607316,0.996312445
0.0338348556,0.00878360466,0.0569493019,0.0158682902,0.00277929999,0.0833621041,0.00142952583,0.0100501703,0.0867386992,0.0035035268,0.27473638,0.421010084,4.05468043,121.616935,52.2844522,0.108710323,2.80235035,66.3002045,107.62666,0.865870709,0.590968999,4.3874232,0.635410869
0.0408214109,0.00964626407,0.0976843116,0.0114703735,0.00530733662,0.0903801385,0.00650198026,0.09138044,0.0300323353,0.00338848746,0.962983158,0.947982594,2.57467469,88.1231432,93.9940418,0.38761247,0.447226719,198.957444,58.6523837,0.592453012,0.278356504,2.93927077,0.771094111
0.0542273886,0.00918973205,0.0715793194,0.0568080462,0.00900003956,0.0811248182,0.00115380953,0.0242934638,0.0673304669,0.00552222102,0.95854076,0.374162044,0.942920252,164.877507,199.808605,0.571939944,2.12027592,88.5821073,165.930505,0.986846157,0.233155635,1.62927301,0.258546484
0.0812667248,0.00779659099,0.0461332971,0.0687113498,0.00603843711,0.0120375511,0.00661887776,0.0861468654,0.0741233484,0.00611111236,0.916206233,0.30242039,3.8925784,102.46992,60.7138125,0.0596678627,0.25493823,50.1414779,147.846404,0.941232027,0.205737836,3.42859242,0.19888429
0.0331119728,0.00357229302,0.0194294599,0.0454739047,0.00324206459,0.017130554,0.0027492723,0.0529019292,0.0400357327,0.00213498658,0.442962434,0.197931155,4.52475756,128.346146,194.718406,0.485180903,1.00689486,54.3263305,188.889489,0.947760269,0.316819146,0.377433879,0.238630483
0.0656795123,0.00396902618,0.0473397754,0.0442572145,0.00338468441,0.0928782732,0.00555240776,0.0384451164,0.0145706071,0.00143981516,0.677611483,0.643907671,2.81851682,114.20838,69.7036946,0.0330604686,0.721881465,130.439566,81.744437,0.571347118,0.940842476,1.43592181,0.519193992
0.0996417427,0.00523745395,0.0592929418,0.0432644736,0.00607042269,0.0562725854,0.0053181888,0.0214005565,0.0513407284,0.00831854612,0.838283423,0.5999789,2.99882907,104.028632,129.456866,0.445381266,2.30295095,168.221921,183.123856,0.0221052698,0.367185105,2.96371833,0.618687804
0.0112174633,0.0061229953,0.0308215725,0.0777817011,0.00813840502,0.0138220072,0.00739492414,0.0705182502,0.0879049167,0.00281301272,0.475265237,0.644264754,3.09955523,50.9394464,65.989335,0.249925892,4.00605825,59.4267134,7.34398781,0.318993861,0.036180672,0.865947142,0.0998819131
0.0512886441,0.00642461348,0.0105426627,0.0650709904,0.00119060309,0.0811564629,0.00721297468,0.0923596201,0.0798271637,0.00747015275,0.746037924,0.813408574,3.25268636,112.570819,154.69818,0.813320511,0.558410935,50.6334866,27.1453059,0.874040945,0.292488052,1.05492401,0.406239897
0.0568802681,0.00314248476,0.0587022299,0.0315236234,0.00763223938,0.0755301965,0.00753444979,0.0408197031,0.0407817228,0.00716493161,0.849072266,0.118832031,0.659828187,182.218345,103.974262,0.44492293,1.91771632,165.275671,219.581922,0.175478871,0.849474646,4.45747424,0.971186369
0.0889584043,0.00618759144,0.0891907492,0.0932734127,0.00461024318,0.0185859808,0.0049693204,0.0283691377,0.0773380486,0.00247512339,0.702456847,0.989857586,1.25772904,151.384594,79.6135876,0.888925951,4.21554677,120.109166,82.1068682,0.865732937,0.473498961,4.38982063,0.650546831
0.0236135854,0.00431543825,0.0440578538,0.0443697613,0.00739059148,0.0810537048,0.00395769726,0.0617168613,0.0662314798,0.0086208473,0.601297633,0.178188986,3.45434812,225.62647,75.1274465,0.113292193,2.16809506,82.4603844,245.384988,0.664156713,0.51272349,0.927787627,0.782912147
0.0266662253,0.0034445427,0.0843846217,0.043610944,0.00676990883,0.0736443371,0.00592393271,0.0588044789,0.0755285461,0.00528394383,0.963833877,0.91042752,1.90630433,65.221849,115.828792,0.937533628,4.95634756,174.648277,148.045357,0.118134011,0.214327537,1.50876153,0.0799824412
0.093687,0.00986952302,0.0237462548,0.0396798068,0.0068301365,0.0450832989,0.00872544773,0.0439634011,0.0703104948,0.00738131435,0.905228082,0.314287559,2.79616792,242.878682,205.591608,0.379767353,1.81688359,160.208029,64.8766407,0.97405058,0.923738565,1.74650067,0.480561157
0.0805743802,0.00683128223,0.0640255997,0.0913405795,0.0096285332,0.0915522076,0.00922939108,0.0177562261,0.0536658571,0.00367382912,0.213334468,0.828337574,0.986847573,76.5824355,112.326581,0.169899746,3.85515196,219.884509,88.0731293,0.212318929,0.16551228,0.885011195,0.0665199208
0.0243662441,0.00451922723,0.0854523709,0.0519505008,0.00564101772,0.0214610682,0.00663399607,0.0477364817,0.0616599832,0.00304207033,0.507893842,0.653583534,3.92392715,169.389321,239.435601,0.02464682,3.34354926,130.278954,121.850433,0.547344716,0.286095065,0.899517822,0.434643187
0.094305907,0.00204283146,0.0390066951,0.0557380465,0.00111561525,0.0514307582,0.00565489963,0.0677157348,0.0820348539,0.0091227331,0.373030415,0.351289466,3.10246013,125.730189,112.111164,0.372684946,0.701205926,60.804346,69.1711665,0.02888574,0.00400945304,3.90723355,0.546133203
0.0158851475,0.00377536712,0.0465361188,0.0815256095,0.00845734538,0.057455459,0.00583733049,0.0213392402,0.0504661084,0.00658056782,0.214264957,0.685817186,1.1482307,129.625868,17.2975645,0.435637858,0.483152762,249.628716,200.516695,0.582931974,0.436245407,3.38110397,0.857275611
0.0442465076,0.00137260953,0.0473090632,0.0221590288,0.00663881616,0.0652644902,0.00244902761,0.0715178364,0.0348414549,0.00309030598,0.388389113,0.898194499,0.445752762,207.650964,47.7856334,0.432290779,4.87034453,58.6515327,66.4784791,0.44143636,0.384478885,2.69775971,0.39221331
0.0722833704,0.00442216843,0.0620283633,0.028449618,0.00647548199,0.0146603588,0.00224408449,0.084825801,0.0753256154,0.00639999977,0.432457946,0.442780346,4.90933109,157.665932,139.290615,0.0269513621,0.741693242,75.1949322,47.5889679,0.199866272,0.992038437,3.10654902,0.829373049
0.0125086954,0.00751330895,0.0215768216,0.0271158571,0.00735395859,0.0119379629,0.00635910191,0.0869511039,0.0457375094,0.00220884346,0.871344194,0.881726413,3.23563296,140.6794,236.771378,0.314463923,1.78071831,141.624954,185.808225,0.931204186,0.26294144,1.31130423,0.258576309
0.0898618767,0.00799261053,0.0193754009,0.0101701995,0.00581554145,0.0200332303,0.00646263939,0.0640942676,0.0449954219,0.00148320851,0.262840992,0.921611789,3.62802943,52.845983,153.756783,0.277573944,0.850917983,210.464734,169.883187,0.809590174,0.205564686,1.56090798,0.0506619853
0.0924907583,0.00190432554,0.0229236056,0.087199754,0.0015502618,0.0599769831,0.00679877776,0.0822850121,0.0645340264,0.00285388588,0.189361537,0.919996742,3.07390106,113.649352,203.427782,0.868551818,3.86709852,130.749569,175.22317,0.670771412,0.0947713363,4.26855117,0.913977255
0.0494644235,0.00927926246,0.0495779797,0.0109008342,0.00600059534,0.0644563136,0.00157244948,0.0752618641,0.0116733516,0.0030658987,0.115870543,0.892443356,4.88156913,104.602763,141.14505,0.720876869,3.76798357,200.955808,40.9946721,0.307977291,0.138941429,0.295448442,0.708696964
0.0305375373,0.00718437648,0.0524661328,0.0107816095,0.00160208292,0.0805639051,0.00157106334,0.0731063471,0.0721742071,0.00676618232,0.818073587,0.294370363,1.25355527,130.382977,134.460907,0.237649342,1.00416107,117.960521,96.322058,0.0663558652,0.929457851,1.68181479,0.683631509
0.0648232737,0.00203030218,0.0718024666,0.0856436729,0.00776790072,0.0959280524,0.00643469532,0.0944512272,0.0517599188,0.00297716417,0.330881689,0.112785951,1.40539013,95.9981869,2.25289191,0.320765978,4.43278305,118.788733,158.8544,0.0794730003,0.809380793,4.71244526,0.760255777
0.0932822392,0.00782956446,0.0423402009,0.0793038874,0.00131849497,0.0274883714,0.00467429382,0.0269978269,0.0792187913,0.00702154797,0.423847482,0.182811579,2.75100038,186.686822,72.192405,0.979214943,2.20034666,172.427442,38.250868,0.675241467,0.870907202,0.651198428,0.0308315495
0.0672047406,0.00772214122,0.0378526982,0.0871443787,0.00962759717,0.0520009269,0.00494924564,0.0913732321,0.0401454144,0.00695013664,0.82767666,0.747428198,4.77875458,122.899753,163.741865,0.94213218,2.19360101,238.121517,40.8141317,0.549747005,0.861976438,3.78217423,0.620133742
0.0149335388,0.00835947062,0.0137040762,0.0940106888,0.00436431993,0.092000898,0.00171471889,0.0931106877,0.0245872706,0.0037303921,0.60962258,0.377543367,1.25916489,88.5326502,217.951905,0.775296789,3.4193474,85.4317022,202.822786,0.490154605,0.224310867,0.332990068,0.516744137
0.099296109,0.00639880584,0.095276757,0.0113565785,0.00997109049,0.0474362702,0.00466897195,0.0752275674,0.0626238937,0.00610153401,0.803868515,0.291766388,2.690992,74.1143957,178.230747,0.832829477,0.558216192,73.5119079,205.716007,0.568642221,0.687376975,4.74005894,0.570985478
0.0366054593,0.00611083411,0.0167154674,0.0270859791,0.00782858039,0.0368211418,0.00201610676,0.0436682957,0.0321940152,0.00688174595,0.539024803,0.205427206,2.9142016,180.346598,183.510422,0.0651953176,2.76910401,141.744156,219.390586,0.810710379,0.299808265,3.26835336,0.579934694
0.0316081927,0.00842228914,0.0954733203,0.0724693526,0.00175017361,0.0331623606,0.00997397491,0.0731961394,0.0188556058,0.00699131196,0.497409257,0.426973249,2.41838152,112.414746,188.463031,0.150855695,4.85040918,245.27687,29.7377272,0.797535588,0.769048555,0.516232147,0.209967187
0.0447281958,0.00969239703,0.0309214089,0.0979567762,0.00561465995,0.0848713757,0.00735302023,0.0265005646,0.0468837585,0.00553090975,0.404151582,0.399532141,2.40726425,64.0555088,15.6522608,0.509244746,3.01626188,208.700527,160.29416,0.121082859,0.829528634,2.00133778,0.827015343
0.0335001328,0.00143156495,0.017692329,0.0617734603,0.00880242705,0.0725082078,0.00518899869,0.0946061244,0.0840872243,0.00128288548,0.149303649,0.647907416,1.45782041,179.991729,194.608552,0.677547801,3.26973447,81.4087071,140.606855,0.506055962,0.792623209,2.85104502,0.31835748
0.0302226933,0.00245678034,0.0755653772,0.0606133166,0.00693401969,0.0105560619,0.0020844252,0.0304861713,0.0247591384,0.00787010781,0.723108257,0.109820534,0.907993366,219.779643,4.15806463,0.184090199,3.34303989,208.005514,214.253019,0.0790683758,0.610246327,3.15995496,0.442515204
0.0431329155,0.00847542946,0.0778599209,0.0947596874,0.00161968404,0.0673436916,0.00775691028,0.0641287841,0.0285108936,0.00808157055,0.115949479,0.179680397,1.16375264,70.2659461,87.3735105,0.396259368,2.17056869,193.437969,186.916641,0.868255625,0.143373504,1.34884043,0.183902321
0.0256875846,0.00109408611,0.0905654386,0.0717720027,0.00932627342,0.0833511364,0.00968727154,0.0123965633,0.018779121,0.0084153483,0.479276593,0.599479363,2.44173822,118.472011,166.973678,0.919286173,2.54998693,111.11896,7.71108719,0.879991844,0.921549207,3.70047183,0.264318455
0.0791309267,0.00691865481,0.0642637825,0.0398041751,0.00135419897,0.069518753,0.00880061972,0.0802717406,0.0793118317,0.00444561458,0.893238249,0.97133128,3.32255574,92.3260587,145.645377,0.962695476,1.14989638,78.7151885,213.386521,0.892265837,0.423143537,1.86875516,0.0733385009
0.0625322402,0.0086776318,0.053352971,0.0406050816,0.00991648861,0.0401441353,0.00891787469,0.0369124947,0.0986246793,0.00418246408,0.101332434,0.788000042,0.210176016,68.2411511,198.403649,0.762474068,2.75692008,248.578867,117.184003,0.640639762,0.128647518,3.86487731,0.749524691
0.0383431892,0.00432561209,0.0388673475,0.0940934324,0.00729670198,0.0963243148,0.00256294062,0.0418896776,0.0497253215,0.00397466436,0.550632499,0.41369889,4.75259418,100.523438,20.0304153,0.0822681258,2.95140544,204.615695,121.469909,0.703824653,0.0733864342,3.71367863,0.390930857
0.0913882062,0.00749563719,0.0516912453,0.0376746272,0.00875785097,0.0581811886,0.00358958273,0.0235773721,0.0217565047,0.00732205156,0.779317355,0.926195932,2.22853332,91.4049104,18.972066,0.428781266,4.0647261,152.647283,128.948754,0.403604527,0.569992484,4.71988163,0.623286006
0.0908253076,0.00448370947,0.0511719962,0.0134886356,0.0025152323,0.060997582,0.00866172821,0.0501838851,0.0320500614,0.00445505002,0.707956655,0.952330348,2.15197993,173.210792,124.84298,0.18614679,4.07961895,125.638087,97.1152583,0.782198826,0.138076151,0.489014247,0.146135237
0.0491308152,0.00937889252,0.0630659698,0.0611002065,0.00721454528,0.0204276478,0.00516304137,0.0863995391,0.0879727842,0.00128021843,0.262991618,0.399084101,3.73787779,228.369747,43.7342805,0.267425949,1.07487636,103.261756,96.0743551,0.286238132,0.120689137,1.59676193,0.37218131
0.0163570985,0.00524903095,0.0761083396,0.0685764399,0.00863632593,0.0558024252,0.0099744125,0.0911929889,0.015914927,0.00510977988,0.996420614,0.327349362,1.22533076,193.282375,22.0869788,0.422553397,3.51034091,169.364699,51.1998635,0.135503254,0.380074445,0.00305495825,0.147603559
0.06804762,0.00572041919,0.0999386219,0.0764822119,0.00306565744,0.0833475902,0.00352983712,0.0481341468,0.0154305234,0.00351473695,0.902315145,0.503821969,3.71419483,223.044104,53.0653287,0.240277988,4.40122089,71.5770073,27.1893885,0.861287259,0.995232136,2.48965072,0.355929314
0.0854490716,0.00131930018,0.0845108957,0.0960735889,0.00212406747,0.0669043982,0.00422360757,0.034464415,0.0334017316,0.00402650803,0.7263894,0.766172072,1.42311578,217.649753,138.095275,0.179357071,1.32611661,186.688099,178.760368,0.989648133,0.350810133,4.84185613,0.48208471
0.0913359068,0.002995497,0.0351581814,0.0375450636,0.00146064009,0.0217082939,0.00766006272,0.0734557106,0.0502267433,0.00146965571,0.191806384,0.187432913,0.306924308,53.9134805,22.1754627,0.440319971,4.21149453,91.247894,5.57731978,0.657724001,0.907527017,0.120204542,0.566358784
0.0658109281,0.00827347622,0.0848598069,0.0783193486,0.00675564718,0.0579918486,0.00591957782,0.0710768831,0.0707641755,0.00585987002,0.884509084,0.803717365,3.06382478,116.248512,19.0306299,0.232782721,4.02517672,227.677839,249.418686,0.0595485166,0.469585742,2.49965091,0.569844316
0.0482496579,0.00199624395,0.0575386545,0.0353194435,0.00170390583,0.0955974486,0.00614302719,0.0799904589,0.0335336625,0.00442842967,0.917519047,0.343611111,1.89275914,61.2506804,234.973824,0.947930025,1.82910716,173.718516,18.9803822,0.830112965,0.264374215,2.0812151,0.801289565
0.0105306937,0.00496594871,0.0106699986,0.091171853,0.00793633654,0.0170194616,0.00166467333,0.0456007494,0.0726559087,0.00998595714,0.915473434,0.215753129,4.09378024,184.529103,127.023318,0.383742324,3.66017886,57.1305746,98.0789479,0.92047929,0.254290113,4.13589379,0.817235177
0.0973078271,0.00708857804,0.0781305125,0.0703529312,0.00601417725,0.049305829,0.0017491539,0.012260302,0.0599992432,0.00576657823,0.610423469,0.954232615,0.253594351,97.6161424,245.839771,0.365726303,2.84430885,219.884993,83.0149229,0.0948718154,0.159591949,3.59357537,0.506060747
0.0577645653,0.0051434777,0.0865542152,0.0362394126,0.0018465774,0.0803495058,0.00277764108,0.096357315,0.0138700669,0.00897795415,0.467414398,0.836819633,4.41365053,144.986935,179.78197,0.991250195,1.58484863,77.9820703,163.410636,0.926973221,0.56005541,0.209864227,0.503100666
0.0406674454,0.00118379009,0.0302579408,0.0391136398,0.00755614612,0.0247275921,0.00907126894,0.0525597384,0.0249935517,0.00834015761,0.190574199,0.213855353,0.405418092,61.0166861,178.287507,0.332650491,1.63336412,96.1449648,123.320832,0.888980791,0.193789552,3.82284164,0.706115813
0.0632693685,0.00721415648,0.0504821982,0.0745094593,0.00478097312,0.0723553782,0.00706159813,0.0896316081,0.0628009751,0.00392221045,0.589489536,0.758008566,4.18139637,218.096178,73.479635,0.893404192,1.98602643,125.119595,5.82937609,0.250239108,0.09846785,0.915137151,0.536434254
0.0902159503,0.00304482299,0.0898715853,0.0265805963,0.00703762656,0.049121241,0.00646607097,0.0880757675,0.0558450198,0.003395468,0.496167209,0.315200075,3.48350616,169.974992,236.26331,0.376257604,0.506420942,90.618966,10.1829095,0.40582045,0.30026568,2.98029166,0.906600068
0.0508119386,0.0029592656,0.0183287231,0.0496295023,0.00826009637,0.0837913116,0.00146485822,0.0875263194,0.0999430246,0.00350030604,0.667490724,0.20046832,3.01669677,105.890631,101.43473,0.0123833871,1.35608199,183.472835,100.98614,0.113218253,0.231311672,2.99765731,0.949071702
0.0724797719,0.0017208628,0.0546737279,0.0428064947,0.00900804906,0.0598970317,0.00557061015,0.0441024536,0.0980695687,0.00778997998,0.293044464,0.307712213,2.56858329,243.0087,24.8642038,0.763324227,0.152947254,75.0543217,117.284585,0.956762755,0.605884847,4.23658956,0.598677819
0.0923389019,0.00586487956,0.0305777629,0.0292156237,0.00701394695,0.0809331355,0.00370860957,0.0438312555,0.0788304509,0.00981032648,0.675828628,0.835695438,1.23901093,67.5467768,10.0570444,0.432397849,3.30948213,217.471217,238.454747,0.183130672,0.478213082,4.29688904,0.726439084
0.0200282266,0.00634719781,0.0199662978,0.0580191943,0.00846060856,0.0341108253,0.00316487976,0.065399495,0.0310814752,0.00678214056,0.971578403,0.277288853,3.52111327,59.3798137,98.7773238,0.138886429,4.53227653,190.560154,72.2418729,0.514082112,0.928953621,0.765724886,0.427282836
0.0301090421,0.00166958999,0.050522002,0.0849044307,0.00971207777,0.0576354302,0.00798395772,0.0696938508,0.0763215321,0.00867017957,0.727491887,0.89045425,2.73362014,173.525001,149.465333,0.853474995,1.87829921,108.816495,164.591808,0.42869452,0.431876532,3.67743166,0.00869710592
0.0539367379,0.00263984692,0.0128682401,0.0525515481,0.00774614446,0.0684291409,0.00903262267,0.0364805953,0.0700016171,0.00869715512,0.895748482,0.784313978,4.40793349,243.701023,2.75217901,0.475831634,1.28911795,200.599445,166.78767,0.638073773,0.6112601,4.3180886,0.530961615
0.0818451876,0.00471346773,0.0310324603,0.066912113,0.00623033098,0.0262844317,0.00147762629,0.0193120232,0.0660009563,0.006029725,0.934152219,0.887791456,0.672778973,75.2665134,75.1114557,0.0228597423,4.37807869,217.129774,2.49036298,0.551353711,0.0761650903,4.74698241,0.21476648
0.0496968382,0.00250996678,0.0542269722,0.0277300961,0.00957227114,0.027828619,0.00600970345,0.01189631,0.0869907731,0.00327780544,0.950733695,0.124262675,4.34411192,124.280911,86.8720774,0.939607047,3.73084087,104.329888,179.022308,0.137802878,0.0251311164,1.91618241,0.183301524
0.0252619656,0.0089416038,0.0409787397,0.0997794341,0.00293348082,0.0240082006,0.00236213584,0.0233729544,0.059346779,0.00438967902,0.566094112,0.313610909,4.90443237,104.733415,172.046929,0.383591863,1.33260178,154.954843,117.939442,0.500230919,0.13362947,0.46735675,0.953546299
0.0894791026,0.00919418336,0.0631673665,0.0102103824,0.00285391912,0.098727212,0.00990403278,0.0399409874,0.0914573572,0.00590538777,0.26036024,0.469107946,1.84990568,75.8243846,84.1976387,0.868607272,1.81690805,51.998306,22.0211883,0.505357948,0.147952177,0.994822988,0.744441195
0.0125871335,0.00487602453,0.0309012998,0.0653781617,0.00986833428,0.032550836,0.00573589655,0.013042445,0.0115982999,0.00140336647,0.839776454,0.470392355,0.972214903,127.197333,31.7067425,0.874138529,3.87260036,198.454152,113.662737,0.43324862,0.476111064,1.8043789,0.245402566
0.0422923003,0.00217678865,0.0901072753,0.0842021702,0.00564802464,0.0435362249,0.00582854423,0.0759455489,0.062727871,0.00401222956,0.144018146,0.313818414,2.41933058,112.638658,133.258224,0.031448281,4.25105588,243.490468,92.3881674,0.607707257,0.410858471,4.62071193,0.106104806
0.0877805977,0.00556240464,0.0610735656,0.0472659166,0.00314372128,0.0531387482,0.00741227885,0.0498837104,0.0353011262,0.00822322302,0.216240939,0.888362199,2.19032657,220.923724,226.061763,0.87517544,3.34084751,245.218993,236.413849,0.096732174,0.77933649,2.19536521,0.999216953
0.0761689945,0.00816237902,0.0847309799,0.0906684878,0.00447600657,0.0373976273,0.00836860075,0.0463899309,0.0769498354,0.00544208214,0.938732487,0.180176962,0.797956518,208.630907,70.6827233,0.871603609,1.38307122,182.701554,61.4627191,0.223254196,0.589284297,1.88557885,0.663763142
0.0690402243,0.00639375605,0.0251070642,0.0560811559,0.00291545404,0.0740283066,0.00886691296,0.0183156444,0.0294328516,0.00332920221,0.352816381,0.699254141,4.61749491,174.747986,131.901664,0.116120551,1.07376548,133.950001,198.345183,0.368727891,0.219271173,2.37400789,0.469558946
0.0546502705,0.00712354404,0.0382587161,0.0965516592,0.00368554348,0.0523789682,0.0065954036,0.0846552864,0.0145866179,0.0035621105,0.949686213,0.322816593,2.09947802,160.423762,198.699617,0.959645314,2.67973525,51.694925,225.938911,0.237877504,0.888315408,0.423195293,0.0674116562
0.0188599169,0.00520130137,0.0618913657,0.0647082252,0.00719245453,0.066403173,0.00109545941,0.0934445213,0.0353646222,0.00835231006,0.715904161,0.201057739,3.29631229,97.2862935,76.13728,0.420532653,3.19106648,122.588599,226.861426,0.148837522,0.917257177,2.38947766,0.50931432
0.0336618482,0.00740828558,0.0209502956,0.0699484757,0.00660360724,0.0287451292,0.00300044367,0.0840475269,0.0220176359,0.0063220866,0.706732579,0.642593149,2.09769408,97.4458336,3.64618358,0.917985318,0.200194382,187.928858,56.3939473,0.720718836,0.644692524,3.85643153,0.552881551
0.0517704009,0.00360277857,0.0701501974,0.0929309138,0.00193197136,0.0452447463,0.00147354555,0.0205835712,0.0511178438,0.00454479403,0.43902919,0.972222492,4.67744335,111.157192,186.24295,0.540427239,4.6867094,130.927456,83.5340894,0.29118545,0.388672028,0.74903109,0.312897277
0.056068672,0.00125672582,0.0262497181,0.0503820009,0.00357444004,0.0253966109,0.00563010041,0.0253181046,0.0300668664,0.00199818551,0.881290097,0.77122853,3.56198354,94.728125,71.2032138,0.256049826,3.84856073,97.3715238,4.21464,0.571688376,0.94290058,1.51777971,0.362363453
0.0636834253,0.00548961207,0.0260157526,0.0669968246,0.00641221305,0.0622480162,0.00903552288,0.081500346,0.0597943345,0.00996838466,0.602686614,0.200920266,4.76281684,82.1873215,231.99726,0.784076705,1.96806241,241.348881,104.39357,0.110447969,0.611950524,4.92446229,0.749235825
0.0523555486,0.00275777005,0.0829186795,0.029036343,0.0088163948,0.0349087774,0.00621662068,0.0441292558,0.0164035803,0.00104770245,0.373036044,0.258087818,4.57684662,228.091852,1.44632758,0.60487432,3.18874957,99.309493,204.056672,0.946441154,0.846936074,1.98078441,0.801693903
0.0472309328,0.00967441241,0.0151729716,0.0604308982,0.00834116642,0.0182840013,0.00665242966,0.0903142846,0.0187744292,0.00326370312,0.864315291,0.391149342,0.913387098,205.230276,117.95675,0.211599381,2.82257866,57.6142064,210.259521,0.371207698,0.177921588,3.31851349,0.60069678
0.0561866529,0.007867874,0.0624930733,0.0193248317,0.00437425843,0.0334572624,0.00229863668,0.0665572919,0.0391886992,0.00703318216,0.806101359,0.178183801,3.34262343,225.888766,34.433465,0.382526837,1.75904903,102.661184,21.0143931,0.638718916,0.912639919,3.85942325,0.296024503
0.0241119394,0.00651514366,0.0733762498,0.0363095984,0.00534675179,0.0853478737,0.00773754017,0.0322501132,0.0665937755,0.00659070904,0.97356514,0.788612746,0.482628735,210.100521,71.4229075,0.0747133089,1.07463392,211.414078,242.447286,0.966263251,0.162560791,3.06904641,0.677370525
0.0318125183,0.00447668366,0.0913689201,0.0589615285,0.00800041084,0.077766479,0.00352594948,0.0836742886,0.0776552703,0.00479786297,0.980423685,0.56374779,4.92090653,66.6814568,134.537772,0.987606985,4.98072745,209.322683,37.786728,0.538974814,0.131263541,0.889758724,0.400205264
0.0276095548,0.00920258164,0.0360534094,0.026278451,0.00297091526,0.0428075352,0.00881902197,0.0592780794,0.0501442708,0.00667246777,0.642940912,0.250540663,3.7184499,82.599182,84.3770028,0.521167753,3.52305726,75.3667821,193.999618,0.042318894,0.276428944,0.0975510765,0.54653743
0.0729986198,0.00582265744,0.0873918728,0.0348467775,0.00239655864,0.0639679241,0.00821911994,0.0282377119,0.0308289919,0.00135409964,0.113434842,0.622606095,1.06679026,55.2344521,203.425379,0.946300734,2.62630733,75.6630626,125.604083,0.340673948,0.34634967,0.988772646,0.64585211
0.0592777188,0.00774635501,0.0468945105,0.0309337212,0.00322212542,0.0408459242,0.00539539566,0.0878302861,0.0610964953,0.00501362473,0.33123987,0.29229087,3.08695062,114.482607,130.8243,0.224806002,2.06990967,63.0441555,181.297185,0.093052281,0.0884309166,2.74679589,0.688930068
0.0191251859,0.00467084091,0.0998189764,0.0593936005,0.00979439654,0.0492831784,0.00976213378,0.0300029088,0.0291597084,0.00395374327,0.379045465,0.240057039,1.67799194,90.9393414,46.5272855,0.68987409,1.04783731,215.993024,195.382136,0.790151698,0.192047456,1.55240926,0.655708938
0.0412769883,0.00407019995,0.0654730964,0.0601343887,0.00586683163,0.0332398674,0.00574445434,0.064108112,0.034465221,0.00817749604,0.304559961,0.639321509,3.16303714,155.479737,220.113697,0.471812216,4.0264649,167.32088,238.028428,0.408842957,0.326186105,1.00905339,0.209322892
0.089543784,0.00772208286,0.0964128912,0.0658461286,0.00698181797,0.0488865889,0.00295802394,0.0321781466,0.0258314887,0.00870042384,0.750308272,0.362362312,2.57878448,56.782413,13.9035132,0.263277528,2.01864252,117.863391,152.14826,0.138995431,0.771408249,2.49724226,0.954553527
0.020407287,0.00824542436,0.0134908432,0.0100591227,0.00705768612,0.0132025579,0.00276926105,0.0912718211,0.0798048056,0.00931012326,0.684224453,0.536304863,3.93459105,81.5129068,134.374503,0.838465349,0.514470499,201.539283,76.0729361,0.711538572,0.907413167,3.04580745,0.478356626
0.0882741016,0.00454594231,0.0262259615,0.0269005287,0.00652269109,0.0170855669,0.00115923005,0.0673353501,0.0173676741,0.00366349467,0.936625691,0.280683418,2.51305049,170.776134,157.866489,0.298397228,4.3665995,185.624357,223.859099,0.66492306,0.351645296,4.0389106,0.461529088
0.0743489888,0.00797581791,0.0199964118,0.0528642385,0.00159973007,0.0405510775,0.0040989509,0.0229991547,0.0593853805,0.0091233009,0.589596335,0.189129503,0.822681164,165.841347,220.11897,0.124902385,3.07942269,104.077819,89.4526937,0.285977084,0.388322063,3.07712481,0.481158721
0.0250921932,0.00556976195,0.0267637098,0.0116341145,0.00514821754,0.028759469,0.00851770982,0.0310489389,0.0758850941,0.00185737694,0.497662507,0.375760091,2.53731106,158.070273,188.540476,0.388703791,3.11927778,172.73287,29.6075624,0.498581484,0.158772263,2.02811243,0.149787325
0.0894538806,0.00454831545,0.0889755504,0.0527417119,0.00415906364,0.0768885405,0.00347198618,0.0806675771,0.0687922734,0.00455489487,0.676206742,0.282431888,4.11406757,241.24118,93.4973155,0.220627599,1.48489668,145.241231,90.2935605,0.744453921,0.846937243,2.35561147,0.116231777
0.0169531064,0.00444532978,0.0653653328,0.0168931623,0.00644699625,0.0548392203,0.00691807777,0.088387199,0.0687730791,0.00710202411,0.298160898,0.86227481,2.14409534,176.178395,211.720216,0.513479223,3.41979237,90.1557552,109.155999,0.474488825,0.213089972,0.0365325755,0.683567788
0.0732766881,0.00895086583,0.0781972872,0.0325622289,0.00650942855,0.0161662402,0.00252792967,0.0598466395,0.0719800102,0.00238078081,0.144552195,0.728292981,0.788425546,170.021706,123.388604,0.524848143,2.12391526,167.69907,176.630931,0.888395112,0.000499897667,2.18303728,0.855523783
0.0702557775,0.00757351882,0.0590427434,0.0623063446,0.00373797899,0.0451143217,0.00365166759,0.0907998523,0.0199711496,0.00158736011,0.289408974,0.412469441,3.37445706,59.5902582,32.9728498,0.919826238,3.6544459,221.972041,223.623347,0.36570437,0.961545337,0.80181268,0.144654876
0.0719279383,0.00789623938,0.0276929872,0.0235912304,0.00855175271,0.0332956214,0.0043354901,0.0953498253,0.0422063547,0.00195736179,0.877770982,0.694549521,1.38315386,95.1323149,115.253518,0.945735632,3.16472705,197.91726,27.4693173,0.761521591,0.976134572,2.34598273,0.443210388
0.0989703769,0.00540161534,0.0784576384,0.0469189516,0.00255576296,0.0779657722,0.00684036182,0.0369370505,0.0640849888,0.00186814466,0.199757856,0.445942498,1.87393016,121.652477,28.8336858,0.950787525,4.57411455,219.678641,218.070485,0.083272868,0.792810405,4.08219402,0.0174459102
0.015430033,0.00467015319,0.0255029216,0.0903732212,0.00104967803,0.0891125884,0.00611001487,0.0549545891,0.0413120426,0.00456300192,0.968474781,0.590183523,1.98397617,197.188662,71.9180532,0.501481301,1.32900506,152.916537,21.8313211,0.0206906252,0.184793301,2.73547191,0.0915446502
0.0659456367,0.00886785074,0.0875403325,0.0868990374,0.00295291383,0.0881885906,0.00561013362,0.045430103,0.0830852118,0.00986653393,0.463296417,0.226238729,0.660580846,155.596526,101.28767,0.580680226,0.040907198,118.220509,53.9236004,0.589665138,0.149036632,0.206793688,0.680157006
0.0538088281,0.00322864352,0.0848370105,0.0588479817,0.0058140391,0.0291244551,0.00154376785,0.0954146464,0.0205505242,0.00612058285,0.264132277,0.696832125,4.83112857,191.926365,17.5211265,0.990215187,3.63933775,86.2398139,1.88579221,0.85845123,0.258567319,1.39897179,0.942603344
0.0374253153,0.00115273049,0.0774147091,0.0514412417,0.00408222313,0.0500929081,0.00800042813,0.0945647836,0.047434341,0.00354046417,0.606554033,0.523079384,4.80579491,149.127512,97.6800419,0.573263855,4.04866834,66.3659168,98.7091601,0.583919911,0.616191393,0.263705476,0.463852074
0.0231404242,0.00187701317,0.0749091387,0.0234455306,0.00249168759,0.0120173077,0.00127007716,0.0760186772,0.0815300864,0.00701760725,0.471127074,0.494635118,0.0700512994,208.813478,191.235872,0.617880332,1.88301093,142.613871,168.500749,0.953720286,0.94436727,1.75792011,0.958737304
0.0959955064,0.00827564455,0.0570749267,0.0540013773,0.00650649547,0.0798894906,0.00712338653,0.0415246942,0.0889050516,0.00657421052,0.809567356,0.801406491,2.54682552,91.3476108,233.70944,0.158513764,1.59829475,68.2697338,197.39125,0.344776583,0.453671464,0.701805532,0.498677773
0.0964439018,0.00983423629,0.0920991323,0.0612208649,0.00356385257,0.0460642031,0.0090346898,0.0404740197,0.0417890933,0.00923916629,0.169329922,0.198336806,0.975440788,238.369766,234.67989,0.313997888,4.46660683,167.904143,129.801321,0.323505893,0.282000589,1.79916977,0.783572548
0.0886451639,0.00545910592,0.0352803059,0.0407313972,0.00372089135,0.0660996212,0.00433922168,0.081005795,0.0833562142,0.00286662117,0.124516938,0.725276101,4.26510103,181.278372,77.5266468,0.72889937,2.3382987,218.067702,138.880912,0.74114375,0.0117855216,1.01074567,0.668220733
0.0775077481,0.00486551057,0.0199663695,0.0476130472,0.00550646448,0.0976197152,0.00661262314,0.0814940362,0.0210846964,0.00145890332,0.857666743,0.154540557,4.26441576,98.6695627,161.923236,0.568470171,4.61029406,58.1104787,123.383908,0.157345313,0.103382245,1.4563047,0.374998097
0.0441901144,0.00726490289,0.0418989442,0.0259094901,0.00575821209,0.0441119063,0.00723407333,0.0416436615,0.0413223711,0.00732753006,0.208611524,0.623557153,2.87148338,105.89518,229.792913,0.154276061,3.36153268,126.969995,233.83737,0.9958399,0.868195783,3.74849147,0.0677985678
0.065607396,0.00296650407,0.0206028771,0.0851299064,0.00112745308,0.0727157966,0.00806480743,0.0400817194,0.0514531128,0.00243750753,0.957383229,0.436756064,1.58478159,68.8961491,161.518681,0.556050101,0.623429971,155.981155,222.938387,0.279425311,0.146153437,3.94993145,0.647044121
0.0739361057,0.00168633853,0.0645337515,0.0708215302,0.00206284964,0.0507078315,0.00669171296,0.0464912102,0.0509831003,0.00703951368,0.650953161,0.423193242,1.93376948,186.069761,45.8637244,0.628977813,2.27820523,179.668754,145.891394,0.159129119,0.701149638,4.97074972,0.443387405
0.0152459717,0.00514618475,0.0423895972,0.0266898773,0.0022523292,0.0499136236,0.00721257677,0.0603584256,0.0447501441,0.00161483275,0.337162263,0.745690788,3.82403936,236.210901,212.500675,0.686673494,1.68590647,71.8507727,128.654927,0.749554113,0.646832327,4.38449669,0.150112917
0.0608543112,0.00445763053,0.0617616125,0.0650019563,0.00785876712,0.0319382622,0.00822360796,0.073129918,0.0156018267,0.00126772829,0.726832282,0.728110949,3.40217064,164.567813,244.592375,0.676869897,4.02514199,201.547566,87.6036054,0.17498403,0.20810645,1.03353853,0.0724371977
0.059054464,0.0031687468,0.0657430287,0.0734636365,0.00286272015,0.0250961261,0.00438207884,0.0844187065,0.0478662699,0.00857455327,0.573777154,0.815463846,0.626517521,232.147169,81.2288508,0.300948583,2.6308577,128.812155,42.250916,0.800576138,0.383580768,1.05144676,0.768263937
0.097653685,0.00784398741,0.0748773484,0.0125487097,0.00553162417,0.0679976603,0.00143086421,0.0520455762,0.0992049138,0.00778532849,0.666081242,0.626444971,3.09918345,177.584512,63.602603,0.15070848,0.488075898,57.0632009,161.814658,0.766125391,0.793801028,4.71312824,0.177788061
0.0206457081,0.00968547435,0.060150567,0.056878239,0.0031037949,0.0111407664,0.00192699954,0.0262903468,0.0827686274,0.00188006398,0.658580022,0.509533932,3.43832979,244.424229,142.155137,0.963711256,2.27274204,62.5148368,37.710925,0.0959590744,0.77292885,3.33452043,0.215282153
0.0671097971,0.00185432534,0.0504562035,0.0333208439,0.00695918003,0.0109780433,0.00586446085,0.0976307724,0.0594703304,0.00287636412,0.748104605,0.269988952,3.80140545,177.470606,183.235982,0.574837813,4.80922832,51.9981558,33.1044292,0.982931166,0.781708645,0.449058111,0.573174673
0.0232704433,0.00801826429,0.0410972856,0.0557394399,0.00677630979,0.0472166383,0.00864401418,0.0327429497,0.0826065233,0.00178253714,0.140663477,0.249067968,1.13567131,210.164031,157.328849,0.212859286,2.23629424,165.181156,25.9648531,0.676401879,0.509818464,2.44513058,0.63646219
0.0292917359,0.00269774343,0.0154225815,0.0975916978,0.00864703105,0.0391124919,0.00579222423,0.0519451836,0.0510062543,0.00879164044,0.825250288,0.88968652,1.12147083,225.871875,6.87705088,0.271160005,0.793198734,202.261346,205.155406,0.293402184,0.256949415,0.772291135,0.219651351
0.0131047945,0.00108537945,0.049963928,0.0836408488,0.00886509182,0.0410153474,0.0091774847,0.013179623,0.062848449,0.00122129584,0.45500224,0.485157383,0.0750800053,241.357614,73.9463141,0.0998633207,2.91607778,67.4123694,26.7369236,0.276741741,0.59983123,4.37763899,0.446574341
0.0796691174,0.00469069643,0.0298792733,0.0872885327,0.00952146785,0.0319760547,0.00180689904,0.0220262173,0.0998907521,0.00326408562,0.248512173,0.470861425,2.92665007,112.116608,30.2363349,0.681738546,4.77293684,62.5820686,90.0946392,0.511163422,0.564558599,4.4241163,0.709183398
0.033190019,0.00227193405,0.0752283374,0.0906955553,0.00827707455,0.0468868127,0.00877551071,0.0172826256,0.076029835,0.00654060868,0.907563134,0.550345979,3.66386835,170.88504,35.9250412,0.942066387,4.23601389,178.027209,189.452697,0.57635759,0.354461627,3.29634069,0.0182302774
0.0807129476,0.00579483379,0.0768591534,0.036955412,0.00169036839,0.0143291529,0.0087170642,0.0806334782,0.0520044255,0.00521547285,0.903106184,0.599331614,4.32277558,104.846871,183.223969,0.161666822,0.431284475,230.976774,216.990129,0.199866054,0.161061308,0.135004834,0.557472405
0.0648736474,0.00601983748,0.0334875272,0.0892022586,0.00370009601,0.0953374523,0.00894606117,0.0262055889,0.0654777037,0.00764520713,0.860562606,0.483569235,0.394222922,64.608674,115.279771,0.670635439,4.28712712,132.004825,19.1798566,0.596462624,0.523343444,4.79022858,0.548332413
0.0126622615,0.00724095739,0.0103536139,0.0329691949,0.00194708439,0.0133377192,0.00166924432,0.039339546,0.0216174735,0.00275696347,0.637312078,0.814307594,2.1630194,79.0476376,133.411364,0.783831676,4.71352104,206.338625,141.652605,0.438650276,0.154839369,3.22978131,0.00973111432
0.0918754423,0.00888731777,0.0807127393,0.0272933302,0.00732614592,0.0580581805,0.00407943,0.0365927136,0.0907075037,0.00593432275,0.475967824,0.476386464,4.02394641,115.1032,72.2925336,0.902192718,4.95654639,151.198813,86.4869818,0.135843664,0.905051982,0.450027515,0.452272106
0.0436611759,0.0011767116,0.0988309995,0.0267956591,0.0050743155,0.0571352133,0.00305391924,0.0192991311,0.0249878996,0.00513207061,0.601334837,0.297363509,2.54782926,160.42496,210.089774,0.514071175,4.052742,102.481275,42.8770253,0.167989772,0.70051227,1.41000083,0.336107435
0.0472570237,0.0071793469,0.0647649841,0.0874996929,0.00414644702,0.0178004081,0.00859968846,0.0948052825,0.0300168462,0.00974236046,0.589500705,0.685910714,2.024965,85.5310275,39.6251704,0.38979289,1.23988175,125.839974,206.940644,0.224775987,0.93390595,3.83476729,0.347434716
0.0932116146,0.00987787284,0.0423480121,0.0500139063,0.00824815021,0.030856605,0.00220685526,0.0285862485,0.0665496858,0.0039178179,0.746633019,0.937734165,2.32847455,161.181999,5.73191737,0.754328929,1.33162023,144.50834,148.098033,0.301063074,0.526237434,0.979513294,0.436251885
0.0510761691,0.00987185315,0.0967893089,0.0447945036,0.00151546996,0.0445137694,0.00893168403,0.0488037905,0.0544807594,0.00282347515,0.435511445,0.280136159,1.84285865,182.934865,149.842584,0.458808927,0.527493145,193.954711,203.771974,0.782778062,0.274741799,0.12464708,0.385624103
0.0970949736,0.00510473083,0.0885900239,0.0848805365,0.00269449172,0.0482247429,0.00274305812,0.0145413306,0.0514971075,0.00610547632,0.316172653,0.81455053,2.81017081,158.752966,162.114202,0.574710552,1.44829133,165.894306,85.3674221,0.330516598,0.230589965,0.658697172,0.627548632
0.0277744038,0.00413209466,0.0491621567,0.028584306,0.00351591413,0.0796255896,0.00861961099,0.0708213287,0.0193276277,0.00534815792,0.701925141,0.451795062,2.7617632,225.607687,122.238136,0.330195669,0.806678354,143.513159,225.476115,0.575412232,0.311587322,1.74503376,0.706893411
0.0806845136,0.00984622511,0.0237948651,0.0908022594,0.00777747081,0.0867670323,0.00287182869,0.019959607,0.0179272917,0.0036317578,0.133011134,0.551657159,0.913121981,66.2100101,248.31509,0.275736393,3.67346934,101.751382,29.0861865,0.628089345,0.365666929,3.44766391,0.239850883
0.0854444162,0.00537283061,0.0686228753,0.0513552643,0.00466021127,0.0951172576,0.00703485564,0.0490589049,0.0916712954,0.00464636078,0.447026025,0.922009905,3.36454442,55.4373719,128.277805,0.733559198,2.21358155,178.671127,147.878805,0.343988976,0.994546279,0.478032488,0.693345819
0.0794558891,0.00383584837,0.0244457187,0.0247104964,0.00386549251,0.0206409841,0.00294801325,0.0851271744,0.0458712948,0.00552482546,0.804754105,0.46494286,3.21197015,181.437295,95.7291958,0.0171957487,3.70765957,57.659144,161.335573,0.997146286,0.152972879,2.49609786,0.195071317
0.0447841629,0.00443246386,0.0387579579,0.0341874861,0.00494718478,0.026894723,0.00158272552,0.018710156,0.012200617,0.00810709998,0.409132392,0.675708242,4.08150178,84.1234205,136.522046,0.651804355,4.99584606,62.1276912,15.1248401,0.717163473,0.83239474,0.659869261,0.437817378
0.0953482177,0.00116209421,0.0233955246,0.0568630769,0.00415322501,0.0198210541,0.00486212653,0.0805976702,0.0520196904,0.00183941411,0.609416105,0.460567473,1.32484424,147.283691,18.5018182,0.212481968,4.12355249,197.931034,203.320293,0.609942282,0.273750945,3.13424005,0.654311226
0.0586334906,0.00553268604,0.024505797,0.079513113,0.00514724315,0.0509022159,0.00372770971,0.0462010868,0.0872462245,0.00281336284,0.386435488,0.261678792,3.99583745,167.452542,208.227168,0.657948613,2.88432534,54.3642986,239.649409,0.36092107,0.912694589,2.71929923,0.195287731
0.0592330994,0.00214292792,0.0326887336,0.0448651811,0.00470983699,0.0281955972,0.00627007879,0.0681005132,0.0877211527,0.00122296471,0.993773594,0.879732497,1.55719535,112.802144,63.4766742,0.283898699,2.46315751,179.821489,189.675158,0.201725851,0.471703207,3.01897288,0.774542053
0.0367143293,0.0037465711,0.0534265613,0.0139982658,0.00952409645,0.0354988284,0.00321207011,0.0649638632,0.0554910339,0.00713228002,0.124591434,0.90028159,3.57641831,121.639266,42.5545957,0.860005579,1.16841007,227.609053,122.97485,0.228073238,0.986114975,4.0227061,0.0647693359
0.0774202081,0.00330452652,0.0485279775,0.0988162917,0.00953101162,0.0406142163,0.00766047472,0.0113015243,0.0539094882,0.00761815772,0.345284786,0.558182185,4.56629156,244.573384,117.854289,0.397335361,0.768650861,229.959465,148.237676,0.0702106347,0.0872783107,2.61197348,0.0305026655
0.0206415279,0.00102062634,0.0905467848,0.0570721257,0.00514392377,0.0649338086,0.0030071854,0.062682805,0.0313136237,0.00234522886,0.552103428,0.305506165,3.51780607,73.1061004,57.9198809,0.727973553,3.5908107,108.816263,93.1988161,0.78546106,0.603705395,0.50523465,0.998174276
0.0248800663,0.00795441498,0.0358811528,0.0859314911,0.0043316555,0.069100449,0.00100376699,0.0479271464,0.0973464538,0.00378912528,0.432706075,0.934712487,0.43445199,229.079171,76.1976839,0.289707136,3.00282844,212.557026,37.0148427,0.182462128,0.038331369,3.39203237,0.693787118
0.0992305936,0.00695618984,0.0370089092,0.0902671426,0.00403055577,0.0981707202,0.00102634818,0.0131806932,0.0231438605,0.0039863849,0.299744101,0.280659129,2.53918958,218.900902,124.444858,0.397841635,2.57080328,163.498889,72.9588391,0.210068315,0.293856005,4.09272175,0.948369817
0.0160605676,0.00458169698,0.0608331136,0.0717030196,0.00539592768,0.0481338325,0.00933128664,0.0693333489,0.020955178,0.00267937326,0.447744415,0.704459721,3.88090931,74.315513,210.864452,0.286948311,4.20779202,236.609331,159.232513,0.076504751,0.485322716,1.88008755,0.88791393
0.0782557059,0.00550946061,0.0790740393,0.0566059856,0.00866377065,0.0851826745,0.00135723168,0.0800803968,0.0378425087,0.00718856989,0.823839672,0.523289119,2.51625212,80.4275896,205.951542,0.570078968,1.41835834,209.702071,112.323977,0.788919306,0.168660038,0.000360144125,0.962366812
0.0489376508,0.00651295976,0.0915785708,0.0497760544,0.001613316,0.0270523112,0.00583367259,0.025884714,0.0891681197,0.00608168303,0.806163496,0.858261188,0.292668986,200.463486,14.2713551,0.383219981,2.50487023,105.334406,216.719281,0.221643687,0.608930749,0.0814265293,0.100661499
0.0227354886,0.0021976519,0.0429462759,0.0442126978,0.00573612382,0.045211025,0.00272453105,0.0928078566,0.0351964856,0.00589786254,0.689872102,0.122910491,3.33997873,85.3467412,35.9119259,0.13811645,0.534335529,249.687931,173.413901,0.235291001,0.504648824,1.29764297,0.900602997
0.0145061967,0.00355018473,0.0375330285,0.0128659401,0.00395924481,0.0605896431,0.00247285578,0.0393816309,0.0641173396,0.00940195351,0.421683083,0.506247364,2.04839165,169.269025,64.2175937,0.161048153,1.63957994,195.35446,150.944681,0.731951263,0.785649956,4.71383136,0.529958114
0.0969249164,0.008536603,0.064344266,0.0294293898,0.00407893794,0.0961155408,0.00727520357,0.0353962613,0.0342431178,0.00128275575,0.40511466,0.477010775,0.00524110753,141.871637,222.385691,0.710305315,3.28358828,107.32215,97.6457414,0.71558481,0.140924131,2.00426309,0.819210341
0.0305521982,0.00879338106,0.0540293785,0.0176773385,0.00757912075,0.0139796378,0.00701849759,0.0731822682,0.0922261119,0.00696074803,0.147429835,0.142234782,3.37139949,206.078659,62.1071467,0.275065851,4.3838763,168.310383,117.969171,0.236728131,0.344247298,0.749722997,0.750698611
0.0448383748,0.00149282917,0.0319989045,0.0817188882,0.00849843962,0.0158080555,0.00805954778,0.0944952555,0.0644844016,0.00797655654,0.876575638,0.933370107,2.30691246,203.580999,93.2007148,0.836796605,3.81051386,199.822814,72.2347439,0.405465456,0.145325743,1.52481525,0.888182495
0.0233198575,0.00543866086,0.0885169,0.0461624986,0.00736982742,0.091750216,0.00569848807,0.0847136828,0.0246006837,0.00683151718,0.166465618,0.966906825,4.78830521,161.987043,77.1485797,0.178988466,4.0592689,140.047235,243.638658,0.591421462,0.488421473,0.828454393,0.813418173
0.0623106626,0.00847133566,0.0578194119,0.0144814455,0.00242335084,0.0724571296,0.00816236858,0.0509503918,0.0928070137,0.00986255296,0.716144482,0.31294593,1.932904,223.951239,106.417159,0.680323034,2.39160475,58.2204746,20.2971517,0.500140895,0.46985046,1.87072918,0.222763701
0.0489518166,0.00926636613,0.0758486683,0.0384839673,0.00979138376,0.0868860954,0.00620266874,0.046502069,0.019620549,0.00959524207,0.616228108,0.435097049,1.30088017,94.235665,31.8029914,0.250609725,1.42415176,241.138367,107.000703,0.957453936,0.840545142,3.3211482,0.151706593
0.01927358,0.00821109535,0.0464352381,0.0884097864,0.00603817814,0.0795130813,0.00563784403,0.0989884332,0.0229186765,0.00775672074,0.487857136,0.693554693,1.0403948,211.909282,194.267451,0.650909774,2.26729345,146.621262,20.3899129,0.892856573,0.53260087,3.65829824,0.763139345
0.0104622992,0.0098090286,0.0749805834,0.0938265311,0.00524936763,0.0962244023,0.00449991405,0.0350972674,0.0675614197,0.00187116227,0.537572099,0.375253827,3.173255,78.8460223,52.0365381,0.340913573,1.4366986,66.6407567,213.203657,0.726545267,0.817333495,0.674846456,0.967611501
0.0454930838,0.00614330285,0.0733430492,0.0483160863,0.00455764648,0.0444386118,0.00622164083,0.0369952843,0.0338509397,0.00522161875,0.710674211,0.938290847,1.77170113,164.952779,197.739435,0.467095101,1.78691333,60.6426446,220.975536,0.100174926,0.754529445,1.24213963,0.905200376
0.0892898118,0.00157380826,0.0367630494,0.0879539756,0.00175920487,0.0478964189,0.00543636639,0.0490483185,0.0108967813,0.00193733993,0.282890495,0.269125529,0.676851271,126.752234,213.193781,0.709451388,3.065562,176.17693,56.5632973,0.322459654,0.0390275829,4.88190325,0.194670126
0.036366098,0.00177790486,0.0172521866,0.0532578706,0.00348736023,0.0334725886,0.00603037594,0.0495841231,0.0867349392,0.00434938959,0.431449899,0.741163583,1.08363495,180.120877,1.27012035,0.363086832,2.07264369,110.973312,119.715177,0.188844086,0.104367729,3.51922776,0.151592169
0.0718748334,0.00979118942,0.0657237645,0.0917508141,0.00430275287,0.0547738198,0.00869152964,0.053134878,0.037740109,0.00162798089,0.783903993,0.193426323,3.03046542,159.432853,205.817123,0.314502006,4.6068922,198.045611,159.656719,0.11360162,0.290106831,2.13796125,0.468427909
0.0764354677,0.00503840869,0.0521530774,0.0325480621,0.00817454808,0.0108614766,0.00722313957,0.0270599777,0.0917674972,0.0092056746,0.19450123,0.38108699,2.21900836,126.582259,70.8768944,0.743425191,1.60539172,162.586491,101.548694,0.287567224,0.544702602,0.719046455,0.909657081
0.0913225801,0.00904753093,0.0957555761,0.057397979,0.00110642542,0.0890891826,0.00140796265,0.0547642499,0.0512514979,0.00639919241,0.675218847,0.81087634,2.4021354,80.5503244,27.4934053,0.786104005,3.75505671,192.493402,22.7375313,0.992033287,0.121529717,2.29269839,0.190164973
0.0748780325,0.00920070016,0.0401712359,0.0320348031,0.00306721087,0.0396918331,0.00910953531,0.0889504995,0.0395780247,0.00983172826,0.780002935,0.230023758,4.43498094,95.365547,104.665404,0.540270894,1.02698312,179.132999,175.348783,0.444677934,0.605665328,3.00127385,0.668821744
0.0679484216,0.00965272964,0.0724231323,0.085459552,0.00718365952,0.0274609032,0.00328829289,0.0270321623,0.0992157407,0.00921484085,0.681583921,0.383152457,0.0629963531,112.953603,40.1130736,0.221728234,1.51830328,111.370532,195.946682,0.210958228,0.660071822,3.77068904,0.449875387
0.0709638895,0.00800254423,0.0518320631,0.0573151124,0.00133012714,0.0353886169,0.00600126114,0.0105785274,0.0832185496,0.0055033095,0.701575385,0.789726031,2.89245634,71.7752235,13.8831525,0.389662816,1.34329237,158.715976,171.266452,0.743749216,0.360595569,0.931202388,0.801057279
0.0758730968,0.00953290885,0.032806983,0.0414823448,0.00807714957,0.0955064689,0.00651916082,0.0294672647,0.0365554736,0.00142610779,0.633057921,0.369646487,0.332196858,119.899389,191.356486,0.605287445,3.46570876,209.501293,174.876925,0.976411856,0.266550572,4.11487188,0.610489673
0.0908772036,0.0071117004,0.052941526,0.0331418377,0.00694883389,0.0677247864,0.00838153627,0.0588557969,0.0888295365,0.00724667647,0.766286024,0.673724882,1.46223571,124.681433,215.211416,0.810574838,0.834254135,185.614131,82.6914925,0.509352168,0.888917623,1.14422721,0.423729388
0.094038983,0.00742743643,0.0650676157,0.0251945162,0.00779588647,0.0351183062,0.00593668284,0.0576160956,0.0385220824,0.00166629891,0.517672394,0.754109403,2.43504885,107.583622,198.006241,0.104117393,2.65780659,244.780577,168.325867,0.958495068,0.375120962,4.52962386,0.462630062
0.0496970815,0.00223836712,0.0503888334,0.0639311405,0.00565887604,0.0376506566,0.00123643688,0.0778619854,0.096380408,0.00579124316,0.229221135,0.739472741,0.881104456,237.431996,74.2940386,0.770056598,1.00654275,182.0488,205.219726,0.924862601,0.67437215,4.76762984,0.937697204
0.0416013315,0.00174497618,0.0177507687,0.0829892592,0.00991300669,0.0498551951,0.00853769841,0.0680111641,0.0935735327,0.00668176446,0.386845257,0.698487898,2.48026881,246.613936,215.902649,0.874697536,0.785852227,99.3103465,221.05525,0.519127492,0.323816236,2.50758874,0.912637236
0.093778058,0.00201003276,0.0975575638,0.0864027358,0.00260139566,0.0902441939,0.00964679433,0.071423227,0.0546525757,0.00862008748,0.863063899,0.410034553,3.10922722,232.966063,183.061954,0.832664788,3.78472524,140.160331,195.666822,0.358746181,0.809219753,1.6605951,0.60559916
0.0958571794,0.00432293881,0.0278798101,0.0860295199,0.00493323903,0.0392803401,0.00848042142,0.0740747995,0.0542583702,0.00661316175,0.692036054,0.772652998,3.65987895,103.173425,15.2208267,0.917938985,4.57371584,100.38841,116.560991,0.638992506,0.0891755287,0.972597979,0.879410273
0.0161776122,0.00968873881,0.0180729681,0.0311502732,0.00667527393,0.0437087529,0.00462019522,0.0531924434,0.0992984462,0.00168151428,0.450062099,0.800723065,4.93927883,63.9728301,166.837019,0.415094121,1.0987848,202.099728,197.012075,0.281973259,0.340745833,0.395576203,0.323082593
0.0407587261,0.00426150728,0.0588728231,0.0557456772,0.00706253467,0.079793245,0.00552869861,0.0355582056,0.0455378345,0.0036977491,0.925311782,0.709421922,2.01020654,117.277525,18.1492404,0.884652179,0.843491746,154.442295,68.5257196,0.346062509,0.500815576,0.818191828,0.772006527
0.011238718,0.0093735435,0.0246150039,0.0702419266,0.00925748841,0.0691685757,0.00687382534,0.0206386355,0.0952545723,0.00894906461,0.574842538,0.266565602,4.42280669,226.876253,24.2502514,0.482868876,3.99591815,71.7228008,16.8442371,0.801076791,0.131790742,3.16431049,0.351985611
0.0456498098,0.00186384432,0.0104296688,0.0181667192,0.00916842021,0.0105409604,0.00726483733,0.0582096717,0.0182261442,0.00760111024,0.243014632,0.374545252,0.951813523,51.6239311,129.061597,0.0410079358,3.05702098,187.259797,246.089185,0.245547047,0.965592176,3.79190254,0.311801063
0.064457451,0.00209737507,0.0591341526,0.0588698822,0.00157439085,0.0178814221,0.00801751211,0.0592409915,0.0444472269,0.00631564211,0.723713027,0.382582813,3.33398189,79.47204,182.965115,0.958194845,3.86747011,182.511047,116.447345,0.198296166,0.40858041,2.43035833,0.809263258
0.0231494178,0.00539750921,0.0667592561,0.0368192205,0.00673508025,0.0324777974,0.00890592249,0.0840416047,0.0757468287,0.00665103092,0.805065456,0.998431887,2.44694678,107.695107,71.0531268,0.557373792,2.76948986,231.148689,37.3319854,0.874487408,0.971234782,1.33706858,0.524892978
0.0465596582,0.00930257513,0.0453799529,0.0443658885,0.00532981748,0.033545194,0.00307010436,0.0722669491,0.0771570115,0.0078380548,0.861805073,0.807211745,2.34941723,76.5306561,246.216908,0.291238233,1.46808583,147.961145,93.1757637,0.0206102157,0.637089937,3.10758865,0.36361554
0.0167975017,0.00221352956,0.0610734761,0.0580497926,0.00358758149,0.0201214965,0.00820324904,0.0737278602,0.0256066084,0.0032262393,0.511563216,0.730416771,1.92429413,58.2021744,144.861416,0.405109391,2.95301376,142.668171,100.883296,0.814586217,0.460620011,4.1999018,0.6390979
0.0654150173,0.00229942982,0.0174929927,0.0483873104,0.0074938621,0.0545305358,0.00777898282,0.0265152643,0.0425763018,0.00298896247,0.180063907,0.850764207,0.737213046,230.429168,234.336141,0.326689034,0.818535525,182.683427,139.665545,0.470172774,0.251561075,0.991111653,0.194016317
0.0399193556,0.00399983355,0.0550827275,0.0308832499,0.00554398786,0.0524105431,0.00984102353,0.0389347903,0.0695222703,0.0035334823,0.222061724,0.429083164,4.08611563,242.997813,59.656542,0.786175475,1.85715756,237.501799,198.700559,0.402355429,0.17796179,3.93491505,0.731766417
0.017661585,0.00509492876,0.0177467215,0.0125577158,0.00709566132,0.0582507019,0.00199983458,0.024560473,0.0664990306,0.00799746797,0.614186098,0.846719412,0.551545478,134.858796,211.223338,0.0156196957,4.50989013,115.37308,66.5724423,0.42129581,0.589022736,2.69195488,0.262873291
0.077603805,0.00107552714,0.0326794429,0.0123425415,0.00822148691,0.0940827352,0.00745177513,0.076768504,0.0752262477,0.00476300896,0.661184194,0.7900082,4.07767717,80.8728904,112.953784,0.737465439,2.05226939,54.6424815,90.7891883,0.312144066,0.159518093,2.54517204,0.238120674
0.0772063066,0.0046750563,0.0255725565,0.0346871005,0.00714996753,0.0155882084,0.00700018157,0.0610044733,0.0705342494,0.00197526188,0.727438766,0.68252448,4.10201069,247.884465,15.6033018,0.609918652,4.15052516,204.616616,30.1387427,0.48369115,0.401691347,2.78482877,0.522355257
0.0308294484,0.002627925,0.0129428285,0.0725032535,0.00203944287,0.0175877301,0.00260181703,0.0770132063,0.0138605031,0.00472862597,0.474158024,0.127810832,1.34104535,189.71767,18.9432572,0.669232385,4.8671778,66.9739644,129.289541,0.311436192,0.638177386,1.5951477,0.809465983
0.0383150633,0.00886017142,0.0888842085,0.0396998056,0.00961874814,0.0821779821,0.0041921438,0.0358989754,0.0369786757,0.00921005573,0.224860545,0.999584902,0.484022523,186.846782,196.856418,0.838078431,2.80524022,157.129778,198.80295,0.309601478,0.700707962,2.05648587,0.423091695
0.0245663444,0.00593991298,0.0151974423,0.0775440127,0.0040199744,0.055839399,0.00450826529,0.0184625569,0.0538635832,0.00607507023,0.379086158,0.799139666,2.78490993,129.279993,26.8314916,0.0935187179,3.4191805,209.672949,225.83158,0.831928631,0.447920667,4.5222522,0.627125936
0.013807735,0.00875185325,0.0520830193,0.0816086992,0.00386462351,0.0450813962,0.00626572874,0.0623760286,0.0409534353,0.00815077914,0.741119932,0.39471242,4.15770568,248.176981,247.387372,0.698090198,2.72892183,159.504837,35.1357469,0.502753838,0.275229036,4.33168229,0.180154243
0.0598413326,0.00147809901,0.0646613427,0.0148367645,0.00701512968,0.0206845739,0.00275147668,0.0176676325,0.0168004528,0.00377424621,0.291206011,0.138506155,3.38485402,231.987184,124.827667,0.349569748,3.7454384,210.564686,56.6435303,0.621295648,0.0670610033,4.61266981,0.657492795
0.0704469958,0.00559934894,0.0421950027,0.0108301549,0.00232106824,0.0689718244,0.00255814563,0.0797479507,0.0402583476,0.00186228359,0.760424302,0.515778851,1.27590238,79.2250418,185.226576,0.75551465,3.21677241,113.115418,76.6610639,0.677157,0.51913737,2.81868742,0.296844748
0.0988797421,0.00231216325,0.0501653437,0.0755312054,0.00350203644,0.0334806599,0.00926086296,0.074038474,0.0210206923,0.00171315822,0.450407863,0.61557148,1.3672804,136.838544,88.1784788,0.140012951,0.729492332,129.299947,125.913366,0.205803946,0.555938612,0.931623087,0.989251151
0.090881835,0.00494791387,0.0816603778,0.0697952809,0.00693474166,0.0568402144,0.00419090631,0.0118865164,0.0228466545,0.00603312298,0.118992381,0.574492422,1.38401531,131.500722,18.2761422,0.723748904,4.19008211,144.13245,55.1383991,0.419325178,0.808721281,3.38295913,0.45021183
0.0233693664,0.00509734472,0.0832388487,0.0626793953,0.00588004213,0.0130651045,0.00161313696,0.0288766287,0.0438786796,0.00423218664,0.685747055,0.329760906,3.63146873,237.923234,205.900814,0.0347743679,0.650641456,102.805729,93.3888407,0.598892836,0.608346237,1.78650467,0.351380139
0.0179589809,0.00386322966,0.0372686989,0.0927134009,0.00355685376,0.096639047,0.00276775194,0.0709648623,0.0782765073,0.00824787148,0.670922223,0.828703846,3.74995566,128.750476,60.4853026,0.410571096,3.43279319,205.467417,95.4790315,0.392504019,0.507269941,0.900894392,0.58495966
0.041734112,0.00932964416,0.0322168583,0.02506035,0.00978576039,0.0939105375,0.00553189852,0.0507817383,0.087808147,0.00141859812,0.746586023,0.779449808,1.75927479,209.769638,14.1220927,0.859579063,4.7015299,148.817841,184.029696,0.614148838,0.54209138,2.06731866,0.883599834
0.0865592901,0.0074936343,0.0450401944,0.0974767586,0.00617120878,0.0570478075,0.00453485177,0.0543895105,0.0870957747,0.00665096467,0.821455417,0.737502237,4.76865106,50.5378177,14.6261931,0.823271094,2.27679094,175.382833,202.61035,0.0259968347,0.453695133,4.00481051,0.812359546
0.0732934012,0.00672905787,0.0247874444,0.029764628,0.00754477418,0.0664700949,0.00914776387,0.0417410527,0.0219730558,0.00405074675,0.712780562,0.838926293,4.75807387,154.236252,177.281353,0.340203873,0.556920784,152.448296,187.793761,0.521643177,0.271281193,1.25641636,0.682773623
0.0246785184,0.00951220899,0.0776082085,0.0134423681,0.00891378655,0.0861023051,0.0031904779,0.0650708447,0.0876909014,0.00105661258,0.349288489,0.399750732,2.99964558,192.277643,106.843592,0.655548864,0.308067561,218.896815,50.6487096,0.545049899,0.829182047,3.32494094,0.994155033
0.0278099543,0.00757295082,0.0154505733,0.0306065266,0.00695875118,0.0887899291,0.00309597189,0.0511182535,0.0634866763,0.00928564163,0.689012531,0.539708297,3.58300929,94.4408042,174.538755,0.396644244,3.88094155,210.20019,13.0004464,0.938195106,0.472837821,0.884824435,0.220541112
0.094379116,0.00569734231,0.0182203215,0.0736989166,0.00569620939,0.0148754785,0.00114458882,0.0365391292,0.0631235565,0.00271994619,0.788302297,0.982907151,4.483978,107.747651,210.085645,0.447652717,0.0135701755,149.134578,242.806272,0.940022088,0.64356319,2.16042768,0.919066197
0.0336145705,0.00682518116,0.0945920936,0.0417359849,0.00329289359,0.0164142518,0.00505019626,0.0853965871,0.092618518,0.006363153,0.362777653,0.950488349,0.571158599,210.712758,94.2592919,0.605129676,3.03382711,223.427266,2.70056352,0.423409618,0.596709211,0.479101136,0.895068151
0.0136680303,0.00762405842,0.0625302329,0.0738539061,0.00706311738,0.0275864574,0.00725976284,0.0412952226,0.0150346232,0.00823090629,0.836641934,0.237267497,2.17420585,228.878429,133.20705,0.98898238,1.78450419,149.422102,127.840984,0.300260872,0.135949957,1.50476717,0.890937665
0.0683941085,0.00883908211,0.0872180699,0.0629823258,0.00873191052,0.0587474967,0.00735352448,0.0973155072,0.0734209025,0.00304314195,0.169950161,0.995182302,4.22174069,212.322869,186.729341,0.083814771,1.97294999,242.359759,36.362883,0.0160457645,0.24861495,3.59851837,0.282683773
0.0448044452,0.00880386356,0.0442268131,0.0197880487,0.00525277679,0.0591663821,0.00513990883,0.0462227065,0.054818064,0.00876111484,0.917992262,0.66430584,3.14850748,181.715004,99.915838,0.362743776,1.98295372,64.566605,134.372596,0.357327344,0.328828808,1.91770314,0.312765169
0.0734089481,0.00305977916,0.0424330559,0.0682140978,0.00921272748,0.0335683799,0.0018796855,0.0571961318,0.0429228896,0.00904968243,0.997906694,0.173874521,4.10124054,247.448767,191.433007,0.214010014,2.09674934,125.485282,223.875195,0.506337866,0.0548803127,2.19197885,0.51613258
0.0162296069,0.003709431,0.0362870648,0.0758003303,0.00156246583,0.0288438191,0.00684331312,0.055932126,0.0998391971,0.00333382994,0.476918701,0.501220714,0.365903951,184.649022,116.820359,0.409172412,4.13519274,168.184588,113.479903,0.0941024582,0.720569047,0.0454597304,0.925913857
0.0937930085,0.00468914638,0.0177062299,0.0877042098,0.00538804086,0.0762580202,0.00664702651,0.0615336672,0.0959496187,0.00822619398,0.339319227,0.375454151,4.8988217,90.4561377,220.551311,0.367587409,3.63029114,93.1702444,42.1702561,0.184709708,0.791425931,0.862653871,0.534164659
0.0329441635,0.00273095897,0.0681034351,0.0120382822,0.00923561376,0.0465487535,0.00234063803,0.0904068085,0.0561989518,0.00409854224,0.333968451,0.503824651,3.59872262,78.9136007,68.7686426,0.788914493,4.52616793,185.287181,93.9640198,0.645901489,0.978241708,0.415996388,0.679580766
0.0705248109,0.00275095447,0.0939876447,0.0236081125,0.00540835238,0.0563940853,0.00281862617,0.0437410138,0.0703253286,0.00228690068,0.406102962,0.345126681,4.83255622,90.246195,178.393235,0.549910813,3.91313953,183.421713,66.9085481,0.92995904,0.0991867388,3.2756408,0.112459868
0.0327177694,0.0023467876,0.0589959391,0.0572674675,0.00535871654,0.0739521202,0.00696442807,0.097120755,0.0101701405,0.00804097363,0.809722559,0.314938727,1.73982503,69.8222107,33.3078716,0.7126182,1.63452525,200.980892,246.516346,0.837623432,0.699109718,2.17454193,0.606591108
0.0950005067,0.00869682856,0.070297655,0.0303908079,0.00346718931,0.0992323199,0.003965014,0.0417957626,0.0543658959,0.00892916667,0.672864191,0.961116507,2.98964591,174.66306,85.8259105,0.529726177,1.00828664,206.247998,224.739745,0.346296336,0.135815745,3.21242402,0.279682478
0.0393704867,0.00937610997,0.0932600261,0.0857497123,0.00181979637,0.0240359193,0.00352403085,0.0265548816,0.0578135658,0.00847277313,0.772510919,0.856217905,2.41611929,185.921919,130.417936,0.588143524,3.27504618,173.16786,157.664708,0.0368345789,0.315608171,2.58957409,0.115334742
0.0943083287,0.00801611129,0.0617198883,0.0487029746,0.00699345919,0.0526949107,0.00470355878,0.0608553706,0.0375285668,0.0044526807,0.912869296,0.893905059,4.15369074,113.96818,82.6859435,0.228128656,0.54454185,211.981859,77.5819766,0.237634092,0.412889103,0.658113777,0.873229002
0.0335324499,0.00242465468,0.0921517849,0.0369451327,0.00213000535,0.0531352776,0.00868205731,0.0724029159,0.0873853829,0.00277407009,0.999973674,0.934041504,0.356983408,86.4627604,173.693007,0.685764605,4.42982021,108.016802,139.733276,0.646133397,0.0257243264,2.14644445,0.669188018
0.0858045917,0.00756249127,0.0934790078,0.0619452014,0.00197924936,0.0481523055,0.00374076969,0.0567656261,0.0159590191,0.00560980427,0.979489385,0.95795728,2.32136239,232.643213,214.7667,0.340847361,2.93654094,102.040363,193.551745,0.548727562,0.619033827,4.9672471,0.144147299
0.0685560172,0.00274154279,0.0358943663,0.0410277113,0.0049860628,0.0538606628,0.00783716705,0.0737028967,0.0580976694,0.00350027649,0.528384502,0.156269172,1.04215003,73.2818037,228.386353,0.692596582,3.90642816,62.0492114,20.541961,0.288096175,0.50088626,1.9032826,0.780206816
0.0671083004,0.00512365926,0.0946624866,0.0871310067,0.00597800905,0.0994851629,0.00592475761,0.0915084898,0.0105678286,0.0019280837,0.529961282,0.917002138,3.49390157,244.947495,217.605569,0.975351545,2.98315339,194.385629,181.953433,0.37057091,0.344786979,4.1946949,0.389133341
0.0368341118,0.00869866096,0.0833110747,0.0357912002,0.00966284134,0.0173225128,0.00800038179,0.0889231981,0.0695804769,0.00270774781,0.1617482,0.881713294,3.65969488,91.3530802,192.597044,0.708669722,0.872463512,139.211129,113.165009,0.600451039,0.00779633587,0.243448325,0.314907007
0.0687904604,0.00218581549,0.057268058,0.0496858217,0.00614359342,0.0112426418,0.00808354984,0.0340853229,0.0584946511,0.00216592373,0.374259342,0.109945909,0.402318913,233.275039,186.820498,0.602984787,0.402310407,74.7757108,36.1993345,0.834044357,0.68794019,0.899005377,0.861111624
0.098129961,0.00652481397,0.083762539,0.078975203,0.00168300705,0.0987884791,0.00949434195,0.0928410023,0.0501032515,0.00316548842,0.930786354,0.316857554,1.99396624,183.815532,176.048197,0.179592425,4.14375977,191.703594,21.9653329,0.720262249,0.350026678,3.51604726,0.915190417
0.0731170793,0.00674570268,0.0726960676,0.0444713022,0.00426224816,0.0955162475,0.00201369658,0.0270429193,0.0805713261,0.00606882215,0.717555261,0.936981323,4.61259479,94.9050302,149.641965,0.844588639,0.767354997,246.384297,224.23816,0.140964893,0.982074249,1.48927458,0.272336221
0.0418505028,0.00776825773,0.0887048018,0.0314923515,0.00117533626,0.0805853384,0.00879932635,0.0314497027,0.0244510142,0.00755446468,0.357743906,0.514157972,2.18233174,80.2255174,169.809013,0.495095451,0.307430704,137.834564,113.508022,0.231383292,0.816550089,2.11623069,0.854449753
0.0766252233,0.00331005405,0.0610938878,0.0454521054,0.00517515915,0.016683242,0.00864726487,0.0584583709,0.023911505,0.00780923216,0.4905145,0.502972822,1.18658557,193.489459,74.9235887,0.267006186,2.94941702,84.3361824,222.178734,0.224586307,0.436568478,2.66887175,0.0662455854
0.0365591643,0.00593791172,0.071058314,0.0276250074,0.00960309397,0.0475830601,0.00365618736,0.0220362143,0.0831107614,0.00232172772,0.430667497,0.16437999,1.14417546,69.6634942,135.110353,0.211982658,2.32779386,51.5920455,101.32581,0.264728492,0.572649645,3.85816887,0.634246157
0.0523127316,0.00944234709,0.0125934846,0.0496631261,0.00979811759,0.0423313313,0.00310024185,0.0304575981,0.0980092745,0.0020897593,0.550235019,0.552619529,1.35686023,162.098564,231.648687,0.91810472,2.31183962,105.439516,137.831368,0.891144313,0.971328336,1.19007624,0.878755257
0.0782624198,0.00955060625,0.0783480624,0.0656560625,0.00228677376,0.098802763,0.00529488116,0.0330876611,0.0356624051,0.00249723963,0.241850409,0.442697831,4.05032028,155.241297,176.362868,0.776334212,4.54668156,139.438805,21.6095427,0.737823331,0.935056921,3.12803463,0.11676353
0.0586642932,0.00644963838,0.0257878121,0.0308669802,0.00345506529,0.0945140679,0.00271952677,0.0385650895,0.0691574544,0.00494589652,0.502818166,0.414237641,2.21966615,93.8248661,192.813138,0.802905954,0.797190668,58.0636017,194.272911,0.515204536,0.538076359,3.59000913,0.921574949
0.0827265796,0.00829511314,0.0603891379,0.08842899,0.00973788959,0.0113891732,0.00922587916,0.021968562,0.0826063863,0.00367217491,0.923267783,0.105914502,4.55072415,183.396579,144.147121,0.137393599,3.9699013,61.4128498,32.0756451,0.469699962,0.917809188,1.09434725,0.60486476
0.0235701987,0.00383594376,0.0578957189,0.0758278026,0.00794723842,0.0525935229,0.0038427386,0.0247599826,0.0838030794,0.00588314735,0.17989327,0.792763829,2.22632894,140.429167,240.719433,0.340068775,3.3636569,58.7773845,28.6144044,0.0385935364,0.761201252,2.44640405,0.0450651535
0.0280728304,0.00344920662,0.0373609516,0.0387953968,0.00645268648,0.0908345351,0.00197862011,0.0344096478,0.0374624848,0.00931992671,0.434910646,0.973672636,2.07054276,148.073988,7.67644665,0.345713032,4.59497714,181.073969,141.272832,0.430700693,0.978683996,4.42955846,0.0347138309
0.078788969,0.00485869723,0.0730063056,0.0830598968,0.00858144875,0.0229298665,0.00495352753,0.0410708489,0.0166786985,0.00327318205,0.147256993,0.429004839,2.951922,143.551256,132.132435,0.233356753,2.80874894,56.289091,242.042694,0.269138453,0.419187866,4.99785576,0.126885638
0.0367497103,0.00772535707,0.0956862376,0.0512970152,0.00710734824,0.0321152741,0.00584088651,0.0282679571,0.0655835511,0.00639636364,0.840128186,0.491351146,2.21952384,204.774376,66.9456576,0.996619228,1.00694927,222.246607,105.915523,0.373804082,0.18472053,3.93280123,0.86535681
0.0547602752,0.00518484426,0.05903021,0.0708372061,0.00931157377,0.0218319215,0.00144258606,0.0164368402,0.0222544975,0.00317165804,0.824545796,0.883805177,0.365103745,122.524008,48.244915,0.235347122,1.27553553,89.2187383,124.725204,0.177704902,0.887303616,0.814155432,0.524084628
0.0667115013,0.00985366134,0.0333178158,0.0359006576,0.00977254723,0.0732771901,0.00596291094,0.0886132683,0.0828241697,0.00405222259,0.858744604,0.181555007,2.24171056,193.07774,43.4679665,0.279485566,3.11100351,96.1984506,196.609053,0.735586096,0.973619074,3.13461138,0.188158844
0.0481814007,0.00863790556,0.0118978904,0.0757467836,0.00152268875,0.0397042269,0.0063228598,0.0236687476,0.0980096201,0.00697933017,0.695828145,0.962865957,4.53854619,81.4659739,45.9838826,0.354932172,1.88006703,68.7336751,146.004901,0.321730735,0.853902036,1.63194505,0.0833421601
0.0274249578,0.00389675774,0.0781680317,0.0760799333,0.00123740854,0.0193128456,0.00347718625,0.0814857095,0.0910383566,0.00151129575,0.964934665,0.571479205,2.50589936,149.717025,73.9639011,0.373644454,1.79475987,233.101142,117.48186,0.659855572,0.0481292915,2.9976753,0.276640518
0.0161486311,0.00260737136,0.010708086,0.0737136243,0.00738790859,0.0299184972,0.00476582757,0.0951729816,0.0264481671,0.009902597,0.638055266,0.394951304,0.830637923,89.3203909,94.3903805,0.545383142,0.143253132,82.5708442,118.27101,0.666173383,0.202442744,3.74302773,0.10063895
0.0197773832,0.00869702331,0.0338944146,0.0288518774,0.00675970873,0.0865151343,0.00549221313,0.0416291247,0.0929825564,0.00913589119,0.890548831,0.541906071,0.962031433,86.6230903,158.566828,0.553298705,3.83687315,120.689834,84.8622524,0.530643101,0.830521066,4.31265972,0.891260067
0.0494588066,0.00874342603,0.059504764,0.0254042703,0.00521143783,0.0809305149,0.00651835908,0.0153032418,0.0222903103,0.00814651009,0.147189142,0.738236561,2.64245583,185.437303,95.0027272,0.115413343,1.18691977,66.2846743,156.953094,0.575043096,0.323366517,0.307637476,0.865174682
0.0449872975,0.00194504474,0.0224682693,0.0580366763,0.00601449516,0.0267103807,0.00854450913,0.0929248124,0.0139018827,0.00176312697,0.120871674,0.271845494,4.57102197,229.414271,115.978498,0.49052563,3.32956513,169.316481,31.3419439,0.777675756,0.888261182,3.03652969,0.288340612
0.0326691033,0.00784473613,0.0501442699,0.073797584,0.00184909824,0.0455360472,0.00906756512,0.0799439479,0.0705509956,0.00935399744,0.284702533,0.606233319,0.179015468,170.451693,188.929512,0.381456434,3.74245276,127.261606,139.42571,0.93811902,0.132053042,2.07534948,0.121825487
0.0677795411,0.00225201209,0.0227660012,0.0100911499,0.00837914225,0.0333667815,0.00538024378,0.0324267843,0.0214927855,0.00600563913,0.619954633,0.655913092,0.818957629,101.974975,63.8988239,0.538982753,3.64219528,144.227174,229.467734,0.963506008,0.953848517,2.0703446,0.732349032
0.0682629255,0.00646360102,0.0888071497,0.0271884772,0.00437261058,0.0638891258,0.00325660171,0.0578532645,0.0297341164,0.00362966745,0.794133563,0.236874167,0.779259649,166.484923,170.395243,0.76435804,4.07143767,247.339173,84.3302755,0.0236995642,0.231057674,1.86513128,0.241506822
0.0659937247,0.00813440148,0.0595104198,0.0762412363,0.0092100756,0.0701037485,0.0023686612,0.0166238618,0.0692968562,0.00111305058,0.884882061,0.957320941,2.44202991,145.391725,10.1587587,0.575111803,3.70041381,82.7503658,81.9242234,0.0469119318,0.0539779435,1.21303055,0.0692202337
0.0127215375,0.00290612501,0.0626095097,0.0995990052,0.00855453792,0.0168796029,0.00660206561,0.0866434419,0.0390328713,0.00476463349,0.172772641,0.288949688,1.90509984,223.663736,113.521404,0.170371929,3.22258498,238.949343,144.148692,0.955057904,0.59377523,2.53811829,0.354473056
0.0323915916,0.00128845883,0.0577719137,0.0277416373,0.00633613452,0.0453413641,0.00872804064,0.0776188107,0.0552230769,0.00999516213,0.865037194,0.888734569,3.85502016,185.156503,199.253373,0.204545265,0.495010872,142.410321,172.046327,0.379735229,0.905649556,4.89029277,0.423064727
0.074179204,0.00823094471,0.0873636525,0.0309601389,0.00186339914,0.0308405852,0.00901671361,0.0258771799,0.0580981705,0.00706186848,0.937383306,0.309184392,0.704657246,171.486481,141.441492,0.0399639146,4.99699332,238.428609,156.519344,0.588408574,0.828831639,2.28942725,0.496411923
0.0760131731,0.00135376317,0.0556461388,0.040167168,0.0031448896,0.0951552896,0.00241373377,0.0843585365,0.0513184427,0.00594861259,0.5838624,0.512810983,3.35162726,226.046405,151.857597,0.496273532,2.09047936,116.10052,232.440978,0.580171227,0.924612584,4.88152545,0.724506243
0.0899592252,0.00766899726,0.0762643384,0.0225127192,0.00120967898,0.0423474308,0.00637058022,0.013032394,0.0566812218,0.00794759335,0.147389292,0.914250981,2.87554531,211.145735,187.963132,0.125869464,0.379901272,227.787977,82.8450992,0.418345043,0.410950514,0.217880183,0.921897634
0.0585025836,0.00405386098,0.0871738269,0.0402866348,0.0023862989,0.0361652708,0.00851305932,0.0116149355,0.0614949883,0.00387721598,0.898121387,0.627818163,4.09507568,169.805939,168.574928,0.558119741,3.70626459,56.3612216,104.218312,0.534513024,0.562411171,2.7607552,0.691337323
0.0272415121,0.00474481776,0.0202851483,0.0609531512,0.00892401496,0.0186349963,0.00829064567,0.0743399047,0.0445815676,0.007203719,0.243863971,0.135835196,3.03647091,87.0132688,182.911371,0.375377397,4.99854505,192.431058,83.9532197,0.376959547,0.661729732,4.37688871,0.796299311
0.079524283,0.00274416283,0.0489931998,0.0514894029,0.00207064714,0.0680448605,0.00817863607,0.093192213,0.0870470365,0.00428354331,0.81617665,0.349651758,3.65382455,236.347858,90.4883039,0.419640512,2.74484612,221.2248,59.4451214,0.840650426,0.158211206,1.49738923,0.837247331
0.0656519956,0.0095235129,0.0356294489,0.0902390683,0.00873944553,0.0546506091,0.0089056456,0.0599395128,0.0420064058,0.00165935346,0.376567494,0.326235537,3.71884412,181.955694,223.822439,0.31231988,2.9656995,107.827472,100.055735,0.582213806,0.862546882,0.314719775,0.0470498168
0.0944646376,0.00222000342,0.088171253,0.0205658806,0.0087894015,0.0339794631,0.00461292558,0.0845958952,0.0872731996,0.0092609866,0.687235459,0.293372897,3.09629053,188.814768,242.93667,0.375987816,0.772058599,174.096477,238.476581,0.127875541,0.407163432,2.9699535,0.856471086
0.0542702156,0.00522436798,0.0160259544,0.0195562082,0.00905911925,0.0759582328,0.00854094664,0.0421125063,0.0478054496,0.00192482672,0.886859515,0.708518971,1.2403319,210.833892,2.82103773,0.298754198,3.1832512,246.057138,48.307168,0.720815241,0.801940315,0.953619376,0.403042595
0.0418867562,0.00866204856,0.0650263613,0.0452701335,0.00110519855,0.0954369538,0.0066344139,0.0376101161,0.0307360353,0.0077360203,0.230844159,0.597984355,0.724131142,125.934721,136.333815,0.87488883,2.73037012,151.512391,152.05018,0.0966276947,0.183191836,1.47873408,0.563159878
0.0832816363,0.00322141048,0.0409900273,0.0727068831,0.00816488925,0.0969146762,0.00286291784,0.0706450136,0.0750986399,0.0080586277,0.88241658,0.282508672,2.42806203,99.9711915,177.231761,0.646632665,1.42207438,212.316685,38.6408356,0.275185437,0.987721381,1.176976,0.0127034748
0.0389110979,0.00488256098,0.0342707285,0.0899674268,0.00263931138,0.0845608351,0.00438776646,0.015054988,0.0184205699,0.00417823117,0.87605565,0.987499397,1.92387924,115.699873,232.241328,0.753774186,3.2886285,187.822528,64.1819865,0.10882143,0.859947605,3.1540127,0.785373032
0.0978561384,0.00994786279,0.061311753,0.0141583544,0.00129074928,0.027089259,0.00737885475,0.0394128058,0.0237906757,0.00119041418,0.772772402,0.125605658,0.238208727,245.644608,8.51946209,0.820536016,4.9711385,57.328493,199.898056,0.403358207,0.823835382,0.188852828,0.485541235
0.0440502908,0.00934885867,0.0218963887,0.0362959814,0.00246831734,0.0806024961,0.00125880994,0.0894950077,0.0914559075,0.00114780087,0.700755085,0.685525249,0.166017689,99.0513206,228.763509,0.811937788,2.54943839,72.535885,58.4381376,0.653892823,0.405605888,2.24543905,0.331839839
0.0183470519,0.00138719795,0.0221475605,0.09583736,0.0059335815,0.0513752076,0.00354803294,0.0469977527,0.0616359547,0.0040509379,0.938519964,0.187504252,3.15591273,128.545851,144.518285,0.395900172,1.0261919,247.391732,92.4868627,0.94422641,0.0686301996,1.06873847,0.524252112
0.0118932965,0.00592944434,0.0941528244,0.0784872693,0.00791556801,0.0212833833,0.00660098961,0.0551949066,0.0714118989,0.00748410944,0.453732324,0.44448275,1.5471961,55.2954155,35.1094681,0.0537880477,3.16218419,101.923643,79.3584781,0.257319325,0.610717218,1.93893545,0.796325994
0.0576322096,0.00101344679,0.0402071945,0.0150193482,0.00801560811,0.0444803701,0.00192953591,0.0421519579,0.017042136,0.00911258365,0.499664222,0.391898253,0.938492743,205.090613,77.2403865,0.0338931199,3.41542679,64.3531419,221.427186,0.317341983,0.990980396,0.168305941,0.668552435
0.0187208129,0.00752285244,0.0277857133,0.0125581882,0.0041416324,0.0160682528,0.00432880703,0.0989960119,0.0416864872,0.0052629007,0.295651223,0.180626607,3.82926855,138.885174,61.9798383,0.873142346,2.27564176,53.1874762,6.98325724,0.616917862,0.436638841,4.72268043,0.814567191
0.0923349511,0.0065689213,0.0164417112,0.0934363873,0.0073742804,0.0919455107,0.0055102925,0.0518403862,0.041799164,0.00150167592,0.817198005,0.343637595,3.05388401,73.3811443,11.8237294,0.906930035,0.422210923,149.85009,157.546249,0.705162473,0.158584832,2.29680749,0.939636829
0.0751210314,0.00435099741,0.0920602661,0.0433531253,0.00397561244,0.0977866297,0.00391283345,0.0952136642,0.020355747,0.00466991296,0.883029665,0.908049601,3.5998588,249.415572,49.6534985,0.323727265,4.95245258,92.5681423,58.0845798,0.294765043,0.886833801,3.95257386,0.604253435
0.0512213807,0.00364743152,0.0961247456,0.0114250365,0.00654454403,0.072826972,0.00905939592,0.0190211052,0.0543193845,0.00402180252,0.753607906,0.709329057,2.9703321,185.798488,74.5361924,0.763328672,0.196747299,210.544875,178.241276,0.195221728,0.163700302,0.534600178,0.440326277
0.0343798462,0.00149626987,0.0423388322,0.0553272619,0.00513005039,0.0321364533,0.00731791652,0.0387608957,0.0489956712,0.003736928,0.216153878,0.548379353,3.61399425,138.422981,247.392093,0.65241841,3.70660723,163.898031,18.9720908,0.533212671,0.00173593946,3.80237704,0.739888241
0.0848226597,0.00730620593,0.0186481514,0.0954238666,0.00297207562,0.070789411,0.00208496829,0.0454896809,0.030906759,0.00366836502,0.1851169,0.514677523,4.54395009,80.5468216,243.349828,0.824756878,2.93467619,115.962843,242.582091,0.28564115,0.864359375,4.86370689,0.254254319
0.0151653084,0.00903670431,0.0904182636,0.0939194446,0.00488852247,0.0180915677,0.00995544129,0.085470895,0.0279453697,0.00974276319,0.18430167,0.595698036,0.635391585,112.264191,125.046538,0.853004291,4.78305375,153.234599,101.029425,0.454366786,0.974035998,0.460626404,0.400190969
0.0599796834,0.00753422394,0.0445280159,0.0148336001,0.0067543047,0.0971522968,0.0094952875,0.024423109,0.0331417941,0.00617763873,0.275636437,0.397608855,3.80008052,156.777987,147.383983,0.284505893,1.99935402,132.678473,207.671445,0.0489911782,0.721574676,1.87844062,0.783227953
0.0635310516,0.00626969191,0.0242317426,0.0923096907,0.00848020163,0.0698301701,0.00808644199,0.0309855065,0.0184572884,0.00313637171,0.498222394,0.267870031,0.443205023,136.307535,183.075404,0.123353288,2.5682098,158.59928,71.46117,0.938230785,0.720655002,2.57898299,0.7146
0.0376302515,0.0095698729,0.0677695903,0.0553378161,0.00737853344,0.0201868906,0.00659597309,0.0247450784,0.034263188,0.0092049805,0.386683693,0.203636465,3.41356225,228.277188,248.875915,0.613233259,3.9666995,243.893566,3.74990737,0.126907001,0.549941363,0.0197889002,0.666565256
0.0429366722,0.00424673078,0.01345675,0.0272386019,0.0026179505,0.0174489554,0.00955639937,0.0611728444,0.0276804538,0.00133985285,0.679798558,0.627305509,4.5455552,80.4798762,238.002785,0.164622778,1.9770602,64.9679272,144.014723,0.528752427,0.602019487,4.73692081,0.367150912
0.0994339299,0.00182127104,0.0160164489,0.0656951175,0.00621913927,0.0132270073,0.00199979717,0.0237567869,0.0475747941,0.00601330806,0.767150205,0.427904662,0.770903499,151.605209,1.15338142,0.0627457039,0.80329606,59.440061,14.3907299,0.784823693,0.106059291,2.25762112,0.179291481
0.0655458076,0.00538225171,0.0585087328,0.0887790484,0.00800106094,0.0614776052,0.00889224648,0.0703563426,0.0116180419,0.00707021344,0.399516996,0.167795322,4.69614029,195.064047,222.570872,0.381767079,2.84726441,105.010965,151.119056,0.33227867,0.688636001,4.91571116,0.442694258
0.0835034575,0.00249025738,0.0926429756,0.0477890111,0.00783140668,0.0855656732,0.00791258305,0.090696783,0.0272759599,0.00939273164,0.835447604,0.397541846,4.70756021,195.481599,60.9714648,0.936420143,2.98582462,173.425026,154.294796,0.622684596,0.825553008,1.16562574,0.813598889
0.0640773802,0.00331592067,0.0250041743,0.0937388834,0.0032556037,0.0791512725,0.00716566795,0.0707363425,0.0338881868,0.00989634485,0.327660149,0.634712032,2.18238692,211.354113,21.7202549,0.21127489,4.10427616,129.438526,195.684256,0.0848038493,0.788005349,1.83696136,0.150752135
0.0148803194,0.00101569723,0.0212148703,0.0577322967,0.00409390717,0.0999657658,0.00747324952,0.0692154379,0.0636950858,0.00255149323,0.652308696,0.551657307,1.22951508,188.409917,224.382312,0.435335609,4.96691169,191.369577,136.255792,0.0487385888,0.100266988,1.31419257,0.0206927623
0.0153550869,0.00786925698,0.0112325131,0.085995772,0.00757658041,0.0644595452,0.00645611457,0.0472650997,0.0204840992,0.00102682622,0.870889708,0.803169675,0.357277856,158.409328,224.767358,0.508390979,1.71306127,127.494505,118.50252,0.0836918304,0.915502295,0.0662391219,0.808635285
0.0490875544,0.00787416502,0.0786486412,0.0784454537,0.00358555581,0.0430513344,0.00221973362,0.0690004718,0.0238370472,0.00210886114,0.261157503,0.841056258,4.26872226,76.3077255,65.0407365,0.208286333,0.00310515308,75.1198909,82.9324998,0.851976391,0.361976273,0.351886569,0.352615762
0.0718428919,0.00114108447,0.0750478765,0.0684053219,0.0049950426,0.0115219144,0.00610989737,0.0458230299,0.0478849984,0.00247856138,0.554075557,0.907494777,2.97369409,139.110201,186.412083,0.631278281,0.315239864,121.200416,70.1173553,0.811993814,0.324669041,1.89133594,0.22114187
0.0706005053,0.00211373834,0.0868995282,0.0936360908,0.00855848774,0.0311900871,0.0041169527,0.0626976414,0.0139692072,0.00614504246,0.740362525,0.612622636,2.87902253,148.317751,99.5944095,0.0285356813,2.32979425,217.604609,212.588021,0.324558621,0.956651179,2.79938482,0.811127041
0.0423291588,0.00172397417,0.0324961355,0.072872157,0.00985290405,0.0711344262,0.00710439611,0.0830582605,0.0529941242,0.00610676287,0.307738007,0.135997197,1.75994736,189.772843,172.016695,0.819660978,4.93616127,193.798756,52.8333187,0.725542121,0.0908187762,1.18024696,0.104401884
0.0542189532,0.00170266189,0.0653410262,0.0305477919,0.00653097889,0.0486107777,0.00405206203,0.0713674487,0.0956017377,0.00781899297,0.827097462,0.961737878,4.32313251,155.480966,0.585530024,0.34440185,0.197721476,163.329373,33.797453,0.849718273,0.753824095,2.95434572,0.253229703
0.0255738246,0.00632120546,0.0143750177,0.0733066708,0.00258895032,0.0249653631,0.00395494048,0.097160673,0.0902400054,0.00199443638,0.621008183,0.909450433,0.338675552,95.1654379,210.11021,0.18536596,1.83286754,105.936509,140.695823,0.0710064317,0.375705472,4.46754933,0.805251896
0.0200743243,0.00546515152,0.0201515123,0.0314229188,0.00157686124,0.0588468473,0.00293033314,0.0361069211,0.0920050713,0.00761841202,0.980614065,0.237107951,1.00529041,145.249887,197.918428,0.280039401,0.850150173,167.066553,171.736748,0.666808469,0.0887107801,3.25486132,0.304744708
0.0616892341,0.0054364505,0.0413332688,0.0586302381,0.00717127039,0.0629750322,0.00434605256,0.0114173688,0.0293555725,0.005798245,0.899496631,0.699556689,4.54141775,58.7162437,68.55296,0.681053942,4.33329693,127.830576,90.6597537,0.824715109,0.979480664,2.51945408,0.702052952
0.0434373836,0.00683379024,0.0524754321,0.0439535122,0.00306941212,0.0830445993,0.00496970091,0.046911382,0.0662739483,0.0051766374,0.78746333,0.151904303,0.963056045,212.700069,211.875683,0.453124348,3.19092525,84.6426833,171.73414,0.11331495,0.677175752,3.22195949,0.678950283
0.0421701614,0.00856668837,0.0171578787,0.0669594162,0.00698060414,0.052498906,0.00520323159,0.0871497515,0.011345842,0.0063498373,0.89493484,0.881262225,0.655697802,89.9644882,75.4560463,0.898239557,4.43535621,54.8493565,86.1463103,0.102792345,0.82884306,3.79630202,0.281346316
0.018586202,0.0011543486,0.0713826425,0.0988838815,0.00859802224,0.0926622895,0.00338223022,0.0984542023,0.0805541276,0.00984891105,0.393554863,0.611467319,3.87523474,154.629434,35.5941226,0.290877809,3.82429599,232.920156,207.287165,0.601597419,0.962632312,1.64462013,0.19492881
0.0986479902,0.00859653229,0.0572758551,0.0799237097,0.00761541409,0.087713738,0.00901141244,0.0834555463,0.0107622895,0.00428660065,0.750815252,0.379867757,3.56828311,195.677716,174.256663,0.562454387,2.42639349,219.246755,165.22855,0.647919067,0.631220742,2.74090185,0.269523504
0.0480849553,0.00794706841,0.0564279916,0.0745193542,0.00909552,0.0569653362,0.00145365629,0.0270500482,0.0785023267,0.00347910649,0.51687133,0.193035953,2.34525813,61.6496973,51.8215246,0.304876742,0.342362478,224.152602,88.8306324,0.080363096,0.0284911942,3.80829337,0.159353054
0.0789011253,0.00360196694,0.0946351037,0.0858358181,0.00319812688,0.0576043663,0.00504228083,0.0135758311,0.0398092087,0.00395160139,0.765969896,0.147874051,1.78611837,134.205974,46.8249966,0.945589669,2.58934024,200.468407,20.4040575,0.95714486,0.495744116,0.757398744,0.260762866
0.0770750698,0.00730570291,0.0218554622,0.0335722705,0.00895261607,0.0711626664,0.00905915665,0.0645321773,0.0194093113,0.00899036011,0.605124581,0.973063164,0.675450614,65.9165893,93.2309717,0.758736692,2.03082731,172.415752,150.166338,0.122296505,0.183727403,4.57762559,0.115548988
0.0879537647,0.00921738316,0.0685703199,0.0515155017,0.0014106725,0.0713516016,0.00920108973,0.0757487406,0.0917920975,0.00798190288,0.470417474,0.184763751,0.560597933,152.706765,178.730942,0.580298646,2.90852286,90.2048688,224.29985,0.0142667618,0.614370253,3.68151434,0.547918336
0.0828451963,0.00950407375,0.0862468304,0.0426629571,0.00543606234,0.0270155554,0.00243819143,0.014340226,0.0794994147,0.00308507739,0.154382782,0.69031336,2.41315594,163.197174,106.131246,0.441638079,4.83183211,101.41815,238.23981,0.634468908,0.378410973,4.5431593,0.660056282
0.0569454604,0.0034117612,0.0411313184,0.0655294933,0.0062238996,0.0525027171,0.00625916215,0.0813001503,0.0211872997,0.00685556151,0.550344887,0.433735633,4.62950614,108.729488,74.7073424,0.811998408,4.81276657,51.9176033,107.734933,0.853365666,0.633008955,3.04440405,0.441363703
0.0330553009,0.00238924518,0.0161333491,0.0378504699,0.00954054179,0.0655260061,0.00502221076,0.0455753633,0.096371506,0.00128673956,0.564109291,0.602631505,1.13076088,223.716849,169.399007,0.625602819,4.99198704,117.858832,230.429798,0.451670521,0.847139703,3.12796021,0.48915108
0.0894746294,0.00433536712,0.0110332366,0.0669390878,0.00668488056,0.0933333628,0.0097607587,0.0153806169,0.0405908164,0.00977603538,0.565798354,0.864453116,0.447346483,197.232903,83.7727836,0.368082525,2.56763712,199.877865,140.057112,0.875447311,0.751361012,1.7884393,0.952299544
0.0863115785,0.00300532462,0.0106111056,0.0801147674,0.00525277975,0.0249534265,0.00799400796,0.0658662814,0.0647468551,0.00203313085,0.555657327,0.816438937,2.53535843,182.679832,237.034318,0.0679967102,3.61002039,106.319318,233.856922,0.820993753,0.375479697,4.4277672,0.197769584
0.0118700512,0.00123635399,0.0363227265,0.0899234355,0.00209427065,0.0877704043,0.00960370745,0.0248671972,0.0618035479,0.00228150038,0.480095748,0.750926872,1.5048291,242.404782,28.6748917,0.751273045,0.729172834,50.7711217,0.127051113,0.185627644,0.68802989,1.31954396,0.837140125
0.0154034016,0.0026297178,0.0295896067,0.0710954243,0.00351739634,0.0346836301,0.00313287506,0.0396392582,0.0987393315,0.00747223678,0.689477234,0.614124026,3.87479652,227.576437,228.328833,0.999056699,0.934214023,56.0983762,108.095178,0.122706307,0.0526697288,0.523084331,0.298992151
0.0720353415,0.00319464003,0.0371711784,0.0292955607,0.00792292026,0.0616575635,0.00157339719,0.0342949568,0.0987906719,0.00395111251,0.748790986,0.446614003,0.0368735501,235.683763,230.483399,0.588438847,1.18852245,188.29038,151.302864,0.45886952,0.805059914,1.62402794,0.643065694
0.0334638954,0.00997406604,0.0635857567,0.0277067816,0.00775718235,0.0212323911,0.00306304046,0.0586977147,0.0513450021,0.00710132057,0.699422933,0.889470679,1.25568019,192.539828,3.44706678,0.21248429,4.59812392,104.440836,197.542254,0.933287353,0.725169329,2.62644995,0.480649433
0.0118835581,0.00689440814,0.0607323634,0.0469547076,0.0011627605,0.0565875501,0.00803279117,0.0868353516,0.0438599594,0.00191561718,0.544266085,0.771894383,3.32606198,66.6591421,8.40402966,0.768906291,0.408301767,69.7332197,243.333108,0.652115565,0.0356392497,0.904963076,0.0612641951
0.0632559419,0.00206050436,0.0296196195,0.079028341,0.00863610464,0.0172758873,0.00968348853,0.0488989349,0.0128615422,0.00603881813,0.186507316,0.16085484,0.980291275,100.87882,132.845602,0.994020375,3.47957227,126.293868,211.720584,0.0401221448,0.501725704,2.70499198,0.483247116
0.0135637634,0.00842290459,0.0451525822,0.0808029501,0.00912111951,0.0433242373,0.00302234071,0.0620217173,0.0747205581,0.00210494311,0.828998111,0.13712026,4.96809149,119.616818,184.414206,0.331372665,0.943416216,176.668985,249.431001,0.994767261,0.928098729,1.46550194,0.638116997
0.0192416452,0.0075828032,0.0404310837,0.063963603,0.00708435112,0.0706685142,0.00896333602,0.0222830082,0.032669179,0.00325814054,0.455893068,0.866488508,3.78091091,229.316196,173.365306,0.743203068,4.08535131,118.204574,161.825304,0.575787499,0.247995056,4.82493776,0.385150117
0.0425068266,0.00742941731,0.0771285353,0.0244054919,0.00136538432,0.0123709809,0.00952150309,0.0623387758,0.0466086626,0.00613157681,0.43489167,0.628281543,1.64233762,193.78298,136.583903,0.753798973,1.62190551,176.18768,39.1161901,0.817137704,0.921126515,1.75534637,0.261991544
