0.061177,0.0072622,0.034523,0.0092645,0.27659,0.8646,0.039667,161.44,92.249,0.19573,2.4771,180.36,46.791,0.67449,7.4317,0.0088831,1.5742
0.092381,0.0036642,0.014495,0.0083877,0.50286,0.31456,2.3233,126.21,105.81,0.86054,3.4329,228.53,155.23,0.83857,5.1024,0.46846,2.0495
0.047496,0.0027261,0.024876,0.0095646,0.17433,0.20424,0.58378,119.47,142.86,0.52015,0.18435,140.04,215.64,0.63806,5.1854,0.29404,2.5769
0.01799,0.0039085,0.097237,0.0084652,0.33519,0.68245,3.5927,67.076,147.03,0.4743,1.2529,223.39,77.204,0.2197,2.7375,0.25934,1.4137
0.079072,0.0094003,0.025987,0.0031216,0.52534,0.19681,3.3378,92.434,7.1864,0.015223,1.5822,200.1,42.996,0.90763,2.6057,0.51948,2.3744
0.04349,0.0070086,0.051472,0.0064244,0.48949,0.35699,2.796,67.714,22.783,0.76003,0.83405,139.63,181.04,0.41109,2.4427,0.50107,0.14301
0.053965,0.0077626,0.075103,0.0058653,0.1184,0.18857,2.8361,201.91,125.26,0.51855,2.2981,171.33,146.53,0.88975,6.3851,0.064558,0.69391
0.036358,0.0097552,0.054269,0.0080147,0.24263,0.35766,2.3331,63.924,229.56,0.44749,4.5892,190.05,114.07,0.5793,2.1635,0.48483,0.59421
0.065096,0.0048512,0.060536,0.0088934,0.69546,0.92116,1.8539,167.16,61.904,0.97471,0.24508,96.694,113.46,0.026542,5.0399,0.8193,2.555
0.086424,0.0037237,0.07799,0.0043102,0.62648,0.56245,0.17523,106.56,163.23,0.35682,1.4096,140.82,29.578,0.545,2.9343,0.65966,4.6946
0.067474,0.0086916,0.097128,0.008351,0.26308,0.33835,4.3242,154.33,16.301,0.20572,4.0757,59.545,0.13936,0.85413,2.5035,0.19415,1.7834
0.054809,0.0045736,0.045206,0.0073919,0.41435,0.40821,4.8035,244.85,4.0844,0.48381,4.4656,172.27,226.06,0.23036,2.3885,0.95887,4.711
0.092948,0.0076093,0.068662,0.0072693,0.66445,0.54227,4.5499,186.84,130.02,0.89,3.9514,53.418,39.704,0.64064,4.5222,0.95393,1.5231
0.041246,0.0067698,0.01467,0.0031307,0.56075,0.81267,3.7759,130.3,163.09,0.56423,0.1132,174.86,211.52,0.71536,5.1111,0.9069,1.1246
0.011987,0.0087871,0.090371,0.0022206,0.85752,0.33112,1.4291,70.954,98.539,0.25663,0.39614,88.873,119.17,0.34039,1.135,0.38107,0.54406
0.014348,0.0045163,0.089948,0.0036566,0.19205,0.6568,1.6495,132.98,95.159,0.27232,4.6043,151.16,79.014,0.060277,0.43982,0.64179,3.0217
0.081654,0.009943,0.099291,0.0021405,0.96524,0.99642,2.3541,159.54,92.401,0.56775,2.5707,145.96,31.668,0.46475,7.3185,0.82031,2.7777
0.09738,0.0038333,0.044544,0.0044647,0.2386,0.11217,2.8461,96.27,188.28,0.79522,0.21233,192.11,168.11,0.86695,1.813,0.41696,3.0237
0.076749,0.0013633,0.040892,0.0096814,0.76146,0.51289,3.0137,51.206,152.97,0.030966,3.9531,188.07,228.78,0.7781,6.4702,0.71782,3.9634
0.035091,0.0041124,0.073735,0.0030394,0.99318,0.5688,1.1903,158.23,59.788,0.73955,3.6406,195.21,85.61,0.3486,6.1649,0.8323,0.10462
0.074267,0.0084712,0.065337,0.0035422,0.52278,0.88958,2.882,225.98,231.32,0.40713,0.477,138.21,51.025,0.75072,1.4751,0.6694,4.9437
0.01883,0.0083972,0.086503,0.0075314,0.51772,0.23614,1.8419,125.68,95.472,0.71297,3.9474,115.73,143.66,0.62855,7.6208,0.557,0.43438
0.092258,0.0039493,0.094877,0.0023068,0.64936,0.26666,1.3581,215.3,93.364,0.64469,3.5358,159.42,135.57,0.73081,4.2839,0.95982,4.5024
0.08062,0.00925,0.098571,0.0086087,0.96371,0.93687,4.9275,80.547,82.444,0.65132,1.9491,221.68,94.343,0.67342,6.3813,0.8947,1.1905
0.023663,0.0066632,0.091235,0.0078859,0.35376,0.80574,3.2396,170.06,225.95,0.95914,4.5307,232.88,21.545,0.49032,2.6738,0.12593,4.0463
0.047898,0.0016464,0.012827,0.0082957,0.93986,0.24366,1.9551,217.67,116.53,0.52051,0.63673,175.2,104.82,0.57826,2.0421,0.45322,3.0755
0.095936,0.0071084,0.017814,0.0090963,0.32963,0.94306,0.57935,114.46,127.05,0.022718,2.3017,153.44,160.32,0.80238,8.1227,0.30337,1.3961
0.027054,0.0042345,0.04243,0.0089748,0.80397,0.15885,1.5419,131.19,198.68,0.83031,2.6364,157.5,31.498,0.45513,5.5806,0.12696,3.2545
0.034608,0.0023815,0.019866,0.0011406,0.37725,0.44247,0.20701,132.91,33.775,0.63027,3.0702,82.201,170.88,0.28326,2.0903,0.32043,4.4344
0.014839,0.0014466,0.045949,0.0060025,0.34408,0.72283,1.9012,165.62,51.249,0.6123,0.25891,77.646,207.85,0.72858,5.4,0.3694,1.9043
0.023359,0.0083257,0.076408,0.0080075,0.23196,0.12509,3.6185,75.726,47.544,0.70894,0.10766,169.09,213.75,0.40311,1.2088,0.85705,4.3429
0.017248,0.0089869,0.08859,0.0017135,0.98498,0.89862,3.8848,70.834,0.47278,0.53971,0.5574,171.39,150.26,0.39495,0.48321,0.18093,4.5645
0.074036,0.0011082,0.039337,0.0031791,0.15648,0.92491,0.5024,78.719,214.44,0.070529,2.7765,178.86,200.79,0.60987,1.8539,0.099291,4.5555
0.016302,0.0032479,0.091376,0.0050988,0.77225,0.49464,4.5996,137.95,2.5023,0.56007,3.0254,62.721,181.28,0.028407,2.0659,0.017634,4.4025
0.057173,0.0014809,0.068348,0.0051867,0.37278,0.30538,3.4358,144.37,2.1711,0.076229,3.9202,62.69,175.3,0.69392,5.7662,0.79786,1.0798
0.080035,0.0041662,0.047569,0.0090024,0.71778,0.64823,0.57239,187.34,210.12,0.75447,4.7738,170.77,234.59,0.46936,1.9772,0.25654,0.071033
0.016434,0.0043641,0.084666,0.0034249,0.68014,0.93282,3.7942,121.87,192.51,0.045034,0.97158,131.65,47.216,0.77141,6.0215,0.35983,0.46006
0.069521,0.0073015,0.099054,0.0021237,0.20669,0.67205,3.7345,111.89,214.29,0.95904,2.3334,137.76,226.04,0.3416,5.9501,0.80853,3.5968
0.049138,0.0049732,0.04411,0.0031276,0.49206,0.14934,4.0886,58.231,233.36,0.38008,4.5556,65.883,230.86,0.17046,2.7304,0.56625,1.5419
0.045477,0.0089116,0.053686,0.0033128,0.35221,0.99296,2.9993,239.5,3.7683,0.99682,2.0798,131.53,181.19,0.58886,5.1015,0.78208,1.0654
0.064395,0.0028309,0.065508,0.0017158,0.21692,0.36605,2.8394,64.923,47.461,0.76114,1.4901,72.58,93.523,0.25413,5.8817,0.48781,0.58571
0.099669,0.0019545,0.046714,0.007031,0.58969,0.31608,4.1235,239.94,173.53,0.092519,1.2868,249.42,175.54,0.10741,5.9913,0.44157,1.8165
0.021502,0.0031175,0.066204,0.0057236,0.39797,0.44728,4.8291,96.492,244.32,0.51761,4.1595,191.18,45.835,0.41572,4.5309,0.33795,1.6641
0.02782,0.0064944,0.064623,0.007155,0.15787,0.335,0.23976,67.094,143.82,0.86827,3.4727,143.09,235.02,0.82496,0.28289,0.054782,3.0439
0.089899,0.0063623,0.082475,0.0054233,0.1788,0.30223,0.80932,195.7,140.59,0.66274,0.030892,74.098,56.906,0.17235,6.8701,0.69234,0.054559
0.015415,0.0058152,0.063176,0.0035419,0.46853,0.43133,4.153,200.8,235.44,0.078165,3.1858,200.15,150.36,0.21362,7.0816,0.017722,0.44267
0.017494,0.0068681,0.034557,0.0057171,0.75848,0.25688,0.05227,229.03,171.59,0.92589,4.0751,243.05,6.6571,0.10657,7.4153,0.42142,2.7749
0.062725,0.0078281,0.05181,0.0093234,0.86015,0.79131,3.2881,170.59,82.789,0.048962,3.3066,223.35,195.2,0.77243,3.4456,0.88138,4.8407
0.013413,0.0037528,0.048919,0.0077767,0.46742,0.62532,4.2654,146.34,85.014,0.99081,1.6747,225.95,74.757,0.98487,3.1825,0.0014805,3.8222
0.019318,0.0036477,0.042331,0.0054717,0.72858,0.38343,1.8476,114.15,233.59,0.70264,4.7958,84.732,88.582,0.44698,2.9747,0.5007,1.7428
0.045924,0.0056665,0.092038,0.0090312,0.48925,0.91388,3.6087,142.65,76.874,0.86336,2.6767,107.55,37.715,0.13932,6.3221,0.7548,4.59
0.058394,0.0074825,0.041225,0.0092498,0.29554,0.90825,1.9354,141.49,9.6907,0.17668,2.8332,220.26,111.62,0.25255,3.4551,0.67551,4.7352
0.029429,0.0092025,0.058423,0.0050954,0.74688,0.49131,4.6549,167.92,141.95,0.6936,0.57931,142.51,212.22,0.8677,0.28022,0.1811,1.6616
0.04471,0.0039143,0.028521,0.0039368,0.46949,0.16357,2.3606,196.91,162.71,0.85,2.5446,249.43,225.54,0.075064,4.1098,0.99602,1.2631
0.09224,0.0030253,0.054823,0.0040311,0.92621,0.68048,2.6225,249.86,184.67,0.23722,4.0749,106.22,105.93,0.069736,2.5147,0.89146,2.2435
0.042592,0.0020451,0.024709,0.0033091,0.68037,0.85449,0.17739,215.58,239.09,0.13365,3.1614,121.64,67.957,0.26742,3.0265,0.69599,3.701
0.058753,0.0039175,0.057002,0.0031147,0.44492,0.91336,1.1086,105.91,76.514,0.06067,0.65046,198,176.27,0.45249,0.46966,0.10201,0.48574
0.026454,0.0013657,0.074315,0.0042397,0.41995,0.65811,4.0408,216.36,189.78,0.64312,2.6662,159.32,169.66,0.67841,4.8599,0.87168,3.9095
0.040735,0.0039679,0.036755,0.0035506,0.25068,0.4825,0.55347,155.64,70.332,0.08743,4.7554,164.29,194.42,0.26887,3.4284,0.90835,1.3534
0.086615,0.001978,0.063328,0.0098709,0.61885,0.10531,2.2033,51.489,225.48,0.773,0.38997,64.771,98.891,0.69921,8.986,0.90608,0.64307
0.09679,0.0062652,0.085965,0.0054291,0.72218,0.97308,3.3825,201.4,167.65,0.56156,2.1837,66.648,6.2786,0.55999,4.7666,0.56714,4.7457
0.058301,0.0089747,0.091142,0.007217,0.64683,0.57765,2.3019,220.12,72.887,0.10312,3.9083,89.503,239.88,0.052571,7.978,0.40824,4.0934
0.089886,0.0090871,0.080172,0.0023896,0.95179,0.40667,0.10211,95.018,80.871,0.73118,0.8182,229.36,118.22,0.17493,7.3402,0.10064,0.63253
0.077474,0.0058188,0.029679,0.0049897,0.78166,0.63269,3.4523,139.96,179.19,0.42591,3.4642,184.7,221.2,0.59081,2.9222,0.54388,3.6556
0.022577,0.0077965,0.067009,0.0024449,0.28745,0.90216,1.136,227.49,46.057,0.67414,2.1734,171.47,216.88,0.5143,2.3955,0.44019,1.1956
0.010414,0.0047505,0.07414,0.0046128,0.6517,0.50812,1.0885,68.508,110.08,0.80861,4.0995,60.33,215.35,0.99937,2.5003,0.63055,0.55816
0.081213,0.0012171,0.010294,0.0063705,0.73436,0.7248,0.40048,149.27,91.129,0.89089,2.7721,151.57,94.729,0.97877,6.79,0.21449,1.154
0.056259,0.0028015,0.064322,0.008603,0.86843,0.92339,2.7027,95.728,53.377,0.67153,3.9407,110.19,93.976,0.76713,8.8103,0.63981,4.0872
0.030793,0.0030394,0.094795,0.0091806,0.54233,0.20028,2.9707,72.147,133.39,0.83067,1.3395,98.108,153.89,0.2419,5.7821,0.96842,0.98494
0.073326,0.0060235,0.017839,0.0022974,0.87614,0.30109,0.37199,140.05,208.07,0.96833,2.6464,205.2,165.82,0.73954,7.6702,0.69721,4.3914
0.068567,0.0016942,0.0303,0.0060426,0.71486,0.53937,0.91103,56.374,118.2,0.75208,3.2461,228.5,73.557,0.67002,7.6972,0.88416,3.8017
0.088134,0.0047785,0.092946,0.0044945,0.20978,0.81845,2.063,96.739,158.09,0.58534,0.90469,60.614,25.867,0.62601,5.0297,0.92684,4.3766
0.0413,0.0061988,0.028071,0.0037232,0.94455,0.49697,0.83887,148.28,49.25,0.95295,0.99048,161.33,5.2675,0.8569,2.2778,0.94526,0.13479
0.039758,0.0085692,0.037312,0.0077436,0.10622,0.25262,4.412,118.84,249.39,0.22268,0.77823,80.27,37.147,0.55281,3.3897,0.51788,1.1867
0.036439,0.0070692,0.071136,0.0097787,0.24627,0.89479,4.5523,168.15,0.5844,0.21393,4.9293,247.87,83.169,0.90603,4.9054,0.17818,2.0506
0.0112,0.0083003,0.029363,0.0042085,0.66828,0.12587,2.1533,96.447,153.83,0.98552,1.2528,155.24,8.4512,0.027581,0.40337,0.82197,2.0577
0.035171,0.0016827,0.051202,0.0055525,0.28537,0.42292,0.65377,228.02,206.12,0.52128,1.8631,157.3,183.18,0.59001,3.0122,0.048909,1.1879
0.087204,0.0061395,0.056532,0.0081591,0.71347,0.87781,2.5347,163.5,103.52,0.24581,2.3966,192.5,110.79,0.28831,7.2232,0.12916,4.3798
0.023599,0.0019532,0.048365,0.0071909,0.59532,0.76169,3.9791,216.07,224.08,0.39236,1.5221,213.75,101.08,0.74645,4.4421,0.93192,0.44543
0.059725,0.0074394,0.054148,0.003362,0.80464,0.6904,2.9965,83.571,128,0.2207,3.5571,224.82,23.099,0.22376,2.3292,0.28091,3.3292
0.01549,0.0038585,0.02688,0.0066375,0.34378,0.5465,3.402,112.8,240.42,0.30541,2.3544,174.34,207.38,0.060453,2.5621,0.9441,1.2379
0.08616,0.0071973,0.019434,0.0035763,0.32452,0.1886,2.3341,165.31,151.97,0.69117,3.1335,52.121,231.79,0.28901,7.3523,0.68434,0.56143
0.096651,0.008889,0.094673,0.0021774,0.94192,0.33662,3.5602,74.334,166.52,0.6264,1.0414,94.454,205.69,0.14219,5.3221,0.67415,3.0144
0.037099,0.0010289,0.021593,0.0078384,0.23496,0.5177,1.446,183.67,230.36,0.11252,1.958,60.523,29.399,0.4623,3.5448,0.3767,4.8457
0.030989,0.0048649,0.040092,0.0067705,0.30088,0.56069,0.14263,86.11,112.17,0.29319,0.85537,152.89,42.55,0.23074,0.99819,0.8681,3.729
0.094159,0.0040504,0.082439,0.0056449,0.61255,0.63683,2.4942,85.591,158.32,0.60534,2.9027,228.57,198.61,0.55774,8.9684,0.55854,0.56067
0.085793,0.0080714,0.022699,0.0072727,0.70192,0.52356,0.97654,212.04,52.879,0.8698,1.3838,165.92,94.803,0.080439,0.047702,0.30337,0.87827
0.080181,0.0079401,0.058981,0.004983,0.35721,0.47231,4.8191,61.495,140.09,0.81753,0.46022,175.61,223.1,0.10652,2.2637,0.84924,1.6175
0.055684,0.006926,0.088216,0.0025843,0.57185,0.56187,3.8155,166.65,25.902,0.38117,1.3032,78.859,157.1,0.33108,6.0332,0.78456,0.43435
0.06242,0.0045157,0.094806,0.0095838,0.2983,0.24112,3.064,190.84,73.082,0.48814,4.186,199.72,61.806,0.63253,5.5907,0.97063,3.8256
0.062782,0.0031415,0.051241,0.0011932,0.60905,0.31813,1.9315,230.82,136,0.78005,3.7648,106.13,204.65,0.75421,3.7979,0.97825,2.5764
0.047848,0.0021037,0.033675,0.0061552,0.42831,0.2761,4.557,107.9,45.218,0.2268,1.8226,223.76,136.88,0.45159,5.6725,0.60327,0.83634
0.084978,0.0028848,0.026578,0.0099583,0.5411,0.72999,2.6793,221.98,69.019,0.16362,2.9982,210.42,50.66,0.23912,0.3541,0.014928,2.9034
0.023972,0.0066,0.072799,0.00251,0.49542,0.59278,3.748,131.99,58.149,0.25443,1.7137,147.68,216.2,0.57206,4.0136,0.25693,1.0683
0.019841,0.0063313,0.021154,0.0055474,0.94091,0.19125,2.0394,249.6,137.2,0.97738,2.1824,244.71,55.564,0.22076,2.9537,0.31005,0.77809
0.057091,0.009699,0.023621,0.0046843,0.95047,0.41277,1.7057,173.27,139.26,0.54535,1.2911,155.43,150.3,0.27912,7.1775,0.22729,2.9962
0.059754,0.0056336,0.07318,0.0094437,0.86402,0.89544,3.7345,242.03,155.13,0.668,2.1604,93.512,61.606,0.18415,7.7004,0.72256,1.4576
0.024735,0.00947,0.046099,0.0054242,0.19135,0.20407,4.0252,57.757,0.16423,0.67635,0.17792,89.317,225.76,0.77785,8.3101,0.64914,2.4239
0.023444,0.0030786,0.032429,0.0073243,0.84253,0.88274,1.97,86.058,46.946,0.6175,0.39364,53.538,159.26,0.091044,2.6635,0.92958,1.0038
0.015423,0.0060321,0.03649,0.0042731,0.35882,0.74349,3.8755,72.214,119.07,0.07597,1.6973,118.87,36.109,0.55324,8.1233,0.544,0.49516
0.048927,0.001756,0.057962,0.0041476,0.57458,0.25092,2.5388,87.253,4.5392,0.4663,1.0422,217.06,58.469,0.73474,0.85738,0.44185,1.532
0.054087,0.0084206,0.024719,0.0094282,0.19268,0.89454,1.9713,225.5,118.73,0.3575,3.716,104.93,196.3,0.65672,3.5549,0.64023,1.0135
0.010473,0.0025789,0.011725,0.0075204,0.50631,0.16953,1.9141,173.03,19.148,0.60917,2.4911,181.51,217.74,0.6565,6.102,0.22018,4.2349
0.033529,0.0060717,0.010113,0.0084605,0.37172,0.73277,4.4171,201.55,62.673,0.61604,0.34257,83.954,138.46,0.69178,1.3808,0.049502,3.4905
0.040832,0.0083215,0.055047,0.0053956,0.65445,0.70256,3.652,158.98,145.3,0.31118,1.9508,108.93,224.44,0.11968,0.58736,0.21045,1.7359
0.011211,0.0095412,0.092577,0.006109,0.42275,0.71928,3.8312,89.318,37.753,0.84069,1.2942,124.12,237.08,0.36427,0.95736,0.86419,3.3031
0.073074,0.0068462,0.095129,0.007563,0.65014,0.9897,2.4453,202.13,102.55,0.18113,3.7759,179.79,74.825,0.60493,0.86814,0.11084,1.9219
0.086431,0.0027877,0.040901,0.0070037,0.86785,0.1543,2.039,84.451,223.26,0.015465,4.3951,163.56,124.87,0.35443,3.563,0.96497,2.7232
0.047852,0.0017424,0.05881,0.0032427,0.86849,0.65946,4.371,222.31,213.61,0.22482,4.3438,152.45,98.417,0.81394,8.8665,0.40366,0.70133
0.082989,0.0042995,0.04146,0.003701,0.59187,0.53809,1.2381,216.3,135.69,0.53954,1.0625,62.084,237.26,0.12606,5.1206,0.18237,3.3157
0.099092,0.0098593,0.055282,0.0053217,0.67497,0.37425,0.08485,199.81,115.11,0.34904,2.2274,205.57,234.9,0.42178,2.5405,0.56284,2.3504
0.048987,0.0035219,0.018063,0.009619,0.38435,0.2314,0.48723,194.24,37.349,0.17409,0.11207,56.002,183.39,0.79683,6.0176,0.41236,2.1924
0.096596,0.0030476,0.034944,0.0068177,0.1701,0.95996,4.042,154.61,122.23,0.61571,3.8827,186.08,87.569,0.87796,5.5742,0.78841,3.8967
0.049172,0.0022233,0.044063,0.0071253,0.11053,0.96444,4.9079,232.44,142.28,0.29202,2.0036,228.55,84.65,0.35968,8.2392,0.077033,0.54632
0.02867,0.0091152,0.080613,0.0094819,0.67354,0.88645,2.4773,106.18,85.365,0.3093,3.1166,124.2,197.24,0.81692,1.8666,0.027241,3.4738
0.028218,0.0048779,0.023133,0.009982,0.53302,0.77508,2.1475,72.147,104.48,0.50571,4.8678,174.72,198.59,0.13193,0.4589,0.84185,0.303
0.078037,0.0060499,0.045349,0.0047602,0.14175,0.4419,3.4805,120.89,44.193,0.5334,1.8951,188.53,87.899,0.35455,6.3275,0.12068,2.9087
0.094988,0.0011295,0.093541,0.0078918,0.59545,0.65607,1.0925,73.562,208.69,0.02402,3.4842,207,83.56,0.46598,1.4375,0.95265,1.8709
0.087443,0.005297,0.032401,0.0050244,0.40853,0.73936,0.3813,171.19,168.95,0.12691,2.2615,176.48,101.36,0.46081,6.0395,0.61217,1.7955
0.046604,0.0085064,0.075872,0.0070664,0.11819,0.15246,2.3034,121.98,46.361,0.14776,2.2174,188.06,139.88,0.39225,0.61483,0.26351,3.5872
0.095625,0.0015207,0.037604,0.0018506,0.68013,0.60854,1.9209,165.03,152.78,0.76446,1.2188,210.52,175.36,0.07162,0.26773,0.69648,3.4895
0.052232,0.0038842,0.052558,0.0071695,0.59464,0.59054,1.2049,173.87,176.29,0.2149,0.83867,125.16,206.72,0.42653,7.5746,0.52642,3.9748
0.073655,0.0044723,0.069261,0.0035612,0.47341,0.97654,3.8022,194.17,7.0797,0.50848,3.2221,59.575,116.79,0.99125,6.7853,0.62898,2.9247
0.054159,0.0075411,0.071533,0.0031095,0.82422,0.20646,4.8253,161.45,130.22,0.24142,0.063376,70.6,45.251,0.81045,0.88006,0.62064,2.2752
0.042909,0.0097053,0.049357,0.0033332,0.24272,0.6711,0.47463,139.9,64.78,0.66551,0.054336,158.1,243.42,0.55417,1.8764,0.72012,0.94438
0.065241,0.0097321,0.012114,0.0097247,0.77696,0.2327,3.899,119.11,127.05,0.64539,2.0676,219.87,63.175,0.80867,0.78254,0.045182,0.82816
0.06881,0.0066385,0.046968,0.008072,0.53864,0.29292,0.94319,62.05,243.31,0.85117,1.6174,156.49,116.51,0.46107,7.7916,0.80583,4.3871
0.029258,0.0086643,0.085631,0.0073548,0.47829,0.13105,0.047433,138.81,204.56,0.87516,1.7231,231.72,8.8323,0.59133,0.2213,0.39445,2.1398
0.060284,0.003599,0.092469,0.0098409,0.71311,0.79669,2.0504,94.176,214.69,0.94736,1.2209,67.931,33.406,0.9988,2.2641,0.16501,2.0603
0.096068,0.0043967,0.062197,0.0072207,0.9949,0.3319,0.70663,194.95,224.15,0.81048,2.0493,222.79,20.23,0.73633,5.5406,0.89729,2.5019
0.089538,0.003073,0.085748,0.0028395,0.98477,0.80713,2.6638,198.58,74.876,0.085941,0.24051,221.49,196.2,0.47205,4.2155,0.89234,2.7741
0.09742,0.0098547,0.042101,0.0056237,0.99832,0.64874,2.7888,102.19,220.01,0.30701,4.741,226.58,45.016,0.62025,6.6452,0.84507,2.1309
0.066863,0.0010655,0.086631,0.0052456,0.56791,0.12662,3.4672,50.786,63.803,0.11418,0.18543,64.872,81.499,0.13779,1.757,0.59701,3.9684
0.046532,0.007241,0.090196,0.0052236,0.69819,0.91875,4.3818,207.14,48.037,0.70588,2.6699,118.43,73.869,0.89778,4.9343,0.41774,2.091
0.049942,0.0044131,0.066537,0.0095336,0.82943,0.43661,0.098173,247.4,46.655,0.45817,2.6186,95.643,25.831,0.17487,4.1321,0.55704,1.0965
0.010612,0.007425,0.045926,0.0063415,0.30454,0.47257,3.433,171.7,215.28,0.35611,0.43336,218.88,235.57,0.23019,8.7424,0.54389,3.2551
0.040135,0.0021493,0.032588,0.0024434,0.70405,0.93212,4.9322,121.88,111.15,0.8073,1.1587,76.819,51.628,0.63205,2.9178,0.71848,4.6541
0.079259,0.0016981,0.099666,0.0096954,0.56671,0.51076,4.9288,242.87,96.651,0.066702,1.9174,226.26,107.79,0.49929,1.8235,0.37279,1.0008
0.06815,0.006114,0.067355,0.0064431,0.31721,0.97095,2.2804,224.64,208,0.19639,2.1236,88.735,12.615,0.46647,5.1055,0.24019,3.9697
0.050322,0.0090573,0.077898,0.0079762,0.49452,0.27774,1.7401,137.03,51.623,0.28675,3.8681,219.32,168.95,0.1126,4.3482,0.66881,1.9544
0.094625,0.0064985,0.089182,0.0062595,0.66037,0.80685,4.9146,80.655,224.45,0.75552,4.2648,91.596,27.666,0.0972,2.6318,0.036679,2.5092
0.098073,0.0082551,0.051688,0.0072422,0.69696,0.85444,2.4294,180.27,114.88,0.41262,4.7287,184.11,108.5,0.90838,3.6464,0.38558,4.5667
0.054296,0.0013061,0.034706,0.0084547,0.68783,0.79456,1.5755,82.102,40.862,0.3252,0.59117,93.289,208.69,0.40458,4.5248,0.78306,2.0275
0.049752,0.0065668,0.052663,0.0029714,0.92771,0.44784,1.9069,113.91,67.187,0.44419,0.9386,62.949,24.195,0.034207,7.1071,0.34348,3.1984
0.081789,0.0042524,0.012693,0.0032504,0.64644,0.95348,0.090052,79.768,130.18,0.35685,0.54561,135.83,196.1,0.47222,0.83941,0.56602,2.0032
0.020844,0.0022642,0.030569,0.0063425,0.15128,0.58633,2.5182,82.235,193.09,0.4662,2.2723,110.62,100.56,0.85971,1.8134,0.31826,0.89822
0.084463,0.0021554,0.058632,0.0025173,0.47375,0.59233,0.63496,100.42,96.848,0.41808,1.0109,167.11,161.39,0.86493,0.22296,0.99308,4.3318
0.077166,0.0013241,0.04596,0.0069629,0.52571,0.36714,1.5259,146.5,11.106,0.94765,1.4166,99.157,152.68,0.5104,6.1323,0.027324,4.446
0.062814,0.0046168,0.077991,0.0075828,0.35463,0.7742,1.2803,135.62,246.71,0.94841,1.7008,198.01,3.6153,0.493,6.6182,0.27254,2.5455
0.037269,0.009759,0.084876,0.0022775,0.34407,0.20642,0.011459,228.99,130.76,0.46583,3.0519,94.604,146.34,0.24445,1.3452,0.50234,1.1417
0.062658,0.009011,0.060399,0.004787,0.62487,0.2488,3.8636,107.51,210.92,0.37648,3.2834,50.084,105.35,0.97081,2.7891,0.36967,4.6373
0.061739,0.0063997,0.060913,0.0029185,0.58184,0.99231,3.309,110.02,222.96,0.34336,4.8984,50.586,8.8353,0.15458,2.9864,0.22194,1.0037
0.028582,0.0045752,0.063862,0.003535,0.42322,0.16061,1.9898,162.96,171.4,0.49355,2.1185,235.14,164.81,0.13051,1.6794,0.38638,3.3581
0.015139,0.0011688,0.060936,0.0071673,0.59338,0.78256,2.5053,203.5,129.46,0.85301,4.1768,57.938,194.67,0.31627,6.1886,0.80427,2.3516
0.030658,0.00795,0.052997,0.0078646,0.18183,0.48938,3.0628,231.29,110.49,0.077465,0.94735,157.41,44.124,0.88085,5.0817,0.78463,4.2126
0.099012,0.0072522,0.040673,0.0041948,0.3581,0.22735,0.66536,123.21,95.035,0.53097,1.9562,88.323,230.02,0.28716,4.8979,0.65541,0.12728
0.082575,0.0013613,0.083054,0.0063793,0.54263,0.14506,1.4168,111.18,7.9609,0.33552,2.8105,82.73,81.616,0.60529,8.402,0.35743,2.2569
0.013869,0.0076075,0.081827,0.0025484,0.60392,0.96925,4.187,170.77,53.971,0.34868,4.7842,189.45,70.545,0.27667,0.28276,0.33902,2.0945
0.058816,0.0083021,0.035402,0.0032346,0.47916,0.30552,4.3297,147.84,21.326,0.7337,0.22109,183.74,175.51,0.91449,5.9607,0.0527,0.23464
0.033823,0.001583,0.029098,0.0014735,0.56006,0.44838,0.27379,98.886,199.22,0.83483,0.32267,206.88,234.71,0.60933,6.9766,0.86286,4.6298
0.05582,0.0053795,0.032545,0.0024985,0.45633,0.2332,2.4659,224.48,100.45,0.71068,4.5417,154.41,207.54,0.17061,5.8315,0.073851,4.8161
0.06239,0.009942,0.029211,0.0081479,0.23384,0.62311,4.1507,156.27,12.448,0.16657,3.4698,209.16,113.75,0.92088,8.8626,0.6846,1.183
0.014103,0.0045073,0.059823,0.0015619,0.89614,0.48952,4.5924,196.33,79.122,0.97705,4.2714,165.61,101.39,0.11583,8.5952,0.57359,1.8617
0.088823,0.0073155,0.057315,0.0018493,0.41919,0.19274,4.0062,130.97,217.8,0.5642,3.8618,153.06,247.19,0.15211,6.7567,0.43095,3.2975
0.053556,0.0029331,0.037436,0.004906,0.62409,0.10462,4.8939,194.4,232.85,0.47743,4.7902,127.78,69.715,0.64318,0.87116,0.48619,1.5292
0.027479,0.005495,0.085046,0.001106,0.62953,0.45493,2.8574,190.76,106.43,0.40134,1.9133,166.04,74.987,0.27236,4.2216,0.67853,4.6572
0.09832,0.0015007,0.017162,0.0025473,0.66673,0.8929,0.31878,109.47,216.54,0.093513,2.1054,148.59,108.47,0.019865,0.93734,0.20321,0.93959
0.091237,0.0013194,0.046081,0.0098324,0.64424,0.36366,0.43217,66.116,120.16,0.28361,1.304,161.79,109.96,0.85408,3.3494,0.36828,3.562
0.066503,0.0054037,0.091,0.0058915,0.73772,0.71875,4.884,173.83,227.09,0.3733,2.4874,220.92,119.82,0.31514,0.62798,0.75989,0.51904
0.043206,0.0036536,0.088721,0.009239,0.74929,0.76435,2.2436,143.67,62.634,0.7992,0.04786,188.29,47.389,0.90944,8.2057,0.105,1.5616
0.093552,0.0015834,0.030269,0.0097607,0.47124,0.91323,4.4709,240.57,131.66,0.021707,4.3938,59.066,124.35,0.46377,5.3992,0.63913,3.9493
0.090866,0.0073016,0.031085,0.0021022,0.26703,0.74878,4.5559,117.05,61.208,0.23739,1.6495,230.21,219.31,0.33536,8.8317,0.75556,0.72235
0.014685,0.0038406,0.093975,0.0010496,0.12151,0.67948,4.8071,188.72,209.61,0.6902,0.97005,100.85,47.312,0.99137,8.2148,0.6462,1.5731
0.01793,0.0080464,0.068543,0.0011279,0.46526,0.70964,3.8903,142.96,131.43,0.046314,1.4105,161.14,1.607,0.8154,4.5033,0.66842,3.8318
0.031476,0.0026267,0.035235,0.0097583,0.87933,0.75873,4.7405,100.68,87.451,0.78849,4.7504,172.65,54.076,0.30211,0.42611,0.59229,1.498
0.040095,0.0012193,0.020598,0.004242,0.88738,0.90877,3.3954,145.43,64.283,0.66437,3.2069,214.03,135.71,0.87712,6.2467,0.74032,3.1874
0.086886,0.0079879,0.073769,0.0049993,0.82557,0.94039,3.5708,172.37,42.207,0.75755,1.3955,159.7,132.27,0.32374,0.6663,0.46408,3.6339
0.011357,0.0047163,0.061873,0.0048831,0.59175,0.49697,0.68798,139.75,149.81,0.52248,1.5361,55.254,188.51,0.96018,4.7912,0.14358,3.5526
0.033262,0.0053256,0.021489,0.002847,0.72074,0.41601,0.41388,67.224,202.75,0.99043,2.2142,217.5,161.14,0.92931,5.6818,0.31872,3.3249
0.074913,0.0032214,0.02484,0.0052352,0.71107,0.93778,0.56113,244.57,212.23,0.18615,4.458,242.15,170.62,0.50118,7.6201,0.84785,1.7224
0.017965,0.0043553,0.074975,0.0072208,0.83117,0.95857,1.8461,89.733,211.19,0.44266,1.6267,216.23,177.99,0.49684,5.6132,0.65782,3.737
0.08758,0.0085647,0.012502,0.0050168,0.21754,0.16178,4.8271,67.94,58.751,0.63428,1.8727,130.45,119.98,0.99228,0.68151,0.38896,3.8929
0.024999,0.0089239,0.033946,0.0047572,0.25274,0.40759,1.8119,158.61,127.07,0.67688,3.8774,150.64,70.995,0.40092,2.6977,0.91701,3.3857
0.050641,0.0031789,0.096541,0.0030726,0.73153,0.11239,4.652,82.478,167.34,0.91832,3.2871,180.53,29.552,0.9478,7.9491,0.5276,0.92536
0.03554,0.0072714,0.012211,0.0087435,0.41636,0.4565,0.47991,50.955,22.685,0.90853,0.030053,189.22,133.92,0.10049,6.6011,0.15891,1.5253
0.059296,0.003416,0.081617,0.0094602,0.6668,0.64457,0.60965,159.19,135.75,0.073183,0.43786,205.94,136.78,0.38892,5.3156,0.69301,1.5699
0.09743,0.0049671,0.080579,0.0038472,0.84681,0.23149,2.4431,176.13,74.498,0.64086,1.2488,225.69,205.67,0.73322,5.651,0.78341,4.9913
0.023391,0.0018663,0.018747,0.0097353,0.33192,0.4656,4.6125,128.62,95.461,0.48628,1.3081,96.002,172.96,0.74873,6.8381,0.84645,3.929
0.088149,0.0036919,0.074293,0.0089939,0.88014,0.16798,0.67418,163.5,133.47,0.29463,0.56231,210.07,177.02,0.18167,2.2262,0.45729,3.5023
0.053958,0.0096763,0.014184,0.0083985,0.95598,0.65415,0.72191,66.651,106.63,0.72432,2.4739,200.64,45.876,0.36834,1.989,0.08896,4.1709
0.063182,0.0047502,0.015598,0.0068016,0.50996,0.39919,1.6666,150.18,58.009,0.50984,2.3561,246.47,80.374,0.66474,2.5335,0.13562,1.8282
0.010305,0.0092996,0.081029,0.008515,0.39358,0.17662,2.275,67.215,7.1048,0.68052,2.6806,72.219,40.446,0.63149,6.9975,0.57132,4.1484
0.0537,0.0066388,0.079798,0.0014265,0.242,0.77604,0.04196,100.4,6.5071,0.80436,4.6713,193.37,185.47,0.72749,3.763,0.62354,3.8334
0.07583,0.0073213,0.098865,0.0063223,0.82909,0.77206,2.0417,84.606,68.575,0.6865,0.31046,183.34,141.68,0.67588,0.97526,0.69715,3.2362
0.058327,0.0059909,0.095063,0.0099317,0.82566,0.30829,0.9044,56.54,173.62,0.12434,0.42154,85.596,186.15,0.052466,3.7286,0.41573,0.1545
0.098786,0.0044353,0.07596,0.0033079,0.71912,0.38315,4.3668,225.3,82.499,0.95806,4.0099,120.94,71.942,0.30677,8.2101,0.13873,4.9977
0.05514,0.0050839,0.096211,0.0019556,0.30141,0.24566,2.7444,61.55,187.62,0.3422,2.5466,127.96,23.507,0.4925,5.0751,0.3101,3.8841
0.014475,0.0091658,0.021681,0.0031854,0.40017,0.13808,4.3066,143.52,198.91,0.32511,1.949,167.02,145.49,0.35049,7.1508,0.71236,1.6373
0.019942,0.0071106,0.070145,0.0039056,0.1452,0.59841,0.26561,171.47,13.435,0.67166,0.59359,88.922,21.299,0.084805,2.7742,0.21245,0.21392
0.052432,0.0020557,0.044208,0.006023,0.24953,0.70447,2.5552,121.54,2.306,0.15532,3.2762,84.625,193.74,0.34284,0.86228,0.7338,2.3099
0.024861,0.0043294,0.058513,0.0036669,0.45301,0.9888,0.72898,139.26,182.03,0.28522,1.3045,233.57,177.88,0.13123,0.71316,0.38934,2.8643
0.050997,0.0086289,0.094357,0.0073781,0.90385,0.90882,2.1933,209.25,166.1,0.66282,2.6022,120.91,5.2403,0.15131,5.0331,0.021103,2.6361
0.065518,0.0034733,0.090455,0.0049224,0.6971,0.23369,2.2763,212.75,146.33,0.5468,0.17028,63.625,52.435,0.38267,3.2322,0.65083,1.2764
0.020348,0.0049409,0.030226,0.0086156,0.39627,0.17959,1.5907,110.6,229.76,0.29125,4.8133,89.283,169.35,0.76104,7.2479,0.63436,4.0484
0.017431,0.0038623,0.017887,0.0032417,0.84216,0.41734,4.6276,99.371,41.834,0.97643,4.6617,150.71,113.28,0.86589,0.4186,0.71843,3.7747
0.011711,0.0021301,0.02939,0.0083894,0.31796,0.86559,3.6076,127.87,242.99,0.57883,2.6138,128.55,123.3,0.85805,5.651,0.80162,3.5417
0.01785,0.0067601,0.071274,0.008431,0.91663,0.73293,3.1828,82.861,54.902,0.72993,3.1372,231.06,88.17,0.1417,3.0507,0.68087,4.1051
0.047271,0.0072608,0.048945,0.0032958,0.36233,0.24679,4.729,200.24,9.5621,0.88052,4.2279,98.677,152.97,0.8646,0.056613,0.27699,1.6653
0.049782,0.0093707,0.053675,0.0076028,0.66088,0.2781,3.6516,62.112,57.24,0.66546,4.3772,96.577,114.22,0.59835,8.2856,0.65446,2.4428
0.087059,0.0080159,0.074833,0.0069745,0.82608,0.94379,2.6096,68.267,176.94,0.52658,0.27086,53.213,73.72,0.59436,1.7199,0.76478,4.905
0.031648,0.0038805,0.03856,0.0080734,0.12879,0.33615,3.2362,237.98,88.156,0.26222,0.35635,140,209.43,0.9188,5.3632,0.29198,4.7249
0.085902,0.0064612,0.085281,0.0077842,0.89139,0.13668,3.68,166.73,177.37,0.67694,0.97703,189.11,86.931,0.065381,7.2309,0.81849,0.7626
0.043736,0.00227,0.083756,0.009976,0.98969,0.68394,4.355,221.6,147.17,0.86051,2.7082,191.19,242.54,0.70763,2.0431,0.077722,4.9732
0.011711,0.0010514,0.03728,0.0079336,0.68437,0.44804,4.3355,126.06,27.189,0.47781,2.7315,142,100.62,0.503,7.7611,0.90888,3.135
0.07715,0.0047863,0.083264,0.0089311,0.4408,0.73409,1.1443,122.07,161.71,0.9134,1.3094,69.549,131.1,0.37215,8.0497,0.99767,0.41041
0.024799,0.0090488,0.012356,0.004155,0.75814,0.1623,1.5052,108.42,182.78,0.071871,1.0469,179.85,127.59,0.99823,2.3338,0.4188,2.229
0.011796,0.0024034,0.085362,0.0082885,0.92798,0.93793,2.0495,67.125,215.85,0.49268,3.681,175.49,143.15,0.95545,7.2262,0.26591,1.5303
0.062681,0.003795,0.054035,0.0097329,0.54583,0.32944,0.96164,179.12,5.6619,0.91592,2.0305,79.792,223.35,0.51819,3.0985,0.25996,2.2435
0.081919,0.009648,0.019241,0.0031336,0.26271,0.70525,0.97275,236.64,37.8,0.49492,2.5774,90.414,93.725,0.67358,1.2869,0.34011,1.3618
0.071344,0.0097109,0.0621,0.004804,0.52607,0.32718,0.74822,158.88,131.3,0.48946,3.5529,182.54,242,0.011872,7.041,0.78858,1.1941
0.03683,0.0086933,0.023667,0.0099682,0.16427,0.95001,4.276,183.99,56.641,0.28139,4.9574,115.89,88.322,0.49802,7.9292,0.63652,4.784
0.058158,0.0090254,0.09276,0.006506,0.92467,0.3937,4.6534,235.02,210.42,0.10018,0.77977,106.09,45.986,0.53595,7.4728,0.74723,4.2012
0.025724,0.0040498,0.075427,0.0011665,0.56062,0.94308,3.8978,164.93,107.51,0.66928,2.3719,132.3,141.26,0.31281,3.4527,0.90319,4.4106
0.057903,0.0088736,0.023119,0.0096239,0.32911,0.33532,0.79147,232.56,74.848,0.1343,2.3964,220.71,173.34,0.86124,1.7741,0.99997,4.6336
0.029094,0.0034236,0.028699,0.0014935,0.46411,0.85805,3.6458,235.51,144.29,0.11772,2.1196,110.91,129.9,0.075549,4.6098,0.97721,4.7664
0.071595,0.008109,0.054286,0.009717,0.96325,0.68556,0.96752,107.54,86.188,0.44847,2.4367,201.94,176.95,0.53907,2.5003,0.47598,0.31261
0.044934,0.0060325,0.036276,0.0047444,0.69139,0.67108,2.2909,238.14,214.25,0.55758,4.9714,159.44,226.41,0.016246,0.92808,0.47773,4.5389
0.030664,0.0015594,0.069635,0.0086592,0.79238,0.36834,4.277,212.91,71.642,0.96291,0.40681,205.56,219.23,0.66539,1.7077,0.068609,4.3429
0.061762,0.0064796,0.01916,0.0089874,0.20309,0.6879,0.65879,155.04,110.24,0.5758,0.069036,207.41,66.904,0.54344,1.1659,0.30473,0.055255
0.021769,0.0078304,0.07929,0.0053359,0.33759,0.9813,3.0693,213.92,191.6,0.085131,4.9327,238.76,230.11,0.45114,2.1655,0.9231,1.2048
0.035637,0.0096154,0.036513,0.0018122,0.83013,0.73117,3.1921,189.32,95.754,0.36885,4.7509,72.527,47.341,0.78628,5.0688,0.68617,4.6499
0.016876,0.0016234,0.024517,0.0054223,0.78282,0.41851,3.7601,224.9,59.701,0.029287,3.9214,223.32,59.583,0.16896,6.5545,0.28638,2.3009
0.045041,0.0029563,0.033078,0.0066451,0.48087,0.76625,1.2834,163.54,98.478,0.46927,0.37129,219.94,134.61,0.16303,6.8092,0.4339,2.2387
0.088343,0.0077281,0.097355,0.0064467,0.72068,0.36559,2.7433,185.69,48.958,0.95634,2.0879,109.03,33.434,0.81422,1.3217,0.36741,0.35767
0.065056,0.007039,0.02837,0.006215,0.71886,0.52313,4.6902,55.763,110.18,0.97779,1.7962,96.672,56.827,0.9781,1.0898,0.50026,2.5146
0.043008,0.0061024,0.091476,0.0070537,0.26449,0.78262,4.7503,201.88,154.6,0.15155,4.9335,145.44,64.132,0.29229,1.4972,0.15761,1.9039
0.068063,0.0023336,0.02452,0.004517,0.11101,0.58664,3.0276,85.084,57.964,0.28006,4.6952,88.212,79.347,0.66073,3.9459,0.44758,1.7458
0.065536,0.0097257,0.052417,0.0013596,0.12551,0.82727,4.0528,161.98,217.86,0.97117,0.077176,232.8,33.246,0.80867,2.6722,0.91474,0.032858
0.040392,0.0099305,0.09436,0.0017963,0.19133,0.2357,1.5755,156.43,182.86,0.7742,2.3663,113.17,41,0.82183,4.8831,0.08877,3.8487
0.024899,0.0037308,0.022217,0.0099226,0.85875,0.28073,1.3607,110.8,79.987,0.6098,4.4908,71.747,67.805,0.31209,8.3199,0.37212,4.8537
0.095048,0.001484,0.080672,0.003366,0.19318,0.78789,2.1437,190.01,202.94,0.84396,0.71833,137.86,86.308,0.083466,2.2732,0.052508,1.8278
0.055896,0.0096519,0.069776,0.0013929,0.38862,0.3675,3.7363,240.41,114.71,0.68181,1.2286,157.58,50.744,0.62142,5.3964,0.82236,2.1742
0.095834,0.0048569,0.075805,0.0076443,0.75692,0.5476,2.3249,158.96,168.99,0.92427,0.65733,59.835,17.88,0.1448,2.1717,0.80505,4.3545
0.052291,0.0029409,0.02582,0.0041832,0.4293,0.66712,4.9187,101.82,71.946,0.97498,3.5154,160.29,218.37,0.81107,3.0522,0.84305,0.45308
0.093961,0.0038067,0.043164,0.0078661,0.55917,0.48181,4.2433,54.218,182.63,0.067496,1.6502,168.29,37.969,0.97811,5.9793,0.66203,4.7937
0.081255,0.0094106,0.07374,0.008057,0.33295,0.27425,1.6093,201.48,183.56,0.036115,0.51738,105.05,198.57,0.90142,0.5113,0.96104,2.6193
0.054485,0.0097558,0.047188,0.0012546,0.61937,0.16149,0.89298,51.574,176.98,0.71267,1.1066,133.69,236.59,0.19093,8.9026,0.59784,1.6386
0.01123,0.0018051,0.032109,0.0082304,0.5208,0.19777,4.2761,103.1,52.366,0.64357,4.2508,149.83,87.859,0.92281,8.1359,0.87839,2.455
0.031619,0.0096908,0.089401,0.0092219,0.75797,0.49459,4.3019,160.01,42.79,0.47326,3.9406,172.63,14.731,0.14519,7.1465,0.052432,3.5458
0.049409,0.0065125,0.072529,0.0095978,0.19443,0.44987,0.52502,77.707,133.44,0.56159,0.92835,217.66,230.35,0.052921,0.76313,0.023191,0.9547
0.089918,0.0082114,0.071207,0.0094311,0.98175,0.32669,3.8026,139.21,177.22,0.1034,1.9742,229.28,194.29,0.67606,8.354,0.20523,2.8124
0.09219,0.0094485,0.012788,0.0089732,0.47385,0.6778,0.69556,78.369,0.25319,0.82171,1.2982,147.34,62.297,0.13642,5.0056,0.57773,3.0884
0.066129,0.0017028,0.068203,0.0085249,0.81536,0.68263,3.0353,225.13,47.746,0.38099,2.9938,100.15,132.93,0.22708,2.6297,0.77126,0.76041
0.052229,0.0095524,0.015064,0.0091969,0.48778,0.65994,3.9636,160.02,184,0.91311,3.3391,80.415,18.4,0.66227,0.11305,0.87209,4.7629
0.084174,0.003179,0.076412,0.0061124,0.82958,0.12722,1.059,166.91,248.89,0.841,0.3822,174.49,212.9,0.32936,3.7646,0.080858,1.0497
0.042638,0.002955,0.098606,0.0089294,0.53624,0.32392,0.16025,156.16,49.282,0.59697,1.9634,221.73,187.83,0.50745,8.9952,0.85004,4.3819
0.070008,0.0019854,0.073237,0.0028956,0.58508,0.74179,4.0172,221.92,58.223,0.10497,1.1578,228.15,44.103,0.53908,6.0619,0.93043,1.1621
0.041346,0.0058517,0.077045,0.008072,0.10985,0.76013,0.19654,151.44,83.798,0.24594,4.7308,81.416,206.55,0.4645,4.9486,0.53762,2.2934
0.021139,0.0032815,0.062148,0.0047756,0.64473,0.89959,3.705,197.25,34.758,0.033065,1.7971,169.35,8.4233,0.52349,6.9476,0.052655,4.5236
0.051979,0.0085192,0.095404,0.0066789,0.30671,0.58503,1.6966,221.5,84.13,0.16249,1.4536,216.96,4.4859,0.57644,2.8772,0.8868,2.9323
0.013606,0.0018865,0.018541,0.0099561,0.72107,0.27242,2.0805,72.856,141.54,0.88164,0.47972,212.01,178.72,0.3904,6.2037,0.15985,0.19908
0.059205,0.008139,0.092357,0.0022853,0.5653,0.79524,0.96898,136.65,115.25,0.12777,3.2247,209.53,231.09,0.85752,3.2835,0.79575,1.387
0.096653,0.0060519,0.054094,0.0043198,0.27671,0.65652,4.7353,106.95,222.89,0.86134,2.4806,225.68,138.72,0.36207,0.65935,0.3073,1.2569
0.026613,0.0010056,0.039984,0.0011515,0.85511,0.94465,0.67778,223.71,29.35,0.86683,1.3322,130.29,207.21,0.86001,8.261,0.65248,1.0743
0.013782,0.0057984,0.087251,0.0056412,0.18772,0.5427,2.3469,63.391,26.545,0.8965,3.6643,217.58,89.201,0.42586,0.92483,0.87429,3.3807
0.050108,0.0029098,0.012364,0.0065595,0.34382,0.41887,4.2567,172.28,97.973,0.021572,4.7465,175.21,76.695,0.2381,6.736,0.14538,2.7666
0.045617,0.0062792,0.02933,0.0023232,0.50095,0.83282,1.2341,118.87,174.19,0.79814,4.8286,91.398,168.46,0.72609,7.0586,0.86935,1.0139
0.097316,0.0051588,0.053624,0.0019668,0.61647,0.38911,2.157,103.93,222.13,0.19032,4.1423,125.28,14.042,0.10263,3.1782,0.86228,4.9306
0.070242,0.0071975,0.090889,0.0096179,0.19661,0.97856,4.971,164.03,11.551,0.041982,0.9494,191.75,81.702,0.1617,0.19041,0.74752,0.14225
0.075716,0.0032081,0.075096,0.0091087,0.19941,0.4405,4.6383,76.436,73.044,0.17151,3.9224,55.751,220.82,0.90601,0.1478,0.66751,3.2529
0.019869,0.0094369,0.088266,0.0082144,0.11438,0.18347,0.21511,76.995,238.44,0.55269,2.2986,106.62,102.77,0.578,3.0509,0.93169,0.48613
0.054547,0.007184,0.046628,0.001796,0.48287,0.11893,2.7386,237.01,190.24,0.77071,0.62685,174.47,125.54,0.68553,6.4841,0.39304,1.9138
0.093289,0.0093748,0.018535,0.0012266,0.37044,0.57632,0.0074704,117.13,13.943,0.78172,1.9156,70.656,89.311,0.087463,8.1126,0.44407,1.6217
0.070492,0.0047614,0.012649,0.0085129,0.34478,0.18721,3.6238,89.524,7.1061,0.35558,0.33713,123.97,247.21,0.35855,4.2629,0.21739,0.44793
0.048103,0.0083254,0.056266,0.0023262,0.69016,0.92335,3.0938,64.315,231.77,0.71117,4.5525,150.23,116.22,0.35979,0.50168,0.79689,1.3535
0.038695,0.0049605,0.05506,0.0093294,0.78949,0.75121,1.8617,232.36,92.648,0.33732,4.877,114.73,236.7,0.12391,3.6699,0.87003,4.4892
0.09926,0.0078623,0.080866,0.0094012,0.91949,0.51221,1.4708,241.39,3.9584,0.6199,3.4904,229.1,25.059,0.49751,3.0218,0.72623,3.3852
0.077897,0.0010789,0.083475,0.001964,0.53111,0.3438,0.27571,121.86,125.91,0.46431,1.2298,190.4,79.891,0.43895,2.7369,0.12906,2.491
0.0393,0.0099553,0.075724,0.0088985,0.88661,0.84823,3.5034,69.218,237.29,0.22693,3.3772,74.11,98.582,0.23997,2.6684,0.094574,2.3038
0.044037,0.0016755,0.079391,0.004657,0.17477,0.15165,4.4648,228.71,233.11,0.43774,0.44953,249.01,209.64,0.2074,8.7428,0.093669,2.7539
0.061158,0.0025265,0.039933,0.0022523,0.70672,0.5998,3.6301,126.73,13.427,0.64297,4.8418,238.78,40.064,0.26456,5.1776,0.19515,1.6534
0.075912,0.0056278,0.062896,0.0081706,0.76589,0.63531,2.9276,81.626,228.64,0.83282,3.3239,207.48,58.293,0.10303,2.1364,0.44247,0.93261
0.046896,0.0080116,0.082501,0.0021962,0.44649,0.3763,4.761,178.38,125.94,0.71164,0.56594,174.35,40.959,0.2769,8.205,0.31854,0.57576
0.065229,0.0042291,0.024609,0.0053938,0.69303,0.42937,1.8037,57.682,47.885,0.18797,0.41383,240.14,142.15,0.20448,0.33985,0.64422,2.9295
0.097481,0.0036402,0.063617,0.0078285,0.1175,0.99434,0.45626,63.37,154.71,0.58411,0.17928,72.218,38.213,0.42332,5.0133,0.74128,1.8217
0.087054,0.0023686,0.095248,0.0096101,0.63846,0.65546,2.4346,157.8,218.83,0.78012,2.8599,225.38,167.66,0.027798,6.0702,0.3328,0.37664
0.04464,0.0091475,0.049227,0.009481,0.40099,0.83503,0.82792,233.65,104.97,0.76145,4.1981,203.61,224.16,0.20004,8.3927,0.81716,1.653
0.034581,0.0034552,0.033509,0.0038984,0.20265,0.64077,1.2866,83.343,232.61,0.25812,3.8417,187.01,168.71,0.27277,8.8963,0.25296,2.9706
0.085102,0.004077,0.09407,0.0093161,0.70117,0.1488,0.0087207,74.922,132.59,0.35033,4.9981,193.85,164.49,0.60065,1.5515,0.61368,2.5092
0.054302,0.0014491,0.026054,0.0066409,0.58875,0.15355,3.8163,52.739,211.1,0.73342,3.0255,171.25,103.51,0.12533,0.026826,0.85654,3.9065
0.052367,0.0028416,0.099321,0.0068021,0.25965,0.49088,3.819,202.55,190.13,0.29441,1.8362,77.105,163.89,0.16221,1.1089,0.17906,4.117
0.023071,0.0057132,0.074972,0.0065014,0.45634,0.71843,0.07838,194.55,162.24,0.44945,0.084551,163.55,99.508,0.42673,1.4786,0.50453,4.4861
0.019026,0.0031356,0.057653,0.001431,0.54295,0.70601,0.61874,220.89,232.32,0.84143,1.1772,119.27,146.38,0.053661,5.145,0.71151,2.8479
0.037266,0.0063282,0.035243,0.0070911,0.4941,0.42329,0.40221,99.991,174.64,0.98382,3.3964,185.65,202.94,0.48294,5.1068,0.23082,0.19998
0.098511,0.0083171,0.021291,0.0096936,0.67183,0.54219,0.39037,172.98,57.077,0.61841,2.145,117.82,170.47,0.95162,6.819,0.80789,4.7874
0.016992,0.0044779,0.021933,0.009317,0.23746,0.25574,2.9562,59.722,175.85,0.18478,0.83141,115.67,242.11,0.89264,0.99444,0.5789,4.4969
0.033627,0.0080459,0.077189,0.0047463,0.93638,0.20074,2.4806,72.559,59.508,0.073455,2.7137,92.896,72.519,0.91206,6.6184,0.97846,0.76171
0.042655,0.007435,0.04074,0.0038977,0.88315,0.61689,2.4647,119.63,135.08,0.68884,2.9431,124.36,3.9371,0.22291,4.7982,0.88833,3.3309
0.067901,0.0099977,0.043403,0.0021171,0.33903,0.43437,3.241,144.39,94.315,0.23764,4.058,138.22,102.53,0.62901,4.1766,0.76385,0.28836
0.018671,0.0011827,0.046831,0.0077352,0.55815,0.4217,4.2037,65.906,158.22,0.66787,2.3611,143.41,214.3,0.024804,5.3498,0.88326,4.3403
0.012222,0.0069325,0.085027,0.0038589,0.5414,0.18586,0.085749,186.41,246.9,0.84578,4.5923,102.94,245.71,0.7861,8.8489,0.32617,2.8415
0.038051,0.0057962,0.06569,0.0012658,0.13738,0.98648,4.2203,155.06,194.23,0.7377,4.3174,228.03,204.04,0.018385,3.2866,0.72313,1.5548
0.095879,0.009615,0.025379,0.0075674,0.46419,0.48085,3.8595,153.17,179.22,0.90051,2.6092,60.081,47.361,0.76353,2.4791,0.46319,0.51687
0.091477,0.0072581,0.018108,0.0071448,0.44062,0.78901,1.4455,238.08,210.66,0.25179,2.6447,139.83,9.9329,0.3379,2.9516,0.73997,0.26597
0.075556,0.0052076,0.03203,0.0056303,0.2502,0.77075,3.5032,76.345,65.479,0.88479,3.3979,229.09,151.48,0.1135,7.9904,0.56125,4.8504
0.069014,0.0036694,0.018092,0.0082718,0.86455,0.87954,4.5652,180.16,115.32,0.055174,3.4084,232.25,182.64,0.90971,6.9819,0.41157,0.47091
0.065459,0.0047868,0.025937,0.0090582,0.6875,0.82845,4.7245,219.44,90.73,0.49797,0.94531,81.96,12.056,0.77449,2.0851,0.060425,3.2795
0.029225,0.0045657,0.026492,0.0099319,0.56689,0.56945,1.3399,119.18,154.25,0.58463,2.3613,166.87,198.06,0.13306,5.8556,0.50038,1.8541
0.073696,0.0019311,0.03665,0.0046407,0.74889,0.33055,0.7718,63.63,77.362,0.94946,3.0848,139.38,98.82,0.96009,0.28674,0.51568,2.7924
0.026874,0.0053039,0.066549,0.0031431,0.17312,0.89475,1.853,52.296,158.16,0.63534,4.6296,244.68,14.946,0.3465,8.776,0.51755,4.247
0.090442,0.0079851,0.078735,0.0022329,0.93492,0.86312,1.1141,51.358,194.76,0.47781,0.83075,205.42,155.18,0.61222,1.0331,0.50629,3.9802
0.01523,0.0052555,0.056149,0.004897,0.13062,0.1187,0.13131,108.49,222.01,0.13037,4.3206,241.19,41.298,0.57984,1.2815,0.42233,3.6163
0.039073,0.0038716,0.071625,0.008562,0.30385,0.15403,0.9054,93.532,169.71,0.28691,1.3713,97.397,82.331,0.98613,6.4722,0.65497,2.8562
0.086815,0.0044849,0.037744,0.0071524,0.54986,0.72035,1.2192,110.38,53.599,0.77152,2.8699,62.742,67.486,0.9867,2.9511,0.72088,1.9256
0.020941,0.0073569,0.036299,0.0037336,0.22805,0.33464,4.9856,169.08,49.186,0.75329,0.62402,95.845,135.27,0.4648,6.1013,0.66603,4.3859
0.077504,0.0090768,0.044526,0.0043494,0.32694,0.11884,3.2747,162.74,102.65,0.027904,2.5882,206.28,213.43,0.38246,0.91562,0.49363,3.7327
0.05254,0.0077959,0.037637,0.0026025,0.91734,0.63256,0.58917,93.599,191.75,0.84997,0.40422,242.97,108.05,0.041477,5.0388,0.096119,0.33808
0.037229,0.002221,0.047116,0.0042288,0.58393,0.13564,4.1238,128.12,196.67,0.90332,1.8513,94.941,144.5,0.72193,1.1049,0.81,0.20622
0.064209,0.0020565,0.050563,0.0033018,0.87265,0.19242,3.6571,117.62,149.9,0.67928,3.3705,226.96,34.119,0.25936,2.2581,0.39544,4.2583
0.029115,0.0018585,0.030813,0.0044571,0.57093,0.42507,3.5719,199.17,40.015,0.050192,0.13172,239.37,145.39,0.4127,5.1316,0.3721,2.9349
