0.00946812461
0.00239275688
0.00235144037
0.0119229263
0.0107525383
0.0117161637
0.00489961959
0.00269435945
0.00375747094
0.010534689
0.00302275317
0.0042959946
0.0123447669
0.00530764629
0.00799422265
0.00360401495
0.00117825646
0.00477290132
0.0036866159
0.00521781831
0.00325511087
0.0121405996
0.00188689226
0.0105522878
0.0103713024
0.0101825694
0.0109634355
0.0108165733
0.00408117208
0.0111295262
0.00934761401
0.00333075214
0.0112868869
0.00389927167
0.00494928148
0.00199146235
0.0120033413
0.00274170992
0.00240065091
0.0119437153
0.00296438958
0.0116982147
0.00431736725
0.00158961725
0.0115654789
0.00491538427
0.00165271709
0.00188652299
0.0116655011
0.010423376
0.00372516879
0.0123182687
0.0113892761
0.00872874889
0.00230287121
0.0111747358
0.0112926337
0.0118189849
0.00302668867
0.0104020644
0.00230122113
0.00306416254
0.00225892505
0.00328193941
0.0116659119
0.00280387956
0.00168833981
0.00369469785
0.00187949989
0.0116353659
0.0118330289
0.0105367771
0.00241918106
0.00779417729
0.01038549
0.00265751499
0.00297621051
0.0128565513
0.00358702162
0.00462870284
0.0102522591
0.0119908957
0.00922936925
0.00344651538
0.00280535572
0.00246403634
0.010074802
0.00973212931
0.00246528749
0.00452343208
0.00335642956
0.00191321853
0.0116039138
0.0103792797
0.00956242725
0.0103728036
0.00562215987
0.00929970912
0.00257325271
0.00316092754
0.0127582141
0.00216448778
0.00248301064
0.0121897101
0.00205160049
0.00144154306
0.00268798308
0.00206805037
0.010122849
0.0103809504
0.00891745776
0.00331903038
0.0100634606
0.00997419077
0.00413224426
0.00487776936
0.0120381164
0.00727786176
0.0120163785
0.00887850668
0.00199375278
0.0120074789
0.00355794284
0.0105628512
0.00427756504
0.0107385813
0.0118380703
0.00376534575
0.0128844374
0.00462588576
0.00232076497
0.011267499
0.0116871563
0.0109834774
0.00155499641
0.011808517
0.00434424493
0.00345697641
0.0105693245
0.0113161457
0.00282319045
0.00542245256
0.0118121901
0.00289538818
0.00418784052
0.00299612125
0.0103601638
0.00465812723
0.00495197478
0.00362995025
0.00405983095
0.00933998206
0.0106325209
0.00222309558
0.0107366178
0.00300810237
0.0119005054
0.0102108342
0.011513588
0.0116227626
0.00343741454
0.0110094269
0.010493611
0.00506040782
0.0114069947
0.0112351655
0.0122721595
0.00333874096
0.00602232941
0.0120139562
0.0108864621
0.0031799309
0.00490094182
0.00229558694
0.00193733078
0.00908370744
0.0128005516
0.00923020186
0.00180151915
0.00932800681
0.0113128796
0.0110640104
0.0101621777
0.00405361137
0.00935647848
0.00440773711
0.00886393222
0.00318676839
0.00294490145
0.01097383
0.00479591844
0.00344517728
0.0112487841
0.00686839922
0.00104835666
0.0119327699
0.00229964597
0.00748312187
0.00279980667
0.00200106355
0.0117887785
0.00416002513
0.0106238795
0.0110800703
0.0116799088
0.00421393327
0.00233767784
0.00213792616
0.0082045758
0.00529151789
0.00199899241
0.00417896073
0.008203288
0.00674496114
0.0109729273
0.00633879402
0.011393385
0.00326929468
0.00948148531
0.00331223851
0.00302952741
0.00992913502
0.0115991266
0.00219036205
0.00252823168
0.00627281424
0.00392444583
0.0090923588
0.00981994216
0.0108767407
0.010549005
0.0120742277
0.00885873358
0.01177842
0.0101025918
0.010357457
0.00212383011
0.00955756413
0.00154307317
0.0111236788
0.0048127453
0.0119052693
0.00963261709
0.00187497111
0.002898241
0.0110920433
0.00316032697
0.00207938286
0.00318522224
0.00840686819
0.011621243
0.00270892716
0.00317490729
0.0103727468
0.0111345495
0.00159799411
0.0114685867
0.00297427898
0.0027639071
0.00435809911
0.00909198486
0.00984796349
0.0117095088
0.00316445047
0.00848333259
0.00877457683
0.0107721643
0.00188008453
0.0123290528
0.00509906558
0.0102603129
0.00274670846
0.00977387639
0.00367624522
0.0047091062
0.00501664328
0.0123097504
0.0108727183
0.0125217938
0.00153735684
0.00506780254
0.00239159352
0.0104459531
0.00232964546
0.00925587036
0.00259493962
0.00372717983
0.00307334696
0.00238092704
0.0110847349
0.0103424126
0.00953073598
0.00212393719
0.0106577104
0.0117362069
0.00387879952
0.00120350323
0.00252231762
0.00299749074
0.0108804807
0.0118638267
0.010689776
0.010683074
0.0115178271
0.00224252888
0.0095456941
0.0031543351
0.00951193287
0.00162902107
0.0101716318
0.00282169708
0.00897953269
0.00271260812
0.00280369519
0.00923462357
0.0014217691
0.009541299
0.00931950651
0.00198948642
0.00363440398
