0.0128518896,0.00825493769,0.0411307643,0.00959893779,0.545925638,0.246391682,2.57523674,143.943819,183.010887,0.151080449,2.93290192,90.4642044,229.449964,0.221896407,0.844631942,0.962031582
0.0752442677,0.00939946763,0.0863641323,0.00814322812,0.898268304,0.485286508,4.75073671,89.2606775,141.686709,0.990647704,3.34671575,240.670757,220.654649,0.550282973,0.228756576,2.3373917
0.0542242929,0.00466704993,0.0244327944,0.00951932046,0.698077617,0.13766668,3.82387376,85.2181165,90.5227316,0.544371167,3.33121646,222.353185,200.312064,0.415289237,0.178373048,2.53832858
0.0672334135,0.00123105887,0.0242077939,0.00974732624,0.628955888,0.303171631,0.182301767,219.309508,87.4771863,0.123295224,1.66746846,246.87713,23.3215333,0.188540113,0.368291143,3.4278972
0.0810862803,0.00151133464,0.0557793343,0.00683488559,0.79971618,0.699535329,0.456467291,67.0025948,11.63804,0.0858588595,1.24952786,220.019716,191.85659,0.125384499,0.696047825,1.76870196
0.0609627814,0.00631474054,0.09554709,0.00262578903,0.691464865,0.884210394,1.26759104,205.749477,239.527655,0.861746432,0.506542504,236.970935,240.925717,0.875586956,0.944380682,0.783952631
0.0127172531,0.00644901864,0.0870257272,0.0096213846,0.450483224,0.418068009,4.44742169,83.5594937,246.513901,0.241344817,4.98434888,204.115701,66.7438198,0.53335133,0.217886251,2.21869289
0.0214427504,0.00370291553,0.0984408892,0.00436897159,0.968195845,0.124526408,2.12709588,148.789479,5.68065464,0.330278829,3.52256508,66.9504625,249.85286,0.481724289,0.753003797,1.99135856
0.0374392747,0.00126563687,0.0859546518,0.00920181904,0.966190392,0.914754401,4.45536886,53.0667022,44.0576124,0.534871466,3.30898906,247.312185,225.200637,0.936930395,0.5198385,2.32613766
0.0699935788,0.00915724039,0.0179042291,0.00829223255,0.382362811,0.523956022,4.10383181,249.367782,126.162155,0.805998325,2.95884461,152.264525,192.332629,0.551425304,0.760074518,0.223783161
0.0181481902,0.00905910993,0.0963033425,0.00305888295,0.817376552,0.169417617,1.49790074,91.69525,184.355313,0.870733743,3.88617255,90.2351586,223.187686,0.611099178,0.880869503,1.8599199
0.0553362793,0.00252138197,0.0851979066,0.00969453634,0.348845718,0.395181797,3.86026959,83.0958397,6.58743991,0.583617998,4.75781918,236.409666,198.097814,0.423747078,0.237478172,2.53802993
0.0334897059,0.00288043469,0.0264876014,0.00248580349,0.113405388,0.721993189,2.18506287,225.544718,32.1812081,0.242081608,3.21197589,165.755678,42.3295621,0.982300627,0.939693628,1.72827647
0.0759227972,0.00360172542,0.0580850945,0.00109484259,0.184734779,0.865703183,4.68238608,65.75233,190.660051,0.339775421,4.41202931,80.94069,242.905118,0.418510042,0.027152013,4.38481297
0.0246654969,0.00231066602,0.0394010755,0.0034738073,0.145850719,0.561112165,4.93057237,249.718557,97.7550513,0.546992603,4.99448078,192.96141,51.9271284,0.488108926,0.0615142481,3.7530058
0.03039677,0.0039133551,0.0976834661,0.00971802128,0.874033127,0.14863231,3.45085805,68.142362,98.141002,0.792952019,3.63564932,206.433237,4.94016163,0.392485338,0.890452286,2.17212667
0.0925001116,0.00137405339,0.0938587518,0.00446897944,0.99903242,0.15152464,3.85654326,50.212109,191.712087,0.512182025,4.97120752,218.333707,244.652797,0.761270647,0.166991166,2.12830349
0.0175247846,0.00760295329,0.0772223172,0.00104855089,0.995986668,0.458011044,3.04232919,133.055806,15.0338683,0.990942445,3.11636842,124.729791,152.217767,0.365260138,0.425242773,2.11471976
0.0166331398,0.00798063151,0.0753980841,0.00370313861,0.999590517,0.775454869,4.48850806,179.161428,245.292746,0.863078059,2.65630014,243.553567,249.72935,0.384946285,0.326896111,2.21625148
0.0167596492,0.00988118748,0.0946061805,0.00850651744,0.790093027,0.400531806,1.29221547,116.457211,14.1865319,0.465859755,1.86242214,154.180879,213.797146,0.7006522,0.56760622,1.90153702
0.0210909324,0.00989847549,0.0474156017,0.00565951163,0.713130342,0.169549474,4.99159076,71.9249366,56.9551409,0.762091056,4.6929895,167.251697,164.864677,0.421546054,0.826987156,2.36356221
0.0766382982,0.00757582558,0.0284713896,0.00155642243,0.743083055,0.473991138,1.15460528,236.166228,34.0977265,0.254212654,0.172409766,96.7945037,27.5276624,0.730933645,0.391681517,2.20140386
0.0782423908,0.0040563734,0.090750645,0.00991824249,0.76380279,0.181349818,3.24114673,182.890997,20.2716147,0.242004786,4.39778496,154.832435,217.903463,0.480286862,0.121350792,2.28263386
0.0965075482,0.00910762394,0.0617632852,0.00206637392,0.927341567,0.963550476,0.0978613686,147.472819,99.5649364,0.51171239,3.60382475,115.78297,104.427407,0.597749878,0.965151942,0.523920808
0.0519782466,0.00224350441,0.0905209253,0.00188902032,0.990049078,0.654263406,0.978471656,210.938097,61.4907186,0.590327916,4.04904933,228.85339,119.054153,0.376824942,0.844095631,1.09571878
0.0808296839,0.00814669135,0.0856690904,0.0090124791,0.939341004,0.235520107,4.75852406,167.387635,172.562444,0.824214874,1.98399241,52.3030219,87.9961445,0.797681252,0.813402265,1.00505903
0.0480311275,0.00270472037,0.0481357001,0.0013005017,0.515371013,0.354443628,3.03730844,175.936212,54.3477936,0.927566794,1.73269477,99.5170961,140.811402,0.0826770752,0.955094546,0.384400708
0.0949356963,0.00126076944,0.0590275866,0.00855131493,0.914429953,0.253548878,2.32548622,179.187886,21.3893522,0.641191209,3.69591007,229.370859,31.7747824,0.742810255,0.183119731,1.46205171
0.0102403661,0.00214648473,0.0575170645,0.00580954115,0.447806488,0.20186783,1.76862752,52.3661465,123.464793,0.153748489,3.80106462,138.54744,248.725708,0.777780801,0.670428315,2.08141277
0.0358141116,0.00610987118,0.0579097039,0.00983594797,0.923964897,0.247169511,2.16209478,211.908913,182.167929,0.958122225,2.78303339,109.537937,72.3642931,0.517296753,0.727783996,0.42207857
0.0613174764,0.00996729864,0.0798520743,0.00541401091,0.604287108,0.351684261,0.852629787,73.314198,152.308459,0.786473302,4.47485627,118.792738,181.204057,0.390303074,0.819551375,1.05155323
0.0411823499,0.00990561939,0.0517684261,0.00639497548,0.89250578,0.481224195,4.36035307,135.227478,240.024436,0.887552981,1.20081929,175.017433,214.698054,0.894780599,0.177111758,2.41822149
0.0601752748,0.0034590705,0.0127499298,0.0096244452,0.356324459,0.583385476,0.331558454,107.107422,66.0073406,0.489622685,1.22013603,220.279393,140.866271,0.699641242,0.330058788,0.771951511
0.0369806232,0.0094841133,0.0491485742,0.00980401631,0.884486648,0.863212635,2.24499915,240.034838,249.906642,0.359337703,4.92809106,75.655504,200.478936,0.636142162,0.0503172086,2.48876686
0.055566554,0.00344745608,0.0602078465,0.00321505958,0.892032359,0.345160473,2.80153711,51.7336988,58.9512481,0.212266987,4.14276428,63.2359211,18.4015327,0.720988101,0.120188971,2.51331175
0.0933105657,0.00104027739,0.0670021104,0.00515018914,0.972066652,0.188017982,4.1334994,249.781164,228.251127,0.24975545,2.76351642,63.7243724,191.719195,0.440342866,0.0337134923,2.45704097
0.0403282505,0.00824042672,0.0912045672,0.00877382299,0.878940678,0.658873194,2.49309406,218.059524,47.602263,0.931456813,4.78976967,175.900334,84.0177883,0.998441388,0.838235975,3.63245542
0.0188168426,0.00117269214,0.0895160403,0.00727171165,0.898479426,0.15412496,4.6468371,139.825122,189.860589,0.892854434,2.38254244,195.741441,242.239916,0.747246372,0.901352664,1.98589823
0.0413761994,0.00659211414,0.0955516554,0.00939222899,0.956877596,0.128895651,4.62068504,155.205946,175.471558,0.969292269,4.51061797,230.592463,187.85348,0.62113156,0.449947224,2.03607123
0.032506726,0.00591084338,0.0634044226,0.00396077775,0.190615066,0.702966896,4.0618417,201.362421,5.11380989,0.636818866,1.85133367,69.1794791,193.632755,0.010069558,0.988536344,1.74644406
0.0410503047,0.0032960481,0.0647258427,0.00947170478,0.982907559,0.412656938,3.27143444,118.78829,220.144358,0.29935652,4.25350352,78.188851,248.466336,0.464426955,0.0962887881,2.6310728
0.0552019334,0.00767392126,0.0209186128,0.00319697264,0.419343599,0.827546043,1.18732487,247.657576,12.6984001,0.814386557,4.92321368,82.1189507,127.972484,0.158331265,0.85945042,2.98457592
0.093473698,0.00113993757,0.0150646254,0.00961399149,0.582185528,0.365772017,4.68486922,200.36838,58.9215808,0.253045043,3.95057948,167.711161,224.847578,0.417694912,0.0285568415,3.36837964
0.0780465189,0.00628739284,0.0869252632,0.00950367468,0.99174968,0.21238517,4.03555214,54.3721876,63.9226029,0.707304441,3.50341471,221.861029,237.971786,0.731604686,0.475458617,2.21341798
0.035941477,0.0096630248,0.0445855893,0.00217496873,0.125360275,0.20439576,3.80309979,195.554266,80.9858165,0.776865754,2.50952421,230.262218,64.9404555,0.394388296,0.873315261,0.740759428
0.0645561889,0.00864862907,0.0459657065,0.00994344518,0.734672564,0.202636497,4.57512771,234.9934,67.3639494,0.324427026,3.2760614,157.35622,40.0789444,0.457536477,0.0363350822,2.37986434
0.0789426428,0.00107146267,0.0392875737,0.00793885546,0.945891316,0.161266971,4.94357571,61.008685,143.39478,0.808127749,2.54935824,140.059056,247.369713,0.536492241,0.228375271,2.46659575
0.086153711,0.00279997985,0.0912351099,0.00968359229,0.504246443,0.127068276,4.90807812,234.845526,139.619254,0.259280119,2.64309926,112.989125,192.404558,0.556033522,0.058006815,2.28340203
0.0833658073,0.00423362022,0.0365878093,0.00152085362,0.207252391,0.852999824,4.6664001,193.458962,8.5630297,0.802494862,0.279496359,114.151413,35.4008076,0.114747238,0.448022285,2.51379548
0.0636136433,0.00202653654,0.0429508002,0.00139666413,0.959747681,0.933824474,0.737373736,156.927424,10.1765679,0.633411635,2.67493933,137.65134,101.651446,0.302680152,0.441093589,0.757611973
0.016168253,0.00977361134,0.0414143496,0.00831649573,0.996810712,0.562707993,3.57886668,64.9906717,119.033248,0.239186552,2.83451689,112.455078,236.083437,0.498060985,0.326700533,2.63373751
0.0296239037,0.00474779245,0.035470165,0.0047086595,0.640137321,0.773828959,0.856877291,211.933003,124.297596,0.887265994,0.407367331,175.120011,1.47608185,0.552674175,0.914398314,0.431626365
0.0882467642,0.00956013648,0.069311506,0.00445746852,0.879433041,0.886751442,3.10515968,246.121885,72.4623758,0.954763374,4.98510348,237.265309,81.662999,0.749256431,0.494556317,0.259630952
0.0477678881,0.00897510589,0.0992886703,0.00546399817,0.919635518,0.278362169,1.29194631,109.611172,183.399283,0.505553963,2.7233532,75.896429,187.529448,0.260443833,0.710237403,0.892795907
0.0695088237,0.00234456317,0.0949925136,0.0090293407,0.918031803,0.469353318,2.74481346,50.8496806,214.741526,0.54516583,4.27960818,146.79489,249.541401,0.728996348,0.164641357,2.32243028
0.0180136356,0.0010058387,0.0415313076,0.00855953577,0.878094325,0.367767333,0.268467237,222.618499,115.436808,0.726693707,3.21344775,232.17079,64.037195,0.466120404,0.831781417,0.96670064
0.0323097407,0.00153134927,0.027369815,0.00643950007,0.118892561,0.486173612,3.23779328,228.338548,74.6638867,0.298515728,1.35621101,172.743316,130.730664,0.508726877,0.258035344,0.131446399
0.059898276,0.00442927051,0.0927618525,0.00185323201,0.169138229,0.925280221,1.27928905,212.774433,39.1397372,0.706493304,0.158753308,217.988246,242.957372,0.893841885,0.765335189,2.34382925
0.0306626856,0.00945445022,0.0672322845,0.00548867525,0.735917985,0.185769946,2.48060685,68.3388848,227.31241,0.80973763,4.20881713,81.2950716,123.949065,0.781591353,0.410567312,2.09191309
0.0106221488,0.00185607306,0.0595773485,0.00230357655,0.233297735,0.728421732,0.0764245998,58.3205005,34.504606,0.59823301,4.14066503,239.206843,203.256735,0.499667422,0.0556567427,4.59958433
0.0164975458,0.00676057295,0.0927391738,0.00125079977,0.880687206,0.129762879,4.88402004,159.211148,239.292899,0.972648146,3.45531119,171.242783,235.180493,0.388892092,0.87064908,2.07941233
0.0119649925,0.00977112061,0.049354367,0.0031900418,0.929024737,0.190779529,3.6739836,100.524223,131.323026,0.780406224,1.37372359,142.296364,200.330079,0.607874257,0.972300313,2.19322867
0.0453793091,0.00638706488,0.0331926672,0.00929225151,0.894520569,0.2211555,2.26192807,184.70589,214.404379,0.628916752,2.10984646,245.033834,244.442691,0.728331088,0.116976196,2.39037129
0.063978614,0.00676119916,0.0874968162,0.0097763312,0.835728697,0.682237404,4.11969304,239.843047,132.916942,0.661862672,3.8291135,171.00037,205.179844,0.407150135,0.070813009,2.65033055
0.0283795229,0.00492739396,0.0776200961,0.00670358,0.756257145,0.399995426,0.588030586,249.233792,58.6288767,0.264281809,0.410793607,75.4041055,37.2660461,0.370630023,0.755566127,3.33025184
0.069605152,0.0011141407,0.0909569255,0.00819744013,0.958505959,0.445642791,4.77526635,139.896654,240.371051,0.679423727,4.34884894,248.371328,249.777846,0.572176661,0.109986655,2.03856309
0.0923267872,0.00696745652,0.0999528055,0.00482975124,0.888040433,0.191576105,2.96679001,249.880282,173.072341,0.331279929,4.6044481,100.925135,164.427975,0.628949749,0.0651135353,2.34775742
0.0106212293,0.00337311688,0.0970328696,0.00906630573,0.781439925,0.308933996,3.79780569,246.401216,133.68646,0.641060519,3.38926498,57.0673175,232.312925,0.470626125,0.441097675,2.05398823
0.0762015255,0.00950871709,0.049058324,0.00771138524,0.960960018,0.423361473,4.16177568,50.909032,153.643405,0.472582719,4.12983744,246.777169,247.75856,0.841566977,0.129783563,2.45795013
0.0819703715,0.00293576399,0.0806340181,0.00192122226,0.423049257,0.931692305,0.733931316,138.873455,25.3084843,0.558236715,1.18639968,106.344883,121.704828,0.0716934799,0.971602452,1.2465229
0.0917019047,0.00411498812,0.057271046,0.00972968675,0.426847685,0.552248512,2.58651068,198.518098,10.3998381,0.0508203323,0.668173107,238.821386,223.495331,0.285291831,0.940153258,2.545892
0.0977116542,0.00382410382,0.0710649168,0.00999019853,0.3406988,0.885413876,0.934283911,184.69395,189.976288,0.929180157,3.64288042,155.797354,237.554175,0.415533686,0.925307147,0.0206633609
0.0207877142,0.00472257508,0.0800934282,0.00100608409,0.903572486,0.165244831,4.57511668,86.7954132,164.187373,0.987296519,2.58672611,115.566209,232.838849,0.505540679,0.983758271,2.04915015
0.0567072787,0.00150177305,0.0746111441,0.00871986958,0.928264584,0.51281426,3.71509361,61.6500799,3.4554531,0.458324319,4.75986304,196.217627,249.149338,0.419881546,0.693035803,1.51350002
0.0840387682,0.0089353021,0.0300811573,0.00875799386,0.506403687,0.948418637,0.944473628,173.435048,237.971971,0.89944051,3.71126788,143.919508,231.591774,0.420939138,0.702475485,0.309633107
0.0360820519,0.00136410546,0.0901025189,0.00381971975,0.884197625,0.469685039,4.1677359,97.9634447,81.4946042,0.765778505,4.00256071,249.888633,249.20705,0.339141018,0.371312185,2.28697159
0.0958519339,0.00842788645,0.0221235453,0.0098022329,0.219881959,0.163276517,2.47796568,82.1506689,245.155649,0.946836642,1.96697354,132.762574,242.926262,0.971166004,0.064105941,3.15378414
0.0639714662,0.00361072183,0.020792148,0.00856012064,0.173391685,0.735473298,3.2793205,217.152521,162.34304,0.907793733,0.679718251,54.4901924,53.3094813,0.441117304,0.755951756,3.00439847
0.0344944721,0.00839611125,0.0904107179,0.00933904508,0.653512908,0.438532498,4.10833604,59.2710254,39.9402286,0.763392985,2.96309105,67.8864529,248.72532,0.639028124,0.542987352,2.32021684
0.016060977,0.00609111787,0.0687776988,0.00146712236,0.252276503,0.198010823,4.31450213,81.0693124,125.802486,0.736986899,3.60149595,105.029944,127.078881,0.778027779,0.540162074,2.34687326
0.0493781314,0.00148943455,0.0761250269,0.00604904032,0.841211768,0.684574033,4.83301436,227.101249,204.722418,0.889918157,3.48098713,138.986013,145.025753,0.373844415,0.785307474,0.706570653
0.0388755949,0.00944364325,0.0554244367,0.00923458272,0.599110581,0.231455926,2.24558651,137.324812,126.071261,0.91924992,0.299248082,233.704047,116.593058,0.151288771,0.601409398,0.808974599
0.0533146853,0.00849919759,0.0904931825,0.00937903193,0.85543225,0.474566636,0.410981235,211.978675,108.757428,0.879467855,3.79687208,81.6861555,221.009656,0.208942529,0.947013554,0.381273381
0.0221126635,0.00141135254,0.0759655618,0.00790782211,0.859276637,0.66305226,4.77694275,53.3592826,167.758396,0.841598236,2.45617971,249.244349,214.153789,0.124718719,0.631218455,2.19314639
0.0200352894,0.00962379305,0.098784669,0.00234933457,0.938950408,0.139351059,4.71439471,180.499366,204.003496,0.952754908,3.87080863,214.303229,240.650527,0.652278896,0.847587483,2.03538267
0.0884787838,0.00901048896,0.0935632913,0.00815313169,0.73184373,0.318131444,4.49895169,127.937925,167.750947,0.894328389,2.73905578,75.3856276,240.569582,0.504342904,0.122686302,2.63239329
0.0949831274,0.00802174131,0.0280853522,0.00134821707,0.667080254,0.987589629,2.46787023,179.219839,19.5501421,0.652407167,3.42766953,195.730197,232.376981,0.375757688,0.313548225,0.627126405
0.0989506069,0.00850891427,0.0754775457,0.00949314902,0.764668589,0.493070337,0.375211763,140.018492,147.963095,0.931591641,4.48417454,189.412859,212.616426,0.59768648,0.477604353,1.02790561
0.0625154762,0.0022971592,0.0947811128,0.00104166013,0.941167441,0.144648969,4.99510652,101.341957,238.060518,0.943239363,3.93721803,51.1687209,233.743125,0.461825607,0.231243181,1.99834828
0.0121569089,0.00939831318,0.0966547377,0.00747858304,0.842101767,0.143925507,4.37129664,106.022923,146.003353,0.481713731,3.96866057,158.04386,241.23466,0.429115472,0.912736297,1.62030516
0.0304168683,0.00168387036,0.0992229628,0.00886476833,0.95878209,0.175729493,3.92438572,61.6936581,238.550564,0.932161136,3.18471325,52.5628286,247.03894,0.498149905,0.676367762,1.75093303
0.0501427863,0.00516146831,0.0199110579,0.00943463588,0.808420725,0.122911627,3.28473145,61.7337522,173.122843,0.679244113,4.94190078,152.665046,223.193448,0.85699814,0.225065986,2.47268429
0.0652099294,0.00931866306,0.0662324133,0.00659758547,0.764342744,0.641237804,4.35459319,212.410226,80.202799,0.895078681,1.8950238,161.70714,3.23852468,0.891366719,0.185789576,3.6463589
0.0513186755,0.00461089491,0.0756316277,0.00167611391,0.112630433,0.577266564,0.79439084,185.211487,44.6840219,0.676629882,2.6068698,197.769914,246.252174,0.591273225,0.796718908,0.411398021
0.0489614795,0.00112946861,0.0683731238,0.00970080288,0.104484885,0.688907494,1.19712919,152.896819,56.0369501,0.671122223,4.02357671,161.405343,146.41332,0.783707425,0.0296269834,2.19032374
0.0333661091,0.00167176397,0.0839689161,0.00648972961,0.937104105,0.154086036,1.79861351,179.303668,244.990669,0.0906468109,2.54657479,237.049765,108.539705,0.849214492,0.754639113,1.18383523
0.0845343058,0.00924930107,0.0939620899,0.00835968662,0.804344955,0.946455481,3.98953249,193.241437,64.6920713,0.982822735,1.19871008,50.9878645,127.159914,0.112618606,0.0348041913,2.75431603
0.0477305577,0.00501401368,0.0186799311,0.00273997171,0.745901148,0.183765801,0.55249716,215.401635,200.45425,0.291347317,4.79983241,74.5168316,154.907585,0.359272015,0.407040338,0.927254948
0.055617446,0.00933958542,0.0639196227,0.00871809028,0.743481273,0.400580138,4.20027117,160.412673,248.527315,0.914626088,1.71573034,241.014142,242.973362,0.36092534,0.123610237,2.37127406
0.03918921,0.0018540402,0.0622708238,0.00643188867,0.850650183,0.170319679,4.88279918,59.0444353,17.2043496,0.447198733,4.67795403,215.577271,238.41286,0.636321396,0.852225218,2.31985741
0.071621992,0.00816294874,0.0114447067,0.00863056365,0.696069603,0.561332199,2.93629529,181.452731,113.611622,0.881134205,3.06236627,78.5265558,119.176357,0.0935464486,0.175045734,4.15038587
0.049878416,0.00786711478,0.0778123337,0.00944779622,0.858483734,0.327832627,4.96103857,116.590294,223.400516,0.930504409,2.77806693,240.843862,236.953886,0.490210117,0.264165979,2.23180023
0.0492096772,0.00200510537,0.0857978337,0.00107119754,0.889737803,0.191211358,4.72558483,169.925758,167.908199,0.652005755,3.0322501,109.45782,210.969461,0.844738946,0.209332366,2.16768697
0.0813721164,0.00914016911,0.0601207289,0.0092716586,0.239875115,0.557641672,0.944450935,163.023691,36.1281062,0.769140084,0.381126669,232.831118,44.2906292,0.712418025,0.606063682,2.96366246
0.0365250733,0.00962918049,0.0855894691,0.00469634316,0.948896827,0.104260139,3.1865274,56.9033251,166.023957,0.338732246,4.93456148,54.1170857,212.093075,0.696461815,0.364039528,2.06419102
0.0776901388,0.00914870479,0.0909457046,0.00759129173,0.906159821,0.153095465,1.71693354,57.2184947,95.7363777,0.698284465,3.21906419,234.05232,238.271168,0.498667441,0.40194507,2.2573533
0.0185330347,0.00911638271,0.0971629398,0.00821932251,0.898990181,0.17996544,2.05022333,116.63634,129.243077,0.904240046,1.85880108,88.0504953,243.323895,0.470372142,0.730074652,2.04950633
0.0551140708,0.00112805449,0.0881618799,0.00833709949,0.829251995,0.147604697,2.92512141,53.4416803,50.176663,0.587909014,4.67977385,218.218597,244.533397,0.566543453,0.705128306,2.13540018
0.059966373,0.00384830008,0.0359975485,0.00918642279,0.707911968,0.832095217,0.206678628,132.433911,114.823237,0.929480555,3.55902754,53.3420495,190.685342,0.728350518,0.878798807,0.599132746
0.0667674765,0.00981933665,0.0116652642,0.00800148215,0.576992775,0.804965786,4.49415294,161.858524,78.5589388,0.100761227,3.0764507,63.8780322,224.839884,0.552278771,0.609731797,0.383768673
0.0500690248,0.00373548068,0.0887596751,0.00781410823,0.517488938,0.969702731,0.378189851,230.117871,193.099814,0.777765004,4.07723829,74.8556447,235.35985,0.286596999,0.967765759,0.279226275
0.0321108564,0.00154638503,0.0956882235,0.00464677771,0.912213956,0.116160512,4.55442595,52.1017924,231.050686,0.931494767,3.5502185,67.7626867,205.078131,0.45188909,0.634138148,1.7936416
0.0810402628,0.0090190793,0.0774108402,0.00341085972,0.536253147,0.973498444,0.792413257,248.150668,79.7484101,0.707458414,2.68234203,86.5434745,186.348888,0.537788887,0.839764519,0.199637094
0.0374463962,0.00920320178,0.0781054651,0.00560086718,0.698689645,0.718599519,2.17876727,243.152328,41.9732206,0.530066389,1.04229039,67.9087765,227.393329,0.103533679,0.898503839,0.421445582
0.0165270842,0.00960928722,0.0587880168,0.00528606467,0.859264649,0.691933515,4.75828059,227.595711,241.705391,0.885471717,4.26880844,122.113399,228.106886,0.623947982,0.22656559,2.39383925
0.0340506183,0.00955324684,0.0353856586,0.00410423139,0.346900057,0.649479747,4.80441794,151.904086,187.017055,0.750507585,4.55425563,194.80382,249.375824,0.730305282,0.101266633,2.74789774
0.0448055674,0.00736325425,0.0320387362,0.00733809916,0.164048734,0.858448009,1.44319603,192.566211,2.76960749,0.569568881,1.66862627,55.5846415,14.1707679,0.562822606,0.828259131,3.86977545
0.09919056,0.00441624885,0.0982686396,0.00824611295,0.86760437,0.215748616,1.39717327,101.911305,37.2375077,0.94530239,4.34962242,50.2608966,179.277874,0.401395891,0.424469987,1.18069504
0.0600728478,0.00384227506,0.0341820969,0.0010136254,0.707068267,0.975015743,2.9108433,70.2184512,28.4994662,0.980102894,0.0144843092,51.3995951,0.740340189,0.839260562,0.727096157,4.89290735
0.0347167024,0.00575484463,0.0620125811,0.00996425767,0.712795373,0.357723948,2.9061245,234.433899,96.5426117,0.965698862,3.55454131,75.5568479,231.289064,0.3528728,0.93683963,0.734083022
0.072021224,0.00801104184,0.0896089272,0.00982460712,0.803580231,0.209753734,4.4911831,74.5264469,75.6866815,0.83129974,2.42611113,70.0637082,222.820088,0.673205893,0.296532426,2.30515577
0.0746093259,0.00309049404,0.0909507427,0.00986369986,0.826628677,0.450071119,3.60189288,242.435117,115.312032,0.936387621,1.31082705,133.0988,58.3614677,0.0304389783,0.312200158,3.86528168
0.0134376208,0.00874964467,0.0959387165,0.00920395585,0.963548234,0.177742803,3.16003331,246.642242,190.444668,0.942507784,3.41555923,133.776502,149.894849,0.571560503,0.549696342,1.96244129
0.0580018787,0.00785601329,0.0227990775,0.00934744683,0.906309457,0.300766861,0.973187414,96.8380981,39.9817141,0.535567123,4.5715536,175.762523,104.901546,0.585879079,0.552581628,1.0264506
0.0263151602,0.00888253819,0.0438025397,0.00949789278,0.709687479,0.558790469,3.95468399,198.562001,226.650461,0.728215165,3.10250811,150.396183,246.721099,0.692464684,0.140400459,2.61216437
0.0453788733,0.00884111948,0.0814204564,0.00912936996,0.112960755,0.808966175,4.63335272,73.1123733,0.657205567,0.49808555,3.32639002,172.565413,236.765136,0.865228958,0.596649125,0.451010983
0.0512260244,0.00356219371,0.0206534086,0.00698627298,0.776813374,0.570206723,1.90924503,180.06672,159.11094,0.563944468,4.65798404,167.028052,59.7978102,0.218750139,0.161174638,0.159162984
0.0131170684,0.00865201584,0.0913411816,0.00933588781,0.580298262,0.15565275,2.95769448,197.607549,223.012977,0.579997468,3.32122377,51.8180659,247.51473,0.511684103,0.417908447,1.79904835
0.0781545847,0.00963629539,0.0586338161,0.00205251633,0.664986319,0.602416631,0.232331914,75.5413675,176.086531,0.210839921,3.00650836,65.5937236,2.84229836,0.433728929,0.369055406,0.708978759
0.0611554075,0.0079318629,0.0992326981,0.00797346357,0.759876071,0.257892823,1.31854502,248.379008,61.9023821,0.781980476,4.7296748,185.41325,46.5260234,0.49730308,0.0802646276,2.05767354
0.0421649374,0.00887513816,0.0737574981,0.00133057399,0.829995079,0.157061905,4.36248314,164.797841,246.162876,0.809733096,2.58196691,82.6336809,224.925922,0.761901143,0.236307874,2.14034175
0.0730898011,0.00160672129,0.0138887967,0.00584532865,0.23034519,0.543507874,1.05071274,165.293658,108.294943,0.361553414,4.93976803,104.834237,146.117213,0.793992789,0.994339787,0.145044568
0.0979550247,0.00682112994,0.0543851382,0.00958818421,0.227346438,0.556931634,0.140317871,230.466356,7.47105684,0.677277484,1.3601063,219.023729,30.6940033,0.267021094,0.909303861,1.69599764
0.0105949689,0.00391686931,0.0310002096,0.00263100252,0.850384059,0.403651974,2.32470638,241.570747,55.4729794,0.720263463,2.65057518,111.282402,31.2578847,0.324873829,0.790786873,0.494351531
0.0950071872,0.00969280971,0.0947030973,0.00678934495,0.992028545,0.221474296,4.28442197,71.4442456,226.028082,0.554237241,4.58721214,221.107109,210.560833,0.868928399,0.135146256,2.16566544
0.069325846,0.00891775928,0.0253254469,0.00188351161,0.654615159,0.769317105,3.35942786,218.681288,94.5102917,0.66294433,1.07342588,57.9926315,21.9950378,0.285720859,0.0503391912,1.13555805
0.0622005787,0.00826898908,0.0311551152,0.0095883691,0.873380552,0.471563272,4.26196443,187.497646,41.9541243,0.290605704,3.13490307,244.077004,192.198333,0.541455813,0.0540824885,2.53482881
0.0293956449,0.00985376302,0.0972914968,0.00802110351,0.930296891,0.306856499,2.03940103,86.0689365,3.73248423,0.26804521,3.69163858,143.453243,235.454776,0.401453932,0.676553496,2.3138798
0.0984905537,0.00641902993,0.0956445964,0.00973889375,0.819373224,0.216075135,4.14226631,166.602432,158.725201,0.949130723,2.1887572,175.080837,157.647596,0.417601487,0.822280589,0.772880539
0.0573005126,0.00958377215,0.0412003885,0.0079216429,0.83104363,0.293352091,0.188763029,228.041928,247.741347,0.0169663329,4.3920384,90.3347005,38.9388533,0.250620136,0.911402102,0.0728222961
0.0646160772,0.00957678798,0.0680089744,0.00675049281,0.78753396,0.363546677,4.76981153,120.562162,79.4838239,0.768547729,4.52156149,99.5986208,225.56344,0.45859446,0.147205048,2.49126392
0.0146053781,0.00742522317,0.0463983587,0.00903833421,0.952875377,0.504969248,1.89612289,130.546107,186.696026,0.83486167,2.23511091,198.682519,50.4608542,0.957354499,0.304862059,2.20384375
0.0758755116,0.00375756495,0.0372013683,0.00154621349,0.400192546,0.316253905,3.74577412,169.834578,68.2946012,0.777413805,3.06360933,83.200763,23.6656366,0.200331549,0.779871787,0.386840009
0.0247862252,0.00923255898,0.0937829975,0.00648819391,0.950276263,0.149437137,4.40902814,240.553586,81.463511,0.98556678,4.88914201,198.642268,235.090032,0.535421745,0.487228421,2.17188429
0.0352357305,0.00924403157,0.0423769505,0.00474698673,0.985371592,0.402424315,4.34656202,55.5974038,5.64524839,0.380381566,4.20716348,230.031459,245.997399,0.57317511,0.549174168,2.25147772
0.0333484703,0.00458218337,0.0993659614,0.00765812657,0.900333979,0.127525846,1.95069711,50.4334835,203.377967,0.910544717,4.12892078,129.975658,214.863443,0.576581308,0.878216599,1.88879595
0.0592386364,0.00183857554,0.0655464304,0.00903659313,0.582685946,0.944807156,0.134052753,187.723417,116.691503,0.3587377,4.1874628,172.644149,200.611827,0.707196057,0.988290926,0.0307724666
0.0977766621,0.00664927482,0.0419967508,0.00123267976,0.67338955,0.65627189,4.23903841,194.485287,175.204434,0.398646944,1.07431398,112.07286,90.9986046,0.530063663,0.0191522923,2.98224617
0.0184301866,0.00956418971,0.0973519368,0.00321462976,0.99437894,0.325647136,4.9692103,105.998359,149.085641,0.55761738,4.75207944,95.9465597,155.820143,0.463577958,0.351323773,1.69031554
0.0257645,0.00994580721,0.0942889458,0.00872303689,0.955380523,0.192283708,4.32221878,108.854772,138.714111,0.4129347,4.59444954,56.0279691,189.505614,0.526352984,0.347146819,1.77491835
0.0183786477,0.00878050455,0.0880445685,0.00983422604,0.958695391,0.591727511,4.33829579,92.7422435,218.932748,0.991389994,2.87724563,178.312676,194.66353,0.909515804,0.747817765,2.2405035
0.097248507,0.00607742982,0.0824606578,0.00596407531,0.848244704,0.529631053,0.608981307,206.336356,140.228566,0.814714685,3.11105472,101.110394,210.059999,0.407050192,0.970013175,0.605731386
0.0574921299,0.00417185099,0.0169853847,0.00974345723,0.766501085,0.722355522,0.187756528,185.979908,69.9335988,0.634586885,3.73508848,168.77493,116.110525,0.550539092,0.695143092,0.465368905
0.0625039067,0.00984232942,0.0914429076,0.00252818599,0.800707182,0.158495512,4.14017579,83.0525537,46.2749083,0.593854462,1.54964045,56.1491001,237.048547,0.366734136,0.273268477,2.23589664
0.0453136688,0.0097268986,0.0353526293,0.00705454305,0.213683032,0.709479068,0.125310924,139.375585,183.753126,0.0545544038,4.53564556,143.020001,222.079164,0.688989287,0.951137954,0.364419456
0.0316581297,0.0091307906,0.0652490058,0.00656787468,0.940665608,0.360672059,4.98385796,51.9423171,152.04963,0.968609209,2.91132986,247.66791,234.511121,0.775322308,0.907670715,2.14809312
0.0107969527,0.0028006715,0.0695672148,0.00106161481,0.789981119,0.285025532,0.901773288,221.187451,209.405577,0.173064447,0.513046373,75.428395,22.6175834,0.793579003,0.457424512,0.907841151
0.0704434181,0.00162108867,0.0280022136,0.00766202972,0.607918182,0.449175749,0.563462271,240.318075,77.8542224,0.123923196,1.53052276,64.6971707,229.449323,0.712374349,0.733171033,0.451211445
0.0914331907,0.00596719662,0.0963987605,0.0099256193,0.856862435,0.53808848,3.10875821,189.928056,5.2528594,0.282751513,0.53752637,116.290355,11.1810897,0.947072519,0.558240068,3.43079329
0.092767468,0.00854055461,0.0698595386,0.00996613222,0.791123897,0.598621942,3.05831609,166.032308,246.821371,0.946242425,2.55543579,103.086518,95.2326606,0.680039607,0.993894381,0.644824006
0.0239915161,0.00970416721,0.0587169855,0.00424524484,0.898213686,0.306225597,4.47644033,144.471369,93.3004513,0.610028727,4.88659757,247.449623,211.488536,0.995862899,0.389300333,2.20908185
0.023963069,0.00929090152,0.0257071984,0.00271965939,0.914543453,0.959588698,1.97629335,138.719326,5.47621171,0.93069204,2.51139778,225.886444,59.4737906,0.18390279,0.881683175,0.422078269
0.029845959,0.0083693251,0.091384272,0.00938270395,0.54855006,0.720478747,1.46383328,178.228227,199.009194,0.987765834,3.83971945,81.0816146,156.519097,0.659527604,0.893269565,0.0988098065
0.0269444598,0.00155267659,0.0119258305,0.0026008031,0.576304255,0.237085475,2.88180412,138.262112,240.12863,0.993328144,3.77121462,86.9185211,235.507277,0.9458953,0.135999835,2.71342948
0.0391776817,0.00292322342,0.0534412497,0.00988163875,0.918730647,0.691229719,0.314263932,195.514138,127.017346,0.791210978,3.81080235,58.1979378,11.7031445,0.357390858,0.727550771,0.191530438
0.0119433609,0.00589486028,0.0827187021,0.00115299217,0.120738602,0.426070704,1.20567946,124.606033,14.4059143,0.28230901,4.40990715,207.132612,111.989079,0.981702916,0.912649678,3.92282
0.0597635838,0.00469580151,0.076240843,0.00135816823,0.798206593,0.6224226,4.41666038,165.349807,77.4383418,0.954473607,0.384422145,88.9528205,200.411066,0.16329037,0.654127074,4.23298951
0.0228053566,0.00910866885,0.0615073956,0.00823897479,0.695255167,0.30290712,1.98978504,243.204747,233.908993,0.418497429,4.10210881,145.822388,227.773974,0.442137861,0.143952344,2.47219177
0.0442327203,0.00150660583,0.0108086368,0.00873813057,0.522691515,0.890858178,3.8968717,99.5318466,237.040213,0.240082051,4.21116335,232.810657,230.062168,0.955437293,0.0333415578,3.50139033
0.0144412321,0.00514417112,0.0746452417,0.00219002275,0.297790858,0.703654343,1.5889253,246.665829,92.8385942,0.880885653,2.36596796,220.675141,152.058019,0.355139581,0.572409445,3.90052359
0.0931567526,0.00779343774,0.0504483933,0.00974013913,0.517330765,0.818371957,4.42248999,68.726935,87.4139799,0.0872203463,0.543231351,146.807614,247.260398,0.0637667157,0.00928640273,4.18255386
0.0117461352,0.0022065454,0.0693655092,0.0095818829,0.890833097,0.337838965,2.73373791,56.1336857,226.894267,0.310679288,4.91402189,220.816114,190.982774,0.740370115,0.57332839,2.10546632
0.0932322055,0.00440368127,0.0387262511,0.00432001525,0.277758744,0.91429391,3.49394951,110.080496,201.195957,0.376203653,4.57564794,104.930763,123.972013,0.566174612,0.0206801421,3.71372788
0.0626476484,0.00969287623,0.0824265112,0.00271659724,0.875792932,0.232407699,4.77650477,52.3942395,35.2784191,0.958460443,3.08986429,230.100948,249.572822,0.531340865,0.667271259,2.30684642
0.0821185502,0.00668840627,0.0751240024,0.00943722317,0.963084327,0.367750155,3.82289551,91.2228503,68.7512827,0.472041917,3.86255169,230.074617,245.552802,0.607721832,0.190829413,2.44591845
0.0758934783,0.00240048191,0.0801835541,0.00145823169,0.68102223,0.440815325,0.00398334372,203.183759,145.297911,0.45039201,3.43001818,50.8898097,145.183632,0.322935235,0.952082634,0.686861165
0.0973470508,0.00155239991,0.0610615449,0.00150486169,0.493586389,0.669719468,2.9908887,181.204282,103.390861,0.847037703,2.99511951,115.958683,177.721069,0.439019034,0.770226281,4.0431853
0.0960496985,0.00670552528,0.0793504964,0.00816716722,0.901344561,0.503401158,0.426329708,221.30752,90.6308927,0.895892201,4.26104744,103.659753,246.904672,0.344229223,0.816573533,0.161254902
0.0747699051,0.00116742378,0.0951459642,0.00667814281,0.763734173,0.178030185,2.72988605,80.6880932,109.843089,0.339176677,4.72392257,60.6845634,248.295539,0.629871396,0.176050106,2.23178864
0.0372477093,0.00361992643,0.0532609076,0.00902780034,0.622951502,0.522772196,0.605745743,105.252056,45.8735301,0.750934466,3.760842,81.6543516,146.791306,0.279822569,0.550218158,1.04384908
0.0513120155,0.00976441444,0.060802653,0.00706056964,0.138670942,0.567912868,0.0784916462,120.133079,170.070996,0.588022434,2.01176604,161.823388,94.4450947,0.519389078,0.684196724,0.120746782
0.0143225752,0.00983488909,0.0899383155,0.00326115336,0.976956778,0.289680901,1.6468022,243.021136,134.039936,0.418967862,1.55300282,80.8034552,22.9015658,0.3895165,0.889765669,1.09116132
0.0134316895,0.00685526475,0.046964649,0.00823826564,0.936283612,0.90259494,3.54674831,132.872018,185.417612,0.033551784,3.26899552,115.004399,157.900267,0.18255298,0.87179294,0.498211515
0.0113044742,0.00909216955,0.0989587781,0.0023391079,0.945205376,0.413386608,2.79374191,176.928668,213.430152,0.968044195,2.959126,238.672794,248.547053,0.946867642,0.897062485,2.09752908
0.035882565,0.00126412809,0.0950985896,0.0069454465,0.656147926,0.394211807,3.53574308,213.36154,111.073652,0.198248409,4.59668016,111.157961,221.840735,0.31437996,0.843586762,0.519073913
0.0210041462,0.002762055,0.0852675692,0.00958567936,0.846689159,0.879996164,4.98942293,86.0886987,211.508715,0.852297687,4.8926908,227.462227,202.639674,0.606291036,0.485151225,1.99530902
0.0817975285,0.00334203848,0.0683091254,0.0010559402,0.748108629,0.947095558,0.143200683,148.179814,122.625902,0.391553993,2.59125897,53.6746793,221.693502,0.353501658,0.48854051,0.514625596
0.0825969268,0.009098185,0.0762835134,0.00940755442,0.850918043,0.490322469,4.33672627,202.03873,245.844071,0.842478276,2.66384328,144.361165,77.932392,0.5200741,0.0653339565,2.56256423
0.0186155642,0.00999469062,0.0907142421,0.00321829253,0.812209319,0.192597893,3.3335094,208.948101,210.822047,0.631361091,3.12120315,226.91703,245.73239,0.467772391,0.456981037,2.15794583
0.0667162086,0.00928304174,0.03304201,0.00560085734,0.690951437,0.81253587,0.804226656,130.831696,33.2611459,0.0376095585,4.89260874,204.369571,182.820311,0.873532169,0.611180304,0.0339097063
0.0473978315,0.00906878243,0.0467838993,0.00766286098,0.597118217,0.474604516,4.91948906,69.2960194,59.5049386,0.229852181,4.31446439,104.520445,107.180314,0.559188514,0.110083466,2.49498333
0.0461937655,0.00929022202,0.0952761379,0.0052406418,0.948013197,0.229007675,3.34561609,102.578323,96.0402418,0.601279363,2.83934147,230.730646,149.33992,0.548504861,0.34378426,1.94241122
0.0673160024,0.00905420651,0.0302963225,0.00861026283,0.808758879,0.69350523,4.23872532,208.389003,6.53009974,0.571922388,4.44340416,231.53834,22.9248721,0.601855112,0.264065147,3.68976479
0.0169357023,0.00818470067,0.083411931,0.0097496398,0.635801063,0.143487607,4.25680765,109.997149,11.1741725,0.594762511,3.76123403,204.106416,63.1457244,0.353063461,0.58018034,1.74109909
0.0895446963,0.00742863702,0.0632750351,0.00919122521,0.928477189,0.117839725,3.08466516,51.5345302,168.034375,0.873282124,3.81628486,247.764186,232.442852,0.843218014,0.310391083,2.25206802
0.0475588795,0.0016858399,0.0423686956,0.00415635769,0.988907101,0.613425333,2.86660383,239.916811,29.5391382,0.275349193,1.34787757,85.3360755,18.1448418,0.365276287,0.411193935,3.90839913
0.0238652495,0.00500162474,0.0747376239,0.00941792394,0.80942842,0.132701412,4.84869788,166.465304,246.05529,0.840177449,1.82858871,243.138995,246.138509,0.735851349,0.554213006,2.05766562
0.0585999337,0.00200307542,0.0883695982,0.00934947513,0.930128798,0.21326847,4.48549252,233.027894,192.72518,0.613116905,4.55385517,65.0505267,183.323186,0.60612278,0.259695618,1.39664645
0.0318382231,0.00446667045,0.0959759017,0.00831872219,0.974551546,0.271592591,3.87278539,202.469701,124.052641,0.787554776,2.78648817,107.026693,188.913137,0.581857102,0.244178041,2.1018561
0.0694859558,0.00928526204,0.0543771375,0.00191585921,0.886380465,0.129369662,3.79318296,51.1231737,8.93117766,0.704496333,4.39094644,117.123427,246.700661,0.413675609,0.459095084,2.44888125
0.0455191697,0.00950825947,0.0870252311,0.00430188346,0.400462375,0.791789661,2.53429081,153.354001,45.7548293,0.0255947839,1.2600753,244.114347,9.59012205,0.0131454921,0.658850732,1.21485125
0.0333091488,0.00922728097,0.0751965655,0.00348260981,0.784785101,0.665142578,3.43724906,179.311669,236.929753,0.687054192,3.38089559,133.624611,132.139299,0.514978929,0.119181342,2.21361126
0.0863120944,0.00182740545,0.0279199272,0.00339487751,0.544921361,0.383230264,0.674468147,244.79018,219.002869,0.880099182,1.30647157,108.794068,171.890943,0.153016311,0.130195696,0.72719894
0.0950550467,0.00993733457,0.0241557287,0.00303884784,0.628088064,0.362838821,0.772960128,170.523186,236.588373,0.437488007,4.80743129,77.8156956,80.6969919,0.259603399,0.0782127606,0.337863463
0.0439299854,0.00186790261,0.0433427968,0.00101188702,0.844816973,0.17041419,2.778168,243.996376,170.801037,0.635029486,2.48788364,83.0384122,16.6226624,0.572532567,0.735240089,1.052242
0.0160552166,0.00381832744,0.0876044804,0.00903706634,0.337831694,0.25474945,1.50208967,109.71026,27.7636525,0.594086585,4.13886152,55.7779911,249.157976,0.64574852,0.556149994,2.18951011
0.0263423592,0.004162126,0.087223119,0.00117522757,0.959749399,0.186652311,4.99223283,102.541316,243.890177,0.990996504,1.84677287,189.7857,237.121387,0.835958235,0.834371189,2.06986015
0.0774422854,0.00642160232,0.0983278091,0.00815891405,0.939477902,0.118003728,4.052431,148.493062,208.528519,0.536808133,4.06128605,65.1806922,207.735646,0.659285286,0.106124465,2.03033294
0.0267296528,0.00909942518,0.0227190962,0.00384044985,0.713903619,0.926030983,3.20948513,73.9164864,13.0478056,0.294759933,4.03496627,134.549298,141.758598,0.396699517,0.256561491,3.88923976
0.036230352,0.00368318212,0.0171372021,0.00994615188,0.685683314,0.486709256,0.972712415,211.632506,205.639708,0.925131847,4.40587021,228.877854,241.549643,0.616862085,0.0541240237,2.58989072
0.0515497696,0.00219855506,0.0888530813,0.00985503595,0.844857556,0.187375584,3.98100052,61.6870651,40.6799052,0.305429352,4.79976947,53.4938921,234.799218,0.610902838,0.406553902,2.22298945
0.0412279697,0.00365508059,0.0478385831,0.00968093102,0.529663131,0.614929702,4.34102948,63.4343656,49.8767024,0.544846404,4.43025963,246.326543,223.424826,0.691044861,0.277436582,2.54547596
0.0464474145,0.00249964375,0.0851397246,0.00113701215,0.942777339,0.348595083,0.476827788,115.172593,225.604482,0.332498508,3.57446207,56.854179,187.638214,0.424773429,0.7091303,1.03815297
0.0201423122,0.00971331047,0.0826792945,0.00753542359,0.56699316,0.287631024,3.62975853,207.13313,87.9968304,0.369921023,3.03676372,128.777527,31.8643888,0.405705199,0.126389271,1.91032262
0.0312305428,0.00198855712,0.0564109525,0.00400638299,0.288202491,0.801900104,0.544602221,194.202781,21.289629,0.549786834,1.89369211,217.952516,243.082204,0.770951286,0.523997274,1.30140133
0.0437476834,0.00848879165,0.0344794951,0.0096112049,0.345224825,0.737505307,2.43402529,68.1113122,134.750559,0.116608767,4.63162007,62.3662823,243.103543,0.40077111,0.0458901142,3.79186651
0.069260811,0.00974433479,0.0308421854,0.00346018929,0.798235678,0.631848123,3.84975444,196.852494,120.108107,0.0207837624,2.28506743,232.477409,35.4992987,0.402301521,0.101305688,0.865347062
0.0262454456,0.00418514458,0.0753330669,0.00929646594,0.960770273,0.439294327,2.26315501,66.8165203,184.249364,0.634733204,4.83336081,92.8396166,244.889175,0.870003712,0.46893509,2.21189881
0.019739634,0.00540157366,0.0605327594,0.00812422832,0.642767231,0.509130022,3.41793269,164.519707,170.769632,0.942774781,3.33479036,108.103304,225.469626,0.495296266,0.714552612,0.976690562
0.0467721795,0.00135112323,0.0643278567,0.00172957798,0.765613377,0.485477961,1.49729735,154.002464,249.515221,0.814510022,2.0857498,94.9197693,205.958505,0.949393885,0.101346408,2.41304703
0.0394652691,0.00508181236,0.0897462835,0.00909773689,0.678712965,0.480723048,3.00938858,122.7149,165.523132,0.768422108,2.80192887,205.828838,182.629654,0.376816703,0.204916976,2.4028365
0.0771718431,0.00388096699,0.0951231451,0.00661981513,0.378023843,0.546543574,0.992519526,161.744132,158.356782,0.805311657,4.15279339,128.882421,245.240017,0.391491883,0.610974027,0.216540482
0.0771716728,0.00133481379,0.0701638432,0.00661689375,0.307790564,0.547088187,2.65878708,215.456071,1.53650219,0.980682335,3.86235162,243.965193,243.052217,0.0510164499,0.699150113,2.45577781
0.0256559468,0.00103001106,0.0905107682,0.00752684604,0.918268347,0.135882742,1.4839728,166.475299,228.789112,0.332409553,2.19675229,199.204007,221.00911,0.319316011,0.31482867,2.1079822
0.0205790322,0.00618842919,0.0803601972,0.00948584019,0.974445911,0.108334849,4.3609019,151.120005,170.164002,0.977420705,3.80766988,134.056846,231.023424,0.531677364,0.773538646,1.93399283
0.0256633772,0.00876164913,0.0585109314,0.00117005844,0.128690957,0.144228663,4.78829585,69.025181,197.094284,0.523285644,4.0682386,134.978424,151.571804,0.947374231,0.17802243,2.82945561
0.0347285435,0.00934371174,0.0798104942,0.00281905868,0.886235464,0.135053119,4.11576502,97.9528138,239.956729,0.609475793,3.27593486,165.049821,193.079271,0.46526782,0.24130572,1.80328252
0.085770123,0.00969147383,0.0655438145,0.00522183666,0.63943577,0.842772284,4.98027183,237.957803,49.2448549,0.864788623,3.79296502,69.0849115,198.155994,0.494571196,0.594729969,0.411422209
0.0871574569,0.00960624172,0.0915488289,0.00440555663,0.982412559,0.154432149,3.61165748,241.3952,46.6169335,0.954920448,4.90945279,195.115646,181.146457,0.450228517,0.868232914,0.7217609
0.071793737,0.00415543443,0.0303265619,0.0099229186,0.694423151,0.476627417,0.153644104,246.343203,195.431503,0.970283821,3.99228295,171.192063,109.803736,0.697639882,0.318668374,0.583855255
0.0742874754,0.00399729298,0.0212988475,0.00157466066,0.856305479,0.959297507,0.101706291,129.98128,36.9766153,0.0869735388,2.21583825,107.253504,160.568658,0.152305413,0.590084132,0.536774042
0.0916333567,0.00472074897,0.010897989,0.00785202341,0.662526711,0.989758898,1.25590351,184.336791,131.590841,0.722211478,1.54579683,121.305743,60.1738611,0.790630222,0.00228784121,0.471534369
0.0609183967,0.00668225837,0.0778237974,0.00169427127,0.829684212,0.241945907,4.75053758,101.308032,98.133393,0.850088539,4.83546227,101.931697,219.869026,0.545382285,0.944532043,0.906631305
0.0883865303,0.00985529606,0.0546637133,0.00706860745,0.414222112,0.602626515,4.15104105,205.643796,8.54397634,0.0269936789,1.33495099,168.333335,62.9225278,0.555021669,0.792476901,4.73293616
0.0290652349,0.00151965368,0.0801528856,0.00595968093,0.790570542,0.323361964,3.26650747,226.156908,155.011601,0.200277872,2.60937781,95.5236356,89.1210391,0.518162624,0.399328429,1.12924528
0.0852998446,0.00456888597,0.040681354,0.00170725512,0.605422389,0.411661109,4.17929266,215.09059,17.3127648,0.511337343,3.03640072,236.898542,235.836445,0.451533899,0.873510533,0.94019035
0.024837152,0.00909844774,0.0970111751,0.00767371344,0.96993818,0.122504842,3.92963359,129.11338,102.596603,0.78399942,1.7267622,65.8519003,247.494597,0.496451281,0.674396326,2.07112431
0.0571039726,0.00634766917,0.0993597146,0.0096890029,0.931271469,0.780302066,1.07354569,70.3217086,121.114675,0.554541025,4.37114658,86.649432,52.1099999,0.663290592,0.242365606,1.3654343
0.0685876515,0.00183294283,0.0663673875,0.00938327635,0.998684469,0.178334914,3.1840859,57.0008553,249.987568,0.53342226,4.97102097,124.145272,231.716106,0.762269663,0.168444724,2.22304003
0.0900894819,0.00911622616,0.0585798238,0.00440224054,0.65696982,0.503598921,1.69522006,208.663359,58.609694,0.699278797,2.26979404,147.281155,167.447482,0.74444111,0.861124801,0.0874261555
0.015856858,0.00183814291,0.0309029278,0.00655903173,0.209455896,0.20850011,4.4127863,106.854297,248.852923,0.882783427,4.22725358,180.437484,234.00612,0.944411147,0.326641002,2.4646328
0.0871010513,0.00387124423,0.0140849004,0.00606280052,0.937947778,0.629965062,1.24197979,195.665596,28.984221,0.533946307,4.29451982,215.786693,49.8465944,0.0513318522,0.325151694,3.51069256
0.0658718152,0.00117015453,0.0900093111,0.00847504639,0.518642961,0.912659453,4.82486137,229.456574,38.9915264,0.347794395,4.40861596,234.32341,153.263742,0.443349153,0.150173421,1.19856589
0.0760210696,0.00691688506,0.0873826863,0.00961928865,0.923224021,0.111430781,3.18335412,57.7479962,246.505861,0.942816621,4.37548248,71.9476184,248.396489,0.601362733,0.263506119,2.0474131
0.0306996608,0.00716065201,0.063735471,0.00167955088,0.844673376,0.219000524,1.26536209,139.398776,132.108243,0.0892110471,2.95360614,75.8077626,241.319378,0.434232356,0.167974038,2.33981101
0.0432184688,0.00917178762,0.0689276929,0.00899221957,0.956230079,0.449256389,2.47379368,118.489681,187.490907,0.0885602711,1.25107915,180.031506,151.66038,0.384592538,0.688290348,0.774577291
0.0225090001,0.00813057243,0.0923512594,0.00996827562,0.985083276,0.106558909,4.80797651,152.5282,228.35879,0.956652487,4.89143345,50.9529436,233.613348,0.636333106,0.643316619,1.7775421
0.0792556702,0.00955832393,0.0489864773,0.00274919613,0.870114808,0.291939673,4.04089151,52.0651596,116.879446,0.901337596,3.03639783,247.539944,236.4893,0.809661727,0.321353526,2.42146845
0.0347788663,0.00992019761,0.098578468,0.00396963762,0.968852173,0.191710958,4.99219345,214.894967,164.905418,0.969126935,4.63520822,239.916873,196.249626,0.55717048,0.37854693,2.21936147
0.0448114974,0.00103069691,0.066869407,0.00735186745,0.113987435,0.972820341,3.18886137,84.6122165,12.9089598,0.897393889,4.73983984,94.7941414,118.912043,0.599835645,0.111900661,4.97909361
0.0994085011,0.00851461121,0.0365879656,0.00637085292,0.185217722,0.4377327,3.84068381,205.713068,3.20726776,0.283339879,0.602073837,79.0578797,233.111859,0.347362114,0.859483274,2.18293349
0.0237504121,0.00978566561,0.0972325911,0.00822978966,0.813282462,0.236376558,4.37348747,106.242202,99.3693072,0.807780444,2.74945873,213.983879,243.777784,0.37586444,0.713183106,2.02220586
0.0223444933,0.0043087537,0.0142780775,0.00971644733,0.957234374,0.194252125,3.7134396,52.9707479,107.432053,0.794005512,1.93433922,244.816182,242.931172,0.48170707,0.575010315,2.4825517
0.0446278267,0.00815355519,0.0995148906,0.00623569083,0.862661327,0.784861723,0.208633162,177.836124,27.6770211,0.800330942,2.73464724,177.694732,123.572813,0.551684702,0.741137892,0.804126258
0.0606372249,0.00189377845,0.0286087734,0.00189820262,0.941511021,0.621425515,1.09159797,161.689894,145.595547,0.864625955,4.80584068,165.066477,100.282374,0.485293696,0.753670731,0.114404792
0.0670451884,0.00956603402,0.064662756,0.0024994254,0.976071777,0.159040888,4.72065964,50.1535797,58.4196902,0.862482582,4.37942944,183.309065,234.402156,0.429776672,0.55508811,2.35304591
0.0587445746,0.00101326531,0.0413172469,0.00191884415,0.435273751,0.540913816,0.215685505,242.797734,113.524957,0.0163126461,4.66916696,241.777269,154.106028,0.184318439,0.800912259,1.12262277
0.0383494082,0.00951793764,0.0745963361,0.00231622394,0.888810622,0.298405318,4.01138466,163.810443,241.722376,0.68632735,3.92212041,199.269168,63.6452561,0.287751032,0.170345982,2.28762335
0.0243394051,0.00143609097,0.0593943966,0.0070440829,0.804923111,0.10472082,3.86802952,130.996849,116.451739,0.527782619,2.76043323,162.426247,221.158679,0.878772463,0.535107481,2.0922074
0.023735461,0.00107841345,0.0746095085,0.00675867864,0.798812043,0.171658135,0.836340094,230.150438,134.098032,0.0391223151,3.84529249,173.227997,121.973981,0.625238994,0.185926116,1.9886799
0.0848255696,0.00957346107,0.0934357727,0.00435191907,0.900736985,0.579986624,3.83130369,231.830693,162.618622,0.979962397,4.26288953,94.7033072,223.668734,0.494690834,0.48643384,0.58640202
0.0738822805,0.00922168554,0.0178994585,0.0024658567,0.937209582,0.702678933,0.682567121,239.779993,5.59499932,0.543030045,4.60699036,69.2215561,248.299565,0.610218814,0.627752291,0.752134444
0.0518378019,0.00967502166,0.0398548354,0.00450566927,0.491656539,0.586942662,0.325091669,121.06134,42.5682643,0.529342695,2.98220364,68.3878735,10.0209038,0.736135437,0.819131997,2.99730408
0.0201944065,0.00579528175,0.0944656556,0.0013638516,0.97279908,0.457842803,2.36222476,235.245241,237.790283,0.382339601,2.73934844,94.4388748,239.50455,0.523623264,0.188965333,2.2707262
0.0730790967,0.00997019321,0.0946977912,0.00472021361,0.848413466,0.632332781,1.66103462,151.475665,8.78400415,0.0759923357,3.0910628,81.6453255,240.882413,0.337222996,0.75147543,0.883180187
0.0574487524,0.00578950428,0.0901109511,0.00730779051,0.744943478,0.804072983,2.47708957,217.233505,109.335551,0.112740218,4.18920648,77.3312453,187.881648,0.328050055,0.221580499,0.49086156
0.0823301272,0.00108307319,0.0880906066,0.0036568937,0.820309147,0.746709318,4.75491832,182.278218,9.22069452,0.266494917,0.75931466,168.00681,244.366413,0.0727043412,0.416449813,0.316552836
0.0562560494,0.00919731367,0.0569694143,0.0067600532,0.97805343,0.26357857,2.3714111,57.9749583,99.695931,0.489873351,3.86691119,245.587306,237.071645,0.604512654,0.290873597,2.23807588
0.0906094526,0.00813577824,0.062625494,0.00798949189,0.937945792,0.774026689,4.54599485,228.255026,217.920494,0.829811326,4.38407511,105.814932,29.0726559,0.940467477,0.399961865,0.522305574
0.0599560284,0.00963063933,0.0232400782,0.0087461649,0.85355825,0.998328887,2.25070656,136.264719,116.015832,0.319911701,2.20574156,145.609556,131.280253,0.649982538,0.0451092487,3.26313507
0.0806129987,0.00970254194,0.0475089132,0.00532320839,0.138780964,0.342760017,1.743179,71.1305739,28.7462581,0.664961331,3.18884902,109.448318,148.781284,0.283614855,0.201045342,0.958500027
0.0925403169,0.00287923925,0.035226358,0.00982938803,0.977181049,0.954307672,4.87939165,142.195045,135.5193,0.358429692,4.93903341,234.558981,234.663207,0.646220101,0.0409097112,2.8923172
0.0613921027,0.00959053627,0.0638290285,0.00219132676,0.693682776,0.726748348,0.432422602,183.40319,36.9591442,0.137228215,4.18598015,74.3822532,104.557887,0.587944337,0.639163201,0.142387968
0.0479836683,0.00302991516,0.0132827371,0.00157602032,0.764513389,0.185733355,4.00389602,50.356358,38.4177264,0.640764307,3.33158637,106.612238,242.498746,0.319210433,0.251758622,3.14900661
0.0124040679,0.00610478086,0.0157317853,0.00171367656,0.804295275,0.321284955,4.38832831,93.4085071,183.1198,0.749267429,4.62596822,82.6530188,224.982731,0.675178567,0.41988395,2.44372764
0.016582448,0.00998347173,0.0390594255,0.00664258748,0.742342925,0.941191796,4.62100218,223.20704,204.176539,0.807214625,3.46525882,236.614808,248.571304,0.403085648,0.171836239,2.72530507
0.0244750726,0.0050249228,0.0188540677,0.0047020057,0.252052172,0.906805796,4.77419078,195.559992,78.5905828,0.839081001,3.30159141,198.791057,60.1923949,0.102320604,0.915705866,3.20435144
0.0875779628,0.00959208926,0.0253040164,0.00772386967,0.409796173,0.894274969,0.201226871,120.640978,159.960416,0.440250333,1.88835192,212.146724,158.606908,0.498412572,0.34101411,0.455880931
0.0503920955,0.0099273976,0.0434047419,0.00870901266,0.129475743,0.801367585,0.81633937,227.483959,145.287974,0.907788422,0.538961737,153.632597,59.7689716,0.392512086,0.205123584,4.69020738
0.0687319651,0.00658239385,0.076078546,0.0098253003,0.984254263,0.116455496,4.72577297,52.431803,85.9785423,0.924560916,1.61905482,222.149522,249.398669,0.668166242,0.732886866,2.2142179
0.0373125807,0.0068185244,0.0738316858,0.00978544267,0.543270103,0.793685571,1.62833802,102.146056,45.0942611,0.771410015,4.1089794,80.4300506,226.814398,0.353255551,0.149469983,2.69461874
0.0959195956,0.0021535217,0.0677207224,0.00998696021,0.941494473,0.467218564,0.965775093,205.588443,217.100544,0.566712728,4.55813718,55.310469,236.702668,0.618777454,0.0397795442,2.51328707
0.0351012079,0.00173188453,0.0256654774,0.00942024883,0.736755232,0.880900357,0.05159818,60.6458111,18.0778196,0.14015014,3.0306588,194.392306,182.376931,0.566761889,0.529818636,4.30474545
0.0194606106,0.00888616849,0.0624686748,0.0096054945,0.937056517,0.122458703,1.50560737,54.9311689,234.592536,0.763165499,4.91110286,148.016787,191.285097,0.951146608,0.933367035,2.14831209
0.0816552206,0.00124658966,0.0465993478,0.00328257791,0.928852116,0.663494303,0.2765715,249.537658,173.642423,0.8845277,4.88175182,102.909967,234.256592,0.52362035,0.352214608,0.810614417
0.0333678213,0.00986661821,0.0829256633,0.00747325256,0.984807628,0.200032474,4.82835812,181.023763,249.775089,0.99428662,4.92613081,202.601451,224.502195,0.480854992,0.351176728,2.18010218
0.0499904349,0.00976022852,0.0282406869,0.00724161354,0.994034467,0.292324801,1.51560932,51.032007,24.5484381,0.847541732,4.34284144,126.679278,247.329889,0.665315805,0.393866218,2.56744719
0.0198694531,0.00924732675,0.0882594901,0.00405362056,0.984118347,0.132732791,2.2567574,183.916886,59.6557122,0.96305658,3.74350863,209.598344,245.545468,0.538236606,0.796930576,2.17337937
0.0639835424,0.00345436398,0.0950646332,0.00186557877,0.840178374,0.500090436,4.36673672,102.914565,242.482665,0.987294296,1.88312157,212.719465,246.595515,0.573127531,0.219257237,2.31103498
0.0858359648,0.00952670237,0.0120712183,0.003865453,0.901160361,0.393922813,3.07966919,183.889516,2.12267181,0.227801072,0.960051413,157.609256,110.783574,0.961893472,0.884904385,1.13425573
0.0128080408,0.00444049614,0.0909483793,0.00950012861,0.429491071,0.358564808,4.30224102,60.9510166,123.656645,0.991165636,4.48078717,51.9100023,170.02995,0.53971073,0.0488219833,4.89501802
0.0268543127,0.00918930199,0.0507651504,0.00405134829,0.985013849,0.54680679,1.1314297,223.315043,72.6177057,0.201594002,3.74110484,156.089091,215.282865,0.477872336,0.812039741,0.878354696
0.0871109959,0.00934832931,0.0777223559,0.00615533973,0.983921375,0.263534675,4.57176715,246.608946,249.737113,0.20384632,3.32368316,69.9104788,249.113969,0.398963167,0.0325917923,2.44756901
0.0953129925,0.00797731941,0.0195642439,0.00958465302,0.685751783,0.440412685,0.524570596,177.604466,70.6382119,0.509089533,2.65118848,219.818061,189.395669,0.193184714,0.415042469,0.692166598
0.0820185952,0.00632650785,0.0998582762,0.00254415074,0.608993112,0.946163156,0.124020452,232.416413,46.827256,0.364537163,0.179581573,193.345175,22.4434085,0.0616601827,0.594666557,3.98222333
0.0829749296,0.00438561827,0.0879694663,0.00916511586,0.274450325,0.632316774,4.51457718,51.5769175,44.3134747,0.770767593,3.98253587,248.033664,161.252868,0.52490027,0.18898278,2.69485263
0.0935991281,0.0086558428,0.0653685217,0.0077699748,0.970868335,0.100727756,4.63106911,50.6466801,167.55471,0.786519259,1.33945606,249.940366,233.709821,0.329398957,0.296091212,2.25585774
0.0783570553,0.00498474172,0.0749250036,0.00943495209,0.93504688,0.412705802,4.74736922,61.2888497,69.8261136,0.915093755,2.41254451,61.1008057,238.406554,0.344935162,0.210988217,2.66239369
0.0747599052,0.00426637456,0.0390270372,0.00664669308,0.881700682,0.839603648,4.44277391,52.0417874,246.813019,0.999905103,4.71034832,242.505643,249.112334,0.657232821,0.174413519,2.55725393
0.0465126122,0.00997192906,0.0673648611,0.00516545131,0.171651515,0.166465916,1.01951226,228.608735,45.0739879,0.337997294,0.744774299,171.668518,229.48744,0.0824023593,0.629466779,0.240466255
0.049494153,0.00353179738,0.018911551,0.00997745321,0.608012337,0.996745746,1.93475047,242.912922,188.272496,0.926689759,0.594714161,198.277324,145.071545,0.809290657,0.941056449,0.153067763
0.0710784281,0.00739342878,0.030138933,0.00985071196,0.920189873,0.38301127,0.327676691,200.856487,47.7205489,0.38392747,2.28987662,106.308041,165.244469,0.981469897,0.661564946,0.633316571
0.0518563296,0.0069817786,0.0393287585,0.00972558391,0.548289787,0.828297854,4.96171694,217.151292,36.5616245,0.982969671,3.83424478,116.778869,112.981845,0.171232515,0.214898375,0.566340639
0.0957937751,0.0076632073,0.0739818103,0.00522340503,0.903661266,0.515305545,3.30521949,218.144453,7.66390106,0.479167239,0.637369604,125.761213,40.131746,0.665032183,0.4135898,1.57965626
0.0419228184,0.00939067912,0.0620059416,0.00631867537,0.555834366,0.12842732,2.4583615,78.2177311,80.2363782,0.62050947,4.34874046,201.793898,130.43847,0.672033916,0.38019675,2.24073176
0.0405118776,0.00954210723,0.0167359877,0.00199873222,0.147875445,0.529835962,1.46127288,178.731845,13.7864888,0.315630045,2.054635,120.604996,203.811488,0.0916109646,0.0349822849,4.66340788
0.090139123,0.00957863508,0.0151608402,0.00401937375,0.859268728,0.220255144,3.65606519,69.5190426,34.959432,0.340077331,4.45693528,65.49345,249.904814,0.471216727,0.102345099,3.41104841
0.0903390832,0.00759630981,0.0995860792,0.00246667693,0.643018003,0.257784885,4.51284831,239.099572,146.008109,0.878061262,3.03717508,58.1541597,189.902076,0.451802639,0.906886538,0.00880621487
0.0774355346,0.00446212004,0.0569549124,0.00133189685,0.721916947,0.128520382,2.75080244,57.9780409,57.0772198,0.594794424,4.34292748,249.999603,246.87311,0.577518061,0.368988067,2.35430386
0.0212389479,0.00148281487,0.0605692212,0.00345452198,0.682504095,0.239321378,2.39761377,196.494769,91.8597265,0.310091906,4.28952559,235.439076,50.0461558,0.608359741,0.582468669,1.41429592
0.042734493,0.00624640227,0.0981461793,0.00990713981,0.926720852,0.125907295,2.79943721,51.6388218,174.567886,0.613950436,4.75458775,108.719928,238.486772,0.634484869,0.56078627,1.81691914
0.0479774495,0.00998866378,0.0921448146,0.0042269022,0.895972488,0.58385928,4.62516221,245.362474,47.0845391,0.877727986,0.400426802,135.481136,17.2308212,0.130696393,0.126088631,2.63136177
0.0697006552,0.00907945606,0.0530660843,0.00416220929,0.884249593,0.265710103,2.23993803,105.040212,178.666225,0.951771653,1.20784624,191.552325,48.9656157,0.547352705,0.126862113,2.40093094
0.0811411478,0.00843352614,0.0500091296,0.00998735138,0.824289677,0.846792488,2.47425434,64.234532,203.981173,0.719454956,0.761834551,209.679275,243.394686,0.321718628,0.0896409674,2.69412421
0.0927055511,0.0066207712,0.0983856307,0.00952793769,0.858163249,0.496555079,2.90856516,224.919991,29.1732582,0.751842718,1.63369338,73.4853849,213.77261,0.152097766,0.326819631,0.904225122
0.0694064718,0.00466301492,0.0932940805,0.00449061674,0.81289211,0.100019846,1.83329234,78.1750903,110.380789,0.572839051,4.6970432,206.605605,240.865899,0.952285705,0.387614282,2.10315594
0.0877344427,0.0056147977,0.0310981147,0.00178383107,0.911164255,0.771336435,4.96340096,244.335851,20.5575331,0.806024062,4.04089912,177.728575,235.505413,0.443235762,0.318075469,0.601930972
0.0868351249,0.00167211934,0.0829531398,0.00428277184,0.261889532,0.279961258,0.603710915,226.668197,42.3583036,0.940251944,3.08805808,90.4487224,169.009801,0.270990586,0.261778535,0.426413477
0.036486155,0.00169022895,0.0818646748,0.00849776787,0.964647352,0.132696312,3.49661898,202.46603,90.4281519,0.565029731,3.5726039,205.074494,231.933453,0.398700346,0.296523983,2.17875761
0.0512630814,0.00311265828,0.0324972252,0.00933670684,0.922982369,0.269743659,4.55218915,56.0785002,1.46634733,0.165547757,3.85924355,246.053367,236.456404,0.523089011,0.428178043,2.45626795
