32.945,40.045,17.628,34.722,31.746,22.837,27.625,31.877,49.6,45.169,22.606,46.623,33.973,29.655,33.915,28.877,29.32,38.159,37.718,37.762,33.678,23.386,33.928,38.929,32.678,35.667,33.981,28.338,31.61,25.688,34.866,23.717,24.146,25.566,13.873,37.878,31.781,25.865,37.505,20.626,29.44,28.678,31.748,31.714,25.263,29.835,29.097,33.438,35.988,36.076,25.27,30.424,23.35,23.901,29.962,38.395,25.784,32.034,28.764,36.12,24.035,30.178,33.026,36.028,38.458,30.471,21.83,25.934,24.185,42.874,26.628,34.097,28.946,34.867,25.811,22.319,22.209,32.674,29.028,28.926,37.774,31.597,31.083,38.696,25.594,33.816,34.574,28.665,31.181,23.614,23.712,30.574,33.956,44.161,26.347,31.026,29.548,19.412,27.596,20.17,34.603
24.59,29.949,26.453,31.052,26.151,32.063,33.415,38.689,28.353,17.81,24.853,36.752,23.592,34.617,30.079,37.197,18.773,28.334,22.856,45.175,33.881,36.884,23.668,26.865,27.928,35.362,27.899,33.21,18.28,27.487,24.94,20.854,32.161,30.935,29.588,22.174,35.52,31.305,27.784,29.53,27.985,19.915,27.857,24.898,24.096,23.135,26.513,18.546,34.635,32.226,29.297,29.217,25.078,34.93,28.684,25.531,36.734,28.187,26.212,27.813,24.808,23.332,43.104,38.383,31.074,22.589,24.713,28.449,33.698,22.183,16.772,21.548,31.214,31.528,31.855,28.699,30.402,26.824,34.08,22.022,31.873,24.804,27.59,32.404,35.041,23.345,36.242,32.986,29.038,28.347,28.226,27.762,29.531,29.684,33.885,37.686,31.938,28.269,32.796,30.4,23.822
33.92,30.472,29.549,31.59,30.227,23.769,27.952,28.04,25.967,37.855,24.122,26.226,25.001,22.52,27.792,27.352,37.038,27.487,23.11,37.432,35.452,27.591,20.737,26.437,27.986,30.306,27.422,31.204,30.928,22.109,23.734,24.845,26.097,27.103,28.891,12.561,26.37,35.494,23.097,33.837,30.704,28.668,29.803,20.421,28.37,37.435,29.352,29.046,24.882,28.658,30.071,31.113,26.822,27.554,39.688,16.699,40.793,30.636,34.193,19.889,25.656,27.331,31.093,19.857,31.356,22.312,29.179,32.326,30.58,34.636,34.225,25.329,30.204,23.754,21.727,33.789,28.824,28.529,33.715,32.016,30.704,35.536,33.816,30.111,25.117,25.326,35.224,20.17,28.692,18.361,34.303,33.45,28.83,28.443,15.475,31.944,17.053,16.372,29.253,23.732,31.033
31.851,32.812,24.579,30.642,28.788,32.644,31.103,33.026,27.552,27.471,33.61,16.965,25.571,21.499,26.219,31.701,32.642,22.858,25.749,28.981,26.702,29.857,30.379,23.31,27.313,16.92,34.341,24.909,21.854,26.903,20.659,28.142,25.273,39.829,34.304,14.981,30.599,20.821,26.897,29.127,32.227,26.802,36.632,25.697,29.994,31.786,28.706,32.936,29.971,24.085,18.657,38.132,25.04,28.802,31.246,28.857,23.444,25.767,27.589,36.114,23.677,32.424,29.893,27.01,22.635,26.743,27.792,20.443,29.274,23.882,27.752,30.04,23.444,26.721,30.114,18.495,33.76,41.14,33.352,26.574,30.531,22.746,38.234,33.253,32.438,23.597,29.954,25.285,26.598,25.223,22.801,23.423,27.137,19.223,31.483,27.627,31.969,29.686,30.88,20.37,22.83
25.341,28.271,33.633,26.168,34.332,30.195,33.872,28.362,24.237,19.898,28.512,32.001,26.154,24.848,26.069,21.923,25.099,26.742,27.935,27.358,30.911,28.269,37.24,29.336,37.19,23.888,30.464,26.324,30.852,30.819,16.19,20.71,20.11,29.808,35.43,25.974,31.968,30.564,22.159,29.785,23.737,35.673,27.522,36.303,25.457,30.795,27.363,17.053,22.525,30.917,27.405,21.806,24.397,29.007,22.468,32.824,24.322,37.213,22.011,28.742,19.689,23.885,24.572,29.806,32.651,29.275,25.73,31.985,31.898,28.326,30.7,29.866,22.5,31.691,24.235,24.515,28.625,26.075,27,30.827,33.202,26.652,29.418,26.439,28.902,30.009,24.447,29.14,30.857,28.179,36.797,24.491,23.815,18.485,32.485,32.256,27.273,32.422,28.66,29.224,28.288
29.437,27.675,41.667,21.067,17.484,21.202,21.449,24.886,26.267,26.007,29.966,29.173,31.059,36.41,33.517,20.459,15.011,31.844,17.581,27.493,27.33,38.749,26.785,24.502,28.374,28.426,27.51,23.974,20.775,28.794,20.149,21.767,34.081,24.963,26.414,31.833,25.582,32.508,25.347,32.422,30.424,26.035,22.635,21.71,25.738,24.862,25.016,32.269,25.594,33.104,24.375,32.212,24.424,28.065,32.203,24.988,24.862,37.583,32.1,24.894,30.526,25.269,30.823,34.522,18.785,32.506,34.741,27.392,36.243,27.955,20.7,15.717,25.408,30.863,28.799,29.3,24.138,27.895,18.608,23.185,22.879,29.853,27.071,21.125,27.095,23.551,23.672,31.647,27.736,29.221,31.751,28.084,30.015,30.703,33.244,29.624,34.503,27.263,26.896,36.009,24.489
26.593,31.353,27.38,33.855,31.942,28.112,22.596,29.531,19.476,27.869,30.778,27.707,31.145,37.125,31.373,27.984,29.917,28.802,19.826,24.46,32.925,26.383,29.612,21.416,26.94,29.704,19.585,28.401,25.67,21.761,26.414,16.826,15.631,20.537,21.498,20.557,17.707,28.094,18.384,27.176,30.668,26.596,27.088,24.657,18.96,26.382,31.564,35.574,24.388,18.213,27.466,28.548,25.437,20.681,37.05,14.437,23.977,19.79,23.326,28.247,27.32,22.941,30.616,29.818,29.947,24.412,32.016,30.016,39.549,32.093,32.575,26.881,19.962,24.693,22.699,23.699,29.471,23.736,21.99,24.496,25.778,28.719,21.694,28.244,27.01,33.439,25.508,25.914,20.565,19.462,28.209,25.321,29.206,22.003,36.452,27.238,32.008,25.437,25.769,30.167,29.474
20.36,18.253,20.474,18.85,26.385,23.981,24.201,19.13,30.062,28.325,25.623,31.296,21.617,28.199,27.86,27.864,22.357,27.75,23.451,21.503,19.936,31.381,21.761,25.198,19.908,24.563,9.575,20.53,18.796,20.9,24.992,24.419,36.011,23.161,24.804,18.066,23.643,19.248,26.235,30.437,28.145,22.503,17.754,33.537,36.55,26.696,21.025,32.198,23.054,23.681,30.607,19.007,16.088,28.229,28.127,26.567,28.617,31.608,31.037,23.177,30.217,26.966,23.499,19.987,29.385,24.275,26.318,22.031,18.162,26.957,25.763,32.204,30.175,31.46,22.256,21.299,19.6,28.624,40.324,29.796,22.133,30.353,20.318,18.806,29.745,22.108,27.694,33.264,28.129,30.828,17.88,29.459,37.002,28.844,18.212,25.043,23.527,28.037,28.185,28.152,24.223
22.534,22.583,29.88,16.195,24.516,26.931,22.264,27.977,25.204,20.82,26.38,24.208,23.492,21.968,25.875,16.23,23.55,22.816,20.954,28.864,21.852,28.298,30.498,24.771,26.969,28.798,25.155,28.299,19.181,31.179,20.561,16.318,32.564,25.247,27.834,23.728,20.404,10.027,28.731,24.115,24.567,27.615,18.388,21.876,31.365,28.587,19.086,14.424,22.676,26.646,30.329,26.038,19.89,27.112,19.637,20.706,22.259,19.348,24.194,21.014,24.12,23.226,23.492,23.018,31.8,28.65,25.863,18.147,17.344,15.63,38.736,30.481,26.864,20.638,19.768,28.333,33.478,17.003,23.292,25.138,15.493,29.818,23.468,35.233,23.588,27.633,19.788,22.405,19.655,27.549,32.147,22.563,27.771,23.014,26.081,31.613,26.172,20.322,21.231,24.705,24.595
20.724,25.962,31.398,23.801,24.034,14.038,21.181,18.084,23.125,27.689,32.683,34.061,24.473,23.455,29.15,27.512,28.889,28.954,17.648,27.763,24.6,21.252,21.586,31.473,21.005,18.867,26.133,35.124,25.186,26.601,20.361,33.439,25.684,27.712,20.292,29.333,27.006,19.271,25.257,22.802,25.605,23.804,24.107,19.888,23.44,28.895,33.792,19.249,36.959,32.697,25.902,23.55,21.561,29.227,21.581,22.746,29.481,27.24,29.547,27.585,23.051,22.486,29.045,21.698,30.998,29.016,26.498,25.074,26.888,42.712,24.495,17.266,34.645,28.111,21.815,38.16,27.816,26.531,21.164,19.727,16.206,22.941,19.786,28.301,23.468,33.913,32.62,25.879,23.643,30.826,19.319,28.431,21.709,23.054,21.695,27.94,21.163,19.734,27.826,22.939,26.868
22.818,25.898,11.853,26.871,33.748,29.713,29.076,23.374,25.459,25.772,25.04,20.446,22.816,23.696,22.18,28.709,37.142,18.003,25.198,17.413,31.017,31.549,16.322,34.195,19.186,25.686,30.008,25.291,35.939,38.204,25.247,15.111,22.753,20.359,20.772,18.973,24.949,35.002,21.014,23.172,30.343,30.573,26.968,29.647,28.877,22.67,26.688,23.079,20.102,27.708,24.896,23.635,26.008,29.457,26.509,25.526,25.949,24.816,20.724,28.461,31.544,21.915,34.116,23.688,23.354,20.113,20.635,19.839,26.316,32.477,27.176,28.795,31.212,12.174,23.731,26.311,28.117,18.095,19.577,28.481,23.984,27.303,19.801,16.465,28.334,30.476,32.65,16.968,17.936,17.258,24.355,21.511,31.075,17.351,15.927,25.579,30.474,20.583,18.289,23.822,16.452
24.161,28.14,25.144,14.707,21.442,22.594,32.974,28.564,23.795,30.5,18.949,22.367,31.007,31.447,27.659,26.484,21.2,27.731,20.012,26.895,25.458,29.666,21.986,27.197,27.967,19.668,24.842,31.913,24.627,22.561,26.316,22.726,26.25,23.414,23.986,26.337,30.76,26.293,32.164,14.123,21.871,25.234,19.978,17.815,27.103,27.082,25.495,26.015,19.804,21.634,23.552,20.701,25.704,35.681,21.709,27.252,19,30.648,19.32,25.1,21.04,26.588,24.131,23.86,38.546,20.984,23.846,37.24,18.449,26.789,18.794,29.133,25.683,27.275,22.707,25.279,31.301,12.912,16.062,26.114,20.863,22.621,16.731,19.636,22.092,20.514,19.824,22.006,19.45,30.66,19.226,32.996,22.238,16.952,21.04,28.661,29.257,24.862,25.486,27.181,16.917
20.773,14.708,21.417,28.21,27.084,34.713,24.409,13.123,31.806,29.828,20.768,24.68,27.385,25.468,26.982,23.051,23.41,24.027,19.763,30.511,23.63,26.934,19.446,18.375,23.157,22.371,29.403,26.543,26.225,16.58,18.898,24.58,21.909,29.866,30.114,20.777,27.85,30.378,25.158,31.485,28.76,24.639,27.858,24.543,21.583,25.34,23.775,21.828,32.202,24.674,36.863,22.16,26.34,31.287,36.857,25.074,19.76,27.502,17.187,22.269,24.92,30.835,30.58,23.465,28.087,22.038,26.81,32.903,24.36,22.139,21.17,27.079,30.095,33.925,23.861,24.391,20.525,31.43,23.232,21.3,34.21,27.533,27.079,18.714,25.707,26.126,18.293,22.502,21.632,26.163,18.707,28.889,32.27,22.123,23.557,26.06,29.444,26.135,25.528,21.253,22.474
26.082,31.225,25.865,17.331,25.214,22.688,21.958,22.077,18.9,21.589,19.359,21.376,23.696,23.97,22.094,22.398,23.294,25.336,29.296,26.114,21.753,26.008,21.951,14.567,11.842,14.89,21.991,20.151,19.668,23.327,19.962,20.099,26.064,26.894,34.85,24.586,23.412,20.37,22.193,22.889,14.687,21.894,26.736,20.386,25.509,27.9,28.312,26.868,12.263,20.417,27.467,25.03,23.155,25.233,28.567,23.871,19.483,22.265,22.132,27.444,25.115,25.765,23.843,21.389,23.426,24.174,16.407,23.992,27.593,22.602,30.694,25.827,21.11,22.391,21.808,24.291,26.761,21.728,25.336,31.574,27.612,27.101,19.213,20.562,24.298,22.647,15.316,15.848,28.067,19.485,33.127,12.445,25.29,23.135,19.494,25.076,19.313,27.267,23.453,15.247,11.47
21.322,28.129,23.536,22.932,25.948,16.039,29.461,18.417,22.853,20.942,23.386,13.414,29.93,25.272,32.244,29.419,22.728,18.202,14.393,22.754,23.717,27.653,18.145,26.458,23.014,18.989,26.36,23.938,21.554,31.613,25.575,22.148,23.995,23.088,23.5,24.833,19.8,18.878,24.391,31.65,21.213,17.851,21.538,20.369,21.115,24.938,22.054,19.843,20.56,16.376,18.581,15.945,20.217,17.507,19.306,21.237,16.957,22.581,24.294,18.087,27.978,15.121,20.808,15.604,21.033,16.369,19.936,19.147,17.031,12.841,25.364,32.198,33.26,20.33,22.454,20.456,23.035,18.299,13.534,22.5,16.84,13.615,33.979,21.562,24.597,28.352,14.651,24.641,25.063,23.069,23.425,20.16,26.116,18.626,18.881,26.127,30.704,20.834,20.268,24.617,27.78
26.788,23.498,19.234,25.193,21.851,28.716,15.586,22.89,28.305,19.891,19.279,17.823,20.911,21.279,22.869,18.06,22.614,19.378,20.486,18.273,20.893,39.054,38.289,27.631,25.936,16.199,19.469,19.304,24.748,24.501,22.736,20.62,17.86,22.25,27.595,24.239,23.078,25.324,24.979,14.604,22.313,20.216,12.636,15.961,20.717,26.116,21.144,23.461,17.991,12.054,22.667,17.74,27.752,30.404,20.472,27.848,26.72,15.554,22.067,23.456,24.69,25.415,25.404,25.423,20.751,24.012,11.604,16.717,27.891,19.11,23.769,29.334,18.034,17.702,19.902,24.304,21.259,17.615,14.809,20.479,21.182,19.701,20.99,17.06,24.814,11.973,22.906,25.379,18.223,21.955,23.6,19.327,22.16,24.167,17.807,26.162,27.385,23.739,22.296,16.735,24.557
16.11,29.209,24.242,23.02,19.947,11.627,16.204,23.49,33.044,25.239,23.23,19.255,22.355,26.276,20.599,30.614,16.089,20.028,22.029,12.665,24.424,22.148,22.161,25.494,26.656,25.529,19.596,21.567,23.434,15.919,16.949,19.792,22.147,30.143,25.506,19.719,18.848,28.943,34.543,22.566,19.549,15.191,26.335,23.137,27.224,17.543,22.907,18.732,27.735,19.212,21.377,20.161,26.424,23.784,17.098,18.831,16.904,24.145,23.334,14.151,12.885,21.596,25.039,22.572,14.579,14.542,25.831,21.106,19.982,27.928,18.067,22.417,23.735,25.611,17.797,23.452,34.613,14.723,23.81,20.712,17.924,17.901,24.108,32.592,18.079,24.309,19.175,31.01,24.327,21.141,24.678,21.758,26.952,20.918,16.55,22.935,29.07,16.199,20.653,26.474,12.823
24.243,24.832,22.34,17.794,21.32,21.784,25.675,24.419,19.735,28.838,21.118,17.598,19.327,25.321,22.255,25.46,21.673,32.845,13.656,19.431,20.964,21.766,28.082,22.367,20.822,21.67,24.826,18.167,23.436,14.121,20.989,17.001,18.336,22.659,16.154,16.783,14.348,11.055,20.653,26.726,20.512,20.272,16.516,28.67,20.201,27.333,23.026,20.138,26.354,25.893,20.838,27.342,29.584,21.05,20.172,23.223,22.979,25.085,20.172,24.658,26.199,22.174,22.061,15.557,15.934,14.6,15.603,20.636,13.891,31.732,24.769,11.799,16.018,20.858,13.438,19.228,26.395,20.596,21.042,16.725,18.785,15.108,23.036,19.263,24.973,27.07,26.331,21.192,19.024,15.697,21.901,25.787,19.778,20.552,24.201,25.345,14.806,22.277,22.258,20.655,25.479
19.264,17.151,22.193,23.034,19.935,24.573,13.985,16.013,6.8752,23.316,16.396,19.772,25.548,21.164,18.915,17.049,19.831,23.689,13.993,20.618,24.51,14.431,23.993,24.056,16.895,14.047,22.912,24.628,23.579,24.42,15.522,23.601,18.277,18.362,13.812,25.964,21.731,25.522,27.843,15.727,23.872,20.872,25.113,25.998,24.684,17.19,20.352,22.139,35.38,26.542,31.547,22.827,21.899,23.736,18.516,26.611,20.209,14.646,24.914,13.754,12.493,22.25,16.58,16.764,20.189,18.694,19.911,22.175,15.584,15.329,11.325,19.145,23.969,17.717,23.224,23.402,25.463,25.457,17.779,17.01,21.152,17.889,27.577,27.243,21.366,18.976,23.267,17.928,20.358,18.503,21.413,26.092,24.327,26.162,16.746,21.753,16.432,22.691,22.42,26.861,25.959
23.475,18.228,18.36,11.223,18.485,13.49,24.727,24.601,21.142,18.802,21.164,27.786,26.627,18.485,21.279,15.441,22.331,23.863,24.593,13.58,22.801,16.601,18.81,24.085,21.867,19.774,23.264,27.919,17.692,14.401,15.252,16.239,17.476,23.128,11.068,21.585,16.99,25.496,16.641,20.55,16.269,17.429,19.338,19.48,18.139,25.626,23.008,28.919,19.26,25.347,11.007,23.408,22.198,18.821,23.665,24.491,25.197,22.417,23.238,17.463,15.555,19.304,21.361,24.823,16.935,18.299,33.989,17.696,29.214,24.869,17.989,20.033,19.541,22.66,26.701,13.098,29.682,24.039,18.03,19.945,21.873,21.857,25.955,25.454,18.891,19.927,23.839,21.061,25.663,17.405,22.652,21.822,26.82,14.421,20.519,20.758,9.9083,26.169,33.24,19.464,21.816
18.026,21.833,18.406,19.653,27.366,16.31,17.527,19.769,19.516,26.564,29.219,15.723,17.235,22.444,18.402,29.046,27.445,22.616,22.637,18.592,23.534,25.165,20.744,28.756,23.117,19.616,21.773,25.027,18.324,19.726,30.752,17.984,24.353,23.779,27.235,22.468,9.0547,16.287,22.404,21.266,28.91,26.416,22.338,20.481,13.166,28.465,20.711,13.177,22.053,20.571,17.552,22.321,16.937,14.065,12.243,18.478,17.297,22.083,13.371,19.176,13.36,28.225,19.585,25.608,22.329,24.184,14.934,25.749,26.623,10.796,19.318,17.185,20.812,16.297,21.361,22.787,21.207,19.579,14.327,20.368,17.774,14.374,19.857,19.169,20.971,24.56,22.694,25.965,16.839,16.233,19.684,26.312,25.956,19.545,17.433,13.29,23.122,20.212,14.828,18.609,11.906
21.62,18.939,26.954,13.676,24.02,20.349,20.078,22.893,25.01,14.956,25.567,14.339,14.943,16.725,22.981,14.961,21.197,21.54,20.396,22.174,14.504,24.185,20.215,22.953,15.345,19.942,23.608,24.214,19.337,11.482,14.842,20.682,23.238,21.768,16.991,29.676,20.033,23.554,17.866,14.761,22.754,24.318,27.802,17.363,12.484,26.892,20.884,14.707,17.229,16.12,24.866,22.34,20.789,20.779,16.064,24.121,21.249,18.552,18.891,19.26,15.773,23.003,25.892,30.695,21.949,16.06,20.604,15.24,16.989,16.786,16.012,21.39,14.76,22.674,23.242,24.318,19.621,22.459,27.717,19.947,18.922,27.581,8.5729,17.684,30.502,17.618,17.224,14.266,23.232,10.344,16.162,22.229,19.705,22.481,20.273,22.734,13.996,20.68,12.756,23.189,18.333
22.202,16.959,20.766,23.954,10.619,11.113,11.267,23.051,21.102,16.233,25.91,19.927,12.346,14.841,13.232,23.518,16.679,14.17,16.784,15.644,23.07,21.419,20.65,21.149,19.51,15.15,21.702,15.712,14.609,14.6,23.143,23.633,11.59,18.67,20.429,16.638,22.666,20.439,18.649,16.871,22.297,23.054,21.384,18.267,23.369,15.335,19.956,25.459,18.487,15.612,27.864,18.236,21.262,15.789,20.585,21.374,19.341,20.754,24.616,13.149,20.225,10.569,19.446,27.807,23.458,19.291,17.834,21.643,23.967,19.386,26.419,15.735,10.54,16.032,18.445,17.683,15.596,25.199,12.216,17.159,15.06,17.237,16.393,21.424,14.745,15.714,19.766,24.086,11.169,27.232,15.46,22.168,23.935,25.137,17.047,19.428,18.607,16.659,20.515,20.898,17.772
19.515,30.574,18.906,22.03,16.926,16.641,17.434,21.395,15.45,10.875,19.17,17.039,20.157,19.307,22.112,22.858,13.17,12.304,21.125,20.272,14.851,24.323,19.082,19.476,20.131,22.221,25.573,17.798,11.407,23.349,14.901,24.351,16.373,25.429,15.431,14.097,23.103,13.007,21.9,20.844,18.315,17.452,27.894,17.309,18.111,14.853,15.398,16.399,26.378,17.239,15.935,16.988,22.047,13.213,21.668,13.145,18.369,10.988,21.271,21.954,15.946,20.321,19.647,23.983,19.497,23.462,18.43,16.117,18.773,18.071,22.775,18.694,15.278,18.265,24.111,17.133,16.072,23.221,19.379,17.36,15.723,12.498,19.606,17.559,20.326,12.6,24.691,21.059,12.121,23.539,16.381,20.254,19.894,15.117,6.4862,21.269,17.45,16.337,20.762,15.937,21.859
19.214,14.292,22.169,20.608,23.959,14.718,14.706,19.913,21.437,22.131,18.592,17.547,21.376,27.028,22.375,18.928,16.088,20.717,16.478,19.591,21.917,22.546,21.098,24.5,26.539,10.387,10.9,14.588,9.9554,17.025,17.114,19.642,19.796,15.607,15.059,21.982,16.918,12.656,18.608,19.443,16.793,21.422,19.536,17.646,18.374,20.538,16.662,14.018,17.893,19.12,20.758,18.434,16.593,21.133,18.074,22.041,18.177,18.536,18.168,14.594,14.57,14.422,26.254,17.701,22.615,20.068,26.574,22.558,13.277,17.154,22.405,19.805,28.323,18.357,11.877,20.477,14.635,18.776,23.208,19.891,19.855,17.714,17.933,18.119,6.504,20.258,22.83,12.973,12.006,21.239,12.068,11.328,21.963,15.745,23.927,12.996,15.917,19.605,20.93,20.578,19.388
17.216,15.725,20.245,16.546,19.994,22.836,8.601,25.893,15.5,23.811,24.814,11.93,18.951,32.982,17.28,20.27,19.607,23.604,22.848,14.159,16.325,19.66,17.947,29.009,20.067,20.062,14.623,12.619,21.583,17.354,20.965,14.649,22.018,10.46,24.879,21.807,18.666,13.243,16.5,19.281,23.348,13.787,23.721,30.004,16.083,20.196,15.392,10.872,24.469,21.157,16.017,18.68,17.216,11.961,5.9008,17.993,16.223,15.736,14.587,10.444,15.97,18.885,13.667,20.118,17.032,17.763,12.1,14.935,19.945,14.826,18.885,26.633,21.588,22.621,28.264,23.21,19.893,26.519,14.337,15.286,26.805,20.134,18.016,20.15,17.069,16.95,16.546,15.833,14.17,17.941,15.745,24.346,19.201,22.553,17.599,17.848,23.563,24.46,18.336,25.415,20.225
19.392,27.093,24.321,21.667,19.534,15.562,17.349,25.53,9.2983,15.146,17.038,18.462,10.302,20.07,20.917,13.865,16.741,12.711,24.696,19.413,16.776,13.927,18.252,24.949,18.998,19.328,12.766,18.537,21.114,12.002,22.601,28.248,11.256,9.1077,17.529,21.042,17.491,17.166,17.863,13.34,10.893,24.515,19.071,12.82,22.38,12.357,17.321,20.964,14.285,16.36,17.961,26.081,19.774,16.149,16.884,16.652,23.354,16.635,14.492,18.852,17.436,21.186,21.888,22.427,20.569,20.507,25.874,12.937,16.369,10.677,21.718,17.927,16.571,10.567,18.61,16.739,12.114,12.947,14.618,16.779,10.873,17.067,20.436,16.245,14.888,19.12,22.486,15.949,15.865,11.772,13.707,20.394,17.356,21.065,20.665,19.423,21.073,24.27,20.272,19.635,17.654
12.288,15.371,18.845,12.835,19.44,18.831,17.901,18.743,17.582,17.39,17.446,21.369,17.104,6.4393,15.45,18.302,21.495,23.254,13.546,20.664,18.477,16.611,17.586,17.365,18.069,18.476,14.675,13.113,21.521,16.564,23.397,13.618,14.998,23.425,23.368,13.18,18.346,23.09,23.055,12.11,24.249,20.249,18.433,16.539,13.443,17.88,16.409,27.142,18.277,16.757,17.424,14.92,26.145,20.146,17.796,22.179,17.344,17.074,15.155,14.909,24.191,20.696,17.846,24.609,17.581,18.695,11.546,19.47,11.431,13.35,21.452,18.951,13.835,15.818,18.555,18.402,10.327,12.441,10.07,17.179,10.286,20.417,13.278,12.856,24.969,26.524,14.057,17.328,25.69,15.223,24.664,20.91,17.715,16.006,24.562,20.455,14.837,19.125,13.812,18.105,23.888
19.338,13.992,18.577,14.248,25.495,9.7111,14.406,20.33,13.74,17.21,19.846,22.343,13.299,16.433,15.184,16.663,18.666,14.575,20.448,18.903,15.181,18.279,21.211,21.247,19.902,16.867,14.569,18.064,15.207,15.762,20.965,23.126,19.603,25.636,10.806,17.23,17.531,23.82,19.211,15.796,19.431,19.796,17.892,8.7433,21.371,2.6827,17.59,10.714,15.666,22.926,15.011,25.073,20.359,16.116,13.396,15.083,18.687,7.3232,19.682,18.293,20.526,25.612,15.796,13.077,22.019,20.839,16.545,14.68,18.167,12.459,17.41,14.496,13.745,21.143,17.262,22.729,12.639,18.131,12.806,19.698,22.539,21.373,8.3794,19.958,17.172,18.52,14.87,10.302,20.832,15.037,15.771,17.833,27.637,26.631,11.678,15.174,21.224,8.5548,22.286,15.831,22.929
13.191,13.016,26.282,19.207,15.527,12.563,21.319,18.199,7.5182,13.095,28.969,16.749,8.602,13.158,15.076,19.644,16.13,17.213,16.724,12.861,21.604,15.3,14.898,17.596,16.523,14.66,17.318,25.457,19.015,14.112,13.233,15.818,10.338,24.28,17.634,12.029,17.291,10.881,19.184,16.053,16.969,18.28,20.296,13.478,10.784,16.371,13.424,18.539,9.1957,20.316,18.053,12.241,15.497,20.231,26.742,15.358,22.461,13.27,17.645,15.947,18.191,14.755,10.971,15.687,18.599,14.723,16.041,18.445,19.007,13.79,15.697,20.365,18.153,11.273,23.141,14.27,13.934,10.962,16.348,16.376,15.474,13.356,9.9913,29.143,22.948,15.326,16.326,18.268,16.747,14.459,20.625,12.132,24.819,9.5705,15.472,20.373,17.28,10.637,20.575,17.466,13.458
18.102,19.533,25.328,16.084,15.271,14.416,8.6453,18.58,8.1283,15.369,15.348,19.894,5.2199,20.19,14.357,11.218,16.429,17.411,14.743,10.502,21.36,17.265,13.596,21.4,17.954,11.321,18.984,9.1791,12.172,17.079,18.133,16.75,8.6208,19.786,21.584,21.201,14.15,14.866,12.336,17.48,17.487,13.334,20.196,19.922,19.131,13.407,11.033,19.111,22.337,11.229,7.5043,22.292,16.214,21.243,20.463,11.52,14.712,13.076,17.193,21.197,16.692,7.9432,21.477,16.475,14.6,7.9304,17.982,17.459,17.838,12.09,13.502,12.746,23.718,13.135,15.666,12.852,20.16,16.415,16.76,20.276,19.204,19.654,7.8105,17.357,20.385,17.884,20.124,25.071,21.531,11.907,13.096,15.97,13.857,16.144,21.448,14.308,15.303,15.541,19.201,20.671,15.858
14.865,19.889,19.044,18.099,29.259,16.266,17.509,15.803,18.615,14.029,20.187,23.486,16.481,15.864,13.875,14.236,9.2948,15.923,12.598,21.184,16.764,16.359,21.757,9.0051,17.463,11.888,13.554,17.177,19.72,12.777,18.36,21.997,12.703,12.153,16.091,18.657,16.144,12.859,16.601,16.97,14.352,11.637,17.887,16.207,14.68,13.602,14.128,12.655,11.96,21.222,15.168,9.1924,14.177,20.398,13.976,23.278,13.007,13.113,11.988,20.814,13.808,17.815,9.5174,13.838,18.787,10.995,16.34,18.341,23.283,18.714,19.941,14.715,13.813,16.365,12.55,20.646,19.255,20.005,21.203,15.705,13.82,18.25,20.766,19.587,19.937,22.189,17.325,20.975,16.091,19.31,10.5,22.333,9.0081,16.965,14.748,11.482,17.487,17.473,21.808,16.688,18.459
16.786,21.656,20.315,15.861,16.313,22.896,14.866,19.231,12.325,12.788,19.25,18.397,20.027,13.3,19.868,16.503,15.63,22.537,21.534,6.8656,17.237,12.437,14.627,13.296,22.28,20.755,18.027,18.616,17.641,18.539,16.818,15.109,17.838,14.586,14.25,14.746,15.468,15.851,25.888,10.954,11.556,16.797,15.617,12.915,17.119,18.814,11.23,14.197,10.696,16.151,16.47,18.534,11.498,17.002,15.249,21.355,17.039,13.682,14.908,13.686,21.542,13.786,9.4279,15.018,20.367,18.457,16.471,22.92,13.481,16.849,12.351,12.685,14.449,18.395,23.989,18.996,11.559,15.003,13.614,14.654,20.513,17.32,19.763,18.219,12.665,19.521,10.448,19,18.204,20.195,10.172,15.009,15.89,16.218,19.304,18.606,18.412,16.529,22.485,14.526,16.221
13.235,15.263,18.363,10.673,16.257,12.612,18.61,7.7664,7.8053,21.902,14.917,7.7551,8.866,15.163,16.716,16.835,19.707,16.817,15.216,19.631,23.613,15.611,14.558,19.595,13.508,9.6656,15.086,16.471,16.08,11.103,13.155,12.83,19.266,14.99,18.063,17.862,14.748,7.7057,16.935,18.277,12.542,15.439,13.766,22.205,15.385,16.309,11.38,12.61,10.164,18.374,17.896,12.244,26.876,19.125,17.103,23.051,5.8358,15.147,15.408,16.293,11.417,17.59,6.7752,15.929,17.234,15.344,16.94,12.498,17.669,14.03,8.9723,14.284,13.064,11.471,17.494,15.665,14.502,13.349,22.107,20.124,14.761,15.846,21.462,22.567,19.847,14.222,13.211,18.465,12.104,11.289,14.107,19.27,16.133,16.47,19.934,16.429,11.022,18.821,17.381,15.157,13.879
13.075,15.105,12.078,13.202,9.4027,13.177,12.496,17.451,20.871,19.235,19.28,17.835,17.329,18.122,12.353,18.447,10.526,17.611,11.953,11.415,13.43,10.12,15.261,19.528,14.226,17.131,15.83,19.923,14.581,16.341,24.819,19.667,11.558,19.564,11.595,15.237,16.327,18.59,13.65,17.295,22.098,7.7699,11.001,19.857,14.053,15.05,18.8,23.865,10.123,11.655,14.896,15.2,15.615,13.98,19.953,11.653,15.994,19.057,16.661,12.773,15.668,13.961,12.861,20.474,14.428,12.945,12.251,15.671,9.3669,8.7809,15.951,10.17,13.64,18.221,18.794,21.22,11.263,18.538,16.467,20.081,16.057,18.377,19.641,13.593,13.401,10.017,14.857,16.584,12.301,15.479,13.809,13.516,18.237,18.381,19.675,10.969,14.668,17.752,10.156,22.71,16.108
12.794,18.884,16.353,15.319,12.272,8.0836,11.178,12.406,16.644,17.269,11.867,18.094,17.474,14.413,11.226,18.341,14.397,10.986,15.871,16.918,9.2561,22.101,6.6028,8.586,19.622,16.153,13.242,14.942,17.72,11.547,18.48,17.589,14.723,15.636,12.471,11.591,13.397,18.867,13.972,13.154,11.118,10.523,14.983,18.913,19.651,17.06,13.705,13.479,16.309,18.516,18.658,6.7191,14.718,11.166,13.079,21.595,11.896,8.3985,15.581,14.417,13.294,18.292,17.083,16.348,13.829,16.249,13.773,15.616,17.123,16.209,12.301,12.825,10.883,18.747,14.797,12.362,17.513,12.926,16.619,20.751,18.517,14.279,14.458,22.374,14.238,16.06,16.156,18.467,15.729,16.311,16.141,25.276,18.279,11.515,10.199,8.6647,22,11.737,18.727,16.958,9.0048
22.333,16.713,21.558,15.912,15.289,10.707,14.746,15.127,8.7901,14.53,15.226,11.847,16.172,9.9687,12.41,15.005,12.29,16.214,13.216,11.262,18.162,16.896,16.786,17.221,18.46,18.389,14.731,12.882,14.18,19.333,10.025,12.446,18.589,17.835,12.709,13.812,14.007,13.55,5.2661,12.97,15.784,23.971,9.0134,12.174,13.13,11.002,12.028,7.2494,14.173,12.621,16.647,14.822,18.675,20.796,15.068,9.8716,15.535,19.946,14.238,16.084,10.91,20.37,16.146,12.989,8.2056,11.975,10.677,12.72,15.928,17.772,15.197,14.922,16.034,24.741,15.874,15.14,20.632,14.945,12.031,18.164,13.235,15.375,17.951,17.69,8.4757,5.5764,11.921,20.915,15.501,14.023,14.007,18.57,15.865,16.421,6.6141,13.938,14.676,11.316,14.515,12.301,17.927
12.154,19.249,14.152,17.701,22.958,14.566,19.968,10.256,21.212,9.7416,14.066,13.077,9.9658,9.3647,16.759,9.0576,9.2412,18.584,14.32,15.75,10.903,13.569,15.475,14.947,21.078,11.952,13.746,17.462,17.9,6.8462,12.831,11.753,14.253,16.262,15.996,18.63,16.007,15.507,17.891,15.935,9.302,14.729,8.0531,18.515,6.3387,12.233,14.67,14.169,21.437,14.523,11.991,16.534,9.7481,16.377,15.263,12.828,11.96,9.8095,7.2066,12.709,17.254,11.612,20.309,10.953,22.413,11.695,14.689,19.742,18.98,11.447,17.108,10.097,7.8596,16.815,7.7696,6.2244,14.086,19.556,18.921,8.6572,14.454,17.351,17.998,20.218,20.315,17.553,8.9242,14.464,9.0928,18.979,20.904,6.7411,17.474,13.016,12.505,10.95,19.093,15.763,13.864,15.892,18.147
10.773,11.053,16.609,19.969,18.713,13.597,9.0416,5.2546,10.559,18.261,11.973,15.093,14.827,5.7792,18.716,21.614,13.884,17.77,11.193,16.263,21.983,18.943,11.408,10.211,14.229,13.142,13.795,18.791,14.858,20.263,13.869,13.531,17.001,15.627,13.244,8.0813,9.8484,16.341,16.066,8.5317,14.479,16.013,9.6279,10.291,18.502,7.4612,15.703,17.693,7.3205,13.542,9.6279,14.367,12.449,7.8462,16.345,16.263,11.714,16.007,8.9946,9.405,9.7096,13.62,12.067,21.189,13.764,16.134,16.18,15.422,14.748,18.69,9.6694,20.155,16.601,9.7244,18.188,18.459,20.425,12.456,20.171,15.017,8.5483,11.123,17.512,20.746,9.5983,13.614,11.57,21.071,10.674,19.017,11.691,16.939,9.0698,19.65,5.7787,15.238,15.607,10.956,10.41,16.312,10.149
13.647,3.2954,6.0348,13.586,17.898,7.6352,16.269,15.585,11.57,13.663,21.878,8.5583,15.533,14.522,14.947,13.73,14.796,12.82,7.4722,11.586,14.622,14.712,15.991,21.988,7.618,16.275,14.256,13.611,11.182,13.279,16.275,15.333,7.7977,17.113,14.677,20.777,9.627,11.075,7.2544,13.766,17.443,11.976,11.827,12.659,13.157,17.548,13.811,11.962,16.106,8.6923,15.972,12.986,21.686,11.346,15.323,14.189,9.7442,16.999,5.4963,6.5352,8.8957,18.594,17.401,9.1115,13.086,10.995,14.617,21.545,10.501,20.979,12.027,11.335,16.013,16.382,14.79,8.3103,11.189,10.533,11.852,10.852,15.331,17.503,12.823,15.808,16.566,14.249,12.741,11.74,9.4389,12.738,14.344,13.06,14.56,13.924,16.238,11.414,13.313,14.65,12.358,14.792,7.1718
15.164,15.175,13.476,12.184,11.89,7.2208,17.503,15.814,9.4883,8.0561,12.065,15.98,16.537,15.443,16.3,19.923,7.2225,15.204,13.28,10.73,16.111,13.46,17.886,9.6835,10.368,15.071,10.221,13.925,12.004,17.506,15.083,11.986,11.135,11.993,22.269,13.298,12.736,12.755,19.047,7.1201,17.564,10.839,12.476,15.967,10.042,15.043,13.206,8.3442,14.186,15.611,15.822,11.402,13.421,15.765,15.438,12.05,8.8109,14.481,14.645,18.981,7.7751,12.179,15.074,13.107,20.928,12.132,4.8013,16.16,8.3434,18.307,14.963,12.216,9.8816,20.299,14.616,11.684,10.929,12.818,18.092,20.495,13.58,15.048,14.667,7.4257,13.995,11.651,11.909,12.926,2.8663,10.783,16.256,13.923,11.586,12.228,9.5147,10.919,11.339,12.797,15.639,13.403,13.187
10.176,16.77,14.069,15.271,14.01,16.149,18.711,11.644,15.185,15.682,13.181,20.163,9.6557,11.446,13.496,13.308,12.403,11.469,16.21,12.993,10.28,19.439,16.529,18.625,13.116,20.177,16.556,6.6406,8.6136,15.334,12.791,12.69,17.12,19.4,14.635,13.676,21.395,13.174,11.575,11.05,10.539,13.51,10.084,6.4577,8.5424,14.799,17.18,17.584,21.62,9.2727,18.173,13.51,11.513,11.663,16.447,15.575,6.6476,16.938,16.213,12.354,9.6461,10.416,8.7197,13.03,11.8,12.079,14.018,12.132,7.0437,11.037,11.311,6.976,16.432,5.3373,14.747,12.141,11.889,15.567,12.11,12.388,10.045,17.305,16.817,15.708,15.144,15.854,15.737,14.645,15.509,10.635,13.32,15.214,10.576,13.216,12.531,17.725,14.93,17.191,15.476,16.881,12.869
13.366,10.691,14.346,24.015,13.303,12.787,16.04,7.3242,17.012,9.9011,14.994,13.947,12.71,10.37,14.453,16.998,15.408,17.976,7.9541,13.021,8.0917,13.364,14.901,10.189,17.568,11.242,15.195,11.7,10.222,10.298,7.7293,18.424,4.1442,8.3087,5.8092,8.1183,2.9041,15.118,13.097,9.2413,8.2694,8.2082,11.949,5.6742,14.415,12.628,11.72,15.299,14.196,11.711,13.062,12.471,10.698,16.951,17.278,13.212,9.2563,8.73,13.855,11.999,10.025,13.426,8.688,14.176,7.2217,4.1207,12.202,9.4176,18.461,17.891,10.748,9.4722,12.173,11.814,17.937,11.698,17.29,17.404,22.019,11.586,11.241,18.982,10.294,6.4177,13.263,14.752,11.645,11.689,8.0465,19.151,13.676,10.98,14.397,15.954,9.1787,13.762,11.215,18.892,13.523,8.9038,12.552
14.295,20.179,12.836,14.731,16.973,14.508,9.5959,12.121,10.351,15.213,18.183,12.617,16.453,10.212,13.262,12.066,18.503,13.742,15.43,11.479,10.438,14.101,9.7788,7.843,11.618,18.393,11.297,13.482,10.579,5.3893,12.696,18.729,11.514,8.5969,9.1651,13.992,11.197,16.199,11.712,5.2642,11.129,15.231,16.352,17.273,16.26,16.519,19.443,18.162,13.32,10.998,11.698,15.198,17,11.813,18.084,10.112,11.037,11.316,10.336,15.794,12.028,19.292,12.673,19.344,4.0369,13.984,13.705,19.59,13.627,19.034,19.439,10.485,8.4526,15.753,9.7908,12.135,10.66,13.054,14.82,15.232,13.178,9.321,9.6773,13.736,4.9122,8.5103,7.1161,11.526,14.424,21.12,12.68,8.8909,11.079,14.327,16.336,11.059,12.678,16.92,13.492,12.981,11.515
11.087,16.176,10.568,12.277,8.7967,14.573,13.322,14.001,12.349,9.8257,12.143,7.9138,11.249,20.582,18.343,15.505,13.989,15.359,13.817,15.73,16.697,8.841,11.77,12.348,10.485,8.9365,16.931,14.799,9.2307,8.7301,13.95,10.014,8.2164,11.571,9.4637,15.441,20.58,6.4433,15.398,13.934,9.4713,15.836,9.3097,5.8038,8.481,14.483,13.891,15.98,14.175,16.889,5.3714,11.369,11.162,12.239,16.208,10.057,13.334,5.7035,9.2145,15.76,6.2934,17.434,10.736,14.305,8.2941,15.106,12.439,16.867,10.515,9.8495,9.7764,19.409,11.28,6.7676,15.79,12.532,11.188,14.267,15.574,10.196,12.835,11.348,10.404,14.121,14.988,7.6103,16.359,12.969,11.611,6.8401,11.536,12.198,12.81,10.904,15.71,17.975,16.83,11.63,13.627,13.878,10.25
12.157,10.138,12.437,17.82,11.544,9.645,17.008,15.246,10.362,9.6232,17.125,12.307,12.844,13.417,10,16,20.415,3.5085,12.888,15.499,9.4177,12.51,12.793,10.103,14.665,16.44,12.977,13.488,10.288,16.103,11.882,13.736,16.3,11.159,11.519,12.513,11.417,7.7654,13.882,7.1626,11.134,7.2784,16.742,12.495,13.87,11.279,17.739,10.786,16.219,16.224,10.361,13.697,12.639,19.584,8.7248,6.6632,13.283,8.8108,10.14,13.355,7.6637,15.94,13.669,17.165,11.108,15.386,8.2894,13.038,16.121,9.9333,12.502,17.906,9.4573,8.3191,15.458,12.115,8.353,9.0759,13.406,13.052,10.969,12.997,14.168,9.6442,11.08,9.6628,16.877,7.7313,17.834,10.207,12.19,15.541,14.774,11.005,15.3,8.077,17.022,16.25,12.262,13.608,15.618
10.822,13.841,14.332,13.242,7.0438,10.795,5.1223,10.631,9.2245,11.623,13.261,14.825,11.461,12.094,15.459,16.439,12.708,14.934,9.4318,17.438,9.6639,9.3017,13.816,11.73,6.47,15.681,14.359,17.653,12.975,14.393,7.9742,18.385,20.155,10.637,9.5532,15.414,8.0301,12.487,11.489,14.814,5.1479,12.382,12.861,5.8317,11.406,14.131,7.5444,10.918,12.636,10.149,17.395,14.616,9.9544,13.102,15.859,12.814,13.881,14.179,14.511,7.3819,9.6154,10.735,6.4322,7.1083,13.192,13.197,15.153,13.22,9.3043,11.901,9.4781,14.954,6.7312,14.927,13.678,14.629,9.9549,12.637,11.814,6.7315,13.632,13.486,9.3861,16.243,5.8523,10.534,10.604,9.4878,9.6599,13.626,8.9343,12.194,10.486,11.512,18.637,10.082,15.017,12.087,12.064,5.3769,15.485
12.248,10.233,11.847,11.346,17.99,7.9298,9.7966,12.618,18.066,12.6,15.523,14.295,14.18,16.126,19.562,12.224,10.726,12.36,10.681,3.8065,11.322,12.293,10.465,10.976,15.951,12.001,11.616,9.4549,9.8112,11.373,12.157,13.049,17.317,16.363,7.6205,17.732,8.3452,20.521,12.401,10.217,4.7994,10.356,16.998,10.306,10.176,7.224,7.7002,9.7378,12.951,4.6591,14.003,10.072,14.472,11.704,10.203,13.44,13.448,18.651,7.2645,9.3156,7.5306,9.7671,9.9887,10.208,10.114,9.9716,10.907,13.185,15.531,10.469,17.975,14.707,15.894,8.3633,5.4604,12.838,12.898,5.8984,6.6323,12.924,15.267,16.362,8.5754,13.789,13.822,11.609,8.118,7.9379,14.254,5.9607,10.709,12.2,15.46,10.489,6.952,12.91,9.2552,17.804,8.7476,12.304,18.711
15.059,11.429,13.111,19.63,16.234,6.9846,12.113,15.096,6.2848,12.465,11.256,12.464,8.7582,5.2947,7.8521,17.841,11.047,8.2618,16.462,14.601,8.5633,15.13,15.25,8.8643,13.317,10.23,15.726,7.2094,10.102,14.269,11.217,13.44,17.376,10.042,7.7728,16.782,10.004,12.566,9.5144,6.1698,8.2761,15.934,10.08,10.978,12.504,15.475,12.003,10.611,8.5976,13.462,4.4091,7.5045,13.982,13.001,7.1593,13.307,13.078,7.4729,11.244,16.917,9.8141,6.9197,12.025,9.5883,10.271,12.877,11.301,10.194,7.99,8.7068,8.0179,9.4358,17.454,11.987,9.6249,11.053,12.318,12.422,12.567,15.183,10.321,12.69,9.3902,5.1864,9.5484,16.293,10.285,14.95,13.526,9.4626,17.972,14.447,14.546,8.4038,9.2937,13.678,15.553,11.397,17.289,11.054,13.92
11.271,14.93,10.162,11.154,6.1982,12.274,11.56,13.031,12.394,9.0134,13.488,20.018,9.1069,14.388,9.3206,8.2111,7.4917,13.19,11.371,14.191,10.622,7.3154,10.594,11.012,13.314,7.1977,5.0747,12.799,8.6536,9.6125,13.106,11.321,11.813,15.233,14.836,11.271,9.4753,7.2536,12.319,19.021,14.773,12.014,7.5754,7.146,9.4808,12.66,15.432,11.63,10.162,15.799,9.824,9.3153,14.366,11.278,9.1303,14.139,9.6461,16.258,9.1474,9.2663,9.1498,12.455,15.639,12.486,13.85,15.472,10.829,14.442,10.842,18.306,12.133,9.429,11.596,8.8001,6.145,12.433,12.041,13.454,8.4241,8.5578,9.6126,7.8847,20.29,12.506,9.0678,12.683,15.385,13.533,14.335,12.872,6.2021,8.7095,14.816,10.595,12.129,13.121,7.832,11.897,9.8004,6.3128,12.579
8.2323,9.3659,6.5874,9.0333,12.497,16.257,7.2773,12.184,12.775,14.505,15.222,7.3625,11.24,15.125,12.847,15.687,15.078,18.823,2.3324,9.9339,9.9114,6.307,9.3048,15.761,11.233,14.228,16.468,10.072,9.6756,6.6608,10.115,8.6621,10.308,10.287,8.6167,7.2336,9.7817,11.085,8.0609,12.207,10.558,10.17,14.065,18.698,13.852,13.171,11.052,11.468,12.968,9.1993,6.0779,12.462,8.7047,12.344,8.2772,6.8724,6.374,11.97,17.53,11.702,12.666,11.514,11.801,18.895,8.4409,10.509,8.7982,13.409,11.884,9.9492,13.502,7.6953,11.433,11.702,16.265,12.826,11.146,6.579,6.1499,12.999,8.7103,10.235,8.1481,11.64,11.793,16.833,17.076,14.563,14.637,7.1506,15.275,7.9084,5.7228,21.555,12.095,8.834,11.063,11.266,4.1595,8.6593,12.795
10.935,5.3485,9.2013,10.324,11.085,5.2963,11.658,15.847,5.5793,12.261,15.237,12.069,12.755,9.2554,10.209,7.0528,10.418,9.0003,8.6535,15.578,10.433,12.89,12.052,7.4798,4.602,6.1022,11.725,9.8272,13.316,9.5682,6.4687,11.135,14.439,11.691,10.206,9.4334,14.989,13.825,9.4047,6.3895,7.8131,11.914,7.2243,9.5451,10.415,8.6478,8.7639,10.073,9.0061,6.4031,13.241,7.7934,14.222,9.6884,9.8052,15.079,11.677,9.4948,8.0979,9.1167,12.133,13.604,10.976,9.1966,11.921,13.026,9.431,15.564,9.6197,13.772,14.003,11.004,10.539,13.686,4.8855,10.929,11.045,12.02,7.9075,6.1797,2.1401,12.611,14.363,9.3564,18.644,8.7096,6.505,10.339,11.166,13.062,11.216,8.3063,5.8085,8.8882,6.3324,13.198,10.477,4.7232,12.02,7.784,15.259
10.774,11.35,8.0397,12.307,10.815,11.308,9.5607,12.699,2.6608,11.143,14.017,9.9828,12.486,8.6645,11.166,8.702,14.332,12.134,15.084,10.468,10.411,11.624,15.32,2.8205,5.1442,14.729,16.77,9.9368,15.012,17.67,11.221,9.1203,9.0497,9.7696,13.204,10.048,17.238,9.4975,8.2726,12.377,11.37,12.11,3.7853,10.115,4.6331,11.207,13.095,14.445,13.056,12.18,13.129,10.419,10.478,13.927,14.144,9.0705,4.7511,3.1293,5.32,7.3471,12.06,8.0773,10.326,11.806,6.0897,7.835,8.1634,7.9928,9.1733,13.167,8.9512,12.865,11.712,11.228,13.779,17.573,15.382,5.4455,12.329,6.5435,4.0558,6.6612,3.4986,6.9198,15.014,9.052,19.333,11.876,13.873,10.128,9.6932,8.0527,11.127,5.7747,7.8355,7.1219,11.152,15.54,17.629,4.8865,11.733
8.2849,6.9071,10.727,8.8724,10.558,12.871,7.3778,9.9013,4.9119,9.1581,13.582,4.7657,11.654,6.0349,11.1,8.942,9.4957,5.2229,7.4565,9.7714,10.625,9.7769,8.3264,14.677,9.7667,7.8922,7.9479,10.15,13.389,9.0249,13.204,11.124,8.5776,7.759,10.965,10.061,7.4761,7.8328,12.132,12.075,9.3897,13.057,9.2655,10.021,14.375,8.653,3.8073,6.2384,11.331,9.698,19.264,5.8316,9.6075,10.523,5.9646,13.873,12.792,15.368,12.61,7.276,11.399,7.766,11.307,10.18,8.6286,10.613,12.047,14.079,7.5117,8.5503,8.0704,13.127,15.464,13.797,14.717,11.197,7.809,12.585,15.959,12.025,13.389,5.4176,12.235,9.8974,12.178,14.51,8.3323,15.249,7.3522,10.525,11.383,13.833,9.3519,7.3765,14.961,11.563,4.2241,11.425,4.9111,12.944,14.866
9.6045,7.2884,14.104,8.5578,7.5754,6.1605,5.5034,11.068,9.129,12.705,10.007,9.5186,4.6932,7.7127,10.521,8.8213,14.258,4.3422,9.6095,10.554,7.8822,10.545,15.49,6.8352,9.0679,5.6584,12.511,6.3383,7.4486,14.73,12.816,7.7749,13.433,8.0841,10.526,16.043,17.392,8.7734,10.092,13.504,12.127,9.4441,9.5193,7.6854,2.9361,9.6879,6.3645,9.4603,18.066,10.296,15.006,6.6426,14.259,4.846,9.2944,11.116,12.167,9.7912,6.7336,6.3012,7.8829,6.9348,8.3395,7.1539,14.152,11.049,11.093,7.51,11.071,11.219,7.2001,6.3922,4.0119,12.974,6.9572,10.337,10.453,10.479,8.1508,9.4654,9.2082,14.495,6.4975,9.5306,13.592,11.532,6.7145,12.719,1.564,8.6156,15.192,11.779,12.715,9.8912,8.9743,12.409,17.584,9.3312,14.775,8.4665,8.8151
12.043,7.1356,12.964,4.6669,2.3364,9.4839,11.025,14.017,10.364,13.002,10.746,12.133,6.9247,9.7447,8.0971,9.2372,17.244,5.5489,10.094,8.9721,11.185,15.651,12.869,7.9102,5.4553,12.666,6.851,7.7258,11.457,5.1751,14.904,10.311,9.2464,12.539,12.534,9.1987,13.47,11.147,13.462,10.819,9.3823,15.512,7.5111,11.987,16.377,8.6799,11.992,10.996,8.8856,9.9749,11.938,17.344,12.787,9.2148,3.7509,10.773,10.811,7.485,13.176,11.221,11.841,8.4497,7.8251,8.509,6.4766,8.3349,12.283,2.859,4.3866,10.07,11.024,6.9878,11.681,13.965,12.147,5.0457,7.6775,7.288,8.9156,7.8648,7.3266,16.022,8.9339,9.5045,10.891,4.5122,6.3785,11.471,11.097,6.3172,13.543,9.7752,10.434,10.331,8.2482,4.1991,9.5726,5.0407,9.4658,10.641,10.612
5.4512,10.935,6.0013,10.576,11.676,14.789,3.3722,12.383,9.2811,9.5528,8.0288,10.521,8.9793,7.8525,8.1033,11.717,11.327,13.232,10.924,9.3319,6.2268,10.773,8.8292,10.481,12.525,8.2465,8.2796,8.9775,10.454,16.161,7.0574,13.981,9.1144,12.598,9.9752,8.117,8.9775,12.788,13.752,12.795,8.0246,5.7561,11.043,11.44,1.9275,9.8642,16.345,9.1988,7.7729,6.6355,4.1226,8.2571,10.731,6.7101,10.581,12.254,7.9322,11.328,11.558,9.6545,15.909,5.8081,10.649,6.8889,7.5303,11.168,13.208,10.321,13.871,6.8783,10.846,8.1274,7.4189,1.5552,12.167,15.654,11.352,14.094,9.9729,5.9389,7.0587,7.2771,13.237,8.2855,10.074,5.6175,9.2156,4.7016,7.5908,12.165,15.137,11.307,10.093,13.146,12.066,2.1268,4.1832,7.1811,7.0552,4.7818,7.6664
6.7102,13.003,7.7052,5.6421,8.3052,7.4729,10.407,8.8782,4.9932,11.392,8.4672,7.736,6.9561,12.054,9.2572,4.7847,16.319,8.5362,10.434,10.694,5.5476,13.377,10.372,10.04,13.778,10.087,4.2598,9.5448,13.209,13.351,10.414,4.349,12.991,9.4168,10.189,13.563,10.842,4.4411,7.0298,5.5948,10.07,10.065,7.4476,13.217,7.1535,8.5241,7.5274,6.8178,9.7637,5.2762,8.6276,12.167,12.115,3.5666,10.854,8.176,10.99,10.128,8.6155,9.5533,11.478,11.843,7.2724,5.4831,8.2966,12.754,10.656,10.815,8.2238,7.2229,16.028,9.2688,9.4916,8.7468,9.8105,8.6049,6.3601,11.121,14.054,10.167,7.2896,9.7694,12.755,15.118,5.2418,9.9477,8.2525,11.281,10.118,7.7713,3.9968,5.8337,7.7162,8.7468,13.236,7.7529,10.747,12.4,10.312,9.8572,7.7034
11.985,14.399,10.863,10.347,10.126,12.576,8.3898,7.8338,11.036,8.4647,12.14,4.9154,13.472,7.164,10.136,7.9697,11.593,5.0576,6.1315,14.411,6.4134,7.2629,9.5957,6.9552,9.8545,13.011,9.6152,14.698,4.9587,8.5317,6.7242,10.535,5.5354,4.0085,8.1977,3.8384,6.6504,7.7262,4.282,11.134,10.342,7.4813,5.1347,8.5603,8.8898,2.7408,13.414,10.74,4.027,15.471,8.9337,4.8862,6.5647,10.21,4.9892,7.9524,9.0933,8.1013,10.029,7.2211,8.6363,9.9895,2.5963,3.522,6.1322,9.6495,10.026,7.1625,13.429,12.879,8.8615,19.603,8.2843,12.42,9.2113,4.115,15.169,6.143,9.6307,15.295,11.376,10.542,8.9586,10.157,15.201,7.991,8.7252,8.0075,8.141,8.8756,11.302,9.6751,7.0717,14.471,6.7379,8.3912,9.6502,4.2458,6.31,5.4373,1.234
15.695,7.0009,11.769,9.2706,6.2,9.0957,10.447,5.7486,12.856,12.852,8.9227,11.084,5.5185,10.955,8.8288,14.102,6.3125,15.326,9.2793,10.571,13.619,12.567,6.5591,6.4395,6.4408,12.481,8.8064,7.8681,9.4689,12.363,8.7359,10.157,2.1884,7.1915,5.98,7.2778,6.9049,7.9368,7.7266,11.215,13.579,4.5577,14.54,13.114,9.5027,14.016,9.9616,6.1207,12.643,15.997,6.8676,6.1778,12.675,9.1456,5.0775,12.972,8.7506,6.804,7.4526,7.7074,12.065,5.7094,10.643,12.268,6.6077,10.234,4.1981,11.334,5.8111,11.667,10.535,7.9693,4.7252,13.261,9.682,14.311,9.2444,3.8189,14.35,8.3337,12.025,7.0255,11.076,11.754,12.294,10.734,9.0945,9.657,10.136,6.9763,10.89,5.9864,3.4333,9.7241,9.8187,9.8886,14.601,12.962,14.877,9.8874,11.977
7.2588,8.3415,3.7821,9.2457,11.822,5.855,8.367,6.8593,6.6058,11.748,9.238,11.259,10.229,11.849,2.2507,5.9634,8.5191,10.082,12.488,7.1131,7.2174,8.1787,11.126,9.3558,12.42,6.7154,10.272,10.2,4.094,9.9268,14.265,5.4353,7.1208,5.9795,12.43,7.363,11.294,4.0917,3.5573,12.034,10.819,9.8777,11.943,9.239,9.4564,6.4059,9.0644,5.7283,6.3584,7.6013,9.4529,13.854,10.171,10.257,10.669,12.654,10.781,9.2272,7.7341,10.831,3.9752,9.1613,11.871,8.3506,10.77,9.5541,10.794,7.5525,14.06,10.228,9.4597,5.4569,8.4552,4.6904,8.1683,5.3411,8.8435,9.4934,7.5793,13.944,13.151,13.286,10.812,11.38,7.0602,9.4321,5.6619,9.7568,12.469,5.7267,8.4079,4.6288,10.858,12.736,12.473,5.9527,6.9045,8.7287,7.8481,7.45,1.4472
10.752,8.1593,10.92,9.6442,7.9602,11.196,11.967,7.9128,10.406,9.5651,11.6,14.701,6.1444,15.106,9.4952,6.4789,6.4453,9.2074,9.2677,10.08,11.318,9.933,5.8079,6.803,6.5984,7.0997,9.9139,9.8709,8.1797,5.8843,7.8872,10.634,8.4712,13.143,6.4213,9.7324,12.283,6.2967,8.69,5.2418,6.0859,4.5497,6.075,9.951,8.1422,10.592,11.916,9.9359,11.165,11.104,15.872,11.11,4.4166,9.7371,10.843,11.662,11.289,7.393,8.9393,9.8842,9.499,14.895,4.0818,11.403,12.388,7.0992,10.332,8.592,5.7814,9.1565,13.821,7.669,10.724,5.5197,6.114,5.1694,4.5872,6.0519,6.1795,7.5413,3.9656,7.3485,6.5507,6.4947,7.914,12.344,8.8426,10.11,13.575,10.894,9.242,12.089,15.493,7.3184,11.382,6.4344,5.1414,6.8409,8.6375,3.0187,4.0994
8.5134,10.451,10.996,9.9701,8.1517,10.243,16.027,14.506,8.5066,12.849,6.853,9.7151,9.1071,10.931,5.1018,10.521,9.1784,9.6502,5.6508,7.5219,4.1318,6.5192,5.8238,7.6514,9.1802,11.18,5.5316,9.5467,11.883,11.514,3.9836,10.838,8.1843,12.752,11.42,7.6537,9.4754,10.187,1.4298,6.8724,7.5164,5.3086,2.104,11.157,6.873,12.135,5.8581,11.49,10.754,10.331,5.6231,8.1561,7.2969,5.8533,7.3703,3.9048,8.2178,8.0997,6.2319,10.559,5.5919,7.9503,10.228,9.3098,1.6178,6.4056,7.485,7.0512,4.6951,8.5545,8.1876,12.452,9.0122,10.76,8.2973,3.3029,4.3406,6.4676,7.4036,10.38,6.2228,6.8288,9.4354,7.0255,5.0621,7.0491,6.6771,10.718,9.3355,10.29,7.3269,14.918,9.003,5.9713,4.7816,8.9722,7.4834,4.6983,7.2972,3.8847,10.692
14.18,10.669,7.5669,12.476,9.3586,2.0365,8.0877,8.7392,10.15,8.0304,11.933,4.6345,15.683,12.454,7.7898,9.3498,5.9639,5.7945,8.7318,11.385,11.21,14.727,7.5591,7.8591,0.53332,7.6095,8.9358,8.6197,6.6204,4.7541,7.3106,14.929,5.7995,8.5174,5.1327,11.907,10.804,8.9774,8.3709,12.824,10.195,8.4993,8.9083,12.999,9.9531,9.2939,10.168,8.222,5.6298,9.582,3.7772,6.4847,11.596,6.4834,9.2976,7.8817,9.319,9.7453,7.0484,2.312,11.488,6.8821,9.3404,11.338,5.3521,12.174,10.672,8.8666,7.463,12.025,9.81,10.063,16.365,10.128,11.942,8.3618,13.767,8.2322,5.6071,8.4611,3.5037,12.178,5.0553,9.3312,11.177,9.9179,9.5993,5.9878,8.349,11.224,6.2822,4.9049,6.4715,11.002,7.7087,9.1598,3.4197,6.2558,6.4691,4.8167,11.934
11.344,3.8148,9.0628,5.5525,7.8624,8.473,13.278,9.411,6.4452,10.742,10.871,8.7406,14.817,7.8595,7.0153,9.9186,4.5799,7.1526,6.7813,12.288,10.383,10.096,10.998,10.939,8.4356,4.252,3.4866,8.4502,13.145,10.741,11.367,13.522,6.94,6.5111,11.524,6.2703,14.695,10.913,6.5059,7.2624,9.8483,10.4,11.716,9.323,5.4105,8.6101,3.9044,10.005,9.9933,8.7647,5.6675,12.018,11.194,6.2852,4.4875,11.241,10.099,8.4449,9.0786,10.355,7.0958,12.829,9.3423,6.1274,6.916,12.686,6.4643,5.2783,11.676,9.2632,14.705,7.5674,10.184,8.2852,9.5895,3.7498,9.0621,10.545,8.3246,7.3023,8.4159,2.3071,11.928,9.3293,9.9313,10.232,9.1695,12.437,5.1095,8.1254,11.472,8.2991,10.198,3.6628,9.3483,11.47,1.8714,7.6606,4.7218,5.3658,10.053
11.293,7.577,6.6913,13.329,7.9297,9.2643,7.1811,9.6266,4.6813,8.2376,5.6434,7.628,10.148,13.778,6.8834,9.7007,6.8691,8.4317,16.132,8.6944,6.4691,11.042,10.82,3.8249,6.3457,6.8949,7.4506,8.4759,6.5737,9.4153,9.522,5.7667,9.2508,4.9682,10.535,7.5645,10.235,5.3353,10.412,7.386,7.9682,7.399,10.095,13.331,10.738,8.2602,6.0384,8.4163,5.3234,7.9262,10.87,7.9258,11.587,6.7515,9.4271,9.1197,4.1724,6.6837,11.049,4.9226,7.7378,5.3902,5.3752,5.5412,10.53,8.1947,9.2457,6.5884,7.8196,10.569,4.4946,6.0071,11.094,13.021,5.7078,9.432,4.6107,10.057,8.5566,5.2772,9.6313,11.792,7.7253,5.6064,4.9793,4.625,9.3153,9.1464,5.9354,10.332,5.1291,12.429,2.092,7.3931,10.33,8.2111,8.3163,6.7219,13.795,6.8597,10.172
11.443,7.0522,12.115,9.2707,3.8022,6.6799,7.603,9.82,10.032,9.9874,3.9177,3.6948,11.823,10.345,9.1809,12.391,13.243,5.8278,8.1327,9.2344,8.3548,8.5882,8.5637,11.09,0.23267,7.9974,7.3051,6.6872,8.4217,9.5264,7.2074,8.0654,3.3433,4.8596,6.9572,7.5317,4.9935,4.6718,9.7492,8.3957,11.912,9.559,4.7142,1.7335,8.4082,7.371,9.584,10.601,7.4474,8.4353,5.972,11.415,8.1609,6.5063,6.719,13.161,9.452,9.2043,8.9679,9.3002,9.351,8.0321,12.859,7.3363,5.6264,6.8456,11.363,10.226,11.332,7.4078,8.4413,2.8779,10.691,7.7098,8.1727,10.883,7.2402,9.2337,5.9819,6.5085,9.5475,7.4146,3.5818,6.4914,16.251,9.4092,8.623,6.8562,2.8634,8.3979,5.4,3.8947,7.4102,11.053,9.4747,6.7581,3.4095,6.5047,4.6578,9.2299,6.3562
11.826,7.5264,3.5984,8.0774,9.866,6.4654,9.5867,8.8064,8.9329,6.9401,7.4976,7.4791,7.4953,3.7753,7.8042,4.5189,8.214,4.5861,11.675,10.156,6.3442,13.642,11.049,10.247,2.046,4.3078,5.8871,6.9369,4.1794,9.6914,6.3903,7.3919,6.3179,7.608,11.701,2.725,5.1606,6.5355,9.4102,4.9879,6.3845,9.8271,4.4138,10.792,8.8144,9.4527,7.8136,5.0598,3.3723,8.2853,9.8609,9.8851,7.6142,12.475,8.374,6.7259,8.1503,6.129,9.7823,12.219,10.77,8.5512,4.0414,6.0709,8.985,7.6407,11.73,9.7076,3.8371,9.6294,9.7293,12.762,8.0945,8.5925,3.4399,6.5652,3.6693,7.4407,5.6707,4.2452,7.8428,5.4991,11.409,14.098,8.2832,8.6465,2.3666,12.052,6.1069,8.951,7.2912,8.8183,7.6132,8.2217,4.8731,8.2273,3.6839,7.5511,8.3671,7.075,8.7683
10.156,3.2767,3.6614,5.98,8.888,8.6591,6.7138,9.3095,13.468,4.7056,5.3521,2.6218,8.0706,9.9053,6.669,10.725,7.0573,8.3761,10.513,9.3312,8.5758,11.658,5.1634,6.4102,8.5217,6.7091,6.1352,9.6988,6.2912,8.7961,7.191,6.4905,8.9686,8.5076,2.2231,6.759,4.7068,8.0103,5.709,7.6605,11.178,12.422,9.9157,3.2653,11.771,10.683,8.4031,14.444,6.4207,12.677,4.6294,6.5976,4.4462,9.261,8.7097,5.8928,3.7957,0.21434,5.0537,3.7192,9.5342,10.69,2.1441,2.8511,6.3708,10.329,11.177,11.78,6.5999,5.875,4.8313,9.2286,9.822,3.4539,7.3118,6.2255,9.3707,10.874,11.028,9.0525,6.5379,6.3744,4.4412,10.931,5.207,2.2962,5.405,11.726,8.4014,6.6821,8.2667,8.7777,8.9151,7.1996,14.039,10.636,0.82665,5.0598,7.6097,9.0794,6.9097
7.4214,6.6547,3.931,13.398,7.0086,13.934,5.1017,6.8408,3.9516,5.1968,10.025,9.6236,5.1422,7.9621,6.3375,9.8211,5.4338,11.821,3.2882,8.3461,3.3907,5.5538,4.5924,11.802,7.1009,8.4425,3.5861,4.9098,8.5022,7.2641,9.3623,10.726,5.0216,4.8811,8.8004,7.2154,7.5828,5.1145,4.9414,8.7748,11.833,6.5954,10.592,11.31,10.492,11.713,8.533,3.1126,5.2843,7.1227,3.5585,6.1072,11.049,5.4032,8.105,8.3201,12.617,6.8555,9.3203,4.1645,5.1376,8.4445,8.9879,6.2502,8.3021,5.6992,9.125,5.6178,8.2377,8.5155,11.484,4.4994,8.1346,2.8045,7.8958,9.7021,4.6155,6.9838,10.923,12.096,7.553,11.629,7.1118,5.1464,7.2621,2.76,5.2774,5.8407,11.334,8.1588,13.163,8.7702,8.5189,6.9327,5.0981,8.0129,6.514,3.2692,8.962,7.0941,8.2671
5.9825,9.2621,5.7699,8.3656,9.2153,7.057,4.8946,8.047,10.328,1.4738,7.708,7.7818,8.3498,6.3679,8.3177,5.8908,8.0923,10.521,7.151,4.4625,7.1167,8.5786,6.6629,11.916,6.198,6.2417,11.83,8.2102,8.8539,11.025,5.6159,6.8928,9.7628,5.2311,8.0476,4.2335,8.7832,13.479,6.9558,6.3038,11.916,4.8466,6.3736,7.3087,9.0489,4.4358,4.7656,8.226,6.8835,2.8393,2.7099,2.6867,7.4518,8.6304,9.2123,4.5094,1.9286,9.0087,7.1689,7.3496,6.2934,6.5505,12.571,6.9795,8.7872,1.4922,3.3525,5.2717,7.7972,8.3816,14.224,2.6181,2.6975,6.6331,5.0332,4.5731,9.9897,6.2374,8.6722,7.9513,3.0443,9.481,6.7008,5.5969,6.9813,8.4678,10.403,7.6756,2.7069,9.6672,5.9115,12.417,9.0571,9.1771,6.4703,5.1043,5.4126,3.8712,5.1576,10.613,5.7707
7.091,11.445,5.9085,6.709,9.1131,7.7884,8.4971,6.2326,6.7751,11.614,12.695,7.1589,5.167,7.0068,5.6965,5.3165,1.9347,3.0773,7.1723,5.5089,10.812,2.2664,4.7506,8.6053,8.5144,6.066,4.5493,0.86602,5.9701,8.5158,6.9257,3.5644,9.8251,9.236,6.7388,7.4728,7.4497,7.7318,9.3299,6.2811,11.53,4.1688,6.3845,5.0948,5.4587,2.803,10.391,7.4568,6.9096,7.5105,5.3375,6.2552,9.6679,7.0722,8.6275,9.0162,10.02,5.8108,5.2445,8.2732,4.7125,10.417,4.3611,10.191,11.631,3.7817,10.435,8.649,7.5629,6.6106,6.7514,9.629,5.51,5.6093,15.573,11.537,10.179,9.8312,7.1831,2.5671,6.737,9.3019,9.0598,11.572,10.543,8.4735,5.7657,6.4902,8.6264,5.9831,6.0538,11.168,6.8912,2.9934,1.3467,7.9117,5.9614,6.1812,6.8754,7.3517,4.5071
7.0403,1.2541,4.6181,6.057,7.8474,7.8485,10.485,11.593,8.2941,4.9041,8.5295,10.448,10.116,7.381,3.2271,3.6721,6.1318,8.4958,5.5364,2.9253,10.63,5.9013,9.7749,8.2732,3.6279,7.2548,8.9044,5.2796,5.2567,7.9618,4.3409,5.2904,10.643,6.1912,8.32,5.8046,2.9923,5.8323,5.6108,7.6439,5.7667,9.8016,1.6269,8.1449,5.6889,9.6795,7.2898,11.458,6.0187,6.2613,8.3749,9.9165,3.8874,0.042673,6.6002,7.7714,11.169,6.4128,7.3526,8.8953,5.4589,4.4045,6.4949,2.3712,8.4556,4.3449,2.9605,7.2639,8.3833,6.4826,8.5232,9.1185,8.9257,6.5535,7.8153,5.6355,11.133,5.1883,4.035,5.4384,5.2569,3.6992,3.7034,11.718,7.2868,4.645,9.9528,4.5526,11.198,6.3303,5.0586,10.628,5.621,7.1317,9.0465,7.882,5.4041,1.4923,5.0227,8.9274,9.9776
7.6154,9.4142,7.8192,10.8,10.924,5.4274,7.0203,8.5542,10.354,7.3568,5.6082,6.8882,3.4487,5.5623,4.6983,7.4483,6.3227,9.9911,7.4856,3.9751,8.1265,4.3402,7.5143,13.421,5.8119,7.4994,9.9915,4.2877,10.278,5.9091,9.165,5.5581,11.535,10.117,5.156,11.795,6.2295,9.0961,7.4366,6.9542,12.328,2.9059,2.9618,9.1101,1.2563,9.1359,10.417,3.0437,6.8812,5.3866,9.4289,5.2956,9.0887,4.9497,9.8109,7.9511,3.8369,3.9287,7.1166,1.746,9.3842,10.864,8.7127,3.9383,7.6019,12.874,10.287,8.4077,9.2743,10.513,7.4741,6.6859,6.255,7.3935,6.354,4.9502,4.5132,8.5716,5.4755,4.4828,3.3474,3.3415,8.7794,6.0062,8.6011,10.175,6.2628,8.8819,14.611,6.0819,8.1486,6.1608,9.9153,5.9107,5.866,8.717,6.9097,5.16,1.2477,3.251,5.54
8.8892,8.6556,8.2565,9.5151,6.3081,7.8263,6.6675,8.0031,6.3444,9.528,2.748,13.001,6.1229,3.6093,3.8369,6.7213,10.231,4.364,7.9241,4.6712,9.3239,5.3875,4.745,12.517,7.5595,10.248,9.3313,7.3786,10.366,6.531,8.2561,2.7687,3.6358,8.8289,5.9038,5.7572,7.8333,5.8876,4.0071,8.0635,6.909,2.8256,6.5695,6.2391,8.1994,5.194,3.3026,6.6316,8.1392,7.7722,8.5554,4.3812,4.6028,5.0805,8.4422,7.5704,7.7463,9.4881,8.6,6.374,7.2514,12.652,10.597,5.657,1.9564,5.8036,7.1799,1.6088,10.234,10.538,6.7987,5.8043,8.7927,8.7396,6.4944,5.3753,7.5023,11.694,3.0268,11.319,2.0306,4.642,8.3304,9.7286,4.5726,6.3488,4.6962,2.8015,9.8108,5.5712,6.909,12.351,7.7223,6.7607,8.7114,7.4571,3.6765,8.748,6.8511,6.5966,8.8202
7.1998,5.2762,3.57,8.3787,8.7312,7.2197,6.9312,6.4617,6.3878,6.1504,10.403,9.6967,5.7292,8.6078,5.1939,4.8393,6.3776,7.2302,5.2309,2.9703,8.7646,5.5397,6.7533,8.2067,6.9096,6.7525,7.6188,8.1136,5.2024,7.6046,8.2637,7.6066,2.7543,9.6626,4.0024,11.727,4.9827,6.1258,9.5123,3.18,7.8938,8.5973,8.0857,4.8127,7.8715,4.1596,7.467,5.2663,7.1836,4.5833,7.7628,5.4211,4.4899,0.98518,7.9113,11.192,5.257,10.417,6.2161,4.5924,6.9077,5.6376,8.4905,4.4707,7.0287,7.4384,7.0231,7.4352,5.598,2.8675,7.5686,4.2473,9.5751,5.897,8.926,11.155,5.8159,5.1369,9.5702,7.5138,6.7904,7.0619,4.7819,9.4101,5.504,9.566,5.4361,10.461,7.4627,6.2215,9.9538,5.8689,5.0105,7.8552,10.482,8.6135,6.987,8.0269,8.035,6.2278,7.7226
6.5282,8.3582,8.1523,2.9047,5.1604,3.4094,6.8074,0.72693,6.259,9.2718,7.6789,10.177,6.5239,5.1838,1.8616,13.312,7.3062,9.2909,7.9323,5.5692,5.7426,0.094754,3.9837,5.4749,4.8677,8.425,7.731,5.2648,3.5269,8.5639,6.3555,7.4173,7.4477,6.2553,8.3959,7.1452,6.6809,3.834,6.6635,8.9099,5.5143,7.5887,8.1879,15.093,4.721,6.0389,5.4601,2.6346,7.0319,7.3949,5.6329,6.4462,6.2991,5.7872,4.3749,4.7189,4.2124,8.3516,6.4951,7.4017,4.7656,1.0122,6.6889,8.1652,9.4906,1.8952,7.3218,6.9674,6.6796,6.278,11.543,3.5952,7.0772,7.693,1.498,7.6854,10.296,5.8266,5.8153,2.8313,7.3376,9.2165,3.3405,3.0996,5.0234,6.8074,9.4322,8.0011,6.3507,4.4005,6.7174,7.9417,4.7125,7.1505,7.2533,9.9595,10.547,1.7887,9.3648,4.8977,3.1996
4.8936,5.2209,7.2237,5.8843,3.0024,5.5482,1.5945,10.444,4.799,8.195,8.1237,4.7718,2.5583,2.5473,8.478,6.1279,9.127,5.2448,3.6795,8.4494,6.9585,11.176,7.3102,1.8841,12.728,9.1525,2.729,6.9919,6.3185,4.5097,1.832,4.03,7.1277,5.0216,4.2577,6.5561,13.04,7.0544,8.3825,5.0585,2.4818,3.5731,7.8067,6.5536,6.3119,8.6148,11.709,8.8734,5.5824,7.1951,8.8182,6.61,10.168,9.566,7.9509,2.4844,3.3982,3.8727,9.0882,6.3657,11.253,6.1261,6.4047,5.8631,9.6875,9.104,6.9046,5.1628,5.4794,5.5108,8.159,9.0027,10.603,9.0645,3.6977,8.9828,6.7521,4.6329,5.9221,6.0654,6.4364,6.7908,6.0878,5.3038,9.5571,10.101,7.8138,6.6086,10.038,5.4962,5.6672,6.5754,8.9576,6.1731,7.8243,6.1775,6.997,1.4151,9.9735,8.9841,3.7427
0.090236,10.464,6.4524,8.6488,7.7928,7.3427,9.2508,7.4992,2.0232,8.0106,5.4496,6.791,6.8554,7.1658,4.9038,4.8693,3.607,9.0585,6.5399,7.442,8.9023,3.4015,3.4549,5.8615,8.0381,4.1224,4.4171,7.6453,7.0932,7.7029,8.0429,8.9267,1.9435,6.6673,7.2288,2.0322,6.5381,8.9842,2.4856,6.4102,4.8577,8.0791,3.4862,3.4655,9.5548,7.5149,9.7439,8.4811,7.8493,6.6057,2.9854,6.287,6.8219,7.5761,4.0132,6.5334,10.618,4.9196,6.5705,6.75,4.0004,7.2133,6.8353,0.33571,11.868,9.7571,9.3443,8.4572,5.4447,3.2933,5.1245,7.5659,11.101,3.7881,10.993,3.662,8.3219,6.1216,1.403,12.58,3.2747,4.5279,5.1719,5.3615,6.8386,7.1308,11.557,9.8739,8.7225,4.6535,9.0013,5.8048,5.5792,7.6747,3.3028,0.2654,5.2658,4.1866,8.4467,5.6449,9.9186
4.8747,7.7361,7.3982,7.154,3.7698,6.3288,5.8646,4.7445,5.4206,4.9779,5.4079,4.0376,3.1465,4.5747,5.4605,8.6661,4.7174,10.051,2.7951,10.902,6.6214,0.79347,7.9365,0.64749,7.0274,11.775,5.7663,7.3899,7.8521,5.2472,8.2188,5.2474,8.363,3.6984,6.3544,5.457,4.2444,6.3994,2.516,2.103,2.5667,4.1822,8.2737,6.3032,9.2814,8.633,4.9833,2.7966,6.2482,5.3147,9.2222,4.3555,10.106,6.8113,7.3336,4.4018,3.6541,5.7417,6.2322,2.5477,6.4538,4.2685,7.2267,8.6061,1.4788,4.3755,5.5054,0.58227,1.9695,8.405,10.203,4.5936,5.0568,6.6211,8.2039,8.3664,12.409,7.3545,3.2759,11.943,3.6988,4.4268,8.4343,6.6156,6.3489,6.194,2.8493,2.9839,2.0117,8.0582,3.9525,1.8673,7.3639,5.5479,2.9399,6.9008,7.2722,7.4306,4.6628,5.2994,5.1051
6.4617,7.3133,10.1,4.543,4.5097,5.6224,8.9148,5.0762,8.3416,4.2465,3.9502,10.519,8.1743,7.4544,6.0732,4.5808,8.9492,8.841,1.7207,3.2221,5.1505,9.7095,7.0194,9.2751,4.6364,7.2311,4.5273,1.442,6.8144,6.153,4.1823,4.7035,4.1386,7.3378,3.4954,7.5135,5.3392,5.4756,3.8991,3.9974,4.4007,3.7935,4.3183,4.4768,2.3167,1.7613,7.3999,3.658,6.6008,5.0867,8.1189,6.9906,9.6983,6.6431,7.3834,5.1248,3.8058,1.8134,2.6821,10.39,2.8618,7.317,6.2249,7.7536,5.5062,5.3832,7.6075,5.2774,6.6516,9.5439,7.5805,4.5932,5.3771,9.5433,1.6653,6.8402,9.8636,6.0849,6.5461,8.4346,11.736,8.4076,4.6645,6.0708,4.3687,6.0836,0.054207,3.5804,7.4346,7.2334,2.7815,7.3173,6.551,8.6286,6.549,3.7371,3.85,3.0116,6.6441,8.1381,5.01
5.1485,4.6001,0.57537,2.8592,4.9224,6.7334,3.8803,2.9784,3.2417,7.8782,6.6128,6.2867,7.8385,8.0262,4.4125,1.739,2.3848,8.1319,7.0841,2.5413,4.9266,5.7809,6.2245,5.788,3.9121,8.6258,4.719,3.6236,1.1582,2.8287,12.654,4.4817,9.5517,4.6682,8.4271,4.4888,4.2045,6.8009,6.3257,7.6289,4.7075,7.2975,4.2318,7.9462,7.5533,6.6602,3.3611,1.9165,4.4744,6.2396,2.1924,7.1876,9.8662,4.7908,5.5833,3.4296,5.7944,3.7881,8.4559,7.8134,6.5048,5.2494,9.9101,0.67883,6.7952,7.5733,6.0478,9.1594,4.0292,6.085,9.2628,3.7549,9.0073,1.6317,5.3794,9.4169,7.2786,5.9243,6.565,3.7283,2.2902,0.85233,7.4114,1.2556,6.8978,1.5243,7.1615,6.6073,6.3411,5.0077,8.9984,7.9932,2.9256,4.6674,6.9486,5.0131,8.5555,2.8687,7.215,7.7022,6.7782
6.4158,2.5466,9.8333,5.4817,2.765,3.4319,2.3318,3.5642,7.2937,5.0227,6.279,7.7692,4.2099,7.6463,5.3712,5.1043,6.616,5.3998,4.4227,9.9209,5.9363,5.8719,4.8447,2.2751,8.8387,3.4971,6.0934,5.9558,8.5884,5.2089,3.8452,4.4552,6.1503,5.3595,2.2695,8.3136,4.664,11.904,5.7834,5.2056,6.0261,6.3532,7.1404,12.156,1.1323,3.3775,4.1693,6.5624,4.9132,7.1761,2.4652,8.6054,6.4585,6.6151,2.8523,4.3831,6.2155,3.9728,7.7871,4.2867,3.9169,6.9465,3.6588,8.1588,2.1675,4.052,10.727,3.7706,4.694,6.4896,6.6785,12.884,9.1961,4.5963,7.422,9.2482,5.7006,5.0787,2.6856,7.23,5.5579,8.35,3.3716,8.602,3.0158,9.4693,6.2528,8.6976,2.3764,7.9024,4.3858,2.1076,8.8637,6.8104,5.4383,6.3699,4.6515,2.5347,0.72482,1.679,4.6868
7.3094,5.4535,6.0249,4.6186,6.4509,7.6487,3.9244,2.6771,7.0025,4.1656,0.41565,6.2927,7.1326,7.3837,6.5896,5.5148,5.9989,10.327,5.8147,4.8646,9.0284,8.4679,9.7837,8.0099,7.0383,9.0244,5.3082,5.01,3.7801,9.8461,11.313,8.1337,4.296,2.8306,3.5504,5.841,2.632,1.9999,2.1036,6.7785,0.83199,6.8791,6.715,3.1822,3.4448,4.3216,4.1812,7.7271,5.3615,3.6704,6.9087,8.045,1.5824,8.5796,3.2447,1.0592,5.8829,8.4052,8.6272,4.7652,7.3512,5.408,5.2457,8.4519,6.2743,8.001,6.8741,4.1642,7.0199,5.3356,2.7782,6.1924,5.6865,4.4522,5.9865,3.6801,10.248,1.894,2.0253,8.2149,3.8713,4.1767,4.1803,7.8468,5.9875,6.8912,1.2618,1.4482,6.2265,1.213,10.243,6.4692,8.8246,1.4713,6.9751,6.875,8.4391,4.873,2.4366,3.9895,4.4473
4.8258,5.0872,6.1919,10.563,3.6135,4.0124,9.7378,11.425,3.8583,1.0654,6.7636,3.926,5.4085,5.3551,6.3536,2.4974,6.152,4.6042,2.0684,5.2557,3.1179,12.364,5.7099,5.3581,5.0471,5.3128,8.4691,2.3125,3.7756,7.9866,6.7028,5.1347,8.7916,5.355,7.8355,5.5838,9.824,7.5512,7.1321,3.5675,4.5499,6.5011,6.2748,2.218,6.2458,6.4274,1.4144,2.869,9.0466,4.3044,2.9157,4.7391,8.543,6.6052,0.26997,4.2878,1.8288,4.1461,1.0985,7.1725,8.0222,7.5901,7.9552,8.5337,3.6648,4.3877,2.3139,0.94212,3.3795,2.4863,5.7176,4.7047,6.6224,3.3834,6.3947,6.0532,1.7138,0.95912,0.073095,4.0424,5.7892,6.8005,3.2392,4.5867,0.22158,9.8058,3.7298,6.4777,1.8005,4.4266,7.8604,2.7257,6.7706,2.7983,7.1217,6.7583,5.299,9.8335,1.7918,6.8588,9.8019
6.208,7.1381,5.0457,7.5443,1.2749,2.8312,2.9286,2.7994,11.084,9.5317,4.0299,6.5147,1.6091,3.8278,4.7962,6.1955,8.2989,6.9254,5.4342,8.3892,5.0496,7.0138,10.243,2.7415,4.8234,3.1875,1.8082,7.7984,4.4001,1.4968,3.0831,7.7876,6.9947,5.7442,1.7696,4.2622,3.2277,8.6145,3.9297,7.4731,9.4496,8.6111,6.9362,2.4615,10.921,2.3866,3.874,5.4422,7.2285,6.1206,3.6005,3.1519,1.9647,4.588,4.8064,5.1518,4.5883,6.6589,5.1516,4.1071,4.8323,9.3189,5.6328,7.9651,4.5904,3.8387,8.7421,6.9131,4.068,8.7014,4.9271,5.3251,5.3625,5.1173,6.1443,2.131,6.766,5.4405,2.8496,6.5507,3.116,7.5125,3.8356,3.2735,6.1181,4.6276,4.2482,4.1816,7.4639,4.3272,5.2157,4.0854,5.0672,3.6352,6.688,6.1,7.464,6.0737,6.2459,5.9269,9.103
5.0777,4.5383,6.0209,4.4437,2.303,3.9922,4.0798,6.4599,6.6058,4.8893,5.9119,3.307,5.1445,4.6639,6.977,7.3744,4.0997,0.89843,5.5128,8.0812,7.955,6.8257,7.6719,3.2136,2.4589,6.4363,5.0148,2.6236,7.008,8.571,5.9764,6.0213,5.6597,3.7321,5.4194,7.3545,2.7233,7.5824,8.2834,5.172,5.1057,8.5494,6.4703,6.4023,5.0249,3.4803,4.3259,6.3399,3.2451,5.3007,3.666,2.264,9.1499,7.3873,4.8939,8.031,5.5645,6.4664,6.3671,6.0722,5.4024,5.3465,3.6955,8.1032,4.6811,5.2751,2.8841,5.4446,8.8491,2.7934,7.0435,1.9772,6.6144,8.9368,5.6596,2.6947,9.3559,2.9383,3.8122,6.3874,6.2413,5.1941,5.9586,6.3858,4.9806,5.9878,4.5133,4.1664,4.1877,5.555,3.0311,3.753,5.0927,6.2009,4.8979,5.3663,3.9123,1.8457,3.9726,3.9989,8.6871
7.6161,6.4352,8.0715,5.4538,3.9602,7.2352,3.709,3.4742,6.5102,3.9308,2.8743,3.4597,3.8031,2.1188,3.5625,6.4749,10.234,3.918,6.6392,9.3503,5.2293,4.3948,5.7474,5.7426,3.378,5.5265,3.9056,2.7479,5.5376,7.3287,6.6373,5.2696,6.8782,7.7419,4.9425,4.5134,6.8986,5.2464,9.5536,2.2918,1.8386,2.8269,5.5841,5.1323,4.7193,7.4135,4.9157,6.4501,9.0001,7.9232,4.1465,10.359,7.496,5.7971,2.8223,9.1732,5.0095,5.0044,5.333,5.7843,10.343,8.3693,5.0813,8.9129,4.4586,2.8178,4.2201,3.8726,4.9795,5.108,7.1615,3.6479,7.5608,4.5626,6.4401,9.4848,5.5776,6.4165,3.6733,5.798,3.4559,4.8717,3.6418,5.4731,3.2442,7.2324,5.871,2.3221,0.76929,1.8125,3.1229,5.2401,6.1452,2.4891,1.1517,4.1222,1.3435,4.7156,2.6119,6.2861,3.7992
5.3122,2.9691,9.1029,5.3565,4.5323,2.1476,5.9341,2.6749,2.5085,3.5544,3.65,3.748,8.934,6.6338,8.2425,4.5329,4.8209,4.4279,8.9066,3.9859,3.3205,5.8837,2.3327,8.8583,7.4556,10.456,6.4206,5.6261,7.9753,5.4686,5.1171,3.0168,3.4025,5.0772,6.6651,7.3842,3.6734,4.0876,3.1528,2.3249,5.8256,4.4833,8.1965,4.1817,7.147,3.9989,6.1873,7.9568,4.7396,5.656,4.0903,5.6155,5.412,8.9377,5.9351,5.1576,6.3475,2.2246,4.0985,6.2895,4.6322,6.8041,2.0525,2.2926,6.1283,4.6093,3.3907,1.5726,3.7475,0.19218,5.9673,4.9902,2.195,4.7129,11.834,5.6685,6.0666,8.8195,6.0387,5.1834,5.3261,5.8865,7.5942,5.8448,7.8244,4.9128,7.0407,3.9804,7.0993,2.4916,4.129,4.0115,9.2591,2.8605,2.3436,5.7669,2.4175,2.7757,6.2261,5.8041,8.2084
5.9152,8.2878,6.8576,8.7222,5.3495,0.36998,3.6036,4.4929,5.487,4.0075,6.2529,5.6094,9.4372,2.1867,5.0759,4.2416,7.9086,6.2693,6.8739,4.8084,7.1125,8.4884,3.5018,3.0292,5.2175,3.5106,7.8278,4.4416,2.5769,5.2418,3.2918,1.7672,5.9517,3.7899,5.9097,7.6919,4.9561,3.6307,5.8045,7.0434,6.0006,4.9679,4.9014,2.7769,4.7583,4.9674,6.4149,6.8186,5.5419,3.2377,1.9433,5.2635,4.5778,5.3985,6.454,5.7578,4.855,4.1664,6.3967,5.5544,3.4475,5.0856,2.9111,3.3085,8.4977,0.85676,2.3129,11.02,5.2727,5.9504,8.1126,0.69301,9.0192,7.4439,2.7046,4.4473,6.0418,3.1118,3.6196,3.8912,4.7252,3.5952,6.408,5.2708,8.1659,3.3613,7.2353,6.2714,6.5056,4.854,4.8732,2.0561,7.6981,4.6315,5.9491,6.7342,4.4954,5.4311,4.08,7.6926,3.0142
7.8571,7.278,8.2441,5.5974,8.1794,4.8253,4.6061,4.0129,5.9716,4.0352,4.8286,4.3952,4.4842,0.22219,4.4345,1.155,5.6766,6.6066,3.4059,6.4993,5.9118,4.9866,8.8692,6.6774,4.8897,6.5206,6.4061,8.7098,1.864,6.5824,5.4128,2.9456,1.2658,2.975,4.7457,5.8687,6.4596,4.2523,4.4441,6.4625,6.8101,7.6361,0.73215,2.2701,5.5961,7.3,2.9642,4.313,3.9437,4.8091,3.9507,6.6458,1.5069,9.4601,1.9221,7.2054,7.5364,4.588,5.3597,3.9594,6.7072,5.6727,5.4733,6.8735,4.7699,7.6345,4.907,6.5035,5.1298,6.1059,5.3623,6.2702,4.0246,7.6274,4.207,5.7778,2.4297,8.0335,6.8431,4.2912,2.9852,4.1178,5.8097,5.9144,6.4624,3.731,5.0517,4.5857,3.5874,6.8223,5.761,4.2026,4.0707,4.8963,3.4108,2.9682,4.8026,4.0809,4.3097,5.9551,8.8653
3.0623,8.9865,5.1574,3.3694,6.2927,5.7254,3.6669,5.1398,1.7001,5.5313,2.4725,6.2603,6.19,7.1057,6.2851,6.5616,4.2482,9.801,5.4512,5.7417,7.7698,2.5604,11.544,2.1796,8.0068,7.8052,3.3888,0.51414,2.846,5.2136,5.8854,5.557,3.8228,4.7322,8.8071,5.8077,4.3958,4.9022,6.9707,4.1607,6.7055,3.0902,3.2934,3.0955,0.85639,8.0114,7.5931,3.3508,6.0233,7.8475,2.9753,2.7039,3.9472,7.0132,5.4918,4.5079,7.2891,2.4432,2.5489,4.9023,5.6827,5.5526,2.7793,3.9588,4.2998,5.2787,5.1963,5.3452,3.216,6.0999,7.1751,4.4225,4.1016,5.9738,3.0375,8.6938,3.1244,4.91,3.1336,3.8705,4.5169,7.1147,3.9566,4.7899,4.5059,7.5065,0.42805,6.1059,5.0323,1.6465,4.9245,4.699,4.8008,6.2201,4.8938,6.3835,8.6508,6.3941,4.5943,3.3003,8.9215
3.9312,7.0543,6.6316,6.24,5.6156,3.5233,6.4438,4.5136,4.8075,4.6938,3.7765,2.1647,3.851,7.4662,9.1394,4.6773,6.1465,5.7102,1.1537,5.1753,2.7742,1.2904,3.234,8.4345,4.9636,2.4194,6.3278,5.8378,4.089,5.9854,4.1439,1.9824,2.0188,4.4664,2.6726,3.6204,4.8803,5.0806,1.3474,5.4482,4.5613,6.1707,6.6315,1.8903,6.1502,5.1085,7.6045,5.1758,3.152,0.29779,2.5403,2.1279,5.1022,1.8249,1.711,5.0742,8.925,2.8706,1.2801,2.8313,5.9457,4.3867,4.8119,6.2446,7.9606,0.55691,3.824,3.17,3.2805,1.9139,7.3864,6.2641,4.9634,6.3218,1.7686,4.4241,3.9512,6.4002,7.9981,2.8569,7.1338,4.8876,7.5566,6.9154,2.7286,8.9447,1.6231,5.2335,8.2174,1.4795,4.035,3.9194,5.1136,6.0376,4.1432,5.7218,9.5122,8.1576,8.542,5.9588,3.2586
5.4721,6.1377,6.9044,6.308,3.3709,1.8793,1.729,3.4864,5.7652,8.0147,4.4657,6.6657,2.0227,7.563,4.8365,7.3563,6.047,3.2743,2.566,4.4221,4.3478,3.8162,6.6467,4.6439,6.1591,6.3146,5.2558,2.7561,5.9106,3.7499,1.5367,6.775,9.9564,2.9438,4.705,7.3334,0.063734,0.51231,4.1372,6.9343,11.991,11.612,6.8671,6.0556,3.4335,0.81828,4.4591,5.0554,4.8816,8.2512,4.9109,8.1317,6.3344,6.4155,1.6336,6.3863,6.0899,3.1597,5.4973,5.6511,5.8619,6.2321,7.1983,4.8445,5.8433,4.6933,6.8009,3.3795,6.9459,2.0437,6.5814,4.3709,5.337,3.93,4.3961,5.3541,6.546,6.5839,5.4308,7.381,5.4786,7.3069,8.7709,2.1224,2.2325,7.3699,4.3427,5.7014,8.0522,3.29,2.5682,4.8656,5.0774,5.8001,5.7608,1.5898,4.2306,4.1501,1.8282,6.3384,2.2917
5.0971,0.81417,5.2082,6.4638,7.0207,3.6464,2.4805,6.2557,4.4818,4.7007,7.207,8.4851,2.7053,3.5307,4.7593,6.0138,7.4494,5.7923,3.6608,6.7223,5.8219,4.231,5.848,5.0093,8.4792,4.041,7.2885,7.1159,3.4372,6.0332,6.5,8.0808,1.8036,2.8528,4.9219,1.3117,0.7087,6.0749,3.2292,11.001,6.314,6.3209,4.2356,3.9087,6.321,7.1023,7.6999,7.5201,6.9154,4.5247,4.5218,2.6967,4.2901,5.4176,1.601,3.7039,3.7056,4.7783,3.8782,3.8864,1.7774,2.0985,1.8081,5.2375,5.5028,0.57026,2.1739,3.7876,5.7399,5.0251,6.4189,1.6835,3.174,1.6871,4.7694,2.8346,6.2086,0.96313,4.7503,2.6325,4.4094,5.4296,5.2883,0.81664,5.5888,6.2882,2.8695,6.7516,3.3745,2.7638,4.9778,5.983,5.5669,5.2148,5.8434,3.9134,6.0461,5.9091,1.2397,3.3387,6.5976
3.7212,3.1823,3.9428,6.4534,1.8256,6.1411,6.1816,5.5672,3.1078,2.0954,6.4157,5.356,4.7458,4.8703,5.351,5.2619,7.0228,5.8908,4.6723,6.5611,8.5047,5.0212,6.5812,2.1758,6.9213,3.2848,3.7733,5.9362,3.6246,0.28186,1.5529,5.6441,3.432,3.7833,2.2089,8.4657,3.9748,2.7785,5.0346,1.1576,3.3809,4.6967,8.9136,5.1198,5.151,6.1363,6.6893,3.3529,5.2431,0.89704,5.4924,2.0887,4.1438,4.9237,2.6959,7.1913,3.3951,3.1485,5.9236,7.2802,4.8629,2.2573,6.694,2.8893,0.19681,2.3819,7.7529,8.8499,4.9437,4.6829,0.71623,0.68147,6.0757,3.9581,2.8338,3.3808,3.4856,4.2242,2.1721,4.9299,5.0766,6.2352,3.423,7.8527,3.785,5.6242,3.5182,8.1037,3.4772,6.4531,3.7321,6.4886,6.7984,4.1487,3.7796,3.2965,4.0829,3.5708,0.50413,3.9122,5.1043
2.8195,3.0476,3.1256,4.3144,2.6818,1.7874,7.6347,3.2292,5.5341,1.9405,8.5431,4.4176,6.8413,6.0157,4.3808,5.0584,3.0936,4.6352,6.193,3.2751,3.2031,3.9686,5.993,2.3323,2.194,3.7882,3.8428,5.8455,6.6577,2.1615,0.40389,1.104,1.8852,1.6941,4.2147,3.5329,7.7643,5.9462,4.3436,1.8003,4.7275,5.1245,5.3306,3.6272,2.2976,7.6865,3.2456,4.4893,5.8527,4.4535,2.7885,7.8285,5.3847,7.5563,4.1174,4.161,3.1032,9.4984,7.8004,4.3282,3.8652,2.6814,7.6226,1.0291,2.5816,3.4789,2.1131,1.838,5.8818,4.2517,3.3783,3.86,4.1738,2.4082,3.9551,2.594,6.0943,5.4243,3.6701,5.0927,2.612,3.1176,3.0955,4.8324,4.5103,0.14515,2.3424,3.3748,3.9468,3.3214,5.7706,7.1159,6.5104,5.2097,6.6685,6.8784,5.5618,8.5833,3.8679,5.1281,3.4437
2.9912,2.2766,2.73,1.6461,3.6856,2.8427,7.544,5.4073,0.29496,6.7377,3.202,1.0348,5.414,6.8549,4.9168,5.1498,2.6536,4.0007,4.107,3.8314,5.8335,2.7062,3.6419,3.3819,5.1728,6.9254,7.9995,8.654,2.2253,2.7931,8.3435,5.0905,3.1634,7.2204,1.0851,3.3478,2.3641,6.6344,8.3741,5.8515,7.4196,7.5575,5.7575,3.2553,6.1962,4.9964,1.9857,3.1515,7.417,1.9181,4.9834,2.7303,5.4739,2.2675,1.7019,4.7715,2.4713,7.0295,5.3932,3.6026,3.5915,0.16213,4.2893,8.8454,4.9501,2.1842,5.0061,5.8242,1.5645,5.4049,7.2764,4.7848,3.6871,2.2051,4.4567,2.2121,3.6217,3.4463,4.2129,5.2777,3.4364,4.4557,0.75274,6.3923,2.2527,3.7283,4.6638,6.1692,2.6479,4.3668,3.0907,2.0541,4.2357,3.957,4.2266,2.1715,3.2429,5.0028,5.7532,3.7496,8.4432
2.1364,1.4698,7.5863,2.3193,3.837,2.1876,1.8135,2.6358,3.8909,3.3053,6.0084,3.3654,6.8346,2.5352,1.0199,4.832,6.9398,3.7473,6.7653,3.7253,2.9251,1.68,6.4268,1.562,3.5551,2.6238,2.6363,3.6426,4.5204,4.711,2.4898,4.9263,5.2844,3.9375,3.7586,1.74,4.8637,7.6097,5.7657,3.9894,5.4108,4.6062,5.4034,4.4791,4.2454,7.4939,4.479,5.5381,5.8251,6.9535,3.9058,5.5177,4.3606,3.233,4.0156,5.4681,2.6899,7.4804,8.0982,2.7271,3.5126,5.1747,5.0539,7.0728,4.079,7.503,2.5093,4.3909,4.8907,2.2381,4.3474,3.6806,5.9889,5.3475,8.0364,6.2734,4.4373,0.2822,3.9563,2.6457,9.1387,4.3845,4.9979,5.0389,3.9945,0.46587,8.5251,4.9639,2.5928,3.7585,7.5021,4.5448,4.5929,3.5315,1.0909,2.7675,2.4443,4.3727,4.5457,3.8512,5.7285
3.4347,4.6192,2.3761,2.1424,3.5446,5.82,4.5372,4.7479,2.6968,2.7425,5.3079,5.0482,1.4435,1.0895,6.2098,4.0861,3.8155,4.9131,3.924,4.5752,5.0947,0.85303,4.1721,4.0652,4.9639,4.7633,1.6121,4.4104,2.1079,3.4212,4.357,6.0866,5.088,4.6849,1.2455,4.3681,6.5291,5.0827,3.5216,4.9526,0.67044,5.6876,4.5557,6.0932,5.1329,3.2346,4.8049,4.1012,0.29863,4.8307,4.8296,5.0057,4.3718,3.9014,7.2933,2.2608,2.6759,5.8384,2.9891,2.1086,5.4472,3.6252,1.8592,7.496,3.5179,2.5667,1.3859,3.4787,7.3032,5.4205,2.0508,3.7311,5.8945,7.3133,3.8781,2.4777,4.7292,1.8395,5.9357,2.2204,2.877,0.089869,2.2047,4.6671,6.5807,6.3991,0.85996,3.4163,4.1245,4.1123,4.5839,4.5088,3.0827,3.6545,2.7316,2.7481,6.0401,1.6824,3.4078,1.7357,5.4541
1.8661,0.6377,1.46,5.1595,8.3627,2.8977,5.7228,7.3104,6.5101,7.312,2.8512,6.1558,3.5676,1.0677,3.3424,4.7744,7.7573,5.8689,4.5684,6.0428,3.0232,1.4191,2.6751,1.6714,6.0395,3.7873,1.6622,3.6423,2.3562,3.4268,6.9299,7.0653,2.5608,3.3057,4.9146,4.29,3.0302,6.12,1.2005,9.1915,3.3388,4.8687,2.6371,2.0035,6.3449,4.1377,4.5253,4.3134,5.463,7.565,5.4008,5.4454,6.5565,5.8708,1.7427,3.5277,0.78539,5.232,7.8935,7.2439,5.9159,2.1702,2.5747,4.4223,3.7944,5.8089,6.7085,3.5541,3.9155,6.2669,5.0459,0.67462,2.4249,2.5444,1.3884,3.6944,4.3249,6.8686,5.483,6.4031,2.5414,4.7087,7.3559,2.7548,5.4167,6.6262,1.9649,5.0433,2.233,3.1036,2.7179,3.0485,3.4377,2.3737,2.794,5.0694,7.4256,0.95354,3.512,4.7485,5.036
