0.08288
0.084383
0.084345
0.085069
0.097428
0.10802
0.084845
0.095685
0.080814
0.09153
0.10346
0.087055
0.11662
0.098799
0.084972
0.088524
0.094522
0.10117
0.085453
0.096623
0.085169
0.078551
0.11747
0.10583
0.094503
0.10275
0.10127
0.11413
0.097361
0.083051
0.10641
0.082004
