0.014237,0.0032405,0.065783,0.091121,0.0080494,2.534,138.91,69.76,0.50465,5.8548,0.63588,0.0032933,0.81691
0.029229,0.0052821,0.033456,0.099584,0.0020254,0.99963,67.08,168.84,0.61914,4.6464,0.79837,1.418,0.18947
0.045806,0.0045917,0.050109,0.068785,0.0098071,2.136,61.468,225.92,0.5873,2.9375,0.5017,2.7541,0.12369
0.04003,0.0063949,0.08596,0.019759,0.0086374,0.84345,175.89,227.13,0.70127,5.956,0.65081,4.3545,0.821
0.030664,0.0082047,0.027658,0.01325,0.0014558,3.7585,209.24,186.8,0.039039,1.0581,0.79595,0.21127,0.6379
0.094251,0.0019456,0.037347,0.065628,0.0051958,1.8418,188.24,65.128,0.5326,1.3304,0.23337,4.5236,0.01612
0.071487,0.008393,0.053497,0.061043,0.0039309,4.7091,119.06,172.41,0.041752,0.17788,0.60084,0.65487,0.89595
0.09659,0.0085698,0.040403,0.096577,0.0066718,0.085863,239.36,32.958,0.82887,8.6786,0.11246,4.1686,0.51538
0.049418,0.0041906,0.081864,0.077149,0.0030727,4.1453,154.04,30.875,0.34659,8.7334,0.51577,4.0023,0.54452
0.09463,0.0048706,0.098874,0.069626,0.006219,3.133,240.76,47.726,0.84824,1.1147,0.83784,4.5894,0.60644
0.010525,0.0061502,0.024314,0.057098,0.0064284,2.6937,64.719,36.433,0.25361,4.2067,0.92079,0.68652,0.76044
0.064928,0.0073074,0.031319,0.03339,0.0063989,3.2525,91.406,146.26,0.58568,5.9102,0.49823,2.5237,0.85535
0.082097,0.0076822,0.073201,0.096579,0.0050359,3.6331,205.01,18.34,0.9383,2.6117,0.27761,2.0248,0.38287
0.030968,0.007821,0.043792,0.058618,0.0013188,0.47244,232.84,205.58,0.057309,6.7908,0.65252,0.86786,0.084649
0.093922,0.0045022,0.097633,0.012724,0.0056243,4.3879,206.51,180.73,0.063438,5.0231,0.9173,2.8759,0.73387
0.078694,0.0048637,0.097508,0.072668,0.0046696,0.071811,109.11,231.46,0.030412,3.8501,0.50984,3.0311,0.33199
0.08438,0.0096071,0.067933,0.056774,0.0019724,1.4715,80.369,123.16,0.68466,2.4047,0.97419,1.0722,0.83975
0.061612,0.0061567,0.087409,0.015313,0.0051389,0.89957,219.58,163.72,0.60264,6.7836,0.19728,2.5997,0.37172
0.081332,0.0086475,0.04617,0.090103,0.0050579,4.6315,206.97,222.53,0.12289,8.0854,0.11118,4.9459,0.82822
0.039614,0.0034871,0.066874,0.039718,0.0059603,0.3409,104.17,134.63,0.79828,6.556,0.29735,2.4496,0.17652
0.030112,0.0066009,0.098671,0.030673,0.0082486,2.9055,95.562,70.551,0.62167,3.6615,0.39642,3.4744,0.12952
0.038115,0.0062953,0.060353,0.020255,0.0073077,3.1858,114.2,243.99,0.079511,8.4448,0.42076,2.0571,0.87988
0.062607,0.0096712,0.094023,0.037983,0.0088501,3.2563,215.91,9.1064,0.078586,2.2988,0.31148,0.17388,0.044079
0.084692,0.0017731,0.074831,0.030559,0.0014697,4.3231,214.44,81.561,0.14465,4.7985,0.69384,1.4642,0.68672
0.036142,0.0055045,0.053563,0.06868,0.0029771,0.27976,164.14,243.25,0.791,8.5928,0.091872,4.0072,0.73377
0.04623,0.0056943,0.067513,0.015954,0.0051368,4.0843,164.37,91.258,0.10147,2.4097,0.40209,1.7325,0.43717
0.087585,0.0018115,0.089887,0.034789,0.0096268,2.6446,107.2,77.287,0.24549,2.2508,0.29518,0.41658,0.37984
0.065327,0.009142,0.027886,0.035364,0.0081104,3.4718,189.83,30.228,0.25121,8.3491,0.3065,2.5555,0.97966
0.099207,0.0089595,0.045583,0.089206,0.0050669,1.062,209.25,228.94,0.11377,0.61724,0.10556,1.8342,0.39899
0.028333,0.0049509,0.099296,0.04999,0.0040009,2.7164,138.32,33.87,0.85977,2.6946,0.59383,3.6974,0.44019
0.084449,0.0080355,0.046212,0.078032,0.0015319,3.5126,139.24,83.029,0.70122,5.3243,0.28273,2.6237,0.15681
0.070828,0.0023362,0.069297,0.064297,0.0076681,4.7822,143.13,224.37,0.7364,1.8297,0.15522,4.0226,0.32603
