0.070504,0.0093961,0.032974,0.092048,0.0042786,3.8184,210.18,238.53,0.23395,1.1162,0.89542,4.1592,0.55257
0.048836,0.004516,0.087271,0.067535,0.0057911,2.7941,78.502,135.7,0.54142,4.2369,0.58252,4.0515,0.95754
0.072496,0.003459,0.091996,0.032983,0.0074049,0.91921,145.69,135.03,0.76449,7.7121,0.58275,2.785,0.89283
0.033111,0.0023675,0.072967,0.01798,0.0088433,2.4897,101.37,77.777,0.35409,0.39051,0.85493,1.3148,0.3565
0.010878,0.004574,0.075266,0.085443,0.0039582,2.5892,123.82,17.809,0.46662,6.2246,0.034866,3.4028,0.5464
0.057905,0.0043725,0.03069,0.062625,0.0068511,4.9712,182.35,45.495,0.64293,8.8109,0.88542,1.1683,0.34668
0.035145,0.00218,0.061845,0.09533,0.0097735,4.2743,83.922,23.247,0.91816,2.5494,0.40773,2.2821,0.6228
0.095161,0.0049154,0.082957,0.015493,0.0016837,4.812,105.76,115.87,0.16996,1.204,0.036382,1.9228,0.79662
0.09158,0.0018236,0.046346,0.062618,0.0062832,3.3947,89.644,2.3331,0.71848,6.1675,0.74615,2.693,0.74587
0.045342,0.0065316,0.09896,0.03566,0.004725,2.0175,89.014,228.76,0.58196,8.1851,0.15483,4.9585,0.12554
0.012237,0.0010988,0.0181,0.084496,0.0037822,4.6749,115.37,160.69,0.43897,5.4978,0.14391,3.7761,0.82239
0.070429,0.0061593,0.038885,0.027189,0.0033745,2.3974,226.07,0.35476,0.8854,8.0998,0.60596,4.9023,0.025151
0.085345,0.0081076,0.056027,0.049828,0.0078289,1.159,144.22,7.5963,0.39912,1.7409,0.25448,1.1739,0.41443
0.097435,0.0031183,0.015455,0.045407,0.0099569,1.9815,130.79,52.118,0.18719,6.7898,0.32415,2.6428,0.73141
0.015124,0.0050322,0.075312,0.084392,0.0026791,3.5254,85.846,113.74,0.637,3.1163,0.40179,0.25718,0.78137
0.050529,0.0061242,0.06009,0.070918,0.0080303,2.7928,243.78,31.817,0.62776,3.7676,0.40637,3.7844,0.36729
0.062422,0.0015526,0.057642,0.028684,0.0027622,3.7832,131.49,2.1619,0.33466,1.4015,0.38619,3.0099,0.74487
0.071797,0.0054666,0.084698,0.038629,0.0099312,4.9774,218.9,181.77,0.80494,7.371,0.6098,4.2858,0.89227
0.074749,0.0067808,0.087288,0.022043,0.0082204,4.8122,173.07,88.529,0.99948,5.6243,0.16689,4.9414,0.2426
0.068504,0.0029914,0.081013,0.070432,0.004818,2.6753,125.32,195.11,0.98117,6.647,0.18809,4.6474,0.1296
0.075422,0.0085335,0.038605,0.061389,0.0075598,4.8194,225.44,109.16,0.13577,7.246,0.094629,2.0476,0.22507
0.043646,0.0097397,0.050699,0.025279,0.0054852,0.57813,206.97,109.14,0.23992,0.605,0.32319,0.0017073,0.35001
0.062342,0.0086174,0.077701,0.023289,0.0082809,0.25724,142.99,12.303,0.033396,8.5571,0.7696,2.7044,0.28708
0.020451,0.005554,0.019888,0.052847,0.0042086,1.5217,212.8,12.408,0.61136,4.4782,0.23412,1.0387,0.92749
0.015189,0.0035099,0.019877,0.091729,0.0016592,2.901,229.69,22.775,0.1197,6.7963,0.74037,1.0964,0.051314
0.098179,0.0077196,0.03429,0.059696,0.0063189,2.6548,135.85,148.51,0.41338,6.6816,0.69282,1.629,0.59267
0.035634,0.0031324,0.057217,0.012965,0.0091917,4.506,116.87,60.271,0.88524,7.4802,0.82408,0.47975,0.1629
0.063548,0.0096161,0.097539,0.014848,0.0027439,2.7028,169.33,210.34,0.55265,1.4085,0.82798,3.7377,0.83841
0.096594,0.0065823,0.073937,0.082456,0.0048913,2.1599,230.4,214.3,0.37531,4.1158,0.29337,3.7425,0.16756
0.02672,0.0064024,0.038067,0.050624,0.0077424,2.7133,190.41,240.9,0.21626,5.5629,0.30937,2.7165,0.5022
0.027374,0.0025534,0.036231,0.044438,0.0013527,3.5621,125.49,122.22,0.44653,8.3897,0.52303,1.6907,0.99933
0.040748,0.0018131,0.086532,0.081068,0.0095169,0.083374,196.99,55.078,0.95663,7.5158,0.3253,4.1617,0.35541
