0.072672
0.096716
0.063567
0.082765
0.023578
0.10331
0.094188
0.12242
0.098542
0.11618
0.099497
0.11994
0.11348
0.12128
0.069631
0.024998
0.028531
0.094103
0.11879
0.04151
0.10756
0.032766
0.1212
0.10339
0.11053
0.024295
0.051277
0.060445
0.10341
0.042696
0.01879
0.034532
0.078321
0.099446
0.030588
0.023034
0.063219
0.015177
0.057924
0.12374
0.047081
0.053899
0.10524
0.10164
0.098091
0.12274
0.09301
0.025828
0.10723
0.039791
0.027854
0.042877
0.039162
0.032474
0.088192
0.024994
0.12304
0.12742
0.0594
0.056213
0.025244
0.024923
0.035687
0.1021
0.063945
0.12339
0.10829
0.027442
0.041756
0.077878
0.11755
0.032534
0.028642
0.093281
0.12207
0.10587
0.060202
0.039466
0.10613
0.027908
0.043683
0.070429
0.060949
0.048243
0.051246
0.10396
0.046318
0.11531
0.021908
0.037582
0.065672
0.10754
0.10268
0.046159
0.085807
0.034535
0.053066
0.069066
0.066389
0.048101
0.089046
0.11852
0.10195
0.071986
0.018325
0.052148
0.12851
0.12251
0.035208
0.11925
0.12068
0.03865
0.037372
0.098302
0.11352
0.11861
0.097908
0.061541
0.062275
0.031721
0.11408
0.037684
0.12735
0.04956
0.12286
0.065247
0.02657
0.028479
0.026641
0.10777
0.11879
0.12161
0.059018
0.12146
0.10781
0.073375
0.12014
0.045641
0.12284
0.036312
0.11875
0.10477
0.093667
0.10161
0.11234
0.11419
0.1001
0.12362
0.062322
0.12692
0.045482
0.10647
0.12137
0.084006
0.025779
0.02801
0.058052
0.043842
0.098512
0.12188
0.049435
0.10506
0.10686
0.10484
0.10698
0.075415
0.12395
0.029209
0.024329
0.034992
0.096819
0.10283
0.063428
0.032488
0.037844
0.048475
0.044624
0.027242
0.11468
0.10062
0.10002
0.073414
0.12078
0.048394
0.030341
0.1053
0.03575
0.054725
0.089038
0.048014
0.03375
0.03631
0.036846
0.025979
0.024531
0.038074
0.1194
0.074082
0.071978
0.10172
0.11384
0.11279
0.026484
0.086631
0.10584
0.067353
0.11524
0.11783
0.077627
0.04126
0.027316
0.058947
0.11372
0.071928
0.041407
0.11502
0.059135
0.077817
0.1083
0.024245
0.10554
0.10475
0.029229
0.031402
0.1219
0.041473
0.10509
0.11048
0.059522
0.028396
0.047412
0.11953
0.1115
0.028792
0.042114
0.049917
0.030371
0.035156
0.10487
0.12175
0.094744
0.11993
0.093634
0.06657
0.048659
0.05751
0.04162
0.019497
0.056107
0.059176
0.090116
0.038569
0.03692
0.030718
0.094107
0.033244
0.071276
0.033571
0.085006
0.043092
0.058949
0.094087
0.035244
0.025564
0.10703
0.11387
0.11977
0.037178
0.12499
0.050482
0.12196
0.092131
0.094964
0.11223
0.044648
0.097116
0.065109
0.10552
0.12096
0.063391
0.11928
0.10114
0.047108
0.022963
0.059334
0.10181
0.11393
0.096344
0.047427
0.11917
0.05494
0.037504
0.10939
0.11514
0.055374
0.056922
0.12166
0.02974
0.06669
0.049664
0.061197
0.06766
0.037983
0.038471
0.11862
0.034976
0.056783
0.030287
0.12215
0.10001
0.03605
0.12115
0.098899
0.11568
0.10763
0.12427
0.10915
0.09712
0.12519
0.12759
