0.086791,0.009492,0.053629,0.052578,0.0077858,0.074528,0.00752,0.057176,0.087524,0.0065403,0.82074,0.71447,4.5705,173.37,190.23,0.51296,4.9143,69.376,82.818,0.45594,0.97391,0.59964,0.55851
0.036516,0.0012667,0.055211,0.036431,0.001251,0.067636,0.0050474,0.045838,0.015485,0.0072595,0.74089,0.7633,4.9103,94.436,105.08,0.13899,4.2298,242.94,247.95,0.63231,0.42589,2.4097,0.30694
0.094809,0.008791,0.05014,0.099259,0.0055977,0.060502,0.0078576,0.06346,0.024445,0.0037336,0.13161,0.12846,4.8728,76.06,217.97,0.73461,2.1964,50.538,235.06,0.39819,0.26112,0.47841,0.86934
0.010442,0.0046989,0.074443,0.014769,0.005888,0.05616,0.0024366,0.074964,0.081141,0.0080579,0.11864,0.56754,4.4603,70.09,240.66,0.43863,3.6839,60.169,211.14,0.31562,0.065845,2.964,0.4272
0.059709,0.009262,0.066016,0.027941,0.0033925,0.078947,0.0099815,0.093542,0.057576,0.0055018,0.99051,0.14998,0.044746,89.196,188.31,0.68107,1.9407,165.8,193.48,0.48411,0.18666,2.1248,0.34518
0.084852,0.0075012,0.043329,0.063439,0.0098944,0.034894,0.0075603,0.044264,0.059636,0.0061554,0.66709,0.10461,4.8556,64.236,212.29,0.44494,1.9585,203.14,223.92,0.8522,0.70073,4.5459,0.5351
0.059088,0.0049709,0.070111,0.095407,0.0097089,0.088691,0.0048011,0.01597,0.060832,0.0047714,0.49035,0.10048,3.4216,166.86,249.82,0.2995,4.9805,226.15,155.35,0.86231,0.24962,3.0711,0.086218
0.048269,0.0034262,0.028227,0.022235,0.0095312,0.076632,0.0052927,0.093262,0.053938,0.0076012,0.34214,0.10228,3.9435,235.65,238.88,0.16302,4.2123,50.771,241.94,0.70972,0.095249,2.8162,0.78147
0.082281,0.0028186,0.093322,0.068725,0.0097984,0.016685,0.0091759,0.062084,0.086323,0.0011754,0.10453,0.71625,4.2207,64.743,219.16,0.43307,2.9262,179.46,201.42,0.7537,0.69475,2.0396,0.75138
0.043193,0.0063568,0.079658,0.024894,0.0067245,0.091656,0.0096374,0.090106,0.011502,0.0033507,0.87199,0.1244,4.8835,142.22,88.675,0.95752,3.3956,55.713,240.38,0.54569,0.44711,2.1363,0.59393
0.024216,0.0066757,0.054366,0.094576,0.0036692,0.099597,0.005097,0.099884,0.045867,0.0072221,0.57444,0.6738,3.3268,204.03,79.748,0.77626,4.6602,232.89,32.724,0.89149,0.58069,4.81,0.12332
0.093731,0.0041052,0.085002,0.09689,0.003549,0.037908,0.009316,0.083165,0.077417,0.0078549,0.77446,0.98685,2.8751,62.405,240.66,0.36927,4.9997,194.38,159.94,0.82738,0.38082,2.97,0.18586
0.022788,0.0068764,0.097778,0.057454,0.0065941,0.064533,0.0074545,0.041624,0.051591,0.00973,0.85271,0.49445,0.11711,125.52,59.306,0.95746,4.2625,103.14,245.57,0.59286,0.2388,2.3538,0.23932
0.077643,0.0099458,0.018784,0.037759,0.0021579,0.031322,0.008928,0.027589,0.095895,0.0053138,0.91812,0.39857,1.42,65.277,204.58,0.14165,0.30377,225.93,40.311,0.95722,0.44851,2.008,0.87856
0.094298,0.0084179,0.090483,0.031041,0.0072638,0.090352,0.0087407,0.093272,0.092092,0.0092284,0.98555,0.48219,3.6882,172.49,157.3,0.41748,4.024,217.88,8.3227,0.24724,0.74874,3.3043,0.67908
0.032173,0.0025917,0.074979,0.017321,0.0064482,0.078359,0.0065257,0.095516,0.042418,0.007707,0.77884,0.2708,4.9079,139.25,30.476,0.60826,2.17,98.661,240.94,0.40165,0.7052,0.7566,0.95554
0.04366,0.0037926,0.039889,0.015869,0.001073,0.039088,0.0082397,0.023779,0.020539,0.0042748,0.55674,0.15787,3.043,246.85,92.073,0.41384,1.466,88.409,165.5,0.26579,0.26919,0.66118,0.95106
0.086469,0.0066417,0.084183,0.04857,0.0059434,0.092281,0.0069135,0.010621,0.017696,0.0010291,0.12755,0.45781,3.3262,207.62,114.3,0.46647,0.99885,246.28,71.821,0.12655,0.61651,1.0126,0.53882
0.09424,0.0011295,0.019919,0.094918,0.0037167,0.074034,0.0069762,0.047046,0.026357,0.0061389,0.94648,0.50968,4.2875,61.075,249.01,0.47706,4.9952,213.14,78.406,0.49269,0.26827,4.0547,0.17302
0.025896,0.0071621,0.065973,0.0201,0.0097572,0.099889,0.002503,0.055552,0.08199,0.0051936,0.38249,0.27262,2.5882,211.32,5.6214,0.65875,1.5517,127.58,246.22,0.17469,0.12388,2.275,0.20061
0.097302,0.00593,0.047344,0.059025,0.0019506,0.088751,0.0026947,0.091969,0.041861,0.0070703,0.75737,0.77276,2.4032,238.24,29.542,0.73679,1.8861,170.49,172.98,0.38877,0.019385,3.0611,0.88576
0.035641,0.0015755,0.086451,0.041816,0.0028119,0.087987,0.0060381,0.07099,0.024175,0.0012601,0.24043,0.32894,4.0078,69.573,127.76,0.12244,4.575,50.579,242.41,0.59753,0.48617,2.6069,0.42997
0.071995,0.0011052,0.045066,0.074132,0.0047163,0.086195,0.0060655,0.074619,0.073333,0.0075349,0.85642,0.71136,4.1663,152.79,238.77,0.22275,4.9886,104.45,249.38,0.62118,0.065225,3.8913,0.71333
0.044342,0.0038476,0.084044,0.023094,0.003679,0.082045,0.0096486,0.03889,0.018939,0.0055475,0.81973,0.26266,3.593,50.778,21.27,0.96775,3.3892,85.03,249.98,0.35732,0.48521,2.3691,0.40096
0.028981,0.0024082,0.010313,0.055755,0.0097923,0.058509,0.007267,0.088634,0.076799,0.0086596,0.99635,0.23819,2.1732,126.06,242.87,0.088994,4.9469,81.136,236.6,0.63933,0.36363,2.6199,0.1281
0.06151,0.0069427,0.04496,0.077307,0.0019694,0.072733,0.0060315,0.096419,0.041329,0.0064902,0.8357,0.15106,4.4948,50.762,216.97,0.38828,4.9976,187.16,249.95,0.82939,0.59741,4.6666,0.81735
0.078267,0.0011746,0.021532,0.083066,0.0023584,0.052601,0.0076879,0.034726,0.085317,0.0083554,0.45132,0.12299,3.1956,70.781,179.56,0.34621,1.3146,154.89,164.05,0.92323,0.45641,1.8692,0.73373
0.044952,0.0064868,0.078957,0.076447,0.0032127,0.075947,0.0010994,0.083571,0.023187,0.0087622,0.60666,0.27138,4.9054,249.96,137.7,0.62905,3.0321,111.89,181.3,0.36185,0.82693,0.61454,0.51558
0.059947,0.0022122,0.076454,0.015574,0.0093171,0.048813,0.0043976,0.05218,0.077593,0.0057381,0.56879,0.83888,3.9795,177.44,81.413,0.35253,4.203,66.336,157.93,0.30899,0.51266,0.2903,0.91029
0.071736,0.0060526,0.036342,0.062144,0.0013814,0.09806,0.0092623,0.038423,0.089119,0.0062953,0.64657,0.4973,4.6604,240.19,83.436,0.7993,0.3131,124.97,24.839,0.10611,0.3074,3.3507,0.80676
0.073836,0.0098238,0.075159,0.081388,0.0014284,0.061853,0.0013827,0.024948,0.080392,0.0038982,0.37488,0.4035,4.0675,237.89,114.46,0.38088,1.3537,65.914,69.579,0.015128,0.90629,0.82163,0.49062
0.069896,0.0080496,0.05576,0.066103,0.0030657,0.038655,0.0010353,0.036362,0.047553,0.0075493,0.14924,0.96623,2.6387,238.94,83.612,0.13264,4.9674,198.91,241.71,0.92422,0.90933,1.4475,0.28373
0.052412,0.0094575,0.099733,0.014467,0.0079042,0.094566,0.0092863,0.05458,0.013886,0.0043595,0.90157,0.9999,4.8085,108.95,246.58,0.51482,4.3977,56.567,114.84,0.089172,0.54653,4.1822,0.30924
0.098385,0.0037385,0.045276,0.098246,0.0064677,0.082657,0.0091873,0.044306,0.056124,0.0070915,0.73282,0.27749,3.8785,91.084,207.03,0.59289,0.59488,69.663,187.41,0.60226,0.23988,3.9467,0.04708
0.028741,0.007236,0.091641,0.072975,0.0035087,0.088297,0.0044328,0.078294,0.049265,0.0012497,0.39952,0.6634,1.8511,54.888,157.48,0.070896,4.9715,152.89,249.77,0.75222,0.39577,3.6371,0.88814
0.071165,0.0083649,0.062926,0.05423,0.0084164,0.049294,0.0085603,0.092138,0.080464,0.009275,0.58379,0.21977,4.9246,169.69,166.33,0.63037,3.7269,120.66,6.0625,0.67959,0.50549,4.5052,0.23185
0.074978,0.0040809,0.076075,0.074043,0.0029444,0.072469,0.0091746,0.083422,0.094493,0.0041353,0.89041,0.44069,4.6232,66.179,120.89,0.59625,4.1266,121.02,72.073,0.82563,0.979,1.9225,0.62878
0.029402,0.0050291,0.011964,0.054454,0.0047487,0.086701,0.0026509,0.018964,0.087932,0.0092118,0.52636,0.74852,0.79388,89.305,188.44,0.071372,4.5825,213.83,248.37,0.77518,0.49593,2.6238,0.85532
0.099647,0.0070946,0.093846,0.022225,0.0086919,0.090273,0.0074342,0.077382,0.083081,0.0067566,0.24892,0.20999,3.0511,62.526,224.94,0.30749,2.7883,217.71,123.02,0.86788,0.90489,3.6676,0.61194
0.061935,0.0094269,0.069454,0.021875,0.0069738,0.030644,0.0077279,0.093532,0.081376,0.0021281,0.98152,0.23698,4.2835,67.673,241.75,0.10916,4.644,211.73,249.48,0.64824,0.44004,2.6059,0.19193
0.033325,0.008459,0.035173,0.091357,0.0091804,0.011207,0.0078009,0.016125,0.032228,0.0044605,0.55264,0.14787,4.9978,221.25,94.85,0.77728,3.1103,175.25,114.55,0.22709,0.093584,0.62437,0.69963
0.078605,0.0037067,0.04082,0.085695,0.0067664,0.073805,0.0085045,0.09853,0.082021,0.0081572,0.88551,0.97057,3.069,54.042,191.47,0.39738,4.6624,232.81,6.0508,0.5486,0.23896,4.9224,0.31928
0.057629,0.0065392,0.079396,0.020446,0.0017617,0.067812,0.0021487,0.092398,0.021321,0.0064213,0.491,0.76564,1.1858,207.16,230.53,0.14676,4.8573,169.45,161.57,0.26242,0.87551,4.9787,0.88623
0.054726,0.0050034,0.084674,0.073477,0.0057462,0.013984,0.005309,0.060437,0.086024,0.0094053,0.68693,0.84276,2.7317,122.61,35.924,0.17519,3.03,73.647,115.64,0.51949,0.89847,4.7718,0.2413
0.027231,0.0041704,0.049733,0.066461,0.0047498,0.056964,0.0078306,0.071598,0.065687,0.009193,0.73486,0.94621,2.1558,227.47,159.88,0.064437,3.9939,88.592,212.98,0.44798,0.084692,3.8714,0.46336
0.099138,0.0050632,0.057707,0.076541,0.0076524,0.062892,0.0061118,0.054477,0.044993,0.0081072,0.77148,0.92834,3.7224,100.54,246.44,0.24371,4.9484,50.696,245.59,0.59085,0.86462,0.041052,0.24805
0.094432,0.0045917,0.031008,0.0837,0.0099762,0.087448,0.0070967,0.050908,0.012519,0.0025584,0.2593,0.82346,3.1609,134.86,128.22,0.29361,4.9238,205.82,90.288,0.88242,0.50063,2.7217,0.75749
0.040954,0.0097973,0.087241,0.072366,0.0067525,0.091846,0.0073617,0.082701,0.067345,0.0082737,0.59289,0.60418,4.2313,51.084,225.74,0.58782,2.2823,54.236,247.93,0.10796,0.78288,0.36485,0.96586
0.087296,0.0087273,0.093412,0.088123,0.0099721,0.058973,0.0040077,0.097512,0.080543,0.0069892,0.58088,0.48246,4.2447,177.91,199.17,0.48805,4.0429,117.57,89.209,0.38606,0.21486,0.25525,0.56435
0.084203,0.0055914,0.066336,0.011742,0.0040705,0.049077,0.0013475,0.090138,0.061635,0.0016456,0.21714,0.8058,3.7071,105.78,231.61,0.36983,1.5909,176.61,208.12,0.86526,0.64859,4.8071,0.33691
0.060904,0.0031651,0.053464,0.088518,0.0018499,0.054817,0.001256,0.040889,0.066954,0.0044775,0.93128,0.48089,3.7076,59.754,47.083,0.32143,0.16724,238.56,176.79,0.80094,0.73219,3.8332,0.52132
0.092599,0.0043163,0.035154,0.093605,0.0065356,0.074739,0.0019911,0.087536,0.076914,0.0066367,0.95382,0.85098,1.5363,53.522,188.8,0.22419,0.1509,133.29,50.659,0.92741,0.42844,4.2577,0.1507
0.083845,0.0030888,0.033399,0.044024,0.0073509,0.076474,0.0070009,0.01008,0.083254,0.007537,0.33306,0.35069,3.3437,51.109,242.59,0.39527,1.2985,229.99,245.54,0.21806,0.24575,2.7691,0.28703
0.038063,0.0039243,0.073252,0.021923,0.0092478,0.092042,0.0028414,0.087305,0.07854,0.0060756,0.42118,0.98925,4.8327,79.56,180.99,0.51715,2.2558,214.98,245.45,0.37264,0.92831,4.3126,0.082309
0.080437,0.0082304,0.086458,0.037517,0.0013713,0.080571,0.0045302,0.079279,0.010766,0.0021252,0.88604,0.38549,4.8084,94.347,248.25,0.10234,4.1641,60.018,228.31,0.60147,0.35437,2.4428,0.64709
0.085502,0.0042152,0.080076,0.074977,0.0077916,0.046026,0.0089705,0.038758,0.081337,0.0075062,0.51325,0.9721,4.688,113.39,72.806,0.4818,2.7578,75.951,18.169,0.13556,0.11063,0.53562,0.48261
0.087041,0.0017048,0.011667,0.09222,0.0054105,0.054981,0.0027895,0.065523,0.092784,0.0062485,0.37959,0.96121,4.6086,238.28,137.41,0.41311,3.347,162.42,216.17,0.94072,0.10228,3.6032,0.9457
0.054661,0.0024225,0.041643,0.057979,0.0018386,0.070982,0.0073695,0.041846,0.080371,0.0053291,0.90161,0.69903,4.1938,58.214,203.59,0.5852,0.029221,234.68,149.64,0.08323,0.55812,4.0866,0.42222
0.094054,0.0014535,0.091945,0.090137,0.0083074,0.090827,0.0044905,0.049802,0.092057,0.0040431,0.13439,0.39902,3.8232,80.313,249.87,0.46461,0.37311,114.63,163.63,0.89954,0.46738,1.6554,0.047501
0.083236,0.0072675,0.098378,0.093657,0.0043156,0.086135,0.005392,0.096396,0.051271,0.0081622,0.93504,0.26835,2.6933,227.03,34.33,0.97782,2.8297,71.698,200.03,0.45681,0.071657,2.2842,0.14698
0.096599,0.004227,0.093186,0.0596,0.004635,0.059921,0.0070439,0.043522,0.075141,0.004496,0.50807,0.15165,2.105,76.079,198.51,0.35947,1.067,213.76,238.77,0.22479,0.50027,4.5185,0.91327
0.089595,0.0091253,0.02512,0.030807,0.0099712,0.027154,0.0047282,0.022895,0.06772,0.0091178,0.96419,0.85151,4.7366,52.568,213.63,0.47315,2.8588,205.75,157.19,0.5154,0.15781,3.4502,0.88576
0.054892,0.0030074,0.030785,0.06501,0.0084112,0.099186,0.0021664,0.058696,0.087222,0.009031,0.44844,0.49736,2.9028,71.288,247.48,0.39853,4.6765,219.03,248.11,0.29678,0.11856,4.7688,0.70559
0.060911,0.0096136,0.050873,0.040574,0.0093376,0.077858,0.0063871,0.051361,0.046186,0.0090507,0.11536,0.72463,3.0674,50.56,208.99,0.55294,3.3038,191.73,241.51,0.80848,0.52668,3.5294,0.67016
0.063691,0.003157,0.01693,0.028207,0.0091221,0.021402,0.0054641,0.088719,0.02137,0.0028238,0.60154,0.54796,4.8902,246.42,192.52,0.69187,1.7318,102.89,224.39,0.16014,0.36958,0.86185,0.4556
0.039149,0.0025932,0.016708,0.028995,0.0010076,0.019436,0.0054674,0.025759,0.047517,0.0057106,0.99936,0.66214,2.2441,58.134,90.111,0.22755,1.18,132.44,128.85,0.084197,0.30749,4.2805,0.24059
0.064989,0.005597,0.066389,0.07304,0.0051115,0.019322,0.0086272,0.044105,0.016549,0.0097949,0.61671,0.56589,4.7725,51.008,240.1,0.62482,4.9556,219.77,231.95,0.16998,0.30016,0.53033,0.99221
0.095065,0.0085394,0.088901,0.034161,0.008091,0.038264,0.0099019,0.067404,0.016536,0.0038772,0.22158,0.49299,4.1419,57.909,235.49,0.40647,0.095544,225.76,92.148,0.37734,0.26145,4.654,0.31177
0.076074,0.0089655,0.012589,0.032893,0.0010543,0.037135,0.0050424,0.040854,0.02247,0.0026467,0.67507,0.17923,0.036215,79.273,183.29,0.9345,3.9992,248.51,249.01,0.45411,0.091288,2.6064,0.42383
0.078799,0.0098862,0.087701,0.022559,0.0031261,0.069827,0.0016804,0.095241,0.056475,0.0076402,0.83932,0.45831,3.1882,112.93,238.08,0.32342,3.5668,177.37,246.1,0.23782,0.40713,3.7538,0.71981
0.014653,0.0041163,0.049872,0.053867,0.0065024,0.088384,0.009861,0.076452,0.039726,0.005772,0.57291,0.34639,1.872,149.06,121.13,0.1451,1.7766,93.026,236.48,0.17772,0.59448,1.1585,0.53928
0.081027,0.0093615,0.039897,0.040313,0.0084057,0.039818,0.0057097,0.085201,0.081598,0.0091285,0.16647,0.95311,3.2115,222.1,238.78,0.42862,2.8239,105.91,31.012,0.83651,0.54294,1.4491,0.35554
0.080098,0.005575,0.070492,0.09164,0.0013837,0.041867,0.0056088,0.093357,0.051271,0.002155,0.38488,0.51234,4.9882,50.006,246.16,0.49556,4.8808,243.66,206.32,0.053615,0.55193,4.917,0.021117
0.072133,0.0028745,0.0336,0.054724,0.0097391,0.059624,0.007261,0.055536,0.062605,0.009556,0.35959,0.40791,4.4164,191.31,220.72,0.71756,3.9044,174.9,164.17,0.17624,0.087758,0.83559,0.46806
0.069592,0.0078811,0.04052,0.042674,0.0034362,0.074649,0.0099754,0.02705,0.03082,0.0049059,0.46905,0.24563,4.4513,51.663,248.41,0.46747,4.9359,157.81,84.073,0.91774,0.38081,4.6789,0.77788
0.074712,0.0081642,0.054537,0.066158,0.0099911,0.024335,0.0075012,0.047717,0.043286,0.0017398,0.80557,0.73606,3.8116,51.812,240.64,0.41247,4.9657,194.77,216.31,0.74654,0.99408,1.8071,0.74731
0.044147,0.0042998,0.051163,0.083506,0.0093855,0.070846,0.0082124,0.076145,0.067505,0.0018515,0.11149,0.22949,3.6792,57.453,239.91,0.3257,3.0984,154.19,36.973,0.43474,0.56376,2.0753,0.84395
0.033377,0.0024548,0.076846,0.01893,0.0088989,0.0901,0.009556,0.056301,0.08887,0.0089779,0.74967,0.74011,3.2851,60.33,200.25,0.30888,4.718,79.661,241.46,0.58923,0.26297,3.694,0.80663
0.09933,0.0019698,0.018031,0.019577,0.0012378,0.082999,0.0087969,0.096992,0.057117,0.0036866,0.56741,0.6956,4.878,54.217,249.45,0.47737,3.4693,148.26,212.36,0.75699,0.41764,4.9748,0.34941
0.038776,0.0088067,0.040246,0.058247,0.0012111,0.070506,0.0089588,0.081816,0.091301,0.0078446,0.61667,0.82376,4.9208,112.39,249.96,0.57147,2.6904,53.671,205.39,0.32895,0.57806,0.57883,0.46733
0.099958,0.0074147,0.036654,0.032408,0.0083469,0.028159,0.0065699,0.01127,0.067351,0.0023576,0.4146,0.64871,1.8501,214.07,13.11,0.92641,0.72253,216.93,123.99,0.69969,0.083593,4.9834,0.94652
0.061961,0.0064618,0.054996,0.023607,0.0023928,0.017902,0.0037984,0.024416,0.040859,0.0010993,0.49168,0.9121,4.4522,138.52,72.395,0.49351,2.5187,185.19,51.744,0.85235,0.60542,1.4542,0.38416
0.076515,0.0043927,0.065713,0.07504,0.0036814,0.01293,0.0090731,0.044129,0.06079,0.001089,0.97516,0.16475,4.6076,58.562,247.81,0.55403,0.050829,159.23,134.14,0.89572,0.31563,4.8805,0.5209
0.01326,0.0075015,0.065824,0.020935,0.0043272,0.015895,0.0099513,0.086953,0.058854,0.0024465,0.74583,0.54324,4.2706,111.72,116.51,0.084324,1.4326,178.32,249.39,0.17812,0.36551,2.9145,0.44277
0.091086,0.0018895,0.069577,0.0104,0.0053542,0.088293,0.0022329,0.055624,0.038963,0.0012317,0.23395,0.71047,0.78446,85.457,239.63,0.08951,2.6301,136.32,111.03,0.13977,0.34819,3.2718,0.31645
0.09944,0.0073413,0.09226,0.030861,0.0068816,0.088145,0.0091719,0.092909,0.055919,0.0085085,0.98366,0.23224,4.5706,188.78,212.46,0.57673,0.065858,130.29,133.22,0.66313,0.14986,3.6354,0.89759
0.085131,0.0018307,0.030201,0.091824,0.0018467,0.033866,0.001432,0.073847,0.089844,0.0042096,0.97393,0.55225,4.4236,55.262,187.23,0.45996,2.3723,195.04,191.92,0.8714,0.40398,4.8236,0.76217
0.042497,0.0046286,0.055335,0.038837,0.0059817,0.084244,0.0010715,0.011148,0.089804,0.0099514,0.48904,0.35843,4.994,61.472,248.86,0.55173,2.8655,55.181,225.31,0.18202,0.37556,0.021335,0.51171
0.039122,0.0093482,0.071971,0.099303,0.0027447,0.099291,0.0022243,0.035796,0.061719,0.0010435,0.28507,0.98379,0.89261,186.56,232.77,0.056205,1.7278,118.52,98.586,0.99979,0.96026,1.2744,0.18313
0.075336,0.0040174,0.0339,0.019855,0.0055599,0.045642,0.0097861,0.023075,0.06955,0.0090933,0.82727,0.63682,4.8638,225.46,207.98,0.47512,2.5563,154.88,69.633,0.35158,0.43406,1.8375,0.040905
0.036483,0.0063425,0.092868,0.099736,0.0041144,0.034396,0.0014993,0.071882,0.010463,0.0030064,0.29343,0.96464,3.0961,107.88,146.78,0.25363,2.6341,213.53,101.03,0.77615,0.36816,3.6668,0.22822
0.042939,0.006466,0.035051,0.033186,0.0019359,0.078107,0.0021516,0.081514,0.090921,0.0070387,0.17044,0.78579,4.6023,84.506,242.1,0.54068,1.1191,231.59,68.797,0.9941,0.70349,4.5083,0.03715
0.024037,0.0040073,0.078753,0.083351,0.0030769,0.048779,0.0090794,0.068451,0.080991,0.0058877,0.93717,0.9139,4.2345,56.865,211.15,0.49429,1.8552,249.46,155.55,0.6087,0.74725,3.7849,0.43342
0.08525,0.0031224,0.039478,0.046438,0.002907,0.090519,0.0037057,0.094868,0.016963,0.0011146,0.86679,0.10567,0.19069,53.825,0.37509,0.020895,2.5686,62.193,245.32,0.46744,0.72929,2.18,0.42646
0.066766,0.007791,0.05211,0.044078,0.0019879,0.020758,0.0038331,0.088268,0.035323,0.0066541,0.70698,0.14532,3.3893,136.9,217.44,0.59758,0.12267,62.014,173.58,0.28885,0.25499,3.8856,0.42976
0.09162,0.0044983,0.028963,0.090327,0.001763,0.082458,0.0086472,0.06106,0.0117,0.0082323,0.46,0.54118,3.8846,88.164,231.91,0.45458,2.7402,83.467,12.759,0.36819,0.48211,2.3767,0.16778
0.050315,0.0032755,0.03798,0.014173,0.0013201,0.081538,0.0086406,0.087961,0.015097,0.0093975,0.68191,0.34268,0.40122,52.976,0.9047,0.29305,1.9748,57.816,247.89,0.27155,0.58987,2.3251,0.28518
0.046849,0.0017416,0.028522,0.021533,0.0079576,0.08832,0.0052276,0.092227,0.041567,0.0046286,0.19389,0.83725,3.9249,205.66,57.161,0.49181,4.4237,249.06,154.11,0.60843,0.076465,4.6145,0.8212
0.02159,0.0098605,0.031,0.055815,0.0067489,0.052421,0.0055921,0.048853,0.055267,0.0016911,0.1983,0.26365,3.5135,50.038,176.49,0.23947,4.9972,249.51,249.91,0.76306,0.58878,4.9952,0.78543
0.091383,0.0096258,0.05789,0.069248,0.00665,0.08874,0.0023257,0.020298,0.090768,0.0014319,0.68801,0.12822,3.5955,52.757,246.63,0.41571,4.2545,174.47,193.91,0.32827,0.60691,2.9701,0.16092
0.056459,0.0042038,0.038634,0.076751,0.0020241,0.079307,0.0040547,0.020387,0.060201,0.0013279,0.84998,0.91726,3.94,53.388,245.9,0.52514,3.9786,50.283,145.13,0.19563,0.48886,0.28151,0.7436
0.059612,0.0054438,0.027612,0.044012,0.0033863,0.082744,0.0078141,0.085113,0.099399,0.0086643,0.11053,0.6541,3.8002,51.515,137.94,0.30133,4.5914,237.23,246.83,0.69113,0.66227,0.53384,0.5264
0.011521,0.007798,0.071542,0.099057,0.0021303,0.061469,0.0066063,0.020401,0.055261,0.0099042,0.96907,0.14106,4.9008,129.83,123.33,0.7183,4.4681,220.33,214.89,0.39971,0.09737,2.6195,0.92174
0.08074,0.0077714,0.099021,0.015498,0.0085116,0.026397,0.0076901,0.037264,0.084087,0.0023579,0.9899,0.14749,4.9075,52.313,247.35,0.51406,4.0271,58.947,16.691,0.95287,0.54471,4.8686,0.77689
0.070561,0.0011632,0.017073,0.064205,0.0048595,0.034385,0.0096755,0.033135,0.0372,0.005337,0.4085,0.43377,1.1248,84.353,210.17,0.2308,4.3385,56.508,207.61,0.81816,0.077794,4.1428,0.19279
0.090307,0.0096857,0.043357,0.082894,0.0091738,0.019515,0.0042495,0.077256,0.091169,0.0090521,0.68007,0.57274,4.3458,98.136,131.45,0.63124,0.28772,203.77,185.86,0.50076,0.92199,0.88182,0.91187
0.079177,0.0060364,0.09164,0.099711,0.0038128,0.081938,0.0011943,0.085699,0.091848,0.0045467,0.97285,0.7457,4.8678,50.202,249.35,0.46342,3.6057,162.94,248.76,0.25892,0.38837,4.8258,0.78627
0.08853,0.0010633,0.048028,0.015428,0.0099567,0.079923,0.0032465,0.046994,0.034968,0.0039574,0.92602,0.32198,4.7736,173.7,248.17,0.12059,3.9492,50.892,229.18,0.60639,0.11886,2.6679,0.25645
0.080035,0.0070089,0.010447,0.050205,0.0079319,0.083926,0.0019727,0.054985,0.077739,0.0084314,0.13273,0.91549,2.4839,77.648,169.63,0.37153,1.4126,168.07,31.894,0.62577,0.13769,2.518,0.42946
0.042126,0.001201,0.032966,0.041099,0.0040044,0.09947,0.009927,0.041538,0.030253,0.005638,0.85879,0.64421,4.1747,183.18,194.91,0.42601,4.7411,177.66,32.603,0.72061,0.47732,3.0291,0.54254
0.085883,0.001502,0.054668,0.010006,0.0055369,0.085957,0.0012203,0.074186,0.062502,0.0080957,0.16345,0.43758,3.6746,121.27,170.35,0.42551,0.81101,69.094,162.99,0.9976,0.1039,4.1439,0.20878
0.099497,0.0073347,0.049899,0.079484,0.0027187,0.071328,0.0053582,0.015813,0.048808,0.0056608,0.61,0.35921,3.3234,50.29,206.57,0.38939,2.4921,244.53,237.99,0.61313,0.14631,4.369,0.64953
0.038086,0.0095961,0.081096,0.033729,0.0067876,0.064925,0.0048139,0.09593,0.020453,0.0039811,0.84724,0.4399,4.583,171.35,29.586,0.70334,0.13811,237.24,14.354,0.89621,0.75018,3.874,0.98687
0.061436,0.0094982,0.090287,0.010702,0.0019766,0.044193,0.0055172,0.090873,0.062196,0.0093046,0.73456,0.48464,1.8983,220.41,192.77,0.17968,0.9559,125.98,41.852,0.56872,0.86967,1.8439,0.52089
0.081032,0.005117,0.096901,0.038148,0.0063724,0.055168,0.0084067,0.037136,0.072283,0.0092845,0.76107,0.19077,2.5272,219.15,174.02,0.26857,0.35286,154.89,202.12,0.8671,0.15583,2.5655,0.62092
0.075333,0.0049154,0.027793,0.076598,0.0053975,0.086406,0.0062382,0.09838,0.023657,0.0013147,0.30525,0.83083,4.5679,120.09,208.78,0.42743,1.4733,52.819,206.04,0.23349,0.86016,3.3678,0.30861
0.032344,0.0042575,0.086869,0.023638,0.0057157,0.017202,0.0059329,0.073792,0.093454,0.0090376,0.31902,0.17467,4.5569,69.844,181.13,0.40796,4.9798,138.65,248.76,0.68163,0.444,4.2066,0.38259
0.083927,0.0067065,0.02882,0.056986,0.0074505,0.05242,0.0052782,0.015181,0.058484,0.0097439,0.91595,0.66264,3.1187,50.724,238.14,0.32798,4.9166,188,174.77,0.47113,0.32273,2.0432,0.98159
0.043469,0.0074684,0.098014,0.022727,0.0057621,0.056763,0.0097022,0.039158,0.075774,0.0051317,0.80203,0.15748,4.4596,104.67,86.42,0.73974,3.5286,52.914,219.03,0.35567,0.22856,1.2704,0.35242
0.080985,0.0086825,0.076864,0.03224,0.0019683,0.098693,0.0099518,0.069892,0.079097,0.0069577,0.94496,0.15748,0.015539,72.671,87.496,0.073417,2.5032,186.38,244.48,0.36529,0.21832,2.2614,0.42546
0.073169,0.0073915,0.010671,0.028624,0.0048625,0.09313,0.0081365,0.08824,0.088343,0.0080489,0.23885,0.77571,4.8761,94.113,247.93,0.48443,1.9532,103.8,242.66,0.53159,0.81084,2.0812,0.49306
0.074236,0.0014624,0.013185,0.05694,0.0071698,0.031534,0.004404,0.070491,0.044919,0.002689,0.52455,0.90531,4.8494,168.16,151.84,0.75115,1.4538,149.56,129.68,0.23146,0.36707,0.29121,0.66589
0.044467,0.0040471,0.095609,0.047069,0.0074004,0.058604,0.0068428,0.012237,0.02432,0.0095683,0.98976,0.97253,4.2681,93.606,233.62,0.40276,4.3076,154.4,27.418,0.14205,0.54005,3.7418,0.70428
0.099768,0.0061127,0.028204,0.039515,0.0056597,0.085594,0.006396,0.086033,0.069278,0.0032541,0.97,0.14464,3.6447,237.92,133.08,0.63094,4.1389,126.59,206.73,0.19231,0.43607,1.0209,0.91931
0.074053,0.002786,0.056951,0.091646,0.0048916,0.095947,0.0090218,0.024132,0.067818,0.0031623,0.78856,0.42543,3.7851,57.691,243.51,0.4672,4.9937,133.71,227.83,0.035958,0.82838,2.1499,0.22808
0.095666,0.009805,0.045203,0.042363,0.0041665,0.056511,0.0071249,0.048246,0.03588,0.0095115,0.99645,0.89996,4.3899,50.75,227.16,0.51227,4.7315,177.68,154.57,0.82362,0.89818,3.0643,0.54389
0.043807,0.0057396,0.083825,0.099553,0.0097458,0.05858,0.0021072,0.06974,0.010286,0.0021507,0.61145,0.93807,3.0882,113.85,130.16,0.96034,3.9687,57.719,188.24,0.54157,0.407,0.36803,0.90333
0.098186,0.0081071,0.025915,0.023967,0.0085277,0.01656,0.0028976,0.068281,0.099247,0.002537,0.37103,0.99638,3.2759,75.746,224.04,0.40372,1.9755,90.403,138.38,0.17398,0.81714,4.602,0.55978
0.010598,0.0026133,0.071271,0.063803,0.0078354,0.098738,0.0027106,0.061081,0.058312,0.0045108,0.30806,0.19427,0.20006,161.93,58.104,0.61255,4.2782,139.51,246.26,0.70155,0.73319,2.2999,0.074623
0.087675,0.0062569,0.080774,0.073872,0.0094267,0.052736,0.0074859,0.087588,0.054167,0.0060057,0.89118,0.39251,3.7566,152.45,44.513,0.23977,3.7628,70.502,74.681,0.52158,0.11065,3.2368,0.22272
0.08395,0.0039398,0.08053,0.072043,0.0067517,0.031291,0.0037683,0.095877,0.060257,0.009095,0.76196,0.97547,4.9275,70.709,128.52,0.46665,4.8508,211.36,187.88,0.67401,0.21707,4.8284,0.81568
0.016132,0.0043585,0.073076,0.024386,0.0099699,0.091233,0.0019569,0.090768,0.043131,0.0074449,0.96885,0.58899,3.3194,141.9,103.53,0.48289,3.6832,215.36,192.66,0.74576,0.077295,0.52949,0.94252
0.01861,0.0094244,0.081225,0.065588,0.0060372,0.073571,0.0084648,0.07772,0.046466,0.0063291,0.22022,0.26869,1.6174,227.33,118.76,0.023614,4.4012,143.73,58.169,0.57008,0.20005,2.4826,0.13488
0.096585,0.0063313,0.041476,0.040187,0.0010453,0.071758,0.0084434,0.098993,0.074987,0.0056464,0.85337,0.35866,4.5055,71.592,222.27,0.56849,3.5741,95.832,0.26759,0.11125,0.25788,3.8217,0.62387
0.087165,0.004627,0.010623,0.054596,0.0043532,0.0304,0.0094255,0.054483,0.091729,0.0061206,0.89529,0.57863,4.6746,56.431,181.53,0.43473,0.26416,233.93,113.51,0.41782,0.44917,4.9008,0.10721
0.097306,0.0095748,0.056332,0.096595,0.0030297,0.063056,0.0065928,0.035126,0.081421,0.001402,0.33497,0.57474,3.2821,68.019,217.83,0.43332,2.3534,55.536,152.19,0.49869,0.73566,0.90762,0.83219
0.099757,0.003613,0.097213,0.058852,0.0045536,0.03399,0.0013091,0.046474,0.037845,0.0016125,0.63447,0.95542,3.4826,57.943,218.06,0.39971,4.9779,109.76,172.54,0.81359,0.1255,4.0599,0.93604
0.071361,0.0063634,0.079605,0.072886,0.008074,0.029581,0.0084865,0.055265,0.085118,0.0080432,0.16744,0.86492,4.8688,77.469,240.05,0.56793,3.2846,124.9,88.322,0.27581,0.12447,2.8421,0.43043
0.010687,0.0023717,0.033996,0.057188,0.0097417,0.035103,0.0088931,0.043877,0.047145,0.008303,0.79065,0.92517,4.8518,83.973,249.65,0.64284,2.5678,53.271,226.44,0.21433,0.019524,3.1737,0.87134
0.087277,0.0072931,0.046028,0.031346,0.0058289,0.088282,0.0017978,0.071737,0.047712,0.0079983,0.79134,0.13092,4.7985,79.549,232.8,0.51702,0.070643,158.86,234.89,0.26279,0.61423,3.6173,0.77289
0.034274,0.0084194,0.083809,0.072715,0.0022979,0.048579,0.0026973,0.042827,0.034375,0.0019417,0.1787,0.70283,3.3269,97.794,213.46,0.5195,1.8543,209.07,102.21,0.47931,0.22968,4.9993,0.024958
0.091647,0.0026957,0.020695,0.09363,0.0091563,0.030386,0.0097579,0.075567,0.040878,0.0092081,0.9755,0.7928,4.4496,58.451,227.7,0.53997,3.5934,244.82,187.16,0.9954,0.21958,4.5857,0.52395
0.093664,0.0049049,0.086517,0.096789,0.0074707,0.086135,0.0011189,0.088677,0.077266,0.007043,0.28704,0.64375,4.8442,123.44,73.831,0.62987,3.9872,82.908,191.31,0.41952,0.65493,0.16709,0.46025
0.077912,0.0085366,0.0801,0.082128,0.0098761,0.081276,0.0022476,0.046353,0.084434,0.0066691,0.75072,0.87674,1.4932,77.456,153.15,0.12152,3.4766,64.587,38.252,0.77251,0.61669,0.29397,0.53549
0.087807,0.0074067,0.041618,0.075422,0.0011308,0.091425,0.0073177,0.071764,0.084742,0.0038629,0.94225,0.47844,4.5198,54.503,248.36,0.12971,4.7653,160.3,245.77,0.69173,0.32147,2.8294,0.33209
0.094452,0.0068075,0.040185,0.080345,0.0052975,0.090885,0.002204,0.043461,0.027308,0.0016913,0.51214,0.59611,3.5349,52.301,238.48,0.4299,4.5768,56.845,25.879,0.69506,0.042693,2.888,0.99722
0.078579,0.0065886,0.010619,0.077743,0.0074629,0.072838,0.0050855,0.075155,0.053932,0.0084667,0.86805,0.30741,2.884,68.928,242.12,0.44086,3.0943,52.147,218.6,0.27218,0.91519,0.40125,0.7363
0.019743,0.0052268,0.065659,0.03304,0.0097839,0.074223,0.0031357,0.085498,0.029251,0.0068997,0.53856,0.64667,4.2761,85.857,212.95,0.62779,1.7449,181.47,2.3273,0.54065,0.71717,3.5358,0.56308
0.028924,0.0051092,0.024884,0.097377,0.0088167,0.062339,0.009876,0.066088,0.059889,0.0019803,0.92622,0.65328,2.2453,87.248,226.61,0.16957,4.9985,54.205,220.87,0.60804,0.31675,3.2618,0.09859
0.072081,0.0089831,0.089301,0.066577,0.0017111,0.092815,0.0029754,0.039697,0.05207,0.0025383,0.99045,0.15728,4.9945,181.56,247.99,0.12858,3.3395,59.648,248.44,0.65593,0.18101,2.3865,0.041406
0.074081,0.0010668,0.021406,0.080503,0.0071109,0.074236,0.004575,0.021792,0.027774,0.0063979,0.53586,0.89991,3.385,52.454,231.06,0.39434,3.9561,240.08,183.61,0.53695,0.70419,3.803,0.28726
0.039388,0.0097641,0.017418,0.068031,0.0030692,0.076322,0.0079625,0.037674,0.015284,0.0070566,0.89958,0.32795,4.7944,70.167,150.73,0.97914,3.4173,52.505,249.92,0.49391,0.11179,2.1312,0.26087
0.060413,0.0024177,0.025011,0.07781,0.0098615,0.061986,0.0017953,0.051664,0.092554,0.0043928,0.12445,0.16452,4.5706,178.17,209.9,0.4906,3.4361,153.98,1.8698,0.95974,0.57266,1.9028,0.14208
0.070297,0.0049685,0.036008,0.037099,0.001688,0.04884,0.0035017,0.04583,0.028849,0.0079755,0.19466,0.89141,4.6284,73.358,234.09,0.46137,4.6864,112.23,84.54,0.94837,0.65511,2.0239,0.0092805
0.026239,0.0066719,0.079829,0.028904,0.0064301,0.096608,0.0010645,0.066793,0.017882,0.0069832,0.95031,0.10034,0.57291,107.55,230.43,0.1133,3.2956,55.063,246.17,0.51589,0.6643,2.1706,0.69773
0.027913,0.0018281,0.074661,0.032635,0.0012675,0.028115,0.0049776,0.075156,0.025484,0.004389,0.31178,0.39766,3.8705,58.789,232.58,0.25459,4.9184,208.97,224.05,0.86624,0.70333,3.1923,0.74337
0.060784,0.0036828,0.046991,0.01542,0.0072928,0.09654,0.0098904,0.062209,0.051376,0.0056725,0.95773,0.1389,2.0433,59.033,237.51,0.38563,1.7058,212.08,4.832,0.15985,0.63128,3.1534,0.86688
0.019919,0.0041861,0.08413,0.063302,0.0094849,0.052136,0.0025575,0.01768,0.046818,0.0062111,0.8192,0.33142,4.2757,240.43,102.99,0.52474,3.2311,124.4,97.566,0.32452,0.41614,1.0601,0.847
0.043669,0.00112,0.096477,0.074707,0.0044971,0.085165,0.0044903,0.085753,0.09982,0.0091985,0.61367,0.81317,4.3418,80.339,248.42,0.20544,4.8357,63.016,244.45,0.58093,0.22623,3.3797,0.27108
0.097472,0.0076012,0.079613,0.014634,0.0070031,0.083012,0.0099365,0.09569,0.069723,0.0048799,0.98036,0.59439,4.3908,51.537,212.32,0.49316,1.4243,63.623,240.59,0.41844,0.74342,4.2465,0.3451
0.093945,0.0017379,0.068401,0.051879,0.0063279,0.023581,0.0074855,0.05969,0.085628,0.0062681,0.89267,0.51828,3.4035,56.295,241.49,0.40529,1.9291,205.85,247.88,0.77226,0.71285,3.1413,0.9738
0.05996,0.0010073,0.050958,0.082437,0.00406,0.086864,0.0099428,0.090827,0.087063,0.0060997,0.57767,0.36152,4.21,139.54,26.021,0.40771,4.2609,150.61,136.67,0.73607,0.81254,0.038208,0.27937
0.081729,0.0031076,0.099205,0.070653,0.0011514,0.086159,0.0042972,0.035497,0.079964,0.0037014,0.79758,0.25899,2.5546,167.06,0.50015,0.48469,2.3379,51.806,249.51,0.29373,0.057422,2.9215,0.27615
0.070078,0.0034924,0.08847,0.023871,0.0021017,0.051444,0.0024403,0.06378,0.035767,0.0067608,0.91037,0.62937,4.33,51.899,244.1,0.45396,0.97,238.3,197.21,0.63581,0.92193,4.2871,0.49707
0.092068,0.0048352,0.067831,0.066865,0.0082857,0.071865,0.0067518,0.057809,0.095928,0.0040546,0.10282,0.55645,2.6642,57.646,213.79,0.42425,0.12651,196.35,172.66,0.48451,0.06435,4.212,0.96464
0.079635,0.0074272,0.029218,0.099185,0.0068431,0.088029,0.0080624,0.079693,0.062681,0.008645,0.17573,0.87177,3.0956,83.528,198.34,0.72814,1.897,149.27,146.71,0.19203,0.0016753,0.68036,0.11078
0.082494,0.0096179,0.094239,0.055586,0.0088884,0.059661,0.0065737,0.07755,0.044021,0.0057307,0.2286,0.94744,2.5098,89.177,226.86,0.27283,4.2941,116.5,187.96,0.85654,0.7525,1.8019,0.25221
0.053082,0.0095177,0.023039,0.09877,0.0068356,0.056382,0.0014758,0.039084,0.021431,0.0039006,0.98122,0.77806,3.5707,155.6,207.07,0.33149,0.73155,153.99,132.71,0.41642,0.56354,4.5264,0.22807
0.038597,0.0031309,0.05986,0.067323,0.003397,0.098048,0.0018019,0.025462,0.070919,0.0048468,0.25753,0.62862,4.5586,50.353,199.61,0.38163,4.6664,118.05,249.85,0.75212,0.19159,3.4112,0.63428
0.075464,0.0010404,0.051575,0.070665,0.005503,0.093889,0.0047125,0.033897,0.037425,0.0081659,0.62835,0.88118,4.0955,54.782,221.18,0.5194,4.2432,220.84,87.065,0.68903,0.93169,2.419,0.38342
0.094966,0.0041698,0.040687,0.084934,0.009575,0.040077,0.0027558,0.045807,0.017644,0.004754,0.67187,0.88272,4.7744,173.44,32.127,0.58143,0.91648,115.84,36.179,0.16542,0.29746,1.8976,0.28018
0.03038,0.0011211,0.01256,0.04115,0.0072737,0.017589,0.0011115,0.07384,0.061702,0.0041586,0.95339,0.4286,4.2446,51.401,209.61,0.3147,4.8594,61.394,135.83,0.65167,0.98506,1.6912,0.23597
0.073873,0.0044972,0.029806,0.022042,0.0093658,0.030901,0.0043727,0.089776,0.097079,0.0026789,0.1734,0.55285,4.2561,56.91,249.21,0.43344,4.9497,117.95,92.742,0.88783,0.46177,3.777,0.47994
0.099559,0.0097983,0.047205,0.04365,0.0051424,0.094621,0.0099176,0.067781,0.064729,0.0028593,0.37153,0.52244,4.8602,51.534,236.7,0.53794,0.50606,178.02,7.1327,0.91143,0.87726,2.9564,0.77414
0.090192,0.0023082,0.043117,0.039762,0.0017514,0.077382,0.0038298,0.079496,0.081559,0.0052234,0.67346,0.96312,3.9548,93.643,198.62,0.57012,2.7861,53.042,176.77,0.38688,0.70596,0.39434,0.41775
0.091577,0.0092242,0.035137,0.059233,0.0023354,0.011441,0.0029011,0.088211,0.014593,0.0066754,0.90803,0.50437,4.9004,180.79,106.63,0.55606,4.0123,106.2,204.92,0.86535,0.52682,4.1676,0.87877
0.029453,0.0012857,0.027582,0.068565,0.0040433,0.066602,0.0066221,0.085867,0.043577,0.0034664,0.32686,0.98958,3.4687,216.29,135.11,0.20933,4.5976,187.4,237.04,0.57021,0.093727,3.1011,0.36189
0.059437,0.0039702,0.043191,0.027346,0.0083206,0.088709,0.0099858,0.082461,0.037688,0.0058076,0.82119,0.44216,1.5893,190.98,233.6,0.035122,4.5123,86.999,245.97,0.6736,0.16459,2.5133,0.38775
0.08607,0.0061545,0.050122,0.095346,0.0077513,0.099462,0.0093772,0.031589,0.04841,0.0070659,0.93108,0.98506,4.5219,86.724,210.65,0.4668,1.6198,224.55,38.234,0.23367,0.26284,4.7328,0.58329
0.085751,0.0069316,0.062745,0.068648,0.0036873,0.045149,0.0018049,0.0753,0.089527,0.0097157,0.11818,0.134,3.0009,207.86,205.94,0.18905,0.58365,223.42,107.6,0.30177,0.2628,4.9155,0.68357
0.025992,0.0094023,0.052991,0.059788,0.0067165,0.086817,0.0023379,0.01579,0.030477,0.0076167,0.55257,0.65952,4.3846,122.75,233.71,0.65525,2.319,214.49,56.324,0.11993,0.29637,4.3709,0.04897
0.065665,0.0010558,0.085684,0.040863,0.0060001,0.09467,0.0046088,0.04458,0.032448,0.0054,0.88113,0.10853,4.7728,214.48,72.263,0.48379,2.8403,186.91,179.32,0.24066,0.97847,1.0515,0.45421
0.097711,0.0091008,0.073744,0.048128,0.0056093,0.04839,0.0065522,0.069285,0.039978,0.001175,0.89212,0.72479,3.1597,63.236,174.94,0.36861,1.2596,136.55,4.4239,0.7399,0.80654,3.3635,0.34861
0.097347,0.0073692,0.069899,0.024426,0.0070455,0.074447,0.0092157,0.037498,0.072395,0.0098712,0.53384,0.90153,2.0899,57.065,246.4,0.21314,4.8328,235.3,246.74,0.94573,0.69385,2.7713,0.24441
0.024731,0.0033774,0.022069,0.041166,0.0098709,0.053733,0.007884,0.038453,0.040852,0.0060261,0.78358,0.66613,4.6261,50.996,236.77,0.45944,4.8841,51.122,127.12,0.72622,0.4665,4.6848,0.40608
0.041399,0.0013941,0.026353,0.035735,0.0029751,0.045237,0.0024535,0.094051,0.089057,0.007968,0.82715,0.82486,4.5966,55.804,249.79,0.29315,4.8106,180.47,230.98,0.66865,0.47236,4.1139,0.47665
0.077208,0.0030184,0.014247,0.096638,0.006789,0.019646,0.0049755,0.067103,0.075429,0.0063394,0.41518,0.8727,4.4509,93.632,216.97,0.54411,0.82475,136.96,187.33,0.097689,0.83091,0.98463,0.51507
0.099354,0.0013664,0.019457,0.028263,0.0047295,0.050921,0.0060993,0.011639,0.069059,0.0053445,0.91975,0.37314,2.3546,53.964,243.87,0.29709,3.2505,147.37,241.3,0.45481,0.97406,1.9806,0.21043
0.096033,0.0036378,0.063289,0.07096,0.0017922,0.046174,0.0061938,0.08365,0.080393,0.0041926,0.22445,0.59484,3.3041,122.12,86.397,0.45729,0.17635,108.52,249.87,0.40713,0.3481,2.875,0.54069
0.087586,0.0013674,0.038766,0.041644,0.0049354,0.072714,0.0014654,0.071196,0.099006,0.002472,0.74769,0.78116,2.5171,50.773,219.55,0.21417,4.8191,239.58,220.34,0.86746,0.52307,1.9945,0.83057
0.098034,0.0012759,0.039583,0.092446,0.0017411,0.055584,0.0065249,0.016726,0.070616,0.0049895,0.44046,0.88265,4.9526,53.237,240.67,0.50477,4.2351,231.26,249.18,0.89744,0.36426,4.5387,0.0090579
0.075755,0.0020971,0.047464,0.077972,0.0098481,0.078027,0.0069703,0.077399,0.024335,0.0038392,0.82243,0.50504,4.8976,63.283,239.9,0.39397,2.7868,78.814,234.66,0.2756,0.045161,0.23896,0.86254
0.034372,0.0045066,0.037998,0.037388,0.0055818,0.055903,0.0085861,0.059141,0.078031,0.0011596,0.96954,0.11413,4.769,115.9,229.19,0.1238,4.2909,52.563,249.97,0.6892,0.42875,2.3442,0.31505
0.080322,0.0017309,0.083506,0.053892,0.0041468,0.08274,0.0045512,0.085366,0.019033,0.0033698,0.39422,0.55849,4.2975,121.58,206.02,0.32833,1.678,91.145,80.835,0.14576,0.31767,2.5738,0.5895
0.094613,0.0063584,0.010383,0.086974,0.0023293,0.08695,0.0070497,0.071057,0.089042,0.0085633,0.16108,0.9709,4.2403,64.793,246.71,0.48035,2.7109,96.289,107.4,0.17859,0.49621,0.098148,0.37657
0.040131,0.0085498,0.045652,0.031366,0.0066495,0.052965,0.0051384,0.094383,0.091998,0.0098964,0.8057,0.19319,1.9541,73.007,245.06,0.24631,4.4822,136.64,249.3,0.51743,0.35359,2.3852,0.079274
0.085632,0.0074111,0.082765,0.089068,0.0076824,0.056765,0.0090078,0.051651,0.061736,0.005163,0.30488,0.1164,3.9451,51.726,248.45,0.34182,3.0083,81.249,223.76,0.43721,0.76418,2.4689,0.87832
0.05698,0.0026792,0.094858,0.077313,0.009585,0.074247,0.0067987,0.098431,0.098524,0.0042944,0.98071,0.57182,3.6836,100.09,249.24,0.71184,3.3596,230.06,101.43,0.59991,0.36562,3.7554,0.16079
0.045981,0.0049699,0.01734,0.014009,0.0016528,0.048446,0.0090603,0.087628,0.028946,0.0052032,0.88175,0.75184,4.2083,227.2,107.67,0.7803,2.0587,221.03,244.01,0.20779,0.83015,0.55124,0.79755
0.010984,0.0015953,0.021862,0.08214,0.0037545,0.033248,0.0093684,0.039838,0.062172,0.0043833,0.48747,0.93083,2.4288,240.15,84.332,0.2473,2.1885,153.02,25.45,0.94744,0.89884,2.5671,0.41
0.09888,0.0016872,0.044221,0.085786,0.0027789,0.088023,0.0018422,0.016379,0.050744,0.0015784,0.43202,0.31838,4.7635,153.22,181.07,0.36143,4.1173,73.622,220.4,0.70256,0.41714,4.2374,0.68821
0.03774,0.0088093,0.081622,0.023441,0.0082858,0.099743,0.0066369,0.083425,0.030716,0.0038939,0.91353,0.2174,3.6696,99.586,1.1042,0.76491,2.4524,64.331,205.06,0.36251,0.48178,2.1663,0.65542
0.020016,0.0032955,0.0593,0.054978,0.0039966,0.044732,0.007595,0.010855,0.031805,0.0048566,0.98063,0.17771,4.3222,150.95,138.63,0.19686,4.9943,93.634,234.77,0.72165,0.36174,3.0141,0.22207
0.094878,0.0049596,0.02141,0.048038,0.0066577,0.075929,0.0069217,0.097937,0.072885,0.0090383,0.36115,0.54543,3.6717,81.123,177.29,0.48318,2.37,175.86,161.43,0.50525,0.79422,3.7031,0.10642
0.0193,0.0026952,0.084036,0.042715,0.0087814,0.055221,0.001528,0.015813,0.032021,0.005564,0.72041,0.18582,2.2728,81.345,183.11,0.30092,4.9356,188.57,10.327,0.26499,0.83608,3.2735,0.53466
0.016561,0.0020838,0.094291,0.053353,0.0034215,0.046646,0.0045769,0.086414,0.071072,0.0090635,0.84397,0.25184,3.0243,237.81,82.892,0.37842,3.0461,221.01,59.327,0.58335,0.92495,2.3987,0.3557
0.067754,0.0069443,0.029823,0.071486,0.0042531,0.043815,0.0018056,0.022722,0.04828,0.0084166,0.85733,0.72188,4.9721,67.451,242,0.54185,3.0558,83.977,249.63,0.40577,0.95402,0.079708,0.26345
0.029278,0.0040414,0.070557,0.0142,0.0010502,0.064957,0.0095134,0.077148,0.013546,0.0085633,0.14877,0.94429,4.403,56.537,236,0.21633,4.9756,70.822,249.93,0.51657,0.34544,3.563,0.69297
0.072857,0.0078592,0.046288,0.02372,0.0039625,0.032831,0.0095335,0.071345,0.094113,0.0062596,0.29341,0.57363,3.765,54.522,248.4,0.3786,4.1931,222.27,213.94,0.088569,0.54243,0.44669,0.89939
0.022217,0.0081489,0.048962,0.077645,0.0076142,0.089807,0.0093255,0.010751,0.027464,0.0088043,0.7154,0.92888,3.7791,199.73,33.271,0.1189,1.2966,101.55,240.79,0.26925,0.10085,3.5201,0.18647
0.096978,0.0064719,0.01198,0.053365,0.0080903,0.088464,0.0082249,0.083629,0.084871,0.0052433,0.33792,0.8939,4.7115,61.968,187.83,0.50967,3.7497,205.65,148.83,0.16295,0.43765,2.187,0.8248
0.084995,0.0089389,0.050407,0.094726,0.009046,0.035028,0.0015339,0.022262,0.077443,0.0011078,0.80979,0.32412,4.7808,55.043,238.35,0.39189,0.81165,206.95,234.61,0.1096,0.90169,0.99729,0.92076
0.085127,0.0083406,0.05851,0.081805,0.0096118,0.08029,0.0026959,0.040314,0.084482,0.0061707,0.73754,0.42353,3.7275,62.108,226.71,0.36082,3.5047,98.719,112.63,0.063272,0.47628,1.2874,0.79769
0.011681,0.0091249,0.088463,0.070413,0.0019939,0.083875,0.0078309,0.070768,0.08509,0.0057015,0.61658,0.63014,4.7974,57.369,32.612,0.056206,2.8277,69.539,245.66,0.33919,0.84116,2.1895,0.1264
0.031784,0.0053249,0.039601,0.060891,0.0065465,0.096151,0.0094224,0.096452,0.024338,0.0061368,0.24376,0.91536,4.4405,50.62,249.4,0.4545,4.6793,154.61,142.67,0.065207,0.93431,1.9458,0.69512
0.095748,0.0097231,0.04157,0.019806,0.0020314,0.057494,0.0035936,0.051694,0.013778,0.0016794,0.20742,0.19633,2.7845,53.332,225.07,0.3051,2.9324,243,162,0.65018,0.57748,4.7865,0.44847
0.085743,0.0099012,0.061792,0.056908,0.0083041,0.0758,0.00829,0.090604,0.081285,0.0026392,0.16622,0.57645,1.8039,88.796,91.879,0.49149,3.2877,126.25,224.29,0.50332,0.11194,0.15096,0.58731
0.084866,0.005915,0.098834,0.041669,0.0067365,0.048978,0.0099403,0.024719,0.037812,0.0063157,0.96264,0.91406,3.342,61.451,206.61,0.363,2.713,238.54,154.11,0.6911,0.80355,3.7229,0.79566
0.077097,0.0012091,0.08134,0.097412,0.0093839,0.035829,0.0046592,0.045152,0.016569,0.0074578,0.8113,0.237,2.8304,195.23,74.441,0.38474,0.96872,183.8,41.586,0.34558,0.42403,4.4098,0.9651
0.093437,0.0085635,0.055868,0.04885,0.0026507,0.056411,0.001058,0.048477,0.094026,0.0078096,0.48355,0.55302,3.5543,57.249,248.88,0.57157,4.2468,50.009,163.89,0.30428,0.49847,1.0876,0.35796
0.094611,0.0097085,0.025556,0.03317,0.0085945,0.017609,0.0073394,0.073224,0.038999,0.007572,0.42803,0.75512,3.3809,75.067,248.25,0.38302,2.1362,249.98,249.8,0.65593,0.25821,3.0142,0.70983
0.094844,0.009034,0.021828,0.011406,0.0060026,0.02348,0.0083371,0.05654,0.019421,0.0092349,0.95518,0.47756,3.4791,166.03,4.8972,0.79207,2.8496,85.963,247.15,0.41139,0.05711,2.9062,0.0079492
0.087712,0.0044687,0.052957,0.07559,0.004822,0.091362,0.0058621,0.073035,0.080313,0.0091883,0.74179,0.61105,4.6745,52.436,172.76,0.20201,4.4606,87.879,250,0.56158,0.2469,3.4053,0.27527
0.099136,0.0026507,0.066619,0.068869,0.0015397,0.092369,0.0030675,0.050987,0.016828,0.0061956,0.8702,0.88562,2.8043,54.123,245.19,0.36121,4.3174,211.66,246.59,0.38264,0.93142,2.7079,0.8933
0.06341,0.0018109,0.085106,0.099949,0.0016,0.076531,0.0087443,0.09781,0.021315,0.0059182,0.78722,0.2281,2.7481,245.4,212.58,0.30537,4.8873,167.33,238.22,0.54278,0.77569,0.99885,0.7024
0.092305,0.0079818,0.052986,0.034699,0.0034571,0.04549,0.0090752,0.09352,0.036768,0.0064391,0.17662,0.83842,4.7877,205.3,153.81,0.53003,1.8353,55.701,229.95,0.40356,0.63,0.27854,0.4008
0.018877,0.0068654,0.043413,0.040087,0.0085492,0.048654,0.0011877,0.088284,0.084962,0.0076752,0.30864,0.9757,4.3376,99.604,116.89,0.38618,4.4332,241.03,240.51,0.68562,0.51276,2.9274,0.92453
0.086907,0.0074663,0.034419,0.0564,0.0092551,0.036171,0.0068552,0.063313,0.047353,0.0092985,0.42155,0.8832,0.69991,108,241.11,0.044402,1.3546,194.63,151.26,0.61757,0.33596,1.9635,0.72416
0.091561,0.0027897,0.086724,0.01916,0.0060256,0.067892,0.0098364,0.04719,0.08873,0.0059173,0.74281,0.48504,3.4803,58.975,228.75,0.3985,4.6192,218.22,150.81,0.69133,0.2561,3.9204,0.3989
0.076956,0.0092786,0.090665,0.060789,0.0083013,0.097281,0.0053557,0.086275,0.046102,0.0030979,0.84565,0.46543,4.9435,117.37,173.99,0.045688,3.0032,65.48,208.24,0.43551,0.14754,2.5185,0.38049
0.087483,0.002463,0.086351,0.096993,0.0064819,0.060905,0.0093048,0.065639,0.025065,0.0027242,0.36946,0.98892,3.2655,52.281,248.53,0.41273,3.886,233.29,163.66,0.54566,0.97232,2.4313,0.17814
0.016795,0.0076242,0.074015,0.020973,0.0099554,0.091177,0.0076697,0.065969,0.088227,0.0056075,0.93685,0.63159,4.9454,223.66,123.44,0.16123,4.3577,99.651,117.92,0.49917,0.18124,2.7639,0.60875
0.091912,0.0030051,0.054752,0.025983,0.0078045,0.057725,0.0011675,0.021799,0.066794,0.0071003,0.27748,0.9512,3.8069,82.141,248.72,0.4609,4.8307,226.93,190.75,0.10598,0.2124,3.1467,0.44037
0.053105,0.0094162,0.0487,0.075195,0.007608,0.068583,0.0058665,0.062572,0.02251,0.0036463,0.25238,0.72467,1.7,72.784,248.18,0.096049,4.5353,116.01,182.92,0.44685,0.16636,2.8544,0.028735
0.050149,0.0062318,0.026798,0.057304,0.0082554,0.023386,0.0010789,0.062081,0.055576,0.0028785,0.304,0.9906,3.4698,183.19,11.199,0.52403,4.0616,233.41,56.565,0.253,0.77015,3.4761,0.58246
0.069317,0.0056934,0.090161,0.074602,0.0010889,0.084891,0.0071237,0.089603,0.035742,0.0030792,0.38936,0.53876,4.9033,182.11,231.92,0.61631,0.66409,245.08,26.97,0.88757,0.25473,3.4029,0.046828
0.092634,0.0071864,0.076152,0.014239,0.0047151,0.094197,0.0019228,0.084483,0.040492,0.006116,0.88377,0.33257,4.9672,51.978,230.87,0.48852,1.9715,231.86,0.64293,0.90361,0.84759,4.5386,0.58145
0.045328,0.0094121,0.035484,0.026429,0.0050778,0.092184,0.0059209,0.096195,0.0921,0.0066472,0.91372,0.91955,4.5129,50.554,246.79,0.42758,4.9924,172.37,194.75,0.82229,0.99591,3.3473,0.33606
0.074402,0.0059752,0.062911,0.046389,0.0039411,0.077688,0.0097687,0.089538,0.020236,0.0081853,0.93534,0.63796,4.6006,100.69,80.762,0.45493,1.8931,152.14,79.412,0.95619,0.4042,2.7271,0.92257
0.088447,0.0028758,0.064074,0.078071,0.0048467,0.092221,0.0099333,0.098968,0.095536,0.0073468,0.75348,0.30383,4.9437,51.429,231.46,0.58593,0.80596,132.05,7.8732,0.97435,0.68075,4.3075,0.11714
0.031413,0.0051219,0.097865,0.019549,0.0015148,0.099831,0.006608,0.019589,0.042433,0.009475,0.33218,0.69038,3.3214,231.5,205,0.11983,4.9231,57.38,29.177,0.41238,0.026856,4.9749,0.89786
0.052675,0.0043074,0.02993,0.070427,0.0075711,0.057111,0.0097552,0.042875,0.062351,0.0051268,0.21957,0.62055,4.4735,59.358,247.44,0.34205,4.9867,194.3,245.89,0.71382,0.9471,2.4931,0.81167
0.061425,0.0058999,0.065588,0.052829,0.0066103,0.053468,0.0033152,0.068712,0.084127,0.0096732,0.22951,0.2044,4.9724,82.293,36.337,0.46557,3.3457,142.31,122.4,0.21661,0.97575,0.12514,0.81654
0.096761,0.0087591,0.093315,0.070749,0.0077087,0.095279,0.0092528,0.086972,0.025533,0.004619,0.94019,0.60171,4.9267,51.784,226.12,0.14465,4.632,189.66,249.24,0.65306,0.49809,2.4042,0.4973
0.046126,0.0068786,0.018569,0.017872,0.0043301,0.02589,0.0069681,0.077123,0.022456,0.001888,0.97781,0.47891,4.7015,53.014,246.82,0.59473,2.7268,134.25,247.37,0.8638,0.55863,4.333,0.84995
0.026799,0.0040535,0.065705,0.045066,0.0022221,0.080299,0.0083242,0.080799,0.069657,0.0017804,0.63105,0.75721,4.4121,50.217,145.08,0.27612,3.1646,59.992,247.8,0.4855,0.46433,3.6674,0.68353
0.090346,0.0097965,0.099248,0.055432,0.0094567,0.043492,0.005472,0.083322,0.033579,0.0047487,0.19742,0.68698,2.9084,242.39,90.871,0.93762,3.9078,244.81,128.25,0.56489,0.49833,0.47386,0.0044559
0.082975,0.0059437,0.077428,0.074616,0.0010365,0.055552,0.0061547,0.034605,0.090911,0.0030314,0.99903,0.39391,4.3832,60.114,244,0.50169,4.9051,188.97,222.32,0.84663,0.34608,2.4839,0.91963
0.06483,0.004292,0.013355,0.011507,0.0062364,0.028278,0.0016679,0.012001,0.045223,0.0030533,0.70184,0.28224,4.0969,52.972,221.33,0.55889,2.2407,236.88,124.69,0.58926,0.56922,2.5032,0.38177
0.050732,0.0063448,0.04826,0.077834,0.0052434,0.035403,0.0044422,0.070985,0.087877,0.001851,0.7293,0.21783,4.8138,54.496,245.66,0.36152,4.8151,125.36,249.56,0.66661,0.33262,3.9702,0.70133
0.071782,0.0038889,0.053834,0.017802,0.0067299,0.094419,0.0013996,0.057771,0.06651,0.0071829,0.8135,0.68632,4.3302,51.328,248.4,0.46279,3.0654,203.76,153.14,0.91295,0.82401,3.8123,0.28799
0.083722,0.0077952,0.092955,0.019981,0.0075786,0.082879,0.0019417,0.075537,0.056013,0.0029457,0.66421,0.12386,3.1101,161.05,226.91,0.34799,4.8151,213.36,151.85,0.15432,0.52511,3.427,0.21932
0.049599,0.0020684,0.054267,0.04769,0.0098967,0.092369,0.0040193,0.018714,0.030335,0.0079361,0.64306,0.35922,0.73009,63.539,211.97,0.076607,3.2284,50.419,96.529,0.41714,0.9027,0.1413,0.93557
0.078787,0.0072913,0.080991,0.066152,0.0076698,0.029396,0.0087912,0.054816,0.010248,0.0035268,0.88758,0.28718,0.71438,57.23,0.6496,0.7381,3.7681,68.719,236.15,0.47474,0.35544,2.5808,0.017117
0.066881,0.0090911,0.017382,0.025997,0.0041595,0.066301,0.0054604,0.046992,0.081858,0.0071512,0.8078,0.23619,0.42166,214,20.16,0.93843,4.536,86.749,247.92,0.52348,0.080383,2.8271,0.062653
0.039991,0.0083332,0.098677,0.085555,0.0064566,0.012794,0.0099836,0.033988,0.05723,0.0060801,0.90898,0.95222,2.7883,236.09,148.91,0.25596,2.9764,181.68,73.949,0.68051,0.14538,0.97258,0.80301
0.055653,0.007952,0.076176,0.089189,0.0028578,0.069873,0.0041799,0.084451,0.085829,0.0013799,0.8387,0.93549,4.5299,192.05,60.334,0.33916,0.7406,148.87,142.59,0.54162,0.87624,4.7884,0.75524
0.091818,0.0093267,0.097804,0.039798,0.0070201,0.019263,0.0091897,0.078996,0.040267,0.0025842,0.97658,0.12061,4.4983,51.278,194.01,0.55141,4.7142,190.43,73.529,0.10788,0.48244,4.4665,0.42821
0.081437,0.0088601,0.02853,0.079429,0.0096938,0.075667,0.004111,0.087678,0.067476,0.0026347,0.60749,0.24131,3.6746,73.687,198.78,0.33957,2.8727,201.1,20.622,0.42605,0.90014,3.8722,0.61117
0.042106,0.0028093,0.082321,0.054696,0.0024794,0.045009,0.0091145,0.012619,0.097606,0.0013531,0.26043,0.69293,2.7831,51.027,246.17,0.3285,1.9468,221.12,231.21,0.62378,0.18738,1.0292,0.98226
0.082683,0.0039816,0.08996,0.044205,0.0062822,0.095002,0.0097837,0.063871,0.098504,0.0077968,0.9542,0.73582,2.0945,74.125,219.51,0.34085,0.97427,148.6,225.9,0.059571,0.50787,3.7621,0.28612
0.097609,0.0018771,0.061295,0.047974,0.0090617,0.074054,0.008199,0.035289,0.028511,0.0069967,0.54965,0.67325,4.1943,57.038,244.38,0.52383,4.4812,65.879,207.38,0.74917,0.57003,1.9915,0.585
0.079279,0.0093864,0.091533,0.075625,0.0028248,0.026267,0.0068778,0.024342,0.094344,0.0042823,0.34634,0.4737,4.8254,101.65,240.85,0.58746,3.7519,171.98,244.86,0.56652,0.23832,1.164,0.48479
0.077781,0.0049,0.059277,0.0554,0.0023224,0.074726,0.0085193,0.093816,0.026289,0.0011183,0.68902,0.38139,0.91392,195.17,140.08,0.98699,4.2918,58.609,230.79,0.49869,0.42784,0.86409,0.2143
0.044089,0.0041737,0.078348,0.090841,0.0051102,0.074869,0.0094782,0.016852,0.082983,0.0048672,0.83876,0.35655,3.0156,85.326,237.55,0.34245,2.1129,96.202,248.77,0.42023,0.18892,4.8547,0.5568
0.054648,0.0098108,0.046402,0.022271,0.0018012,0.091533,0.0067817,0.090112,0.029526,0.0034856,0.29154,0.14274,4.5661,50.233,221.04,0.44033,2.5115,119.96,36.802,0.6399,0.71777,4.2138,0.54659
0.06324,0.0077102,0.066248,0.016572,0.0025946,0.082611,0.0068188,0.049049,0.086636,0.0098928,0.75589,0.42088,3.0058,180.98,201.62,0.086218,2.7751,54.078,212.91,0.25551,0.13216,1.1366,0.33329
0.076529,0.0013581,0.054498,0.056435,0.0038816,0.062142,0.0085165,0.031874,0.057241,0.0067627,0.48317,0.23407,4.5699,58.387,243.26,0.59824,4.9877,184.88,42.308,0.59395,0.26415,3.5901,0.05942
0.013814,0.0095193,0.033204,0.075051,0.0045056,0.065169,0.0022883,0.071479,0.048915,0.0078177,0.68594,0.89757,4.7236,119.6,200.11,0.75311,3.0752,141.85,229.72,0.22753,0.44137,3.5486,0.17481
0.036578,0.0099973,0.06148,0.085323,0.0057498,0.049442,0.0060314,0.066443,0.062795,0.0058894,0.96623,0.21093,4.9494,108.52,173.99,0.12021,3.9766,198.4,247.47,0.52044,0.33786,2.4933,0.41474
0.060125,0.0077148,0.057215,0.04196,0.0089455,0.097927,0.0045251,0.099217,0.019697,0.0027418,0.49718,0.7621,4.308,81.685,244.31,0.47023,1.0868,180.29,10.638,0.021612,0.49158,4.5627,0.35616
0.052588,0.0089153,0.047058,0.048588,0.0032146,0.013755,0.008619,0.010577,0.049736,0.0037039,0.14924,0.68866,2.5197,148.97,129.24,0.37582,4.6738,214.57,71.197,0.14997,0.75175,0.0099711,0.76557
0.035612,0.0084633,0.08639,0.024989,0.0082185,0.087523,0.0022616,0.097315,0.033157,0.0042338,0.99953,0.16907,4.994,88.076,131.25,0.040995,2.9015,54.814,245.03,0.46602,0.96446,2.1874,0.048324
0.09417,0.0059009,0.072983,0.099855,0.0051319,0.069367,0.0023912,0.086202,0.089181,0.0027772,0.82762,0.31584,4.8402,55.544,228.85,0.47963,2.8408,190.43,220.13,0.86535,0.64594,3.3689,0.83436
0.04458,0.0076103,0.02198,0.077678,0.0019535,0.093847,0.0011159,0.072477,0.036026,0.002064,0.81208,0.28646,4.6674,122.26,233.56,0.56482,0.8609,229.6,84.992,0.42892,0.78795,4.7464,0.089792
0.025458,0.0049753,0.038752,0.02724,0.0023717,0.041074,0.0051956,0.094118,0.017059,0.0011933,0.9399,0.51218,4.9592,187.35,231.35,0.11775,4.5733,81.448,248.7,0.5292,0.37948,2.4116,0.13039
0.064891,0.0072927,0.039353,0.085228,0.0085349,0.080936,0.0092291,0.078937,0.080834,0.0083108,0.74953,0.25283,3.8505,92.357,153.95,0.42906,0.74084,116.18,53.172,0.29466,0.32677,4.8948,0.7825
0.010118,0.0011224,0.050222,0.067939,0.0070855,0.097226,0.0075314,0.077938,0.025575,0.0036656,0.10968,0.88111,3.4601,52.566,157.85,0.70343,0.89453,198.86,203.18,0.86059,0.94446,4.2712,0.46791
0.04262,0.0073939,0.028276,0.085135,0.0011027,0.088696,0.0084,0.087042,0.039607,0.0026385,0.6179,0.77081,4.7263,248.07,223.43,0.60639,3.1558,191.46,34.205,0.60523,0.33915,1.5966,0.91878
0.048678,0.0098657,0.024543,0.040965,0.0073559,0.037832,0.0016366,0.027705,0.066777,0.0021626,0.3258,0.85357,4.3586,247.03,148.07,0.42207,3.0985,216.07,65.309,0.74036,0.38123,0.80657,0.55984
0.09372,0.006577,0.051446,0.018453,0.0099731,0.094687,0.0063559,0.043074,0.021608,0.0050183,0.73953,0.73681,4.4284,176.63,195.88,0.62851,1.5433,74.658,246.91,0.59221,0.5522,3.3447,0.58422
0.030109,0.004855,0.075971,0.087828,0.0086951,0.045138,0.0092546,0.085963,0.08132,0.0061405,0.27554,0.1708,4.5391,65.193,249.85,0.49725,2.066,64.087,89.58,0.64463,0.47984,4.6165,0.12297
0.036491,0.0015631,0.024931,0.03748,0.0044794,0.025392,0.0080548,0.06761,0.031721,0.0052829,0.28941,0.96381,2.1743,198.56,207.31,0.80326,3.3803,82.305,53.346,0.70608,0.6274,4.333,0.29456
0.07784,0.0074383,0.067284,0.092349,0.0065622,0.071179,0.0096717,0.069581,0.087553,0.0058162,0.48112,0.13458,3.7072,50.223,247.32,0.41385,2.1236,122.15,42.379,0.54542,0.61647,3.6016,0.98965
0.044597,0.0050341,0.041562,0.096555,0.0023678,0.084937,0.0097358,0.017784,0.010183,0.0063858,0.96292,0.3414,4.1984,189.12,181.45,0.15013,4.7555,90.931,248.78,0.64714,0.18432,2.5594,0.22913
0.078355,0.00666,0.083232,0.022223,0.0029741,0.09093,0.0096101,0.091572,0.077645,0.0018794,0.78884,0.7943,1.3748,99.336,175.67,0.21488,3.7368,239.52,4.6021,0.14403,0.31068,3.8544,0.65343
0.07666,0.009741,0.029868,0.071343,0.003589,0.099512,0.007381,0.014418,0.09479,0.0088554,0.96146,0.85412,3.8334,69.733,212.97,0.39988,4.9655,69.246,62.32,0.9463,0.7586,3.0114,0.7951
0.010275,0.0022693,0.04269,0.094297,0.0061241,0.042979,0.006187,0.036999,0.042351,0.0035384,0.76346,0.85649,4.9047,52.923,239.58,0.60599,3.3429,65.319,240.05,0.37131,0.065355,2.681,0.58548
0.039357,0.0043676,0.0968,0.060791,0.0088441,0.061095,0.0052756,0.064444,0.089744,0.0014871,0.59153,0.92826,2.2634,75.519,228.09,0.34771,4.958,152.3,190.7,0.85558,0.85684,4.5106,0.34383
0.070829,0.0067303,0.060159,0.094561,0.004276,0.090005,0.0094584,0.091498,0.012329,0.0027788,0.54463,0.71842,4.0382,106.79,237.5,0.30301,1.6618,196.36,129.52,0.49649,0.41256,3.1758,0.23798
0.017246,0.0084367,0.062754,0.018344,0.0087929,0.017547,0.0017049,0.080663,0.039116,0.0055056,0.94425,0.2078,3.4447,54.34,166.79,0.11994,3.8499,232.32,247.7,0.73927,0.8938,2.7965,0.92967
0.074881,0.0076653,0.032872,0.089098,0.0065346,0.058496,0.0092136,0.056056,0.092592,0.0071555,0.98774,0.25569,3.4988,88.337,244.95,0.51503,3.6541,151.78,157.45,0.37512,0.15684,3.9361,0.34752
0.094793,0.0079141,0.097033,0.076173,0.0096329,0.072305,0.0025616,0.071737,0.074092,0.0085603,0.99218,0.83809,3.552,51.955,223.5,0.29638,3.3653,156.02,211.82,0.44244,0.24965,3.499,0.71329
0.060002,0.0056942,0.03965,0.077593,0.0091522,0.01603,0.0068776,0.0246,0.078672,0.0021609,0.50476,0.62873,4.1974,92.43,213.72,0.52434,4.8369,154.78,204.36,0.21987,0.73298,0.14454,0.6347
0.028508,0.0029313,0.075434,0.037716,0.0066661,0.099891,0.0083802,0.098071,0.032491,0.0027404,0.73725,0.16904,4.6115,139.75,224.59,0.054196,2.933,53.5,246.48,0.58179,0.63766,2.1354,0.51045
0.013064,0.0021423,0.010492,0.026487,0.0011003,0.023211,0.009867,0.04775,0.041957,0.00597,0.80314,0.94556,4.7671,64.037,248.95,0.44572,4.6478,62.038,248.35,0.40144,0.91591,3.9857,0.50347
0.063593,0.007991,0.062279,0.066283,0.0075853,0.084799,0.0030331,0.067572,0.068521,0.0017757,0.33137,0.42412,4.5898,62.058,115.7,0.19702,4.7575,144.81,193.37,0.74083,0.27494,3.0574,0.37317
0.043212,0.0063992,0.085288,0.0866,0.0012474,0.042965,0.0051077,0.031949,0.07034,0.0035281,0.87254,0.59792,3.6152,53.968,158.35,0.15895,2.7167,63.569,239.44,0.8472,0.29653,3.4681,0.37583
0.098109,0.0087444,0.069821,0.076976,0.005386,0.041798,0.0013939,0.066442,0.019453,0.0020374,0.75684,0.1995,4.1504,94.487,231.69,0.5422,4.6697,190.4,55.851,0.61567,0.56651,4.9924,0.20747
0.046518,0.0023332,0.089251,0.069889,0.0057451,0.053633,0.0081935,0.062696,0.010457,0.0053327,0.95269,0.3186,4.7813,92.016,3.262,0.76219,3.1482,60.081,242.32,0.5757,0.30673,2.1884,0.51761
0.088093,0.0064063,0.040149,0.017186,0.0080128,0.023063,0.006028,0.050467,0.094888,0.0098725,0.74608,0.96004,4.833,54.616,233.05,0.37356,3.0128,238.68,239.53,0.63267,0.4779,2.2283,0.92355
0.038638,0.0098533,0.031193,0.032974,0.0072571,0.061331,0.0056722,0.090243,0.076267,0.0052487,0.76586,0.12077,4.7246,53.649,195.72,0.59492,1.1741,79.848,70.977,0.75091,0.79498,4.6209,0.76317
0.097916,0.001133,0.093995,0.099602,0.0064533,0.086368,0.0031021,0.015009,0.069527,0.0086258,0.91391,0.55178,3.4284,235.88,76.245,0.65829,2.0636,150.51,249.21,0.19954,0.12562,0.81212,0.059483
0.075641,0.0051337,0.01045,0.070265,0.0033392,0.094596,0.001577,0.017855,0.024805,0.0097923,0.17712,0.96466,4.4464,144.19,118.16,0.39082,4.6959,79.473,154.82,0.1175,0.65993,4.9504,0.1698
0.043104,0.0081133,0.021474,0.079123,0.0087484,0.011225,0.0062856,0.073902,0.083921,0.0019893,0.56549,0.89676,4.6935,50.231,249.37,0.48147,0.8823,196.98,235.03,0.070407,0.2879,4.3477,0.48203
0.047174,0.004337,0.063986,0.068338,0.0030491,0.036973,0.009228,0.03264,0.015263,0.006305,0.96772,0.10196,4.7128,57.128,230.25,0.087285,3.6769,85.429,247.88,0.54202,0.87452,2.428,0.014413
0.05411,0.001844,0.076508,0.06682,0.0098016,0.068889,0.0064136,0.04278,0.023576,0.0078141,0.92434,0.72948,4.6561,52.838,228.09,0.5332,3.8467,247.24,15.362,0.60217,0.67581,3.9406,0.70532
0.013036,0.0094179,0.041264,0.075907,0.0082446,0.014827,0.0099872,0.093081,0.019994,0.0068871,0.40333,0.62256,3.2893,138.03,173.4,0.54393,4.8432,221.46,89.416,0.58802,0.17386,0.1167,0.54779
0.028725,0.0053714,0.038716,0.014047,0.0022547,0.031369,0.0075319,0.077624,0.079547,0.0039317,0.32514,0.16179,3.4243,224.22,56.809,0.28155,4.9994,137.16,82.61,0.83611,0.32736,3.8702,0.00066208
0.029727,0.0098145,0.075935,0.011936,0.0067558,0.09775,0.0085067,0.094972,0.076989,0.0063321,0.82144,0.13048,4.9888,192.87,186.27,0.088619,2.9878,144.69,248.02,0.52942,0.47555,2.1652,0.4797
0.078547,0.006584,0.04469,0.070754,0.0071328,0.084423,0.0050992,0.06779,0.088464,0.0093656,0.51846,0.37997,1.6346,91.678,18.365,0.42471,4.5746,194.59,175.11,0.8465,0.53011,2.3972,0.96771
0.018617,0.0099015,0.016542,0.057757,0.0026273,0.077705,0.0077301,0.054132,0.0804,0.0095283,0.99113,0.63649,4.7604,79.38,212.03,0.18657,4.6069,163.64,246,0.6613,0.74786,2.3929,0.03656
0.059112,0.0075949,0.047543,0.086794,0.0029929,0.093481,0.0064848,0.048959,0.054779,0.003543,0.19409,0.87758,4.3881,85.092,159.81,0.44537,4.9431,144.77,122.82,0.15276,0.51986,0.33348,0.57732
0.088275,0.0019419,0.010346,0.028304,0.0075303,0.048611,0.0086841,0.038279,0.056723,0.0067184,0.13747,0.53497,4.4241,127.09,88.936,0.65354,2.4034,220.73,206.89,0.1534,0.59661,0.64995,0.18417
0.080987,0.0020452,0.045429,0.097366,0.0086678,0.062644,0.0097026,0.075533,0.055336,0.004334,0.7891,0.45326,2.2551,93.531,202,0.90977,4.9298,55.097,219.77,0.54521,0.036213,3.4044,0.56568
0.075692,0.0090406,0.032025,0.02399,0.0047072,0.076171,0.0082217,0.037027,0.022999,0.0065062,0.94976,0.40548,3.6298,137.45,4.7686,0.31313,2.5287,106.03,235.04,0.37003,0.11672,2.5229,0.32003
0.08767,0.0094274,0.041851,0.028217,0.0037688,0.085056,0.005707,0.046805,0.040774,0.003742,0.66122,0.26007,3.0815,67.816,222.66,0.47235,0.48866,60.169,197.15,0.84751,0.50677,4.0557,0.16241
0.095191,0.0058438,0.023668,0.066571,0.0079379,0.061605,0.0090653,0.059768,0.032891,0.0073731,0.28699,0.58436,4.7357,56.269,241.66,0.49755,4.8577,152.17,180.62,0.79538,0.36679,3.7186,0.38495
0.096523,0.0025438,0.07565,0.01975,0.0025547,0.056112,0.001572,0.020867,0.081469,0.0041431,0.38776,0.13755,4.0574,54.281,237.65,0.31145,4.7254,111.36,173.81,0.73308,0.16872,4.042,0.78982
0.097229,0.0030284,0.085783,0.040493,0.0078653,0.096183,0.0093821,0.023064,0.067847,0.0031329,0.62028,0.37979,4.6585,116.71,226.43,0.42709,1.6298,240.6,233.48,0.84452,0.79066,2.5971,0.59671
