32.945,40.045,17.628,34.722,31.746,22.837,27.625,31.877,49.6,45.169,22.606,46.623,33.973,29.655,33.915,28.877,29.32,38.159,37.718,37.762,33.678,23.386,33.928,38.929,32.678,35.667,33.981,28.338,31.61,25.688,34.866,23.717,24.146,25.566,13.873,37.878,31.781,25.865,37.505,20.626,29.44,28.678,31.748,31.714,25.263,29.835,29.097,33.438,35.988,36.076,25.27,30.424,23.35,23.901,29.962,38.395,25.784,32.034,28.764,36.12,24.035,30.178,33.026,36.028,38.458,30.471,21.83,25.934,24.185,42.874,26.628,34.097,28.946,34.867,25.811,22.319,22.209,32.674,29.028,28.926,37.774,31.597,31.083,38.696,25.594,33.816,34.574,28.665,31.181,23.614,23.712,30.574,33.956,44.161,26.347,31.026,29.548,19.412,27.596,20.17,34.603
24.456,29.801,26.314,30.901,26.012,31.91,33.259,38.519,28.209,17.693,24.718,36.587,23.46,34.457,29.93,37.031,18.652,28.19,22.726,44.989,33.723,36.718,23.535,26.724,27.785,35.201,27.756,33.054,18.161,27.345,24.804,20.729,32.007,30.785,29.44,22.045,35.358,31.153,27.642,29.383,27.842,19.792,27.714,24.762,23.963,23.004,26.373,18.427,34.475,32.072,29.151,29.071,24.942,34.77,28.539,25.394,36.569,28.043,26.073,27.67,24.673,23.2,42.923,38.214,30.923,22.459,24.578,28.304,33.54,22.054,16.657,21.421,31.063,31.376,31.703,28.555,30.253,26.684,33.922,21.894,31.721,24.668,27.448,32.249,34.88,23.214,36.078,32.83,28.892,28.203,28.082,27.62,29.384,29.537,33.728,37.519,31.785,28.125,32.641,30.25,23.689
33.608,30.177,29.259,31.289,29.933,23.507,27.67,27.757,25.695,37.523,23.859,25.952,24.733,22.264,27.51,27.073,36.711,27.207,22.852,37.103,35.133,27.31,20.491,26.162,27.704,30.012,27.142,30.906,30.63,21.856,23.473,24.578,25.824,26.824,28.603,12.355,26.096,35.174,22.839,33.525,30.408,28.382,29.512,20.176,28.085,37.105,29.062,28.758,24.615,28.372,29.778,30.815,26.545,27.274,39.347,16.473,40.447,30.34,33.879,19.647,25.385,27.051,30.795,19.615,31.056,22.058,28.89,32.022,30.284,34.32,33.911,25.06,29.91,23.492,21.476,33.477,28.537,28.244,33.404,31.713,30.408,35.216,33.504,29.818,24.849,25.056,34.905,19.926,28.406,18.126,33.988,33.14,28.543,28.158,15.255,31.642,16.825,16.147,28.964,23.47,30.735
31.404,32.357,24.186,30.203,28.363,32.19,30.661,32.569,27.136,27.056,33.149,16.629,25.17,21.129,25.814,31.254,32.189,22.478,25.347,28.555,26.293,29.425,29.942,22.926,26.899,16.584,33.875,24.513,21.481,26.493,20.295,27.722,24.874,39.321,33.838,14.66,30.161,20.456,26.487,28.7,31.777,26.392,36.148,25.295,29.56,31.339,28.282,32.48,29.537,23.695,18.308,37.638,24.643,28.378,30.803,28.432,23.059,25.365,27.173,35.635,23.291,31.972,29.46,26.599,22.256,26.333,27.375,20.08,28.846,23.494,27.335,29.606,23.06,26.312,29.679,18.147,33.298,40.623,32.894,26.166,30.094,22.367,37.739,32.795,31.986,23.212,29.52,24.887,26.189,24.825,22.421,23.038,26.725,18.87,31.038,27.211,31.521,29.255,30.44,20.008,22.45
24.816,27.716,33.026,25.634,33.718,29.622,33.262,27.807,23.723,19.427,27.955,31.41,25.621,24.328,25.537,21.432,24.576,26.203,27.384,26.813,30.33,27.715,36.596,28.771,36.547,23.378,29.888,25.789,30.272,30.24,15.756,20.231,19.637,29.239,34.805,25.442,31.377,29.987,21.666,29.216,23.228,35.045,26.975,35.669,24.931,30.216,26.818,16.611,22.028,30.336,26.859,21.316,23.882,28.445,21.971,32.225,23.807,36.569,21.519,28.183,19.22,23.375,24.054,29.236,32.054,28.711,25.201,31.394,31.307,27.771,30.121,29.296,22.003,31.103,23.721,23.999,28.067,25.543,26.458,30.247,32.599,26.114,28.852,25.904,28.341,29.438,23.931,28.577,30.277,27.626,36.158,23.974,23.305,18.028,31.889,31.663,26.729,31.826,28.102,28.66,27.734
28.739,26.998,40.817,20.472,16.934,20.606,20.849,24.244,25.608,25.35,29.26,28.478,30.34,35.625,32.768,19.872,14.492,31.116,17.03,26.818,26.657,37.935,26.119,23.865,27.688,27.74,26.835,23.344,20.184,28.103,19.565,21.164,33.325,24.319,25.753,31.105,24.931,31.771,24.699,31.686,29.713,25.379,22.021,21.108,25.085,24.221,24.372,31.536,24.943,32.36,23.74,31.479,23.788,27.383,31.47,24.345,24.22,36.783,31.368,24.252,29.814,24.622,30.107,33.76,18.219,31.769,33.977,26.719,35.46,27.274,20.109,15.189,24.759,30.146,28.108,28.603,23.506,27.216,18.043,22.564,22.262,29.149,26.402,20.529,26.426,22.926,23.044,30.921,27.058,28.525,31.023,27.402,29.309,29.989,32.498,28.923,33.741,26.591,26.229,35.229,23.852
25.807,30.496,26.582,32.96,31.076,27.303,21.869,28.701,18.796,27.064,29.929,26.904,30.291,36.182,30.516,27.178,29.082,27.983,19.141,23.705,32.044,25.6,28.781,20.707,26.149,28.872,18.903,27.588,24.897,21.047,25.631,16.185,15.008,19.841,20.788,19.861,17.054,27.286,17.72,26.381,29.821,25.81,26.294,23.9,18.287,25.599,30.704,34.654,23.635,17.552,26.667,27.733,24.668,19.983,36.108,13.831,23.23,19.105,22.589,27.436,26.523,22.21,29.77,28.984,29.111,23.658,31.15,29.179,38.569,31.225,31.7,26.09,19.274,23.935,21.971,22.955,28.642,22.992,21.273,23.741,25.004,27.901,20.98,27.434,26.218,32.551,24.738,25.138,19.869,18.782,27.399,24.553,28.381,21.285,35.519,26.442,31.142,24.668,24.995,29.328,28.645
19.562,17.492,19.674,18.079,25.483,23.12,23.337,18.354,29.096,27.389,24.734,30.308,20.798,27.265,26.932,26.936,21.524,26.824,22.6,20.685,19.145,30.392,20.938,24.316,19.118,23.693,8.9643,19.729,18.025,20.093,24.113,23.551,34.941,22.314,23.929,17.308,22.788,18.469,25.336,29.465,27.212,21.668,17.001,32.511,35.472,25.788,20.216,31.195,22.21,22.826,29.632,18.232,15.364,27.295,27.195,25.661,27.676,30.615,30.054,22.33,29.248,26.053,22.647,19.195,28.43,23.409,25.417,21.204,17.403,26.045,24.872,31.201,29.207,30.47,21.426,20.485,18.815,27.683,39.18,28.835,21.304,29.382,19.521,18.035,28.784,21.28,26.769,32.242,27.197,29.849,17.125,28.504,35.915,27.899,17.451,24.164,22.675,27.106,27.251,27.219,23.358
21.592,21.64,28.792,15.378,23.535,25.902,21.327,26.927,24.208,19.912,25.362,23.233,22.531,21.037,24.866,15.413,22.588,21.868,20.043,27.797,20.923,27.241,29.398,23.784,25.939,27.731,24.161,27.242,18.305,30.065,19.658,15.498,31.423,24.251,26.787,22.762,19.504,9.3322,27.666,23.141,23.584,26.572,17.528,20.947,30.248,27.525,18.212,13.643,21.731,25.622,29.232,25.026,19,26.079,18.752,19.799,21.322,18.469,23.219,20.102,23.146,22.27,22.531,22.066,30.674,27.587,24.855,17.292,16.504,14.825,37.473,29.381,25.836,19.734,18.881,27.276,32.318,16.17,22.335,24.144,14.69,28.731,22.507,34.039,22.625,26.59,18.9,21.465,18.77,26.508,31.014,21.62,26.725,22.062,25.068,30.491,25.158,19.423,20.314,23.72,23.612
19.718,24.84,30.154,22.726,22.954,13.18,20.165,17.136,22.065,26.528,31.411,32.758,23.383,22.388,27.957,26.355,27.701,27.765,16.71,26.6,23.507,20.234,20.561,30.227,19.992,17.902,25.006,33.797,24.081,25.464,19.363,32.15,24.567,26.55,19.296,28.136,25.86,18.298,24.15,21.75,24.49,22.729,23.026,18.9,22.373,27.707,32.495,18.275,35.592,31.425,24.78,22.481,20.536,28.031,20.556,21.695,28.28,26.089,28.345,26.426,21.993,21.44,27.853,20.67,29.764,27.826,25.364,23.971,25.745,41.217,23.405,16.337,33.329,26.94,20.784,36.766,26.652,25.395,20.148,18.743,15.3,21.886,18.801,27.126,22.401,32.614,31.349,24.758,22.572,29.595,18.344,27.253,20.681,21.996,20.667,26.773,20.147,18.75,26.662,21.883,25.725
21.663,24.667,10.968,25.616,32.323,28.388,27.767,22.205,24.239,24.545,23.83,19.35,21.661,22.519,21.041,27.409,35.633,16.968,23.984,16.392,29.66,30.179,15.328,32.759,18.121,24.46,28.676,24.075,34.46,36.669,24.033,14.146,21.6,19.265,19.667,17.913,23.742,33.547,19.904,22.008,29.002,29.226,25.711,28.323,27.573,21.519,25.437,21.918,19.014,26.432,23.69,22.46,24.774,28.138,25.263,24.304,24.716,23.612,19.621,27.167,30.174,20.782,32.682,22.512,22.186,19.025,19.534,18.758,25.075,31.083,25.914,27.493,29.85,11.282,22.554,25.07,26.831,17.057,18.502,27.186,22.801,26.037,18.721,15.467,27.043,29.132,31.253,15.958,16.902,16.24,23.163,20.389,29.716,16.331,14.942,24.356,29.13,19.483,17.246,22.642,15.454
22.87,26.742,23.827,13.673,20.225,21.345,31.444,27.154,22.515,29.038,17.8,21.125,29.53,29.959,26.274,25.13,19.989,26.343,18.834,25.53,24.133,28.226,20.754,25.824,26.573,18.499,23.533,30.412,23.324,21.314,24.967,21.474,24.903,22.144,22.7,24.987,29.29,24.944,30.656,13.105,20.643,23.914,18.8,16.696,25.733,25.712,24.169,24.674,18.631,20.411,22.278,19.504,24.371,34.078,20.485,25.878,17.849,29.182,18.161,23.783,19.834,25.231,22.841,22.577,36.865,19.78,22.563,35.595,17.313,25.427,17.649,27.707,24.351,25.9,21.456,23.958,29.816,11.927,14.991,24.77,19.662,21.373,15.641,18.468,20.858,19.323,18.651,20.773,18.287,29.193,18.069,31.465,21,15.857,19.834,27.248,27.828,23.552,24.159,25.808,15.822
19.482,13.597,20.107,26.7,25.607,33.01,23.011,12.058,30.189,28.27,19.478,23.274,25.899,24.038,25.507,21.693,22.042,22.64,18.502,28.933,22.254,25.461,18.194,17.156,21.796,21.033,27.857,25.082,24.773,15.413,17.663,23.177,20.585,28.306,28.547,19.486,26.35,28.803,23.738,29.878,27.233,23.234,26.358,23.141,20.269,23.914,22.395,20.506,30.574,23.268,35.096,20.828,24.885,29.685,35.091,23.656,18.499,26.012,16.002,20.934,23.506,29.247,29,22.095,26.58,20.71,25.341,31.254,22.964,20.808,19.867,25.602,28.529,32.246,22.479,22.993,19.242,29.824,21.869,19.994,32.522,26.043,25.602,17.484,24.27,24.677,17.075,21.16,20.316,24.713,17.477,27.359,30.639,20.793,22.184,24.613,27.897,24.685,24.096,19.948,21.133
24.532,29.511,24.322,16.061,23.692,21.247,20.54,20.655,17.58,20.182,18.024,19.977,22.222,22.487,20.672,20.965,21.833,23.809,27.643,24.563,20.341,24.46,20.533,13.385,10.748,13.698,20.572,18.791,18.323,21.865,18.608,18.74,24.514,25.318,33.02,23.084,21.947,19.003,20.767,21.441,13.501,20.478,25.165,19.018,23.977,26.292,26.691,25.293,11.155,19.048,25.873,23.513,21.698,23.71,26.937,22.392,18.144,20.837,20.708,25.851,23.595,24.225,22.364,19.989,21.96,22.685,15.167,22.509,25.994,21.163,28.996,24.285,19.719,20.959,20.395,22.798,25.189,20.317,23.81,29.848,26.013,25.518,17.882,19.189,22.805,21.207,14.11,14.625,26.453,18.146,31.352,11.331,23.765,21.679,18.155,23.558,17.98,25.679,21.987,14.043,10.387
19.836,26.409,21.974,21.39,24.303,14.734,27.694,17.031,21.314,19.469,21.828,12.2,28.147,23.65,30.382,27.654,21.193,16.823,13.145,21.219,22.148,25.949,16.768,24.795,21.469,17.583,24.7,22.362,20.06,29.772,23.942,20.634,22.416,21.541,21.939,23.226,18.366,17.476,22.799,29.808,19.73,16.484,20.044,18.915,19.636,23.327,20.543,18.408,19.1,15.06,17.189,14.644,18.768,16.151,17.889,19.754,15.621,21.052,22.706,16.712,26.262,13.848,19.339,14.314,19.556,15.053,18.498,17.735,15.692,11.647,23.739,30.337,31.363,18.878,20.929,18.999,21.49,16.916,12.315,20.973,15.508,12.393,32.057,20.068,22.998,26.623,13.394,23.04,23.448,21.523,21.866,18.713,24.465,17.233,17.479,24.476,28.895,19.364,18.818,23.017,26.071
25.014,21.845,17.738,23.478,20.259,26.871,14.224,21.26,26.475,18.371,17.781,16.379,19.353,19.708,21.24,16.608,20.993,17.877,18.944,16.813,19.336,36.829,36.092,25.827,24.193,14.815,17.964,17.806,23.049,22.812,21.111,19.074,16.415,20.643,25.791,22.559,21.441,23.604,23.272,13.279,20.704,18.684,11.383,14.586,19.166,24.367,19.578,21.81,16.541,10.823,21.045,16.3,25.943,28.497,18.931,26.035,24.949,14.193,20.467,21.804,22.993,23.692,23.681,23.699,19.199,22.341,10.389,15.313,26.077,17.618,22.106,27.467,16.582,16.263,18.381,22.621,19.689,16.179,13.476,18.937,19.615,18.188,19.429,15.645,23.113,10.744,21.275,23.657,16.764,20.359,21.944,17.828,20.557,22.49,16.363,24.411,25.589,22.077,20.687,15.331,22.866
14.657,27.243,22.471,21.297,18.345,10.35,14.748,21.748,30.928,23.429,21.499,17.679,20.658,24.425,18.971,28.593,14.638,18.422,20.345,11.347,22.645,20.458,20.471,23.673,24.79,23.707,18.007,19.901,21.695,14.474,15.464,18.195,20.458,28.141,23.685,18.125,17.289,26.988,32.368,20.86,17.962,13.775,24.482,21.409,25.336,16.035,21.188,17.177,25.827,17.638,19.718,18.55,24.567,22.031,15.606,17.272,15.42,22.377,21.598,12.776,11.559,19.928,23.236,20.867,13.187,13.151,23.998,19.458,18.378,26.012,16.538,20.717,21.983,23.786,16.278,21.712,32.435,13.325,22.056,19.079,16.401,16.379,22.342,30.494,16.55,22.535,17.603,28.973,22.552,19.491,22.889,20.085,25.075,19.277,15.081,21.215,27.11,14.744,19.023,24.616,11.499
22.383,22.948,20.559,16.202,19.581,20.026,23.755,22.552,18.062,26.787,19.388,16.014,17.671,23.416,20.478,23.55,19.92,30.626,12.237,17.771,19.24,20.008,26.062,20.585,19.104,19.917,22.941,16.56,21.61,12.682,19.264,15.442,16.722,20.864,14.63,15.233,12.9,9.7438,18.942,24.763,18.807,18.577,14.977,26.625,18.509,25.344,21.216,18.448,24.406,23.964,19.12,25.352,27.502,19.323,18.481,21.405,21.171,23.189,18.481,22.78,24.257,20.399,20.292,14.058,14.419,13.141,14.103,18.926,12.461,29.56,22.887,10.456,14.5,19.138,12.027,17.576,24.445,18.887,19.315,15.177,17.152,13.628,21.226,17.61,23.082,25.092,24.384,19.459,17.381,14.192,20.138,23.862,18.103,18.846,22.342,23.439,13.338,20.499,20.48,18.944,23.567
17.536,15.515,20.336,21.14,18.178,22.611,12.49,14.428,5.6923,21.409,14.794,18.022,23.543,19.352,17.203,15.418,18.078,21.766,12.497,18.83,22.551,12.915,22.056,22.117,15.271,12.549,21.023,22.664,21.661,22.465,13.959,21.682,16.592,16.674,12.324,23.941,19.894,23.518,25.737,14.155,21.941,19.073,23.127,23.974,22.717,15.553,18.576,20.284,32.943,24.494,29.278,20.942,20.055,21.811,16.821,24.559,18.439,13.121,22.938,12.269,11.063,20.39,14.97,15.146,18.421,16.991,18.154,20.319,14.018,13.774,9.9465,17.422,22.034,16.057,21.321,21.492,23.462,23.456,16.116,15.381,19.34,16.221,25.483,25.164,19.545,17.261,21.363,16.259,18.582,16.809,19.591,24.064,22.376,24.131,15.128,19.915,14.828,20.812,20.553,24.798,23.936
21.478,16.475,16.601,9.7952,16.72,11.956,22.673,22.552,19.254,17.022,19.274,25.589,24.484,16.72,19.384,13.817,20.387,21.849,22.544,12.043,20.836,14.924,17.03,22.06,19.945,17.949,21.277,25.716,15.963,12.825,13.636,14.578,15.757,21.147,9.6474,19.676,15.294,23.406,14.961,18.689,14.607,15.713,17.533,17.668,16.39,23.53,21.033,26.67,17.459,23.264,9.5893,21.414,20.261,17.04,21.66,22.447,23.121,20.47,21.253,15.745,13.926,17.501,19.462,22.764,15.242,16.542,31.504,15.967,26.951,22.808,16.247,18.196,17.727,20.702,24.555,11.582,27.398,22.016,16.286,18.112,19.951,19.936,23.843,23.365,17.107,18.095,21.826,19.176,23.565,15.69,20.694,19.902,24.668,12.845,18.66,18.888,8.5411,24.047,30.791,17.654,19.896
16.214,19.835,16.576,17.762,25.098,14.582,15.739,17.872,17.631,24.336,26.861,14.023,15.462,20.416,16.572,26.697,25.174,20.581,20.6,16.752,21.453,23.005,18.8,26.421,21.057,17.726,19.778,22.874,16.497,17.831,28.32,16.174,22.233,21.686,24.974,20.44,7.6802,14.559,20.379,19.296,26.567,24.195,20.315,18.549,11.591,26.144,18.768,11.601,20.044,18.635,15.763,20.299,15.178,12.446,10.713,16.644,15.521,20.073,11.786,17.308,11.776,25.916,17.697,23.427,20.307,22.072,13.272,23.56,24.392,9.3369,17.443,15.414,18.864,14.569,19.386,20.743,19.24,17.691,12.696,18.441,15.974,12.74,17.956,17.301,19.015,22.429,20.654,23.766,15.085,14.508,17.791,24.096,23.757,17.659,15.65,11.709,21.062,18.293,13.172,16.769,10.392
19.558,17.014,24.619,12.02,21.835,18.352,18.095,20.766,22.774,13.235,23.303,12.649,13.222,14.913,20.849,13.239,19.157,19.482,18.396,20.083,12.806,21.991,18.225,20.822,13.603,17.966,21.444,22.019,17.391,9.9383,13.126,18.668,21.093,19.698,15.166,27.202,18.051,21.393,15.995,13.05,20.633,22.118,25.423,15.518,10.889,24.56,18.859,12.998,15.391,14.339,22.638,20.241,18.769,18.76,14.286,21.93,19.206,16.647,16.969,17.318,14.01,20.87,23.612,28.168,19.87,14.282,18.593,13.504,15.164,14.971,14.237,19.34,13.048,20.558,21.097,22.117,17.661,20.354,25.342,17.97,16.997,25.214,7.1779,15.823,27.985,15.761,15.386,12.58,21.087,8.8582,14.379,20.135,17.741,20.375,18.279,20.615,12.323,18.665,11.147,21.046,16.438
20.035,15.072,18.676,21.694,9.0723,9.5395,9.6853,20.839,18.994,14.386,23.545,17.882,10.707,13.068,11.545,21.281,14.808,12.433,14.908,13.829,20.857,19.294,18.566,19.038,17.487,13.361,19.562,13.892,12.849,12.84,20.926,21.39,9.9912,16.692,18.357,14.769,20.474,18.367,16.673,14.989,20.125,20.842,19.261,16.311,21.14,13.536,17.909,23.118,16.519,13.798,25.394,16.281,19.146,13.965,18.505,19.251,17.327,18.665,22.32,11.467,18.164,9.0244,17.427,25.34,21.224,17.28,15.901,19.506,21.706,17.37,24.026,13.914,8.9971,14.196,16.479,15.758,13.783,22.872,10.584,15.262,13.276,15.336,14.537,19.299,12.977,13.894,17.729,21.818,9.593,24.796,13.654,20.003,21.675,22.813,15.156,17.41,16.633,14.789,18.439,18.801,15.843
17.425,27.866,16.85,19.8,14.981,14.712,15.46,19.201,13.588,9.268,17.1,15.088,18.032,17.229,19.877,20.582,11.435,10.617,18.945,18.14,13.022,21.965,17.017,17.389,18.007,19.98,23.145,15.805,9.7703,21.045,13.069,21.991,14.459,23.009,13.57,12.31,20.813,11.281,19.677,18.68,16.293,15.478,25.336,15.342,16.1,13.024,13.539,14.483,23.905,15.277,14.046,15.04,19.816,11.475,19.458,11.411,16.344,9.375,19.083,19.728,14.056,18.186,17.55,21.644,17.409,21.152,16.401,14.218,16.725,16.062,20.504,16.65,13.425,16.245,21.765,15.176,14.175,20.924,17.297,15.391,13.846,10.801,17.511,15.579,18.191,10.897,22.312,18.883,10.444,21.224,14.467,18.123,17.783,13.273,5.1246,19.082,15.476,14.425,18.602,14.047,19.639
17.077,12.442,19.86,18.39,21.545,12.842,12.832,17.736,19.171,19.825,16.491,15.507,19.113,24.436,20.054,16.807,14.133,18.492,14.5,17.432,19.622,20.215,18.851,22.055,23.976,8.7643,9.2471,12.721,8.3575,15.015,15.099,17.48,17.625,13.68,13.164,19.684,14.915,10.901,16.506,17.293,14.797,19.157,17.38,15.601,16.286,18.323,14.673,12.184,15.833,16.988,18.531,16.342,14.609,18.884,16.004,19.739,16.1,16.439,16.092,12.726,12.703,12.564,23.707,15.652,20.28,17.881,24.009,20.226,11.486,15.137,20.082,17.634,25.656,16.27,10.167,18.266,12.765,16.665,20.839,17.715,17.68,15.664,15.87,16.046,5.1071,18.06,20.482,11.199,10.289,18.984,10.347,9.65,19.666,13.81,21.516,11.221,13.972,17.445,18.693,18.362,17.241
15.137,13.737,17.983,14.508,17.747,20.417,7.0443,23.289,13.525,21.333,22.275,10.172,16.767,29.948,15.198,18.006,17.384,21.139,20.428,12.265,14.301,17.433,15.824,26.216,17.816,17.811,12.701,10.818,19.24,15.267,18.659,12.726,19.648,8.7908,22.336,19.45,16.499,11.405,14.465,17.077,20.898,11.916,21.248,27.15,14.073,17.936,13.424,9.1776,21.951,18.839,14.011,16.512,15.137,10.2,4.5077,15.868,14.205,13.747,12.668,8.7758,13.967,16.705,11.803,17.863,14.965,15.651,10.331,12.995,17.701,12.892,16.706,23.984,19.245,20.215,25.516,20.768,17.652,23.877,12.433,13.324,24.146,17.878,15.889,17.894,14.999,14.888,14.508,13.838,12.276,15.818,13.755,21.836,17.002,20.151,15.498,15.731,21.1,21.943,16.19,22.84,17.964
17.12,24.336,21.739,19.252,17.253,13.531,15.205,22.872,7.6614,13.141,14.914,16.248,8.6018,17.755,18.549,11.941,14.635,10.859,22.09,17.14,14.668,11.999,16.052,22.327,16.751,17.059,10.911,16.319,18.733,10.194,20.126,25.418,9.496,7.4827,15.374,18.666,15.338,15.034,15.687,11.448,9.1557,21.92,16.819,10.961,19.919,10.527,15.179,18.593,12.334,14.278,15.779,23.388,17.478,14.081,14.769,14.552,20.833,14.536,12.528,16.614,15.287,18.801,19.458,19.964,18.223,18.165,23.193,11.071,14.287,8.9532,19.3,15.747,14.477,8.8505,16.387,14.633,10.3,11.081,12.646,14.671,9.1365,14.941,18.098,14.171,12.899,16.865,20.019,13.894,13.814,9.9792,11.792,18.059,15.212,18.687,18.312,17.149,18.695,21.69,17.944,17.347,15.491
10.42,13.301,16.548,10.931,17.104,16.536,15.666,16.453,15.368,15.188,15.24,18.907,14.921,4.9523,13.375,16.041,19.026,20.669,11.595,18.248,16.205,14.46,15.371,15.165,15.823,16.203,12.65,11.191,19.049,14.416,20.803,11.663,12.953,20.829,20.776,11.253,16.082,20.516,20.483,10.253,21.6,17.861,16.163,14.393,11.499,15.646,14.271,24.303,16.018,14.597,15.22,12.88,23.372,17.764,15.567,19.665,15.145,14.893,13.099,12.869,21.546,18.278,15.614,21.936,15.367,16.408,9.7253,17.132,9.6182,11.412,18.985,16.647,11.866,13.719,16.277,16.135,8.5859,10.562,8.3456,14.991,8.5481,18.018,11.345,10.95,22.273,23.726,12.073,15.13,22.947,13.163,21.987,18.479,15.492,13.895,21.892,18.054,12.802,16.81,11.843,15.857,21.262
16.95,11.965,16.241,12.204,22.692,7.9744,12.352,17.875,11.731,14.967,17.424,19.752,11.319,14.242,13.077,14.457,16.324,12.51,17.986,16.544,13.074,15.963,18.696,18.731,17.477,14.647,12.504,15.763,13.098,13.616,18.467,20.483,17.197,22.823,8.9951,14.985,15.265,21.129,16.832,13.648,17.037,17.377,15.602,7.072,18.846,1.4211,15.32,8.9098,13.527,20.296,12.916,22.297,17.902,13.946,11.41,12.984,16.343,5.7479,17.272,15.976,18.058,22.8,13.648,11.113,19.451,18.35,14.346,12.607,15.858,10.537,15.153,12.435,11.735,18.634,15.015,20.112,10.704,15.825,10.86,17.286,19.935,18.848,6.7327,17.529,14.931,16.188,12.785,8.5252,18.344,12.94,13.625,15.547,24.689,23.75,9.8079,13.068,18.709,6.8962,19.699,13.681,20.298
11.176,11.013,23.352,16.771,13.349,10.592,18.735,15.834,5.8999,11.087,25.851,14.485,6.9079,11.145,12.929,17.177,13.909,14.917,14.462,10.869,19,13.137,12.763,15.273,14.275,12.542,15.014,22.584,16.593,12.033,11.215,13.619,8.5224,21.489,15.308,10.095,14.989,9.0273,16.75,13.838,14.69,15.909,17.784,11.443,8.9376,14.134,11.393,16.15,7.4601,17.802,15.698,10.293,13.32,17.723,23.779,13.191,19.797,11.249,15.318,13.739,15.827,12.631,9.1117,13.498,16.206,12.6,13.827,16.062,16.585,11.733,13.507,17.848,15.791,9.3918,20.43,12.179,11.867,9.1033,14.112,14.138,13.3,11.329,8.2001,26.013,20.251,13.161,14.092,15.898,14.483,12.356,18.09,10.191,21.99,7.8087,13.297,17.856,14.979,8.8004,18.044,15.152,11.424
15.691,17.018,22.394,13.818,13.063,12.271,6.9169,16.134,6.4373,13.155,13.136,17.352,3.7391,17.627,12.216,9.3035,14.138,15.049,12.574,8.6393,18.712,14.914,11.51,18.75,15.553,9.3995,16.509,7.4121,10.189,14.741,15.719,14.436,6.8942,17.253,18.921,18.565,12.024,12.688,10.341,15.113,15.12,11.267,17.633,17.379,16.645,11.335,9.1323,16.626,19.619,9.3144,5.8584,19.577,13.939,18.605,17.881,9.5837,12.545,11.028,14.847,18.561,14.382,6.2655,18.821,14.181,12.441,6.2537,15.579,15.094,15.446,10.113,11.422,10.722,20.9,11.083,13.43,10.82,17.599,14.125,14.445,17.707,16.713,17.13,6.1424,14.999,17.809,15.489,17.566,22.156,18.871,9.9428,11.046,13.713,11.752,13.874,18.794,12.171,13.094,13.314,16.71,18.074,13.608
12.642,17.292,16.51,15.636,25.964,13.939,15.09,13.511,16.113,11.869,17.567,20.621,14.138,13.567,11.726,12.061,7.4879,13.621,10.545,18.49,14.4,14.025,19.02,7.2198,15.047,9.8882,11.429,14.782,17.136,10.711,15.878,19.243,10.642,10.133,13.778,16.152,13.827,10.786,14.249,14.591,12.168,9.6555,15.44,13.885,12.472,11.474,11.961,10.597,9.9544,18.526,12.923,7.3931,12.006,17.763,11.82,20.429,10.923,11.022,9.9803,18.148,11.664,15.373,7.6939,11.692,16.272,9.061,14.007,15.86,20.433,16.204,17.341,12.504,11.669,14.031,10.5,17.993,16.705,17.399,18.508,13.42,11.675,15.775,18.104,17.012,17.336,19.42,14.919,18.298,13.777,16.756,8.603,19.554,7.2226,14.586,12.534,9.5124,15.07,15.056,19.068,14.33,15.969
14.372,18.868,17.631,13.519,13.936,20.013,12.601,16.63,10.255,10.682,16.648,15.86,17.365,11.155,17.217,14.111,13.306,19.682,18.756,5.215,14.789,10.358,12.38,11.151,19.444,18.036,15.519,16.062,15.162,15.991,14.402,12.824,15.344,12.342,12.032,12.49,13.156,13.509,22.775,8.9887,9.5449,14.383,13.294,10.799,14.68,16.244,9.244,11.982,8.7513,13.787,14.081,15.986,9.4913,14.572,12.954,18.59,14.606,11.508,12.639,11.511,18.763,11.603,7.5804,12.741,17.678,15.915,14.082,20.035,11.322,14.431,10.279,10.587,12.216,15.858,21.022,16.413,9.5474,12.727,11.444,12.404,17.813,14.865,17.12,15.695,10.569,16.897,8.5219,16.416,15.681,17.52,8.2673,12.732,13.546,13.848,16.697,16.052,15.874,14.135,19.633,12.286,13.851
11.056,12.924,15.778,8.6968,13.839,10.483,16.006,6.0208,6.0565,19.037,12.605,6.0103,7.0333,12.832,14.262,14.371,17.016,14.354,12.881,16.946,20.612,13.244,12.275,16.912,11.308,7.7696,12.761,14.036,13.676,9.093,10.983,10.683,16.61,12.673,15.502,15.317,12.449,5.9649,14.463,15.699,10.418,13.086,11.546,19.316,13.036,13.886,9.3478,10.481,8.2283,15.789,15.349,10.144,23.617,16.48,14.618,20.095,4.243,12.817,13.058,13.872,9.3822,15.066,5.108,13.537,14.738,12.998,14.468,10.378,15.14,11.789,7.1311,12.022,10.899,9.432,14.978,13.294,12.223,11.161,19.226,17.4,12.462,13.461,18.631,19.649,17.145,11.966,11.034,15.872,10.015,9.2642,11.859,16.613,13.725,14.035,17.225,13.998,9.0188,16.2,14.874,12.827,11.649
10.872,12.736,9.9559,10.988,7.4989,10.965,10.34,14.891,18.032,16.53,16.571,15.244,14.78,15.508,10.209,15.806,8.5306,15.038,9.8417,9.3473,11.198,8.1577,12.88,16.8,11.929,14.597,13.403,17.162,12.256,13.872,21.659,16.927,9.4785,16.832,9.5129,12.858,13.859,15.938,11.4,14.748,19.16,5.9992,8.9668,17.101,11.77,12.686,16.131,20.783,8.1606,9.5675,12.545,12.824,13.205,11.704,17.19,9.5654,13.553,16.367,14.166,10.595,13.254,11.686,10.675,17.668,12.115,10.753,10.115,13.256,7.4661,6.9278,13.513,8.204,11.391,15.599,16.125,18.353,9.2074,15.89,13.987,17.307,13.611,15.742,16.903,11.348,11.171,8.0633,12.509,14.095,10.161,13.08,11.546,11.277,15.613,15.746,16.934,8.9374,12.335,15.168,8.1908,19.722,13.658
10.578,16.158,13.84,12.892,10.1,6.2628,9.0983,10.223,14.106,14.679,9.7288,15.435,14.866,12.062,9.142,15.66,12.047,8.9218,13.398,14.357,7.337,19.106,4.906,6.7231,16.834,13.656,10.989,12.547,15.092,9.4362,15.788,14.972,12.346,13.182,10.282,9.4766,11.131,16.143,11.658,10.909,9.0428,8.4976,12.584,16.185,16.861,14.487,11.413,11.206,13.799,15.821,15.951,5.0126,12.342,9.087,10.839,18.642,9.7562,6.5513,13.132,12.066,11.036,15.616,14.508,13.835,11.526,13.744,11.476,13.164,14.545,13.707,10.126,10.607,8.8275,16.033,12.414,10.182,14.903,10.699,14.083,17.869,15.822,11.939,12.103,19.356,11.902,13.571,13.659,15.776,13.267,13.801,13.645,22.015,15.604,9.4063,8.2005,6.7952,19.013,9.6098,16.014,14.394,7.1068
19.262,14.126,18.554,13.394,12.824,8.6372,12.328,12.676,6.8849,12.131,12.767,9.6785,13.631,7.9621,10.193,12.565,10.084,13.67,10.93,9.1443,15.451,14.293,14.193,14.59,15.722,15.658,12.315,10.625,11.811,16.52,8.0136,10.226,15.841,15.152,10.466,11.475,11.653,11.235,3.6642,10.705,13.276,20.759,7.089,9.9775,10.851,8.9062,9.844,5.4768,11.804,10.386,14.065,12.398,15.919,17.857,12.623,7.8733,13.05,17.08,11.864,13.551,8.8223,17.468,13.607,10.723,6.3507,9.7956,8.6097,10.477,13.408,15.094,12.741,12.489,13.505,21.463,13.359,12.689,17.708,12.51,9.8467,15.452,10.947,12.903,15.257,15.019,6.5976,3.9478,9.7464,17.966,13.018,11.667,11.653,15.823,13.351,13.859,4.8962,11.589,12.264,9.1935,12.117,10.094,15.235
9.9272,16.396,11.749,14.985,19.777,12.126,17.051,8.197,18.185,7.728,11.67,10.769,7.9325,7.3844,14.125,7.1045,7.2719,15.789,11.902,13.205,8.7872,11.217,12.955,12.474,18.063,9.7435,11.379,14.766,15.166,5.0884,10.544,9.5619,11.841,13.673,13.43,15.831,13.44,12.984,15.157,13.374,7.3273,12.275,6.1887,15.727,4.6258,9.9995,12.221,11.764,18.39,12.087,9.7786,13.921,7.7339,13.777,12.761,10.541,9.7505,7.7899,5.417,10.434,14.577,9.4336,17.361,8.8321,19.28,9.5086,12.238,16.845,16.15,9.2828,14.443,8.0525,6.0123,14.176,5.9303,4.5216,11.689,16.675,16.096,6.7394,12.025,14.665,15.255,17.279,17.367,14.849,6.9828,12.033,7.1366,16.149,17.904,4.9927,14.778,10.714,10.247,8.8294,16.254,13.218,11.486,13.335,15.391
8.6405,8.8954,13.947,17.003,15.861,11.208,7.066,3.6222,8.4462,15.45,9.7318,12.569,12.327,4.0992,15.864,18.499,11.47,15.004,9.0226,13.633,18.834,16.07,9.2181,8.1292,11.783,10.795,11.389,15.932,12.355,17.27,11.456,11.148,14.304,13.054,10.887,6.1926,7.7996,13.703,13.453,6.6023,12.011,13.405,7.5991,8.2021,15.669,5.6288,13.123,14.934,5.5008,11.159,7.5991,11.909,10.164,5.9788,13.707,13.633,9.4957,13.4,7.0232,7.3964,7.6734,11.23,9.8167,18.113,11.36,13.516,13.558,12.868,12.255,15.84,7.6369,17.172,13.94,7.6868,15.384,15.63,17.418,10.171,17.186,12.5,6.6173,8.9584,14.768,17.709,7.5722,11.224,9.3652,18.005,8.55,16.138,9.4748,14.248,7.0916,16.712,4.0987,12.701,13.036,8.8068,8.3103,13.678,8.0727
11.221,1.8304,4.3153,11.165,15.076,5.767,13.599,12.979,9.3362,11.235,18.687,6.6044,12.931,12.014,12.399,11.296,12.262,10.47,5.6192,9.3512,12.104,12.186,13.346,18.787,5.7515,13.605,11.773,11.188,8.9841,10.887,13.604,12.75,5.9145,14.364,12.155,17.688,7.5738,8.8869,5.4216,11.328,14.663,9.7046,9.5696,10.325,10.776,14.759,11.369,9.6922,13.451,6.7259,13.329,10.621,18.512,9.1332,12.741,11.712,7.6801,14.261,3.8268,4.7693,6.9104,15.708,14.626,7.1062,10.711,8.815,12.1,18.384,8.3668,17.871,9.7506,9.1228,13.367,13.701,12.257,6.3794,8.9903,8.396,9.5917,8.6849,12.748,14.718,10.473,13.18,13.869,11.766,10.399,9.4904,7.4032,10.396,11.852,10.688,12.049,11.471,13.571,9.1948,10.917,12.13,10.051,12.259,5.3467
12.56,12.571,11.032,9.8639,9.5979,5.3729,14.676,13.148,7.4246,6.1288,9.7565,13.298,13.803,12.812,13.588,16.866,5.3745,12.596,10.856,8.5485,13.418,11.018,15.023,7.6013,8.2207,12.476,8.0879,11.439,9.7012,14.68,12.487,9.6843,8.9146,9.6913,18.989,10.872,10.363,10.38,16.074,5.2818,14.732,8.6469,10.128,13.287,7.9254,12.451,10.789,6.3894,11.675,12.964,13.155,9.1561,10.983,13.104,12.809,9.743,6.8118,11.942,12.091,16.014,5.8745,9.8594,12.479,10.699,17.776,9.8165,3.1837,13.461,6.3887,15.405,12.378,9.893,7.7805,17.207,12.065,9.4115,8.7279,10.437,15.21,17.384,11.127,12.455,12.111,5.5583,11.503,9.3818,9.6153,10.535,1.4328,8.5962,13.549,11.438,9.3225,9.904,7.4485,8.7196,9.0996,10.418,12.99,10.966,10.771
8.0227,13.975,11.536,12.621,11.483,13.414,15.726,9.3478,12.544,12.993,10.735,17.037,7.5532,9.169,11.019,10.85,10.033,9.1901,13.469,10.566,8.117,16.383,13.757,15.649,10.676,17.049,13.781,4.8318,6.6126,12.679,10.383,10.292,14.29,16.348,12.047,11.182,18.149,10.729,9.2857,8.8116,8.3503,11.032,7.9396,4.6668,6.5484,12.195,14.344,14.709,18.352,7.2075,15.241,11.032,9.2292,9.365,13.683,12.896,4.8381,14.126,13.471,9.9885,7.5445,8.239,6.7084,10.599,9.4888,9.7405,11.49,9.7884,5.1957,8.7996,9.0469,5.1345,13.67,3.6555,12.149,9.7967,9.5688,12.889,9.7681,10.02,7.9044,14.457,14.017,13.016,12.507,13.147,13.042,12.057,12.836,8.4374,10.86,12.57,8.3837,10.766,10.149,14.837,12.314,14.355,12.807,14.075,10.454
10.871,8.4629,11.754,20.459,10.814,10.35,13.279,5.4319,14.154,7.7519,12.337,11.394,10.281,8.1741,11.85,14.142,12.71,15.022,5.999,10.561,6.1229,10.87,12.253,8.0108,14.655,8.9596,12.518,9.3716,8.0411,8.1097,5.7967,15.425,2.5689,6.3183,4.068,6.1469,1.4523,12.449,10.629,7.1579,6.2829,6.2278,9.5959,3.9464,11.816,10.207,9.3892,12.611,11.618,9.3813,10.598,10.066,8.4697,14.099,14.393,10.733,7.1714,6.6976,11.311,9.6407,7.8633,10.926,6.6598,11.601,5.3396,2.5477,9.8238,7.3166,15.459,14.946,8.5148,7.3658,9.797,9.474,14.987,9.3696,14.404,14.507,18.662,9.2687,8.9582,15.928,8.1058,4.6158,10.779,12.119,9.322,9.3619,6.0822,16.08,11.151,8.7236,11.8,13.202,7.1016,11.228,8.9352,15.847,11.013,6.8541,10.138
11.676,16.96,10.366,12.068,14.081,11.867,7.4558,9.7236,8.134,12.5,15.168,10.169,13.614,8.0094,10.749,9.6743,15.455,11.18,12.695,9.1472,8.2121,11.502,7.6201,5.8816,9.2722,15.356,8.9836,10.946,8.3391,3.678,10.24,15.658,9.1781,6.5587,7.0689,11.404,8.8939,13.386,9.3565,3.5656,8.8327,12.517,13.523,14.351,13.441,13.674,16.3,15.149,10.801,8.7154,9.3438,12.487,14.105,9.4468,15.079,7.9192,8.75,9.0008,8.1208,13.022,9.6403,16.164,10.219,16.211,2.4634,11.397,11.146,16.431,11.076,15.932,16.295,8.254,6.429,12.985,7.6308,9.7361,8.4111,10.562,12.147,12.518,10.673,7.209,7.5289,11.174,3.2495,6.4809,5.2287,9.1896,11.792,17.806,10.226,6.8227,8.7877,11.705,13.509,8.77,10.224,14.033,10.955,10.496,9.1796
8.7707,13.33,8.306,9.8368,6.7192,11.894,10.774,11.381,9.901,7.641,9.7165,5.9282,8.9161,17.277,15.271,12.728,11.37,12.598,11.217,12.931,13.796,6.7589,9.3826,9.9003,8.2319,6.8444,14.006,12.096,7.108,6.6596,11.336,7.8093,6.1994,9.2041,7.3167,12.671,17.275,4.611,12.633,11.321,7.3236,13.025,7.1788,4.0381,6.4364,11.813,11.283,13.155,11.537,13.969,3.6508,9.0239,8.8384,9.8032,13.359,7.8486,10.784,3.9483,7.0935,12.957,4.4766,14.457,8.4563,11.654,6.269,12.371,9.9817,13.949,8.2584,7.6623,7.5969,16.226,8.9442,4.9015,12.984,10.065,8.8615,11.619,12.791,7.9726,10.337,9.0044,8.1593,11.489,12.266,5.6564,13.494,10.456,9.2402,4.9664,9.1733,9.7663,10.314,8.6068,12.913,14.941,13.916,9.2576,11.047,11.271,8.0212
9.7037,7.8992,9.9541,14.764,9.1559,7.459,14.038,12.464,8.0999,7.4395,14.143,9.8375,10.318,10.83,7.7764,13.138,17.083,1.9755,10.357,12.69,7.2559,10.02,10.272,7.8679,11.945,13.531,10.436,10.893,8.034,13.23,9.4579,11.115,13.406,8.8119,9.1336,10.022,9.0426,5.7795,11.245,5.2408,8.7894,5.3442,13.801,10.006,11.234,8.9193,14.692,8.4788,13.334,13.338,8.0993,11.08,10.135,16.34,6.6368,4.7945,10.71,6.7136,7.9009,10.774,5.6886,13.084,11.055,14.179,8.7663,12.589,6.2476,10.491,13.246,7.7166,10.012,14.841,7.2913,6.2742,12.653,9.6663,6.3045,6.9505,10.82,10.504,8.6424,10.454,11.501,7.4583,8.7417,7.4749,13.921,5.749,14.777,7.9614,9.7332,12.728,12.042,8.6741,12.513,6.0579,14.051,13.361,9.7973,11,12.796
8.489,11.18,11.617,10.645,5.1209,8.4646,3.4082,8.3186,7.0647,9.2031,10.662,12.057,9.0579,9.6228,12.622,13.496,10.17,12.154,7.2495,14.386,7.4564,7.1335,11.158,9.2977,4.6094,12.82,11.642,14.577,10.408,11.672,5.9503,15.23,16.808,8.3239,7.3577,12.582,6.0001,9.9725,9.0836,12.047,3.431,9.8795,10.306,4.0405,9.0095,11.438,5.5671,8.5744,10.106,7.8885,14.348,11.871,7.7153,10.521,12.978,10.264,11.216,11.481,11.777,5.4223,7.4132,8.4115,4.5757,5.1784,10.601,10.605,12.349,10.626,7.1358,9.4506,7.2908,12.172,4.8423,12.148,11.034,11.882,7.7158,10.107,9.3726,4.8426,10.993,10.863,7.2088,13.321,4.0589,8.2324,8.2945,7.2994,7.4528,10.988,6.806,9.7114,8.1889,9.1035,15.455,7.8291,12.228,9.6158,9.5961,3.6351,12.645
9.7349,7.9435,9.3785,8.9328,14.841,5.8956,7.5554,10.064,14.908,10.048,12.647,11.555,11.453,13.184,16.239,9.7138,8.3818,9.8344,8.3418,2.2294,8.9116,9.7754,8.1496,8.6045,13.027,9.5157,9.1736,7.2516,7.5684,8.9574,9.6539,10.447,14.242,13.394,5.6206,14.611,6.2649,17.091,9.8712,7.9292,3.1122,8.0532,13.959,8.0085,7.8924,5.2681,5.6914,7.5032,10.36,2.9874,11.296,7.8002,11.713,9.2513,7.9171,10.795,10.802,15.429,5.304,7.1277,5.5407,7.5292,7.7263,7.921,7.8373,7.7111,8.5428,10.568,12.654,8.1537,14.827,11.921,12.977,6.2811,3.7,10.26,10.313,4.0894,4.7419,10.336,12.419,13.393,6.4696,11.105,11.134,9.1669,6.0629,5.9028,11.519,4.1447,8.3669,9.6921,12.591,8.1714,5.0262,10.324,7.0741,14.675,6.6227,9.7851,15.481
12.204,8.985,10.476,16.258,13.246,5.0427,9.5911,12.237,4.4221,9.9036,8.8309,9.9027,6.6158,3.544,5.8121,14.672,8.6458,6.1756,13.448,11.798,6.4429,12.267,12.374,6.7099,10.659,7.9214,12.796,5.2421,7.8078,11.503,8.7968,10.768,14.259,7.7542,5.7418,13.732,7.721,9.9926,7.2865,4.3201,6.1882,12.98,7.7879,8.5844,9.9377,12.573,9.4939,8.2588,6.4733,10.788,2.7584,5.5039,11.249,10.379,5.1977,10.65,10.447,5.4759,8.8201,13.852,7.5523,4.9852,9.513,7.352,7.9576,10.269,8.871,7.8892,5.9345,6.5702,5.9592,7.2167,14.328,9.4797,7.3845,8.6515,9.7733,9.8657,9.9939,12.314,8.0021,10.103,7.1763,3.4479,7.3166,13.298,7.9699,12.108,10.845,7.2405,14.787,11.661,11.749,6.3015,7.0907,10.979,12.642,8.9565,14.182,8.6517,11.194
8.8227,12.06,7.8418,8.7196,4.3351,9.71,9.0791,10.38,9.8167,6.8257,10.784,16.561,6.9085,11.58,7.0976,6.116,5.4795,10.521,8.9114,11.406,8.2487,5.3235,8.2239,8.5937,10.631,5.2194,3.3412,10.175,6.5075,7.3558,10.447,8.8672,9.3023,12.328,11.977,8.8234,7.2344,5.2688,9.7501,15.679,11.921,9.4805,5.5535,5.1736,7.2393,10.052,12.504,9.141,7.8417,12.829,7.5429,7.0928,11.562,8.8291,6.9292,11.361,7.3855,13.235,6.9443,7.0495,6.9464,9.8703,12.687,9.8983,11.105,12.539,8.4318,11.629,8.4431,15.047,9.5854,7.1934,9.1109,6.637,4.2881,9.8511,9.504,10.754,6.3044,6.4226,7.3559,5.8272,16.802,9.9157,6.8738,10.072,12.463,10.824,11.534,10.24,4.3386,6.5569,11.959,8.2247,9.5822,10.46,5.7805,9.3771,7.522,4.4365,9.9801
6.1205,7.121,4.6689,6.8274,9.8837,13.202,5.2777,9.6075,10.13,11.656,12.289,5.353,8.7751,12.203,10.193,12.7,12.162,15.467,0.9139,7.6222,7.6024,4.4214,7.067,12.765,8.769,11.411,13.388,7.7441,7.3942,4.7337,7.7822,6.4998,7.9523,7.9338,6.4598,5.2392,7.4879,8.638,5.9693,9.6278,8.1726,7.831,11.268,15.356,11.08,10.479,8.609,8.9756,10.3,6.9739,4.2193,9.8532,6.5374,9.7494,6.1602,4.9204,4.4806,9.4193,14.325,9.1828,10.033,9.0168,9.2697,15.53,6.3047,8.1293,6.62,10.689,9.3433,7.6357,10.771,5.6467,8.9453,9.1828,13.209,10.174,8.6921,4.6615,4.2828,10.327,6.5424,7.888,6.0462,9.1276,9.2632,13.71,13.925,11.708,11.773,5.166,12.335,5.8347,3.906,17.878,9.5294,6.6516,8.6184,8.7975,2.5263,6.4973,10.147
8.4858,3.5683,6.9599,7.9484,8.6184,3.5223,9.1222,12.81,3.7715,9.6534,12.273,9.4842,10.088,7.0075,7.8467,5.0686,8.0311,6.7829,6.4777,12.573,8.044,10.207,9.4696,5.4445,2.9112,4.2317,9.1819,7.5108,10.582,7.2829,4.5544,8.6618,11.571,9.1514,7.8445,7.1642,12.055,11.03,7.1389,4.4847,5.7379,9.348,5.2195,7.2626,8.0284,6.4727,6.5749,7.7277,6.7881,4.4966,10.516,5.7205,11.38,7.3887,7.4915,12.134,9.1389,7.2182,5.9886,6.8854,9.5408,10.836,8.5219,6.9558,9.3541,10.326,7.1621,12.561,7.3282,10.984,11.187,8.5469,8.1378,10.908,3.1608,8.4806,8.5831,9.4414,5.821,4.3,0.74395,9.9612,11.504,7.0964,15.272,6.5271,4.5863,7.9611,8.6892,10.359,8.7334,6.172,3.9733,6.6843,4.4344,10.478,8.0829,3.0179,9.4414,5.7123,12.293
8.3252,8.8314,5.9246,9.6714,8.3615,8.7941,7.2602,10.016,1.2014,8.6497,11.173,7.6308,9.829,6.4732,8.6699,6.5062,11.45,9.5197,12.11,8.0565,8.0064,9.0718,12.317,1.3417,3.3821,11.798,13.59,7.5904,12.047,14.381,8.7184,6.8734,6.8115,7.4436,10.46,7.688,14.001,7.2047,6.1291,9.7329,8.8488,9.4985,2.1888,7.747,2.9332,8.7059,10.363,11.549,10.329,9.5601,10.393,8.0139,8.0659,11.094,11.285,6.8297,3.0369,1.6128,3.5364,5.3164,9.4544,5.9575,7.932,9.2322,4.2123,5.7448,6.0332,5.8833,6.92,10.427,6.7249,10.161,9.1491,8.7245,10.964,14.295,12.372,3.6466,9.6912,4.6108,2.4264,4.7141,1.9371,4.9412,12.048,6.8135,15.841,9.2934,11.047,7.7585,7.3765,5.936,8.6358,3.9357,5.7453,5.1187,8.6573,12.51,14.345,3.1558,9.1674
6.127,4.9202,8.266,6.6416,8.1184,10.144,5.3324,7.5429,3.1725,6.8918,10.766,3.0445,9.0778,4.1563,8.5925,6.7025,7.1876,3.445,5.4014,7.429,8.1765,7.4338,6.1634,11.726,7.425,5.7831,5.8318,7.7606,10.597,6.7752,10.435,8.6138,6.3833,5.6664,8.4749,7.6823,5.4185,5.731,9.4965,9.4472,7.0947,10.307,6.9859,7.6479,11.461,6.4494,2.2051,4.3345,8.7954,7.3647,15.743,3.9781,7.2854,8.0878,4.0946,11.022,10.075,12.331,9.9155,5.2433,8.8545,5.6725,8.7743,7.787,6.428,8.1663,9.4226,11.202,5.4497,6.3595,5.9391,10.368,12.415,10.955,11.761,8.678,5.7102,9.8936,12.849,9.4031,10.598,3.6155,9.5867,7.5394,9.5366,11.58,6.1685,12.227,5.3101,8.0894,8.8409,10.987,7.0616,5.3313,11.974,8.9981,2.5702,8.8775,3.1719,10.208,11.891
7.2675,5.2439,11.199,6.353,5.4947,4.2584,3.6843,8.5463,6.852,9.9761,7.6191,7.1924,2.9764,5.6146,8.0684,6.5832,11.333,2.6698,7.2719,8.0967,5.7627,8.0896,12.41,4.8479,6.7987,3.8197,9.8073,4.4138,5.3839,11.745,10.074,5.669,10.612,5.9391,8.0729,12.893,14.072,6.5414,7.6935,10.675,9.4714,7.1274,7.193,5.5907,1.4412,7.3403,4.4366,7.1415,14.661,7.8717,11.987,4.6797,11.334,3.1099,6.9966,8.5881,9.5065,7.4307,4.7591,4.3814,5.7633,4.935,6.1623,5.1264,11.241,8.5299,8.5677,5.4375,8.5492,8.678,5.1668,4.4609,2.3811,10.211,4.9546,7.9075,8.009,8.0316,5.9974,7.146,6.9213,11.541,4.5529,7.203,10.751,8.9515,4.7424,9.9891,0.24242,6.4035,12.149,9.1673,9.9848,7.518,6.7169,9.718,14.239,7.0287,11.785,6.2732,6.5778
9.3774,5.1008,10.18,2.9493,0.91815,7.1475,8.491,11.098,7.9148,10.214,8.2477,9.4566,4.9171,7.3748,5.9388,6.9325,13.91,3.718,7.6793,6.7014,8.6301,12.522,10.098,5.776,3.6364,9.9207,4.8528,5.6153,8.8668,3.3922,11.871,7.8684,6.9405,9.81,9.8056,6.8989,10.621,8.5968,10.615,8.3108,7.0589,12.401,5.4281,9.3288,13.155,6.4468,9.3331,8.4653,6.6261,7.5754,9.2866,13.998,10.027,6.9129,2.151,8.2711,8.304,5.4054,10.365,8.6617,9.2016,6.2462,5.7018,6.2978,4.5265,6.146,9.587,1.3737,2.705,7.6584,8.4899,4.972,9.0626,11.053,9.4683,3.2794,5.5731,5.2337,6.6522,5.7364,5.2673,12.845,6.6682,7.1654,8.3739,2.8144,4.441,8.8793,8.553,4.3876,10.685,7.4014,7.9754,7.8862,6.0705,2.5416,7.2247,3.2751,7.1317,8.1562,8.1304
3.6274,8.395,4.1056,8.0824,9.0386,11.745,1.8199,9.6534,6.9569,7.1931,5.8682,8.0348,6.6945,5.7149,5.9329,9.0741,8.7351,10.391,8.3851,7.0011,4.3016,8.2541,6.564,8.0004,9.7767,6.0574,6.0862,6.6929,7.9762,12.938,5.0237,11.042,6.812,9.8401,7.5603,5.9449,6.6929,10.006,10.843,10.012,5.8645,3.8924,8.4882,8.834,0.564,7.4638,13.098,6.8854,5.6458,4.6569,2.4723,6.0667,8.2178,4.7218,8.0873,9.5411,5.7842,8.7367,8.936,7.2815,12.719,3.9376,8.1461,4.8772,5.4348,8.5973,10.37,7.8606,10.947,4.868,8.3177,5.9539,5.338,0.2403,9.4655,12.497,8.7569,11.141,7.5583,4.0513,5.0249,5.2147,10.396,6.0914,7.6466,3.7719,6.9,2.9757,5.4874,9.4637,12.048,8.7183,7.6624,10.317,9.3781,0.7372,2.525,5.1313,5.0218,3.0454,5.5531
4.714,10.171,5.5768,3.7877,6.0971,5.3753,7.9194,6.594,3.225,8.7741,6.2376,5.6035,4.9272,9.3477,6.9227,3.0442,13.046,6.2974,7.9433,8.1684,3.7058,10.495,7.8898,7.6011,10.843,7.6426,2.589,7.1721,10.35,10.473,7.9262,2.6664,10.16,7.0611,7.7307,10.657,8.2971,2.7463,4.9911,3.7467,7.6275,7.6234,5.3535,10.357,5.0984,6.2869,5.4226,4.8072,7.362,3.4704,6.3767,9.4456,9.4012,1.9879,8.3078,5.9851,8.4254,7.6776,6.3662,7.1795,8.8482,9.1654,5.2015,3.6498,6.0896,9.9551,8.1361,8.2736,6.0266,5.1586,12.794,6.9328,7.1259,6.4801,7.4025,6.357,4.4104,8.5394,11.083,7.7118,5.2164,7.3668,9.9559,12.005,3.4406,7.5215,6.0514,8.6781,7.669,5.6341,2.3609,3.9538,5.5864,6.4801,10.373,5.6182,8.2146,9.6484,7.8375,7.443,5.5752
9.2689,11.357,8.2986,7.8523,7.6615,9.7802,6.1593,5.6784,8.448,6.2241,9.4029,3.1538,10.556,5.099,7.6699,5.7959,8.93,3.2768,4.2058,11.367,4.4496,5.1845,7.2024,4.9183,7.4263,10.157,7.2193,11.616,3.1913,6.282,4.7185,8.0146,3.6902,2.3693,5.9932,2.2223,4.6547,5.5853,2.606,8.533,7.8478,5.3734,3.3436,6.3068,6.5918,1.2728,10.505,8.1925,2.3854,12.284,6.6298,3.1286,4.5805,7.734,3.2177,5.7809,6.7678,5.9098,7.5774,5.1483,6.3726,7.5431,1.1478,1.9486,4.2064,7.2489,7.5751,5.0976,10.519,10.043,6.5673,15.859,6.068,9.6458,6.8699,2.4615,12.024,4.2158,7.2327,12.133,8.7421,8.0213,6.6513,7.6876,12.051,5.8143,6.4494,5.8286,5.944,6.5796,8.6788,7.2711,5.0191,11.419,4.7304,6.1605,7.2496,2.5746,4.3603,3.6053,12.695
4.95,9.0642,6.9084,4.2589,6.7575,7.9237,3.8694,10.002,9.9988,6.6083,8.4728,3.6709,8.3616,6.5272,11.077,4.356,12.133,6.916,8.0305,10.661,9.7529,4.5688,4.4656,4.4667,9.679,6.5079,5.6983,7.0795,9.5769,6.4471,7.6736,0.79746,5.1144,4.0691,5.1889,4.8672,5.7575,5.5762,8.5865,10.626,2.8419,11.455,10.225,7.1087,11.003,7.5046,4.1905,9.8181,12.712,4.835,4.2397,9.8456,6.8006,3.2904,10.102,6.4597,4.7801,5.3398,5.5596,9.3192,3.8356,8.0926,9.4947,4.6107,7.7394,2.5316,8.689,3.9234,8.9759,7.9992,5.7856,2.9864,10.352,7.2634,11.258,6.8858,2.2043,11.291,6.1,9.2851,4.9712,8.4662,9.0509,9.5174,8.1708,6.7564,7.2419,7.6554,4.9287,8.3054,4.0746,1.8716,7.2997,7.3814,7.4416,11.508,10.093,11.746,7.4406,9.2438,5.3146
6.0963,2.172,6.8746,9.0922,3.9561,6.1183,4.8205,4.6023,9.0286,6.8679,8.6074,7.7205,9.115,0.85394,4.0494,6.2492,7.594,9.6652,5.039,5.1287,5.9561,8.4926,6.9693,9.6064,4.6967,7.7576,7.6957,2.4404,7.4607,11.195,3.5949,5.0456,4.0633,9.6151,5.2541,8.6379,2.4385,1.9785,9.2743,8.2289,7.4185,9.196,6.8688,7.0559,4.4303,6.7185,3.8471,4.3894,5.4592,7.0528,10.841,7.6707,7.7447,8.0995,9.8081,8.1956,6.8586,5.5735,8.2391,2.3382,6.8019,9.1343,6.1041,8.1863,7.14,8.2075,5.4172,11.018,7.72,7.0587,3.6135,6.1942,2.9537,5.9473,3.5138,6.5284,7.0877,5.4403,10.919,10.236,10.352,8.2223,8.712,4.9934,7.0349,3.7899,7.3144,9.649,3.8457,6.1535,2.9008,8.2625,9.8784,9.6523,4.0402,4.8594,6.4296,5.6716,5.329,0.16228,8.3412
5.9297,8.3003,7.2045,5.7587,8.5372,9.1992,5.7181,7.8586,7.1367,8.8841,11.546,4.1998,11.894,7.0766,4.487,4.4581,6.8295,6.8813,7.5786,8.6417,7.4525,3.9109,4.7652,4.5896,5.02,7.4361,7.3992,5.9472,3.9765,5.696,8.0542,6.1975,10.209,4.4375,7.2803,9.4705,4.3306,6.3853,3.4248,4.1496,2.8306,4.1402,7.468,5.915,8.0184,9.1546,7.455,8.5101,8.4577,12.552,8.4634,2.7164,7.2844,8.2339,8.9372,8.6165,5.2718,6.5994,7.4106,7.0799,11.713,2.4289,8.715,9.5601,5.0196,7.7951,6.3012,3.8881,6.7859,10.791,5.5088,8.132,3.6635,4.1737,3.3627,2.8628,4.1204,4.2299,5.3991,2.3292,5.2336,4.5486,4.5006,5.7191,9.5226,6.5164,7.6044,10.58,8.2779,6.8592,9.3035,12.226,5.2077,8.6963,4.4488,3.3387,4.7978,6.3402,1.5162,2.444,6.3828
7.8829,8.3494,7.471,5.9137,7.7049,12.658,11.356,6.2176,9.9366,4.8015,7.2526,6.7319,8.2935,3.3017,7.9427,6.7929,7.197,3.7719,5.3743,2.471,4.5156,3.92,5.4852,6.7945,8.5072,3.6698,7.1084,9.1091,8.7932,2.344,8.2146,5.9416,9.8533,8.7124,5.4872,7.0473,7.6565,0.15695,4.8181,5.3696,3.4788,0.73433,8.4872,4.8186,9.3252,3.9494,8.7725,8.1425,7.7803,3.7482,5.9175,5.1816,3.9453,5.2445,2.2766,5.9703,5.8692,4.2696,7.9757,3.7214,5.7412,7.692,6.9055,0.31795,4.4183,5.3427,4.9712,2.9534,6.2586,5.9444,9.5963,6.6506,8.1476,6.0384,1.7611,2.6498,4.4714,5.273,7.8218,4.2618,4.7808,7.0131,4.9492,3.2677,4.9694,4.6508,8.1115,6.9275,7.745,5.2073,11.709,6.6427,4.0464,3.0275,6.6164,5.3413,2.9561,5.1819,2.2594,8.0894,11.272
8.0549,5.4049,9.5985,6.9355,0.68042,5.8498,6.4063,7.6113,5.8008,9.1351,2.8998,12.339,9.58,5.5953,6.928,4.0355,3.8908,6.4,8.6665,8.5175,11.522,5.3982,5.6545,5.4413,6.5743,6.3043,4.5963,3.002,5.186,11.694,3.895,6.2169,3.3254,9.1123,8.1701,6.6098,6.0918,9.8956,7.6501,6.2014,6.5508,10.045,7.4434,6.8802,7.6271,5.9645,3.75,7.1263,2.1674,4.4804,8.8467,4.4793,6.8834,5.6738,6.9017,7.2659,4.9619,0.91573,8.755,4.8199,6.92,8.6264,3.5128,9.3406,8.0572,6.5152,5.3161,9.2136,7.3211,7.5368,12.921,7.5924,9.1421,6.0839,10.702,5.9732,3.7307,6.1688,1.9338,9.3442,3.2593,6.9121,8.4888,7.4132,7.1411,4.0559,6.073,8.5288,4.3074,3.1308,4.4691,8.3395,5.526,6.7656,1.862,4.2848,4.4671,3.0555,9.1358,8.8017,2.3047
6.6718,3.6806,5.649,6.1693,10.264,6.9686,4.4413,8.103,8.2128,6.3973,11.575,5.6465,4.9271,7.4011,2.8518,5.0441,4.7277,9.4199,7.7965,7.5522,8.3206,8.2704,6.1374,2.5724,1.9202,6.1499,10.151,8.102,8.6353,10.472,4.863,4.4975,8.7688,4.2923,11.471,8.2488,4.493,5.1377,7.3413,7.8114,8.9324,6.8936,3.5596,6.2861,2.2762,7.475,7.4648,6.4179,3.7786,9.1902,8.4882,4.3049,2.7731,8.5284,7.5545,6.1453,6.6853,7.7727,4.9957,9.8812,6.91,4.1705,4.8425,9.7597,4.4575,3.447,8.8988,6.8426,11.48,5.3976,7.6272,6.0092,7.1207,2.1444,6.6713,7.935,6.0428,5.1717,6.1206,0.91508,9.1132,6.8989,7.4119,7.6682,6.7628,9.5476,3.3031,5.8731,8.725,6.0211,7.6392,2.0703,6.9152,8.7233,0.54379,5.477,2.9727,3.5215,7.5159,8.7401,5.5414
4.6454,10.288,5.698,6.8324,5.0617,7.1404,2.9369,5.9598,3.7546,5.4416,7.5832,10.67,4.8087,7.2034,4.7965,6.1247,12.67,6.3481,4.4565,8.3433,8.1551,2.2089,4.3516,4.8184,5.2908,6.1623,4.5454,6.9608,7.0515,3.8595,6.821,3.1807,7.9122,5.3876,7.6574,3.4927,7.8077,5.2359,5.7308,5.2469,7.5388,10.289,8.0853,5.9789,4.0904,6.1116,3.4826,5.695,8.1971,5.6947,8.8064,4.6966,6.9708,6.7095,2.5043,4.6389,8.3498,3.1419,5.5349,3.5394,3.5267,3.6678,7.908,5.9233,6.8167,4.5579,5.6044,7.9416,2.7781,4.0638,8.3879,10.026,3.8094,6.975,2.8768,7.5059,6.2309,3.4433,7.1444,8.9807,5.5243,3.7232,3.1901,2.8889,6.8758,6.7322,4.0029,7.74,3.3174,9.5224,0.73589,5.2419,7.7383,5.9372,6.0266,4.6714,10.684,4.7885,7.6038,8.8513,5.0816
9.2387,6.827,2.1903,4.6303,5.4129,7.2927,7.4722,7.4347,2.2882,2.0992,8.9911,7.738,6.7509,9.4728,10.195,3.9077,5.8621,6.7962,6.0504,6.2483,6.2275,8.3696,5.7474,5.1604,4.6365,6.1072,7.0438,5.0776,5.805,1.8012,3.0869,4.8654,5.3525,3.2004,2.9276,7.2327,6.0851,9.0665,7.0714,2.9636,0.43623,6.0957,5.2163,7.0926,7.9553,5.281,6.1186,4.03,8.645,5.886,4.4831,4.6635,10.126,6.9808,6.7707,6.5702,6.852,6.8951,5.7768,9.8698,5.1868,3.737,4.7708,8.601,7.6374,8.5746,5.2475,6.1238,1.4066,8.0312,5.5035,5.896,8.1942,5.1053,6.7957,4.0384,4.4849,7.0617,5.2532,2.0034,4.4705,12.745,6.9444,6.2778,4.7797,1.3942,6.087,3.5451,2.2687,5.2495,8.3385,6.9999,4.6966,1.8573,4.4817,2.9157,6.7924,4.3558,9.1621,5.4798,2.1158
5.8071,7.3198,4.4436,7.0836,6.4236,6.5306,4.8452,5.3167,5.301,5.3147,2.1684,5.5759,2.7973,5.9225,2.8542,8.8497,7.5654,4.3411,10.513,8.3201,7.6422,0.7058,2.6188,3.9545,4.8424,2.5102,7.1721,4.3802,5.2272,4.3189,5.41,8.872,1.2801,3.3401,4.5029,6.9343,3.194,4.3753,7.2868,2.7084,8.1026,6.4304,6.9702,5.584,3.2548,1.8276,5.9828,7.3155,7.336,5.4153,9.5261,6.0579,4.664,5.8687,4.1591,7.249,9.3095,8.0848,6.2077,2.3935,4.11,6.5747,5.4377,8.8963,7.1858,2.2207,7.1197,7.2042,9.7693,5.8215,6.2427,1.8847,4.528,2.0788,5.2685,3.7715,2.5659,5.6086,3.6264,8.6245,10.899,5.9811,6.2883,0.977,9.1688,4.1405,6.5459,5.1421,6.4337,5.4145,5.9291,3.0969,5.9338,2.0911,5.3619,6.0521,4.9592,6.3914,7.7171,1.8407,2.1693
4.0296,6.483,6.2898,4.6486,6.8386,10.347,2.9544,3.4998,1.1964,5.7933,7.3412,4.6108,8.0324,4.9384,6.051,7.8541,6.8568,6.2195,8.82,3.3407,4.3925,6.1739,4.6447,4.1605,7.167,4.2921,6.4054,5.0512,4.4603,6.551,6.162,0.85996,4.6868,2.9554,5.7425,3.8009,5.4474,8.4152,9.4644,7.3499,1.7392,8.9153,7.9973,6.0738,11.17,4.4014,9.6796,2.8901,4.5506,2.7355,6.7976,6.3325,3.956,2.1867,3.248,2.1222,7.0281,8.0028,0.79335,1.3898,4.3593,7.6983,8.4143,8.923,4.5525,3.941,3.0604,6.7703,7.2709,1.8984,5.1532,4.2367,6.8902,8.1584,8.2886,6.6217,4.5003,4.3623,2.7313,8.2063,3.3774,0.92169,3.5444,8.8775,6.0724,4.6219,5.9588,6.3899,6.5058,5.0585,10.828,7.9579,3.2532,5.4044,6.6444,4.8139,5.3731,4.7199,2.3988,10.466,5.0214
10.72,3.287,4.7506,2.3192,3.3671,7.4307,7.0925,3.3211,5.6942,4.327,7.2587,3.5665,8.9421,1.7608,6.0174,1.8471,3.6675,2.8584,8.926,4.9694,6.0985,2.0115,3.1255,6.1488,5.1068,6.8725,8.0204,3.2196,3.1014,6.3997,5.0659,5.375,3.2978,3.1521,6.3782,8.9522,4.5441,7.9072,8.5119,7.8236,8.8511,6.1747,1.6131,3.4407,4.9879,1.9883,4.1332,8.2922,3.5408,5.8145,5.9955,9.6113,4.763,6.8372,2.4984,3.3173,6.1002,6.5575,4.2536,5.9804,3.7899,6.6728,3.7214,5.9262,6.16,8.658,2.7802,5.8394,1.3538,5.6384,7.1585,2.8779,4.8709,8.1857,9.1733,5.3499,8.7804,4.9786,3.3247,5.1051,1.3164,3.4349,3.9089,8.5321,5.8597,10.071,6.3743,6.1628,4.8279,3.284,5.737,4.4756,1.7449,6.5357,4.9637,5.9509,4.1421,6.9298,3.9614,6.1678,6.89
4.927,3.1118,5.7581,7.6727,0.24022,5.4735,5.5355,6.0122,4.3486,5.9854,3.9481,5.7961,7.8347,5.006,2.7491,4.9772,6.2044,4.5962,9.0063,4.2059,4.2427,8.9341,5.8951,6.4355,8.2582,3.7173,4.7892,7.1985,3.3942,5.7586,2.5569,6.3761,10.318,4.8421,4.2947,9.0059,3.0715,4.3534,5.1383,6.5991,2.7267,3.0035,5.9083,4.7814,1.3865,1.2778,1.2583,5.2584,6.2478,6.7363,2.7884,0.62197,6.5654,5.021,5.1727,4.286,4.5018,9.5554,4.8619,6.3795,0.25561,1.8172,3.4284,5.5484,6.039,10.944,1.2008,1.2674,4.5712,3.2281,2.8419,7.3889,4.239,6.283,5.6777,1.5585,6.9619,4.628,3.7014,4.8635,6.1113,7.7361,5.4463,1.2753,7.1182,3.9655,9.4263,6.6061,6.7068,4.4346,3.2879,3.5467,2.2527,3.3326,7.9119,3.8472,5.0772,8.7691,4.0745,4.7533,6.7917
5.5342,6.1276,4.2313,4.6856,8.7372,9.6427,5.007,3.3391,4.8797,3.7825,3.4643,0.63251,1.5892,5.0183,3.6254,8.0661,0.91025,2.9904,6.2182,6.1421,4.0919,2.8219,4.0116,6.1433,4.8117,1.9971,7.2396,6.7463,4.6553,5.2699,5.2506,5.4867,6.8249,4.272,8.6675,2.5032,4.3585,3.2786,3.5833,1.3596,7.7131,5.2565,4.7983,5.3015,3.4818,4.2503,7.108,4.9344,6.2368,6.5623,7.4029,3.8782,3.404,5.9401,2.9585,7.7353,2.6643,7.546,8.752,2.1791,7.75,6.2548,5.3453,4.5479,4.6658,7.0754,3.6263,3.7095,12.053,8.6731,7.5361,7.2447,5.0273,1.162,4.6538,6.8015,6.5988,8.7023,7.8403,6.1078,3.8404,4.4471,6.2359,4.0224,4.0816,8.3639,4.7828,1.519,0.1401,5.6374,4.0043,4.1884,4.7697,5.1685,2.7865,5.0273,0.13353,2.9787,4.1957,5.71,5.7109
7.7799,8.7053,5.9498,3.1183,6.1465,7.7486,7.4714,5.1872,1.7175,2.0892,4.1437,6.1183,3.6464,1.4654,7.9006,3.9512,7.1867,5.9323,2.0523,5.0818,6.4596,3.4319,3.4128,5.6723,2.6478,3.4409,7.9114,4.1933,5.9714,3.8704,1.5214,3.8935,3.7085,5.4067,3.8387,7.209,0.38094,5.8252,3.7738,7.107,5.1109,8.5929,4.0493,4.2519,6.0173,7.3049,2.269,4.5349,5.5133,8.3509,4.3784,5.1634,6.452,3.5817,2.7009,4.447,1.0026,6.0848,2.6511,1.4948,5.0893,6.0243,4.4367,6.1412,6.6384,6.4774,4.496,5.5499,3.7291,8.3209,3.3557,2.3924,3.5645,3.4129,2.1118,2.1154,8.81,5.1085,2.9019,7.3353,2.8246,8.3755,4.3095,3.2473,7.8991,3.717,4.9789,6.5783,5.6056,3.5359,0.26852,3.2173,6.4788,7.356,5.506,7.0235,5.6778,8.193,8.2973,3.66,5.0039
6.1589,7.6588,5.1612,3.7043,4.7708,1.905,3.6661,2.9462,5.2375,4.2996,7.3561,5.2685,2.3436,5.8026,2.6478,5.2925,10.214,3.8741,5.28,7.3564,2.6041,7.5951,3.955,6.6678,3.6626,8.6427,7.4606,3.3276,8.8593,4.222,6.6104,5.2277,4.8258,9.3031,1.4528,1.4993,6.622,0.078396,6.6435,7.7109,1.5676,4.765,3.5197,6.8877,3.4438,6.6042,3.1557,7.206,5.6564,2.2285,2.305,4.9611,0.48638,6.8505,8.0836,6.291,2.313,5.3654,9.7577,7.6024,6.0369,6.7589,7.791,5.2589,4.6023,4.2432,5.1918,4.3257,3.1561,2.792,6.1734,3.5937,2.7667,1.8207,1.8158,6.3465,4.0359,6.198,7.5095,4.2497,6.432,11.205,4.099,5.8209,4.1647,7.2929,3.9564,3.9191,6.2946,4.7887,3.3309,0.071241,1.7403,3.6475,6.5702,6.3736,6.0377,7.0969,4.3981,5.6757,4.7005
5.6928,4.3142,6.9602,1.3253,9.847,4.1301,2.0411,2.2302,4.6275,7.5445,2.6684,5.6272,2.9236,6.7906,3.5189,2.985,9.444,5.3241,7.5584,6.7967,5.1738,7.6566,4.4693,5.9031,1.3425,2.0631,6.3791,3.948,3.8263,5.5516,3.9346,2.3717,5.743,4.7835,1.3898,4.5013,4.2267,5.8559,3.3582,1.7862,4.553,5.8059,5.5009,6.1519,2.6826,2.8668,3.2638,6.0577,5.3332,5.4794,6.927,6.1889,4.3389,5.0681,9.5563,7.8483,3.7429,0.66735,3.8648,5.0086,0.37847,7.5468,7.7997,4.6918,3.8654,6.3491,6.3049,4.4389,3.5088,5.2766,8.7601,1.557,8.4485,0.72902,2.8994,5.9648,7.1268,2.8417,4.3179,2.9445,1.3698,7.1952,3.6716,4.7835,9.3064,5.4594,4.6602,6.2815,5.2391,2.0969,6.3119,4.7354,4.5238,6.3719,5.1418,3.527,2.0948,6.1314,6.4274,5.1585,4.9164
4.4082,4.3469,4.1501,7.6756,7.0901,3.8009,6.1873,3.3571,3.0632,4.3384,5.0452,3.3878,1.5136,6.3173,3.6437,4.6499,5.8548,4.7795,4.6493,5.3674,5.7776,3.3641,5.3557,5.902,5.3573,1.3346,7.0618,2.3693,8.7731,3.182,4.1297,6.9372,1.6876,5.5954,6.1786,5.7545,3.041,5.5769,2.4996,5.2416,3.4171,5.0067,2.8509,5.4868,3.5455,2.7734,5.6099,8.3295,3.4094,7.6869,4.2045,2.8585,4.7779,3.725,6.0901,2.7576,4.8782,5.2179,4.8736,5.2152,3.6921,1.4284,5.3258,2.5724,6.9893,3.94,6.4511,8.299,3.8728,3.3099,6.9852,5.2804,4.6806,4.9057,3.0155,6.8525,3.6142,6.9817,3.5579,7.7235,5.238,4.209,7.3032,3.9167,3.2051,5.5634,7.7408,6.192,4.8436,5.7057,5.7124,4.2143,5.4535,4.5729,6.1052,5.9328,1.5387,3.4275,1.9613,4.8067,4.3475
6.7285,5.4112,7.477,4.4561,3.3479,0.60054,10.07,5.103,6.7443,5.6208,3.6666,3.81,2.3555,3.5886,3.0864,6.0282,5.4543,3.4149,1.9777,6.1431,4.3168,5.1949,5.2201,4.2339,6.0042,4.9699,4.5859,2.2316,4.5715,6.4292,3.6212,5.3366,5.8321,11.542,2.9652,4.055,3.5764,1.2398,4.8762,5.1764,3.7193,4.3918,4.2702,3.8469,2.6789,2.9634,2.5445,5.9675,4.4322,5.182,3.002,4.5925,5.8133,6.9095,0.6283,5.1159,4.8228,4.5848,4.2528,8.6064,2.0342,4.9137,5.4229,0.29984,5.4166,7.5756,3.8795,3.8701,1.4024,5.129,6.6828,1.8235,1.6244,3.2152,4.6905,6.8611,5.6776,4.3128,2.7001,4.6161,5.6285,2.9581,4.9743,5.0593,7.2972,7.7834,0.54023,6.8054,3.1113,1.7071,3.2026,3.4759,5.1488,4.03,1.6229,3.7493,0.4469,7.8388,3.1236,5.9601,5.9006
3.0073,1.1814,1.1723,6.0645,4.1259,6.5998,3.3974,2.1062,6.0409,4.811,8.2897,5.1012,0.62516,9.5699,6.6208,1.3221,4.8386,4.2831,2.7911,0.5822,2.3954,4.9506,3.2133,2.5832,4.4791,9.8274,4.8901,5.9857,3.2437,1.1182,2.0185,5.5107,4.4771,4.2777,6.1773,8.7299,6.3907,3.6759,5.0062,6.3451,4.5235,7.4586,6.962,5.6297,1.1204,1.8741,2.2656,6.5678,4.322,8.3533,4.1244,4.3542,3.9075,7.0622,6.5808,4.7666,3.3298,3.591,3.6168,5.8014,6.4973,7.8176,6.5482,2.1213,6.4809,4.6408,2.8927,3.9561,4.0743,4.3804,4.6727,4.0928,3.4461,6.9546,7.4035,5.5166,4.5224,7.3514,3.6048,3.7458,4.495,6.4601,4.1632,5.5252,4.1668,4.8428,0.23831,7.2981,6.4819,2.1584,7.8423,4.4999,6.3299,5.6166,5.2416,6.8315,5.372,0.80955,5.7981,3.6643,4.782
4.7219,4.9773,3.116,3.0876,2.049,6.5347,4.4623,5.2046,6.4062,1.8799,1.9238,3.9041,5.695,2.4731,2.7156,5.3718,4.9175,5.4192,5.699,6.4262,0.68017,4.5671,5.0291,0.75319,4.4608,6.4735,1.1263,4.3555,3.0781,5.7288,1.9496,1.9326,6.943,5.2645,7.0986,6.0596,5.5396,4.5164,1.5375,4.2542,4.6943,5.3149,2.3832,4.4569,7.8179,3.129,4.4874,4.6351,2.3726,5.0164,4.7054,8.846,7.1095,6.7698,6.0399,3.5611,1.7908,3.2976,5.3065,8.2156,2.198,8.1266,2.0942,5.9285,4.1181,0.23544,9.4324,1.7755,2.8067,3.3366,3.4926,4.708,4.9485,8.5904,7.2056,6.2582,2.9101,6.4876,3.8574,3.6717,5.396,1.7987,3.4138,2.5259,6.0312,3.7258,7.2424,3.184,5.5621,5.2813,5.0784,2.2657,4.3925,4.0067,3.0758,3.6377,3.2698,3.6272,2.4883,1.7477,2.9346
3.5729,6.204,2.963,7.3406,1.3852,8.0396,4.5257,5.6051,4.859,8.756,3.8239,5.1565,5.5359,3.3978,5.8369,3.398,5.9552,2.1266,4.3066,3.57,2.5748,4.3435,1.1561,0.81716,1.1977,2.5237,5.882,4.2645,6.7091,6.1768,3.1812,1.3864,4.2194,3.4532,6.6604,2.666,7.3856,4.6816,5.1103,2.704,2.0902,3.8037,4.2063,1.1822,4.3882,2.5945,5.0225,6.1547,0.30479,2.6823,3.6098,0.70753,5.9897,7.4653,2.8613,3.2415,4.5255,5.8246,5.958,9.2758,5.1275,1.7798,8.8936,2.1269,2.7245,6.0137,4.521,4.3021,4.1749,1.4297,1.5401,0.74222,5.705,2.3352,0.62365,5.1351,3.6447,1.504,4.7551,5.0599,5.1899,2.9181,3.4407,3.2812,4.4984,5.2044,7.5146,2.9078,2.8802,3.8026,6.5322,3.3498,6.057,2.6619,2.4164,7.8621,5.9182,5.3214,4.1764,2.9391,6.5607
6.3395,0.50987,1.7392,3.318,7.0505,4.8481,6.6949,2.8971,5.0214,2.8077,0.28172,4.6802,4.1387,2.5253,2.952,2.4895,5.1088,1.9629,5.2526,3.4725,3.5842,2.2934,2.3739,2.7041,2.2069,2.6366,2.7663,0.99785,0.54316,5.1596,2.096,4.5054,3.2657,5.7483,4.8245,7.0414,4.54,5.1461,3.2969,2.217,0.58582,1.297,7.6079,1.4441,5.0918,4.1976,5.4492,3.6091,3.5085,5.3296,3.4219,4.547,6.915,5.3075,2.8617,3.5035,6.9144,0.4645,4.7013,7.1768,4.083,4.4606,6.0067,8.71,5.9847,2.92,4.0714,2.6779,4.0819,2.0325,5.188,5.0233,1.3784,5.092,4.4646,6.1656,4.463,2.1608,2.2532,1.5668,4.5408,5.764,3.2029,3.408,2.9545,1.5149,3.2211,4.7187,2.3593,1.6134,1.8311,5.6654,4.6189,4.3493,5.6325,5.7878,2.7994,0.58851,1.1226,5.8752,5.0087
1.1866,3.1347,3.8324,4.1947,3.8381,2.3061,6.1558,2.9651,2.0705,0.057043,1.4214,9.4452,2.7714,6.912,2.9236,5.9935,2.7771,2.5449,4.6654,4.2773,5.3416,2.9557,5.071,2.5673,5.6008,5.2799,4.5504,1.8561,0.67635,2.7654,4.2069,0.9017,4.9812,7.1687,3.0238,3.671,1.9121,3.8434,2.2049,6.017,5.4922,4.4235,3.3983,7.2046,4.6607,5.2962,4.0504,6.5915,2.4018,4.0807,6.676,2.1778,6.4673,0.44375,3.5044,6.8018,5.0555,3.9495,4.4728,2.156,0.98159,5.164,0.13657,4.7445,0.35607,4.9599,4.5073,4.2899,3.2009,6.46,5.6391,1.5005,2.923,4.786,3.2053,6.0983,1.454,5.0035,5.4015,4.6468,4.4518,1.2601,7.2709,3.6813,1.4403,1.9904,1.083,2.0995,5.1759,3.3026,4.339,5.5682,2.6321,5.4668,3.5901,3.3699,4.6169,3.6137,2.8077,7.3431,4.0562
3.9048,3.068,0.97468,6.3217,1.9702,4.0852,3.9731,6.1178,3.3647,2.2538,2.7507,4.1317,3.4874,0.9701,5.894,2.9208,8.8187,3.8327,3.362,4.0305,4.2969,4.9382,9.0244,0.043688,1.8727,2.5178,4.4673,3.1238,4.9673,1.1295,6.1316,4.3827,4.5103,1.4449,2.6919,4.1847,2.3577,5.465,2.6134,2.3122,4.7803,2.1019,5.7678,0.88704,2.4222,7.8601,2.193,2.9452,4.408,4.5619,9.6173,6.6128,2.8657,5.1676,6.6553,3.7652,3.2586,1.3091,5.0112,3.649,5.9236,1.868,6.1288,1.5781,6.8354,4.2151,6.2068,1.0572,5.5589,2.6942,0.83825,6.3421,4.6694,3.5515,4.3105,2.9106,1.1862,0.48908,2.9394,5.1829,3.6558,4.126,2.9688,4.4765,5.4621,2.3976,1.3713,4.9304,2.596,4.3463,5.0374,5.244,4.5906,3.7062,4.1045,7.6655,3.953,3.1712,6.5973,6.1362,7.2188
5.6404,4.8508,6.4648,3.4449,3.2026,2.2032,7.1324,8.3247,5.741,2.6224,1.4316,2.0165,3.8779,1.2702,0.75656,0.84082,4.6397,4.7214,4.5881,1.7173,1.9307,2.6432,2.5291,5.4105,3.4882,2.114,4.7455,5.6689,0.41728,6.1033,1.7681,3.912,5.9616,6.142,3.0037,5.1051,3.526,3.3941,5.9995,4.23,5.6331,4.7174,2.5153,4.8359,3.4672,1.389,4.1635,3.7523,2.7493,3.9962,2.1219,7.4592,0.67048,0.77718,5.807,2.2772,2.5255,2.5284,5.5078,3.997,4.7313,0.15677,0.30823,4.1912,0.1171,7.4549,4.3883,6.3024,0.32699,4.7995,4.7181,5.9891,3.0913,1.1114,2.3733,2.7453,3.1384,3.353,4.2597,7.8475,2.1434,2.4709,7.1701,8.5547,2.3443,0.051961,4.729,2.3999,3.6167,3.5729,4.3925,1.2274,4.2269,2.9566,0.87524,3.4913,1.7366,9.3254,3.8641,3.5754,3.3201
3.448,6.0065,1.016,2.202,5.6154,4.5747,3.3037,6.2679,3.4822,5.4929,3.6677,7.1047,5.2624,4.9227,2.0333,2.8296,4.4112,4.2278,0.93941,4.2043,4.3515,0.28804,1.4671,6.4746,2.6306,1.505,2.983,6.0664,4.4956,2.6172,0.6239,2.5023,0.031961,4.9555,5.6442,5.2939,5.5899,6.0588,2.1122,2.6981,1.0172,1.8809,1.1569,3.7761,2.9551,4.5096,1.884,4.325,4.0482,0.53071,2.4182,3.8342,4.6539,1.7672,2.8594,7.0899,2.1649,4.3923,0.60098,2.7296,5.5131,1.3509,4.6296,1.4098,4.9143,4.6197,3.4369,7.1124,0.59392,4.7012,7.0868,4.2693,5.0308,3.3177,5.3634,0.23047,1.5046,1.5843,1.4786,8.2611,6.9905,2.486,4.5205,0.50402,2.3206,3.1134,4.2591,5.9812,4.8566,3.6358,6.0551,3.3209,4.929,7.5727,1.4312,3.1357,1.7963,0.66709,5.5715,2.7892,0.41209
1.6445,5.4484,4.8073,3.7962,0.58248,2.5979,1.7615,6.117,2.3291,5.1941,6.7922,6.1142,4.76,1.1419,7.9822,1.0814,2.284,3.552,4.9964,4.1006,2.0629,1.7002,0.74028,2.8614,3.038,3.3172,2.8616,4.5358,3.317,2.4725,3.0589,6.6866,3.7061,5.5919,2.8633,2.2555,6.2202,4.7413,2.4409,6.1873,3.1356,3.4574,3.4876,3.2893,4.1197,0.87468,4.6224,3.5507,1.4557,4.4483,1.6712,5.226,2.253,1.7985,4.0985,2.8934,2.5866,2.5327,5.1867,2.6504,3.3688,2.4549,3.2488,2.0909,4.5594,4.0839,5.1868,4.0626,4.2019,3.9439,6.512,3.3427,2.9022,4.1129,2.8249,1.0766,2.4561,2.5277,4.4715,4.5906,3.1888,4.0239,1.8965,3.3972,3.0047,4.8938,5.2183,2.5439,3.698,5.7956,5.6925,4.7702,5.4613,1.8203,1.2039,4.4522,3.2913,1.3384,4.9191,6.1956,4.0766
4.0182,3.7266,2.1719,3.5327,5.0935,1.3583,5.2773,5.8427,3.3332,3.2797,6.0572,4.3803,4.3255,3.2146,1.9688,2.6508,4.2752,1.7791,3.437,2.1186,0.9878,6.5416,5.12,3.109,5.6391,3.6498,4.3772,4.2971,4.0593,3.5191,3.474,2.1423,5.6974,2.9373,3.4164,1.488,3.5531,6.299,1.4148,4.8427,0.75645,4.4966,6.3697,3.7265,1.3352,6.7077,1.5316,2.2365,4.3135,4.1956,3.3511,3.9676,4.3122,3.1788,3.9912,2.8019,2.5221,2.5394,3.6421,1.6065,2.1887,3.2693,4.1631,3.1121,3.4899,2.3172,0.65047,2.3659,2.3871,6.1683,5.4093,4.4473,5.7803,3.6479,2.431,5.099,2.2264,2.0351,4.5084,2.4071,1.5464,2.0234,2.3031,0.931,2.107,4.4797,7.5416,2.3967,4.6136,6.8221,3.4649,2.7851,3.887,3.8831,1.9568,3.7071,2.3866,1.4434,3.7161,5.1752,4.6119
3.4115,4.7056,5.4005,3.1483,2.8031,4.7221,3.3928,6.858,1.0157,0.65113,1.4462,3.6645,3.301,2.9687,5.1363,3.1268,4.3612,6.4128,5.5463,2.5079,7.5064,5.2027,3.8359,1.4425,6.552,3.2022,3.1981,3.4625,3.8255,7.4934,5.9052,3.2599,6.3426,2.759,1.4389,2.5671,2.2875,3.1781,3.2814,4.9335,2.1067,5.2548,2.8426,4.3531,6.8027,3.6592,4.3342,2.1272,3.8366,1.9522,3.0914,2.1019,3.5751,1.7819,4.9906,3.8953,1.0401,0.6301,1.6844,3.3877,4.1159,1.1745,0.098467,2.4883,0.25284,2.9658,1.2733,4.2292,2.2285,3.5308,1.6268,6.6112,3.5668,2.897,0.95926,4.0362,1.3877,1.2525,2.1024,2.1801,2.2597,6.474,4.6048,5.9121,2.8976,3.1316,2.8122,6.4517,2.4531,1.9124,3.9953,1.1097,6.4124,5.2726,7.711,4.4315,3.7859,5.6949,3.658,3.3723,1.6656
1.9126,3.2566,4.5309,5.1079,2.13,2.4624,1.7122,1.0478,3.8572,2.7799,5.7599,2.5379,4.9176,2.3912,4.1475,5.5675,2.9856,3.721,2.4646,3.6886,3.5252,6.3547,3.945,3.3211,4.276,0.96729,2.4711,4.2295,2.8994,4.6424,0.82918,1.0219,4.1001,2.8811,1.9031,0.44409,2.1895,3.9709,3.1868,0.94356,2.9642,8.679,3.7311,4.0506,6.2598,4.0281,3.3418,3.4563,3.9061,5.2765,3.8726,5.4612,3.1246,4.8323,2.3763,4.8793,1.1816,2.4956,2.4014,6.6126,1.4776,1.0628,3.8101,1.1221,1.4096,4.1786,3.8399,5.7694,4.018,5.9412,4.7819,6.2933,3.5595,2.1443,2.8651,3.6709,2.4717,4.2917,3.7702,6.8728,0.99576,3.3377,2.6614,5.6338,4.305,4.7951,3.1209,4.9885,6.1038,2.0618,1.6787,3.4524,2.0689,5.5683,2.8235,1.312,3.4721,1.8915,0.65573,4.0476,2.2953
3.9229,5.3496,3.1595,2.0986,3.8387,4.8305,3.9956,3.169,3.1157,1.4151,3.0012,3.1686,4.3273,4.6505,3.6285,1.784,0.74777,3.4056,2.8567,3.5137,4.3586,3.8013,3.0786,2.5273,4.3128,3.6385,1.9519,3.2632,1.5225,1.8406,5.9947,1.0436,8.0138,3.4129,3.9555,5.6864,6.4121,5.1511,1.3572,2.7522,4.0286,1.6831,2.0896,2.307,2.9747,2.0701,4.3218,3.4114,5.729,1.8829,4.9841,4.2124,4.3999,3.0778,3.0931,0.83807,5.3546,2.8997,3.9544,4.5829,2.7907,3.5398,2.4582,5.3502,1.605,5.5854,5.1171,5.8983,3.7582,5.8459,3.134,2.9567,2.4771,4.0608,2.4951,3.1366,2.7862,2.8581,2.8179,0.1663,3.8223,4.5742,1.9863,4.4875,4.0125,3.2643,6.4037,4.6315,3.186,4.5047,4.4121,6.2748,0.73959,4.5547,3.6089,1.6141,0.25591,1.6379,3.0696,3.9776,4.4553
2.5977,2.7508,4.3626,4.6401,5.2997,1.0149,3.6708,5.0313,1.5692,2.6462,2.3513,3.0423,2.3568,4.509,0.40541,6.7562,0.73703,4.9558,5.2201,2.8658,3.4819,2.3638,4.558,3.7319,3.5727,4.6908,3.011,5.2985,3.1205,4.3953,3.2984,4.0778,3.4841,4.209,2.4158,5.2928,2.5615,3.8158,1.1423,5.617,4.6665,2.6288,1.5859,2.4903,3.8413,3.9249,4.3625,2.1814,3.236,2.8639,2.0668,4.6499,3.8024,2.558,2.4527,3.112,1.9257,1.5723,3.0371,2.4609,2.6435,3.9574,6.2813,1.7114,6.4896,3.4013,1.9591,4.3169,3.8593,2.199,3.3871,0.61276,3.7028,1.2357,4.2908,4.2341,4.9726,4.3108,4.5337,2.6679,7.1465,3.6382,3.8725,5.5083,1.3066,8.5526,0.99951,5.6994,5.5367,1.9748,1.537,3.4466,3.9884,3.7235,2.3248,3.0583,6.3448,3.9257,2.7869,3.1954,4.8637
2.5263,4.5533,1.6736,1.8354,1.6778,5.5935,5.2602,1.8811,4.0099,5.4629,1.5821,1.3659,2.3562,4.7984,3.5866,2.8028,5.0182,1.1583,1.2424,3.117,3.7386,3.6349,1.426,2.3654,2.6371,3.4168,3.3512,3.4698,1.7738,4.0709,4.9273,2.7348,2.4792,3.9705,1.6316,6.137,1.7008,3.1232,1.7082,2.2952,2.81,4.8792,2.3637,3.0274,2.8013,5.1913,4.0757,3.2205,0.52365,3.1346,2.9551,3.0361,4.1666,3.1102,4.2968,6.1028,4.3052,2.8717,1.841,6.3183,2.4135,4.9261,4.586,4.271,3.7686,2.0853,4.435,2.8821,3.1185,3.027,2.289,0.99229,2.3489,5.2575,6.6036,3.0137,4.1958,3.8448,0.17886,3.4144,1.4826,0.28887,1.8526,6.0365,3.2441,1.1972,4.3416,3.9474,2.5405,4.0662,2.5846,0.84561,0.87493,2.844,1.4009,2.1634,3.177,3.3382,0.33471,3.6339,2.9204
4.125,4.4912,0.72409,4.1087,3.2811,5.2642,3.3345,1.7265,1.2406,0.91286,3.276,0.67217,0.58161,3.2538,6.3134,1.503,0.23924,1.4717,3.9463,2.7076,3.0454,4.1838,5.5472,2.2605,1.7409,1.8287,0.74284,5.0909,4.1993,3.1658,4.245,0.62739,2.7373,2.3616,4.3074,5.577,1.4921,4.8902,3.1056,5.2262,4.7167,1.3902,6.329,0.51184,3.3804,5.7512,0.39773,2.4281,2.3363,3.2851,4.0193,2.5141,3.7683,6.7799,5.7037,6.0091,3.9566,1.8112,3.6513,4.1855,4.8008,4.3221,1.9651,0.76804,0.64745,2.0577,3.8866,5.6918,2.8437,4.6092,0.88309,5.3293,3.1412,5.1634,4.1127,1.8876,1.3192,2.8087,2.749,2.3224,4.594,2.9866,4.2027,4.3274,3.4777,1.4717,4.0032,2.2692,0.49307,4.6969,7.25,1.6223,3.0357,5.145,2.5801,4.8247,8.8829,8.579,4.7708,4.1196,2.0153
2.7662,3.2388,3.1011,5.7717,3.1243,5.6769,4.2525,4.3168,0.52687,4.2936,4.0587,1.7364,3.589,3.7109,3.878,4.1714,4.9371,3.0716,3.8633,2.9519,4.6222,1.9106,4.7371,0.85187,4.4483,2.6963,3.462,2.3469,2.7163,3.4755,4.4202,4.4502,3.5363,5.0819,3.5742,5.0232,6.1835,0.91426,1.0015,5.0731,2.6739,3.7508,5.6139,1.8397,1.2676,3.0884,3.2562,3.829,3.7979,0.49212,2.5851,2.5213,0.68111,4.2557,1.0484,3.3493,3.4382,4.4433,4.8892,2.188,1.2547,4.2767,2.8568,3.032,5.0383,6.0615,1.4346,2.0954,3.0789,4.0831,5.2323,3.9058,2.1995,4.6503,3.9295,2.656,3.9504,3.279,6.0567,2.5039,5.1035,4.9654,2.0205,4.0987,4.4723,5.7378,0.71276,1.5527,3.2091,0.31899,4.1321,1.854,8.0753,4.3234,4.3289,2.6596,2.3979,4.329,4.9545,5.4329,5.289
4.7092,2.8192,2.8169,1.374,2.6337,3.5251,0.50782,2.1703,2.1716,3.0196,2.3081,2.3146,0.64726,0.90107,0.67147,3.3827,3.5924,0.9607,2.2364,3.7799,3.2148,4.3166,0.57303,1.7513,0.57582,3.0126,1.483,4.1504,0.0034997,2.9975,1.3233,2.728,3.5345,3.4229,3.6604,4.2134,1.5106,4.5797,1.9099,1.4271,3.1774,3.9721,3.6431,3.3647,3.8617,2.3359,4.022,3.9136,0.22213,1.8816,4.4579,2.2495,1.8192,2.4265,4.4313,0.73585,4.1819,4.2142,3.7236,1.7597,0.95133,4.4011,3.5549,3.0677,3.1671,3.551,3.4798,4.8859,3.982,3.009,4.5172,6.0692,3.2876,4.5333,1.0155,4.8048,1.9011,2.2911,4.0183,2.1724,0.5181,3.785,2.0186,2.2991,1.042,6.0381,2.4521,1.4968,3.2983,0.20243,1.9778,3.0285,6.3958,3.3664,3.3912,4.178,4.6196,1.9554,3.4648,3.6638,0.94598
2.5198,3.1347,1.3779,4.923,1.9293,1.7348,3.9233,4.9931,3.0869,1.0321,4.5308,1.5305,1.1303,5.3658,6.231,3.1506,2.9449,4.0432,2.3733,1.4867,1.9181,2.0007,2.5832,0.96486,3.1396,3.2554,4.169,1.9514,5.4446,2.2368,3.6872,2.0264,5.6425,1.9941,4.3408,2.1951,4.3689,4.6132,2.5236,2.2325,1.8515,2.4717,2.0679,2.3371,3.2772,1.533,1.7146,1.7767,2.7237,1.4233,0.71089,5.3683,1.8593,3.6952,0.8328,6.0919,2.8059,4.7364,4.0788,2.7765,3.3163,1.7513,2.9792,4.2201,1.8959,1.8385,2.4483,4.0607,1.1449,1.0347,2.3045,2.348,3.9433,4.5902,1.0088,0.16649,0.78875,0.63656,2.6442,2.1012,5.4716,4.0234,2.7469,0.72114,3.0527,3.369,3.5331,2.1763,1.1172,5.4097,1.8724,2.863,3.9489,2.8345,1.5083,5.5227,3.5762,5.3059,2.5668,2.6015,1.7589
6.7335,5.3978,2.6665,2.3022,1.371,5.2579,0.071304,1.2925,1.9984,0.92404,0.70762,3.8886,2.6063,1.9193,2.2982,2.545,1.1562,2.373,1.3023,4.0557,3.5287,2.1488,3.2679,1.3164,1.7141,1.6968,3.0631,2.8097,1.1044,1.9165,2.3664,1.8745,3.8011,4.8593,4.383,3.3599,4.5074,4.6725,3.6368,6.0137,2.3044,3.2957,1.9707,1.6728,1.1051,1.4653,0.60406,2.2246,1.5548,5.2902,3.5925,4.6495,1.8403,0.11842,3.5978,4.7426,3.2027,3.3879,1.4046,2.4749,2.5594,2.3404,3.9311,1.4463,2.1898,1.9833,3.4062,4.7987,5.6521,6.1721,1.0643,1.5154,5.9254,3.3408,1.8096,5.0331,0.15835,1.9561,1.1746,4.5675,5.9497,3.9454,5.1913,5.3009,3.8707,1.8827,4.2193,3.266,0.87391,1.8001,5.1893,0.82021,3.2557,1.4655,3.6454,1.0978,0.64846,3.0873,1.2597,4.8814,3.5813
2.0984,2.0897,2.6372,6.2123,3.1557,0.98544,3.1997,3.8416,0.49915,3.5126,4.9811,3.0261,2.1647,1.0018,2.7686,1.0074,2.1133,1.9758,2.5773,3.4128,1.968,2.7678,4.2874,1.0392,2.197,2.9311,4.1123,1.3493,2.698,1.6968,0.88332,2.5951,2.3765,2.588,0.97547,1.8162,3.1971,3.7859,2.2138,5.8967,0.99842,0.47015,5.3177,1.1434,2.3463,1.039,0.74254,1.3942,2.389,1.9249,4.0672,1.9725,4.722,1.3145,0.11353,3.1348,4.8054,2.2751,4.667,2.2577,1.6235,0.6367,4.3988,0.5432,2.1228,1.3847,1.3946,2.1922,2.8879,3.0389,1.2786,3.2096,3.4934,2.4259,2.2841,0.68427,3.16,5.3363,3.8749,2.467,3.5936,2.9559,3.5877,2.8552,2.6699,5.2445,2.855,3.6945,3.9219,4.8162,2.4008,3.6783,2.7612,1.8675,2.4878,3.6389,1.4371,5.2338,5.7235,1.4666,2.0892
3.3315,3.237,4.8172,2.4739,5.1539,1.2453,2.7181,3.1093,1.0331,2.684,2.1621,3.9688,3.4668,5.5715,4.1915,2.7544,2.3779,1.3521,6.4342,2.7131,3.1932,3.2253,2.4078,5.9539,3.1666,1.3107,2.2231,5.1532,2.8385,2.8762,2.0454,0.13513,1.4474,1.1944,2.7038,2.8392,2.2957,3.765,2.0296,2.966,1.1927,1.0079,2.1165,3.9154,2.9012,3.0678,1.4462,1.4824,3.5105,3.3052,0.45537,0.17554,4.2235,2.5445,2.3307,3.1983,2.4164,2.9313,3.3419,2.6125,2.528,3.2385,3.08,0.58867,2.801,0.98067,2.0189,2.7587,4.1261,3.3367,3.0179,0.29887,2.7675,4.4759,3.3324,2.0983,3.2296,3.8107,2.9158,4.1313,3.3721,1.8714,3.1128,2.5565,3.1332,3.1323,3.2715,2.7704,2.3985,5.0801,1.1015,1.4297,3.9299,1.6773,0.9812,3.6206,2.1802,0.78402,5.2403,2.0954,1.3434
0.37302,2.007,4.9929,3.523,0.89213,2.204,3.8931,5.0008,2.3188,1.2255,2.9833,0.72714,3.9253,1.0245,1.5372,1.0122,2.9348,4.4288,4.287,1.9582,2.5112,2.5017,2.8698,2.8112,1.6978,2.1442,1.4237,1.4366,4.0068,0.60451,1.9516,0.64612,3.5492,0.79474,0.47452,3.3919,5.9179,1.6083,3.8361,5.0881,4.457,5.0894,1.5716,4.1776,2.1365,0.16513,1.9589,3.0882,5.4405,3.9513,2.9258,4.0885,1.7073,0.44227,1.4328,0.6412,4.0859,2.3098,0.63393,2.1955,1.1812,2.0255,4.7881,4.8948,1.3426,1.93,3.1988,2.7062,1.7128,4.1494,0.26982,6.5715,1.9561,3.1626,1.4028,0.90307,4.3267,2.5861,2.8918,2.7247,3.6313,5.2889,3.5822,3.6174,4.4936,3.9529,0.6974,2.1051,3.4491,5.5479,5.0356,3.9884,1.0346,1.3535,2.8106,2.3154,3.904,4.6134,2.1259,2.4109,4.2652
3.2304,1.1891,1.2821,0.38185,2.1778,2.6688,4.6498,3.5708,4.2873,1.2798,2.9677,5.0294,1.446,3.5191,4.4611,0.83082,3.2283,1.0396,1.7176,1.4173,1.6748,1.9778,1.1492,1.4766,3.2486,5.0836,0.043188,2.0357,2.9987,3.2226,3.9576,2.6687,3.5104,3.872,1.6005,1.9643,1.5482,2.2049,0.99509,4.327,0.55938,1.8644,4.5381,3.0673,1.8948,1.7935,3.0701,3.8792,3.5889,5.1869,0.87944,2.18,3.1043,3.6149,2.5912,5.3201,0.50235,3.9319,2.1933,2.3396,1.5047,3.3553,2.2159,0.7858,1.9721,2.4357,2.2549,3.1604,3.093,1.2252,2.2836,3.2066,3.5374,3.3096,1.8655,4.7271,1.1926,0.15382,3.1301,3.9756,3.9854,3.2822,3.8353,2.7106,4.9195,4.5854,2.6077,3.6905,4.2045,4.8163,2.2548,4.4364,4.1782,3.9929,4.3461,2.2942,3.4347,4.1746,1.7689,0.45266,3.4963
