32.945,40.045,17.628,34.722,31.746,22.837,27.625,31.877,49.6,45.169,22.606,46.623,33.973,29.655,33.915,28.877,29.32,38.159,37.718,37.762,33.678,23.386,33.928,38.929,32.678,35.667,33.981,28.338,31.61,25.688,34.866,23.717,24.146,25.566,13.873,37.878,31.781,25.865,37.505,20.626,29.44,28.678,31.748,31.714,25.263,29.835,29.097,33.438,35.988,36.076,25.27,30.424,23.35,23.901,29.962,38.395,25.784,32.034,28.764,36.12,24.035,30.178,33.026,36.028,38.458,30.471,21.83,25.934,24.185,42.874,26.628,34.097,28.946,34.867,25.811,22.319,22.209,32.674,29.028,28.926,37.774,31.597,31.083,38.696,25.594,33.816,34.574,28.665,31.181,23.614,23.712,30.574,33.956,44.161,26.347,31.026,29.548,19.412,27.596,20.17,34.603
22.518,27.667,24.308,28.726,24.017,29.698,30.997,36.064,26.134,16.004,22.771,34.203,21.559,32.152,27.791,34.63,16.929,26.115,20.852,42.296,31.445,34.33,21.632,24.704,25.726,32.868,25.697,30.8,16.455,25.302,22.854,18.929,29.792,28.614,27.32,20.197,33.019,28.97,25.587,27.264,25.78,18.026,25.657,22.814,22.043,21.12,24.365,16.711,32.169,29.855,27.041,26.964,22.987,32.453,26.451,23.422,34.186,25.974,24.076,25.615,22.727,21.309,40.306,35.77,28.747,20.595,22.636,26.225,31.268,20.205,15.006,19.595,28.883,29.184,29.498,26.466,28.102,24.664,31.636,20.051,29.516,22.723,25.4,30.025,32.559,21.322,33.713,30.585,26.792,26.128,26.011,25.566,27.265,27.412,31.449,35.101,29.578,26.052,30.402,28.1,21.78
29.266,26.084,25.232,27.115,25.857,19.896,23.757,23.838,21.925,32.898,20.222,22.164,21.033,18.743,23.609,23.204,32.145,23.328,19.288,32.509,30.681,23.424,17.097,22.358,23.789,25.93,23.268,26.76,26.504,18.364,19.864,20.889,22.045,22.973,24.624,9.5493,22.297,30.719,19.275,29.189,26.298,24.418,25.466,16.806,24.143,32.511,25.049,24.767,20.923,24.409,25.713,26.675,22.714,23.39,34.591,13.37,35.611,26.235,29.518,16.314,21.638,23.184,26.657,16.284,26.899,18.551,24.89,27.795,26.183,29.927,29.548,21.336,25.836,19.882,18.011,29.145,24.562,24.29,29.077,27.509,26.298,30.758,29.17,25.75,21.14,21.333,30.47,16.574,24.441,14.903,29.62,28.833,24.568,24.211,12.24,27.442,13.696,13.068,24.958,19.861,26.601
25.416,26.268,18.966,24.343,22.699,26.119,24.752,26.457,21.603,21.531,26.975,12.213,19.846,16.235,20.421,25.283,26.117,17.44,20.004,22.871,20.849,23.647,24.11,17.84,21.391,12.173,27.624,19.259,16.549,21.027,15.489,22.126,19.581,32.491,27.592,10.453,24.305,15.633,21.022,23,25.75,20.937,29.656,19.957,23.769,25.358,22.626,26.378,23.748,18.528,13.713,30.986,19.375,22.712,24.879,22.76,17.959,20.02,21.636,29.197,18.166,25.924,23.679,21.122,17.242,20.885,21.816,15.297,23.131,18.348,21.78,23.81,17.96,20.866,23.875,13.57,27.108,33.654,26.747,20.736,24.245,17.341,31.077,26.659,25.936,18.095,23.733,19.593,20.756,19.537,17.389,17.94,21.235,14.216,25.089,21.669,25.521,23.496,24.555,15.233,17.415
18.105,20.601,25.171,18.809,25.767,22.242,25.375,20.679,17.164,13.466,20.807,23.78,18.798,17.685,18.726,15.192,17.899,19.299,20.315,19.824,22.851,20.6,28.244,21.509,28.202,16.867,22.471,18.943,22.801,22.773,10.307,14.159,13.648,21.912,26.703,18.644,23.752,22.556,15.394,21.892,16.738,26.909,19.964,27.446,18.203,22.753,19.828,11.042,15.705,22.856,19.863,15.093,17.301,21.229,15.657,24.482,17.236,28.221,15.267,21.003,13.289,16.865,17.449,21.909,24.334,21.457,18.437,23.767,23.692,20.649,22.671,21.961,15.684,23.516,17.162,17.401,20.903,18.731,19.518,22.779,24.804,19.222,21.579,19.041,21.139,22.083,17.343,21.342,22.805,20.524,27.867,17.381,16.804,12.262,24.193,23.998,19.751,24.139,20.933,21.414,20.616
20.073,18.63,30.086,13.219,10.286,13.33,13.532,16.346,17.477,17.264,20.505,19.856,21.4,25.781,23.413,12.722,8.2614,22.043,10.366,18.481,18.347,27.696,17.901,16.032,19.202,19.244,18.495,15.6,12.981,19.546,12.468,13.793,23.874,16.409,17.597,22.034,16.916,22.587,16.724,22.516,20.88,17.287,14.503,13.746,17.044,16.327,16.453,22.391,16.926,23.074,15.928,22.345,15.968,18.949,22.337,16.43,16.326,26.742,22.253,16.353,20.964,16.66,21.207,24.235,11.352,22.585,24.415,18.398,25.645,18.859,12.919,8.8392,16.774,21.24,19.55,19.96,15.734,18.81,11.206,14.954,14.703,20.413,18.136,13.267,18.155,15.253,15.352,21.882,18.68,19.895,21.967,18.965,20.546,21.109,23.189,20.226,24.22,18.292,17.992,25.453,16.022
16.453,20.197,17.072,22.165,20.66,17.647,13.309,18.764,10.854,17.456,19.745,17.329,20.034,24.737,20.213,17.547,19.068,18.191,11.13,14.775,21.434,16.288,18.828,12.38,16.726,18.9,10.94,17.875,15.726,12.652,16.312,8.7698,7.8298,11.689,12.445,11.705,9.4632,17.634,9.9957,16.912,19.658,16.455,16.842,14.93,10.448,16.287,20.363,23.518,14.719,9.8613,17.139,17.991,15.543,11.802,24.678,6.8903,14.395,11.102,13.883,17.754,17.024,13.58,19.617,18.99,19.091,14.737,20.719,19.145,26.644,20.779,21.159,16.679,11.237,14.958,13.39,14.176,18.717,14.205,12.832,14.803,15.812,18.125,12.599,17.752,16.781,21.838,15.599,15.919,11.711,10.843,17.724,15.452,18.508,12.842,24.208,16.96,20.713,15.544,15.805,19.264,18.719
10.574,8.9818,10.66,9.433,15.127,13.31,13.477,9.6446,17.906,16.594,14.552,18.839,11.524,16.498,16.242,16.246,12.083,16.159,12.91,11.438,10.253,18.903,11.632,14.23,10.232,13.751,2.4227,10.702,9.3919,10.982,14.074,13.642,22.402,12.691,13.933,8.8404,13.055,9.7333,15.015,18.19,16.458,12.193,8.6041,20.533,22.81,15.363,11.077,19.521,12.61,13.084,18.319,9.551,7.345,16.521,16.444,15.265,16.815,19.075,18.643,12.703,18.024,15.566,12.946,10.292,17.395,13.533,15.077,11.837,8.913,15.56,14.658,19.525,17.992,18.963,12.007,11.284,9.9992,16.82,25.663,17.706,11.914,18.127,10.543,9.3995,17.667,11.895,16.117,20.326,16.446,18.486,8.6996,17.451,23.152,16.986,8.9502,14.113,12.968,16.376,16.488,16.463,13.493
11.28,11.315,16.614,6.6766,12.719,14.473,11.083,15.232,13.218,10.035,14.072,12.495,11.975,10.868,13.705,6.7018,12.017,11.484,10.132,15.876,10.784,15.465,17.063,12.904,14.5,15.828,13.183,15.466,8.8444,17.557,9.8467,6.7653,18.563,13.25,15.128,12.146,9.7328,2.1974,15.779,12.427,12.755,14.969,8.2687,10.802,17.692,15.675,8.7757,5.3906,11.383,14.266,16.94,13.824,9.3593,14.604,9.1756,9.9517,11.08,8.9662,12.485,10.176,12.431,11.782,11.975,11.631,18.008,15.721,13.697,8.094,7.5107,6.2663,23.045,17.05,14.423,9.903,9.271,15.491,19.226,7.2628,11.83,13.17,6.1663,16.568,11.957,20.5,12.045,14.982,9.2855,11.186,9.1889,14.921,18.26,11.3,15.082,11.628,13.855,17.872,13.921,9.6731,10.333,12.856,12.776
9.1733,12.828,16.62,11.32,11.483,4.5084,9.4922,7.3312,10.848,14.033,17.517,18.478,11.789,11.079,15.052,13.909,14.87,14.915,7.0272,14.084,11.877,9.542,9.7748,16.672,9.3691,7.8776,12.947,19.22,12.286,13.274,8.9203,18.044,12.634,14.048,8.8721,15.18,13.556,8.1598,12.336,10.623,12.579,11.322,11.534,8.5897,11.068,14.874,18.29,8.1441,20.5,17.527,12.786,11.145,9.7571,15.105,9.7712,10.584,15.283,13.72,15.329,13.96,10.797,10.403,14.978,9.853,16.341,14.959,13.202,12.208,13.474,24.514,11.804,6.7608,18.885,14.327,9.9343,21.338,14.121,13.225,9.4805,8.4779,6.021,10.72,8.5192,14.459,11.088,18.375,17.473,12.77,11.21,16.221,8.193,14.55,9.8603,10.799,9.8509,14.207,9.4797,8.4827,14.128,10.718,13.46
9.8674,11.932,2.517,12.584,17.194,14.489,14.062,10.24,11.638,11.848,11.357,8.2775,9.8662,10.456,9.4396,13.816,19.469,6.6401,11.463,6.2446,15.363,15.72,5.5132,17.494,7.4329,11.79,14.687,11.525,18.663,20.181,11.496,4.7009,9.8238,8.2189,8.4958,7.2901,11.296,18.035,8.6583,10.104,14.912,15.066,12.649,14.445,13.929,9.7681,12.461,10.043,8.0469,13.145,11.26,10.415,12.006,14.318,12.342,11.683,11.966,11.207,8.4635,13.65,15.717,9.2621,17.441,10.451,10.227,8.0545,8.4042,7.8705,12.212,16.342,12.789,13.874,15.494,2.7327,10.48,12.209,13.419,6.7015,7.6948,13.663,10.649,12.874,7.845,5.6087,13.565,15.001,16.458,5.9463,6.5952,6.1401,10.898,8.9916,15.402,6.2025,5.2481,11.718,14.999,8.3693,6.8318,10.54,5.5999
10.041,12.604,10.674,3.9528,8.2897,9.0317,15.717,12.877,9.8058,14.124,6.6847,8.8856,14.45,14.734,12.294,11.537,8.1339,12.34,7.3691,11.802,10.877,13.586,8.6404,11.996,12.493,7.1472,10.48,15.034,10.341,9.0109,11.429,9.1168,11.387,9.5603,9.9282,11.442,14.291,11.414,15.195,3.5763,8.5664,10.732,7.3469,5.954,11.936,11.922,10.901,11.235,7.2351,8.4134,9.649,7.8125,11.035,17.46,8.4622,12.032,6.7173,14.219,6.9236,10.646,8.0313,11.604,10.022,9.8471,19.306,7.9951,9.838,18.465,6.3625,11.734,6.5844,13.243,11.021,12.047,9.1049,10.761,14.639,2.7966,4.8248,11.299,7.917,9.0496,5.2557,7.1268,8.7089,7.6925,7.248,8.6531,7.0072,14.227,6.8626,15.731,8.8029,5.3985,8.031,12.939,13.323,10.492,10.894,11.986,5.3754
7.2872,3.5345,7.6858,11.889,11.192,15.913,9.537,2.5535,14.114,12.89,7.2845,9.705,11.379,10.192,11.129,8.697,8.9191,9.3006,6.6621,13.313,9.0549,11.099,6.4659,5.8037,8.7624,8.276,12.627,10.858,10.661,4.6924,6.127,9.6432,7.9901,12.914,13.067,7.29,11.666,13.231,10.001,13.916,12.229,9.6794,11.671,9.6202,7.7887,10.113,9.1447,7.9398,14.359,9.701,17.243,8.1456,10.732,13.793,17.24,9.9483,6.6603,11.451,5.0682,8.2127,9.853,13.513,13.356,8.953,11.813,8.0701,11.023,14.793,9.507,8.1324,7.5327,11.19,13.056,15.426,9.1983,9.5259,7.1339,13.881,8.809,7.6133,15.602,11.47,11.189,6.0131,10.34,10.599,5.7526,8.3571,7.8186,10.623,6.0089,12.309,14.401,8.1228,9.0097,10.559,12.653,10.605,10.229,7.5845,8.34
9.9298,12.988,9.8012,4.7275,9.4142,7.9125,7.4781,7.5492,5.6604,7.2587,5.933,7.1324,8.5113,8.6745,7.5593,7.7396,8.2723,9.4863,11.841,9.949,7.3562,9.8859,7.4739,3.0842,1.4643,3.2762,7.4979,6.4042,6.1168,8.2922,6.2917,6.3731,9.9191,10.413,15.143,9.0406,8.3427,6.5343,7.6178,8.0315,3.1556,7.4401,10.319,6.5439,9.5891,11.011,11.256,10.397,1.7143,6.5622,10.754,9.3045,8.1898,9.4253,11.407,8.6156,6.0068,7.6608,7.5818,10.74,9.3549,9.7415,8.5987,7.1401,8.3508,8.7956,4.1782,8.6874,10.828,7.8609,12.672,9.7786,6.974,7.7358,7.3891,8.8654,10.334,7.3413,9.4868,13.195,10.839,10.536,5.8461,6.6485,8.8695,7.8882,3.5294,3.8457,11.11,6.0082,14.119,1.8225,9.4591,8.1777,6.0136,9.3321,5.906,10.634,8.3672,3.4884,1.2427
6.6259,10.514,7.8907,7.5455,9.2685,3.608,11.275,4.9667,7.5006,6.409,7.8047,2.109,11.543,8.8825,12.865,11.251,7.4291,4.8438,2.6682,7.4441,7.994,10.242,4.8113,9.5597,7.5922,5.2936,9.5036,8.1205,6.7584,12.504,9.055,7.098,8.1526,7.6347,7.8701,8.6316,5.7564,5.2301,8.3788,12.525,6.5634,4.6434,6.7491,6.0814,6.5076,8.6913,7.0443,5.7813,6.1909,3.8007,5.0601,3.5547,5.9945,4.4465,5.4745,6.5774,4.1328,7.3452,8.3237,4.778,10.428,3.0838,6.3323,3.3597,6.4606,3.797,5.8344,5.3833,4.1748,1.7817,8.9348,12.838,13.445,6.0592,7.2728,6.1311,7.6045,4.8989,2.1771,7.2988,4.0657,2.2235,13.856,6.7632,8.4964,10.641,2.8155,8.5216,8.7626,7.6238,7.8271,5.962,9.3646,5.0861,5.2318,9.3708,11.985,6.347,6.0241,8.5078,10.315
9.1983,7.3928,5.0525,8.3233,6.4889,10.256,3.0505,7.0593,10.031,5.4134,5.0773,4.2784,5.9728,6.1751,7.0477,4.4085,6.9075,5.1315,5.7399,4.5253,5.9631,15.93,15.51,9.6613,8.7307,3.387,5.1814,5.0913,8.0789,7.9435,6.9746,5.8135,4.2985,6.7077,9.6412,7.7996,7.1623,8.395,8.2055,2.5117,6.7425,5.5918,1.4314,3.2566,5.8663,8.8295,6.1007,7.3724,4.3706,1.1124,6.9369,4.233,9.7277,11.183,5.7322,9.7802,9.1612,3.0328,6.6076,7.3695,8.047,8.4449,8.4387,8.4491,5.8852,7.6751,0.86508,3.6711,9.8037,4.9844,7.5414,10.596,4.3941,4.212,5.4191,7.835,6.1641,4.1641,2.6243,5.7359,6.1217,5.3092,6.0161,3.8598,8.1149,1.0676,7.0681,8.4249,4.4978,6.5462,7.4488,5.1037,6.6586,7.7601,4.2693,8.8547,9.5258,7.5249,6.733,3.6811,7.9742
3.0646,9.9719,7.3526,6.7086,5.0882,0.70083,3.1143,6.956,11.994,7.8787,6.8192,4.723,6.3578,8.4251,5.4318,10.713,3.0538,5.1309,6.1859,1.2481,7.4484,6.2484,6.2555,8.0127,8.6255,8.0311,4.9031,5.9422,6.9268,2.9638,3.5071,5.0061,6.248,10.465,8.019,4.9679,4.5087,9.8317,12.784,6.469,4.8784,2.5802,8.4564,6.7699,8.9251,3.8205,6.649,4.4472,9.1947,4.7004,5.8418,5.2009,8.5031,7.1113,3.5855,4.4998,3.4833,7.3015,6.8739,2.032,1.364,5.9575,7.7727,6.4723,2.2575,2.2378,8.1908,5.6991,5.1063,9.2962,4.0967,6.3902,7.0851,8.0747,3.9543,6.9363,12.821,2.3333,7.125,5.4914,4.0214,4.0093,7.2823,11.756,4.1032,7.3882,4.681,10.921,7.3973,5.7175,7.5825,6.0432,8.7818,5.6001,3.297,6.6634,9.8987,3.1119,5.4605,8.5299,1.3313
6.9447,7.2432,5.9803,3.6774,5.4638,5.6987,7.67,7.0338,4.6606,9.2727,5.3615,3.5779,4.4541,7.4906,5.9375,7.5614,5.6426,11.302,1.5812,4.5068,5.2833,5.6894,8.8894,5.9943,5.2116,5.6411,7.2398,3.8665,6.5359,1.8167,5.296,3.2757,3.9521,6.1419,2.8466,3.1653,1.9318,0.26346,5.1258,8.2025,5.0546,4.9328,3.0301,9.1871,4.8966,8.5099,6.3279,4.8647,8.0139,7.7804,5.2196,8.5144,9.6506,5.3269,4.8819,6.4278,6.304,7.3709,4.8822,7.1546,7.9353,5.8962,5.8394,2.5441,2.7349,2.0592,2.5676,5.1174,1.6999,10.739,7.2112,0.64005,2.7776,5.2296,1.4706,4.4039,8.0346,5.0969,5.3231,3.1357,4.1797,2.3164,6.3331,4.4219,7.3144,8.3769,8.0023,5.3989,4.3006,2.615,5.7579,7.7267,4.6824,5.0748,6.9233,7.503,2.1634,5.9486,5.9389,5.1267,7.5706
4.148,3.1191,5.5736,5.9829,4.4746,6.7318,1.5785,2.5653,6.1201,2.7521,4.3953,7.2065,5.0726,3.9782,3.0695,4.4237,6.3016,1.5825,4.8068,6.7013,1.7952,6.4496,6.4804,2.9946,1.6086,5.9235,6.7589,6.2482,6.6577,2.3265,6.2591,3.6674,3.7089,1.4942,7.409,5.3488,7.1939,8.3238,2.4265,6.3909,4.9306,6.9949,7.4257,6.7861,3.1382,4.6773,5.5472,11.993,7.6905,10.127,5.882,5.4307,6.3244,3.7837,7.7239,4.6079,1.9001,6.8982,1.466,0.85205,5.6012,2.8414,2.9309,4.5983,3.8702,4.4629,5.5648,2.3568,2.2328,0.28369,4.0899,6.4382,3.3951,6.0754,6.1622,7.1652,7.1622,3.425,3.0509,5.0667,3.4784,8.194,8.0317,5.1708,4.0078,6.0965,3.4975,4.6806,3.7777,5.1941,7.4717,6.6124,7.5056,2.922,5.3594,2.7692,5.8159,5.6843,7.8457,7.4068,6.4136
3.4172,3.4788,0.1413,3.5374,1.2012,6.4567,6.3976,4.78,3.6855,4.7901,7.887,7.3448,3.5371,4.8438,2.1135,5.3359,6.0526,6.3936,1.2435,5.556,2.6564,3.6894,6.1563,5.1187,4.1402,5.7723,7.9494,3.1663,1.6272,2.0251,2.4868,3.0653,5.7086,0.068839,4.9869,2.8382,6.8162,2.6747,4.5031,2.501,3.0433,3.936,4.0024,3.3754,6.8771,5.6524,8.4168,3.8997,6.7465,0.040308,5.8395,5.2739,3.6944,5.96,6.3461,6.6765,5.3763,5.7603,3.0593,2.1672,3.9202,4.8822,6.5014,2.8125,3.4502,10.788,3.1683,8.5548,6.523,3.3055,4.2613,4.0313,5.49,7.3799,1.0178,8.7739,6.1346,3.3243,4.2201,5.1217,5.1144,7.0306,6.7963,3.7272,4.2118,6.0413,4.742,6.8941,3.0323,5.4862,5.0978,7.4354,1.6369,4.4886,4.6004,7.1309,10.438,3.9952,5.0951,3.5029,5.3011
3.2947,3.855,7.3206,2.3529,2.8997,3.9071,3.7931,6.9602,8.153,2.089,2.7684,5.1088,3.293,8.0756,7.3563,5.1865,5.1958,3.3782,5.5988,6.3318,4.3453,7.9452,5.4114,3.8382,4.8075,6.2697,3.2578,3.8879,8.8421,3.1051,5.9669,5.7086,7.2618,5.12,2.3422,5.0912,4.5795,8.0143,6.8937,5.0612,4.227,0.93994,7.8142,4.3301,0.94493,4.9331,4.2675,2.9108,5.0536,2.6344,1.3438,0.52521,3.327,2.7965,4.9469,1.0323,3.6405,1.0273,7.7066,3.8244,6.5308,5.0573,5.8908,1.7344,6.594,6.9869,3.7044,2.7461,4.3755,2.3469,4.6223,5.2632,4.5532,3.8216,1.462,4.176,3.0104,1.4829,3.9468,3.6376,4.4471,6.0596,5.2212,6.6912,2.5905,2.318,3.8688,6.8472,6.6869,3.8066,2.8574,0.99602,5.4138,4.1061,1.6869,3.3859,0.37378,4.9265,3.7095,7.3469,1.3209
5.5339,3.949,3.832,5.0473,5.9612,1.6208,6.2016,1.3545,1.6149,2.3846,5.0853,1.6229,4.3152,4.4631,3.9691,4.7366,1.4257,5.6049,3.8913,5.073,1.7886,3.7734,5.3558,5.6175,3.512,0.12105,1.5714,4.0927,5.196,4.5614,2.4995,7.9755,3.8124,5.3326,2.8769,1.5367,4.9871,5.6626,7.1663,2.6598,0.55339,6.7736,4.18,1.5133,2.6019,2.1234,5.899,4.8086,4.139,4.1346,2.0991,5.5772,4.3376,3.1732,3.3197,3.4787,1.9735,5.0947,6.3421,8.4154,4.6395,2.0973,4.0589,1.7435,2.4984,2.4107,2.0767,4.3985,1.5359,4.9526,5.1981,5.6622,3.6345,4.86,7.1296,3.7753,3.3327,7.071,2.7986,8.332,2.7701,2.5997,1.3229,5.1935,2.1415,4.7604,3.6709,4.8696,3.916,4.9787,1.2061,4.0917,0.67107,5.175,3.0784,4.9297,2.6435,4.3036,5.694,0.094492,0.16164
4.8713,4.0628,2.0434,6.0572,3.5753,0.43099,1.466,0.79852,5.0651,2.2281,1.1875,2.2719,1.7991,4.8792,4.1944,3.8753,4.0821,3.4024,1.5941,4.3116,1.827,1.3698,1.3658,4.9095,5.1128,0.11739,3.0541,3.7834,2.2112,4.7115,3.788,3.0454,2.3078,4.5584,4.8725,4.1797,2.8869,5.0032,1.6707,3.5874,5.87,2.9782,1.7856,6.8674,2.8739,4.1293,1.8589,3.8485,4.1756,3.3324,3.9186,5.5203,0.7641,3.6989,3.3759,6.8438,5.04,3.3115,2.7074,4.2872,5.251,3.351,6.2681,1.8366,1.96,2.9607,2.6445,1.7792,5.7622,0.37721,2.4274,1.5569,2.4597,2.1095,4.1963,1.426,1.8279,3.5085,5.3004,6.6054,1.7226,4.505,5.2377,5.7364,2.3808,3.3684,3.0281,2.2198,3.8195,3.978,2.6818,3.5654,8.1986,3.3103,4.6191,2.4808,2.3617,2.6937,4.3534,1.8627,3.4211
2.2509,3.4934,3.1545,4.2723,4.5699,0.70872,0.3637,3.8791,3.5391,1.379,5.1538,3.065,3.2221,3.4829,4.3157,5.6517,2.5534,0.0062565,4.7654,1.3988,5.1647,1.9854,5.5944,1.61,1.0782,4.6674,0.64384,4.1881,3.7671,2.7593,2.4154,6.5766,2.3582,2.6779,1.3797,1.597,1.9956,5.9726,2.3307,1.811,2.2304,4.2467,0.7259,4.0954,0.69891,2.7808,3.9372,4.2094,1.8154,3.5585,3.2902,5.018,3.2304,4.8105,2.8053,1.8834,2.9419,2.6621,4.5368,2.9104,1.5488,2.7392,5.0691,2.2882,1.8655,4.7143,3.1833,2.3787,1.7264,0.44129,3.2738,2.458,3.5609,0.48169,5.3002,3.8527,0.29078,4.841,1.9887,3.5319,3.3884,1.4847,3.9366,2.4146,1.9709,3.7343,1.8117,4.1718,3.2695,1.2885,4.4591,3.8307,5.1794,1.4597,1.4551,3.5512,4.1646,4.444,3.0191,2.5987,4.1399
5.9624,4.1808,2.861,1.7738,3.546,1.9229,3.1149,4.0054,4.2463,3.6918,4.9947,5.7755,1.1994,2.1324,2.1666,3.1347,3.1936,1.5896,1.3798,4.0304,2.0914,0.45945,2.7385,3.0583,2.0435,3.8162,3.094,2.3704,2.6489,3.4774,1.9933,0.98118,2.4649,2.9346,3.5619,2.6718,1.967,3.7053,2.5342,4.0529,2.5734,2.7112,2.57,1.2018,1.1923,1.1358,5.666,2.3913,4.2729,3.2975,5.7888,4.2509,0.69741,2.1817,4.1925,3.197,6.4585,2.6425,0.16142,3.4541,1.2173,2.8031,4.5,3.2299,3.2159,2.3962,2.48,2.5515,3.3703,4.3552,0.58082,0.21073,3.746,0.23457,4.0231,1.6422,4.7753,0.58968,1.708,3.1203,3.6278,3.493,3.0374,2.3424,1.766,3.5142,2.0834,3.4171,4.5159,5.6984,1.6788,4.8933,5.2812,0.29827,3.0134,8.4399,2.3675,3.5238,3.2674,4.8132,4.5206
0.97733,1.7744,3.0011,2.3709,6.4406,3.1509,3.1491,1.148,0.41075,3.7088,2.153,3.4812,1.1578,3.8685,4.9211,3.7909,2.6354,0.64049,1.8387,2.8616,4.3579,0.84066,4.495,6.8064,1.6852,3.1982,1.4311,4.7702,3.5518,1.6611,2.6405,2.1019,0.16872,2.3881,1.7368,1.5576,1.135,1.6438,2.7159,0.7963,3.1695,2.0345,2.3033,0.21992,1.263,3.1062,1.2229,2.7162,5.5664,3.7105,4.0904,6.1665,4.307,3.0867,5.5245,1.0429,1.3921,5.6298,3.1755,2.3965,3.1815,2.048,2.0044,1.8556,1.5932,0.9816,2.3686,1.5607,4.7252,2.8322,4.0653,2.2431,2.3346,4.4371,4.767,2.5142,5.1185,3.2091,3.0409,5.9024,4.8724,3.8863,3.0938,1.6177,2.2817,5.3217,1.463,2.1663,2.6952,3.2928,3.6077,0.98724,2.0557,0.55819,5.0119,3.0487,2.0688,1.0103,2.6174,5.1056,2.8945
2.7556,0.43639,2.4762,3.3868,0.16611,3.9124,5.9084,2.1198,3.3613,2.1063,1.9917,2.2379,0.63905,4.589,2.665,0.45544,3.8343,0.2916,2.0464,3.334,0.97325,1.7065,2.2724,5.1426,2.9134,1.6321,1.8918,1.8098,4.1788,1.8037,1.0464,2.5874,2.0869,3.4123,3.6604,3.8509,3.1942,3.1724,5.0693,0.49662,1.7098,3.6006,2.2603,1.7814,2.502,1.8405,0.20589,0.50047,1.0908,1.8546,1.9565,3.1473,1.6659,1.1862,2.6822,3.8718,1.5615,1.5315,0.084932,0.76875,3.1326,2.0586,3.3695,3.2282,2.7891,3.3726,4.5023,3.0892,2.8641,2.1641,0.37386,1.4745,2.7146,0.56917,2.9271,2.7098,2.3775,2.6782,2.2638,2.1953,2.2151,3.6156,2.0932,1.5025,2.5207,3.6608,4.2886,0.82287,3.364,2.5834,1.9172,2.2651,2.1863,2.4377,2.5829,1.2258,0.66832,3.6698,1.9002,4.3397,0.84866
1.1725,4.0343,4.0149,0.55507,2.3094,3.9204,3.9085,0.19172,4.3141,2.9556,2.339,1.6959,0.64453,2.1511,1.6516,5.2964,2.286,1.7699,1.9962,1.1461,4.958,2.9207,2.1225,3.6111,1.9691,1.8774,1.2258,1.1422,4.2945,3.1074,2.1396,4.4362,2.0497,2.428,2.5813e-05,2.691,0.61289,3.3642,2.5149,0.7776,1.4509,2.3803,2.3286,0.30409,1.9132,3.0128,0.58848,0.44513,4.5586,5.0866,0.85286,1.9636,4.8035,1.249,4.4549,3.1802,2.095,1.5148,4.4203,3.0258,1.1177,2.5738,0.76953,2.2277,4.1913,2.7713,0.9375,2.5103,1.0253,4.8834,1.0797,3.1116,0.85135,2.0416,2.9456,3.802,0.69979,1.775,1.3464,1.854,2.5408,1.1378,3.1523,2.622,1.3455,2.408,3.4137,3.4263,2.965,1.9239,1.1357,2.3344,1.3543,1.5446,3.3293,4.0708,2.8622,4.9316,2.0484,2.1515,4.3087
2.5014,1.3869,2.5729,2.692,2.071,3.2061,1.9722,1.3447,3.7133,1.1308,4.4138,2.8757,1.4914,0.60393,1.1545,2.3301,2.655,2.2018,2.9303,4.5898,1.387,0.49992,3.4176,3.0326,1.6313,1.0227,2.1605,0.29834,1.9136,0.96268,0.71769,3.1317,1.8653,3.6492,0.35697,2.1488,0.41126,2.66,3.587,3.2067,2.7451,1.8361,2.2758,1.0849,3.0302,1.1394,1.3789,2.0517,5.2506,4.9222,0.04323,1.1839,3.1579,3.5046,1.3985,3.7143,0.63587,0.57835,4.9503,2.6185,1.4059,0.42911,3.3146,2.2864,0.60426,5.8358,1.8084,0.62489,1.2572,2.7624,1.6045,1.9615,1.8002,0.52722,3.4084,1.3309,1.1984,2.0877,1.7339,1.1199,1.996,4.6783,2.5554,0.9395,0.64986,1.5016,4.2903,2.1002,0.25294,1.9872,2.6109,1.5792,1.881,2.313,2.9774,0.73057,1.684,0.71282,2.3983,2.984,2.2381
0.22257,1.2431,2.7272,4.7682,1.1996,3.4262,0.54493,1.9165,1.3841,2.0879,1.0107,1.3028,2.2156,1.0004,1.4138,2.1672,2.3435,0.70818,1.3059,2.7692,2.0757,3.6394,0.85845,0.75318,1.5098,1.5187,1.2361,0.572,5.5211,3.579,1.1895,1.5031,2.1118,1.6351,0.9179,2.8507,0.18819,4.1653,1.2353,2.7718,1.8022,2.8351,1.8604,0.60401,2.1694,2.6222,4.4573,1.5302,1.2727,1.0021,2.3206,1.304,1.2973,2.7365,2.8302,0.98356,1.6395,1.9505,1.1057,3.2007,1.9042,0.74251,3.2135,2.1224,0.0222,2.4486,0.29159,1.8454,2.1791,1.7413,2.7026,3.2718,3.1505,0.91794,1.1446,0.3435,1.9722,1.9746,0.6595,2.8321,2.7455,2.495,0.68265,2.4887,3.5101,3.4958,1.5715,3.1639,2.9169,0.085074,1.0958,0.57797,1.8815,3.1492,1.7226,3.2378,1.6541,1.0603,2.1311,1.9657,2.0857
0.17607,0.60126,0.37374,3.6782,0.49097,1.2532,0.40574,2.6067,1.4786,1.5826,2.6417,2.3188,2.4542,1.7624,2.6745,1.9214,2.5958,4.086,3.0196,0.12093,0.47914,1.3448,0.70828,1.3971,2.9945,0.84421,1.144,1.2154,2.318,2.7608,1.3109,1.1061,2.6346,2.3776,2.0902,5.4853,1.5324,1.9107,1.3915,2.247,0.85199,2.7252,3.729,1.5978,1.4101,0.80498,0.91484,1.428,0.41649,3.0285,1.6841,1.5607,3.2028,1.8965,0.20071,0.70733,1.8095,2.5834,0.47115,2.1696,3.276,0.44859,0.28111,1.4793,2.2598,1.4954,0.49595,1.6343,1.7467,0.9503,0.12422,2.0257,1.5145,1.05,0.72216,0.88215,0.43379,0.22248,3.0401,1.1985,0.89692,2.7895,0.83592,3.6658,0.54094,0.57338,0.23098,2.916,0.78464,2.0036,0.79373,2.2993,1.5549,2.1638,3.6671,2.2771,2.6506,1.0607,0.78622,1.5626,0.40185
2.6559,2.2534,2.4704,2.8172,1.226,0.68051,1.9625,2.6907,2.3494,2.4507,3.1024,1.6948,2.7513,1.3377,2.2693,3.1442,1.5906,0.949,0.0041237,1.7419,1.7377,2.992,1.5106,2.023,1.6341,3.0577,2.6658,1.3639,1.496,3.4201,1.0731,2.3489,0.33036,0.46569,2.3545,2.1052,2.5815,0.61537,2.5349,1.5513,1.2963,3.3152,3.0221,1.7659,0.36304,1.0032,0.61414,3.24,2.7943,1.997,2.1692,1.8841,2.1466,1.6436,1.144,1.9417,0.99121,0.89301,1.0379,1.249,1.3608,4.2948,0.10553,1.6375,1.2926,0.50265,1.7316,2.2269,0.01024,0.87732,1.4486,1.5419,2.145,0.088541,1.6973,1.1849,2.9697,1.7081,0.72698,1.0853,0.7281,3.0244,0.75731,1.1175,2.6808,2.1226,1.5422,3.4271,0.66824,1.6526,0.33794,0.4355,0.95117,2.1044,3.7395,2.2803,0.10632,1.113,0.70692,1.0109,2.7235
1.6402,2.3194,1.8902,0.34607,2.2522,2.1073,1.886,2.4398,0.99768,1.2427,1.3338,2.192,1.9977,1.9439,1.4203,3.0763,0.86336,1.3347,0.58514,1.1548,2.0252,1.434,0.41028,2.0947,3.0191,1.0576,1.1267,1.5628,1.5961,2.4028,1.591,1.1416,2.3815,3.4996,1.2524,0.95689,2.3712,0.66196,1.1051,1.4941,1.3841,0.56275,0.47147,2.279,1.0782,1.941,1.8847,1.01,1.6242,2.0013,0.39062,1.2042,0.73446,3.1043,1.1891,1.4484,0.064163,0.40967,2.0286,1.8943,0.30692,4.4161,2.2393,1.6716,3.3418,1.1222,1.1956,1.444,0.074664,1.8083,1.3417,1.7082,1.1775,1.6257,0.37834,1.8305,0.80858,0.87981,0.53731,0.08984,1.7813,1.2676,0.94118,0.61716,3.0769,2.52,1.0138,1.3186,2.8955,3.2059,2.4422,0.86253,0.57837,2.054,0.26772,0.038657,0.83003,2.2799,1.399,1.4937,2.4667
1.3533,1.9923,1.6076,1.0135,0.67202,0.53365,1.0812,0.26443,0.56772,0.56094,0.37729,1.7141,2.637,2.1957,2.2076,1.8178,1.6815,1.8954,0.33878,1.9829,1.7574,0.23088,0.085631,0.62945,1.1233,2.2748,0.84418,1.6279,1.2769,2.3812,0.93996,1.4147,3.7023,2.3122,0.12418,2.2844,0.1343,1.1169,1.4109,2.0217,0.68862,1.6723,2.9681,2.3635,0.79729,1.0663,2.0784,3.4449,0.15033,1.025,1.107,1.2189,0.77781,2.3894,0.14973,1.3211,2.1476,1.5012,0.45208,1.2333,0.77263,0.47569,2.5299,0.89857,0.49849,0.31129,1.234,1.3094,0.68589,1.9221,2.0765,2.7312,0.044536,2.0077,1.4487,2.4239,1.3381,1.964,2.3051,0.67342,0.6215,1.0145,1.4804,0.32479,1.1823,0.73159,0.6524,1.9263,1.9652,2.3144,0.96331,1.7956,3.1332,1.3519,0.53319,2.1929,1.5032,1.2214,0.391,0.092917,0.42735
1.454,1.6161,0.21543,1.8299,1.669,0.87562,0.0494,1.8938,0.8714,1.2536,1.5251,2.8687,2.226,1.3266,0.57203,1.0128,1.733,0.13266,1.9299,1.6989,0.95602,1.1925,0.37206,0.14407,0.61225,2.0303,0.76133,0.5493,0.021344,1.0233,2.0421,2.2334,1.5617,0.69197,0.63337,1.3671,1.9392,1.976,0.95471,0.033838,0.52967,2.7375,0.2232,1.1783,0.87665,0.58539,1.8812,1.5677,1.3773,0.72408,1.3515,0.70972,1.1874,1.5781,1.3411,0.32797,0.46386,1.9991,0.97513,0.34381,1.6793,0.49006,1.4475,2.5187,1.9395,0.84094,0.88729,2.9395,0.8303,1.3025,1.3274,1.9266,1.2166,1.3677,1.3235,3.6918,1.8778,0.12418,2.8424,0.18178,1.9939,1.5353,3.0253,1.5538,2.8224,1.344,1.1809,1.0388,1.1384,0.98227,1.1645,0.27962,1.412,0.42711,1.1067,0.39574,1.4232,0.63817,0.12656,1.9333,1.6016
1.4497,1.558,1.8667,1.849,0.93799,0.47735,0.8006,2.0841,0.36873,1.8989,1.7111,0.43427,0.70907,0.75763,0.6438,0.4992,1.2001,3.2393,0.30101,0.53903,0.0090626,0.26462,0.79892,0.4124,1.4151,0.96056,1.9204,2.4485,1.0219,1.1383,2.2368,0.81505,1.2749,2.3424,1.2903,0.50413,0.25144,0.43711,1.236,1.6953,1.0541,0.9856,1.2625,3.4312,1.2226,1.0399,2.4077,0.99115,0.26538,1.7929,0.56528,1.0983,1.7399,1.6749,0.23804,2.4782,1.1297,0.76148,0.75755,1.894,1.2205,1.3588,0.74028,0.92418,0.087348,0.88408,0.33264,1.7339,0.36262,2.1477,0.86533,1.7583,3.0806,0.96953,2.3285,2.6414,0.84368,0.59484,1.5211,1.9804,0.90754,1.2673,0.048035,0.71861,1.1981,1.0653,2.6078,0.31192,0.76319,1.698,1.8083,0.53293,0.26183,0.89067,1.3963,1.3293,1.9918,1.332,1.2062,1.8059,1.3139
0.91914,1.8253,0.3219,0.90505,0.78511,2.5245,0.86992,0.26391,1.3512,1.3134,1.0469,0.46413,0.25653,0.43582,1.5234,0.17334,2.2544,0.015453,2.758,0.19303,0.90961,2.1189,1.9364,0.13376,1.4884,1.4183,0.76535,2.0743,1.9223,0.85347,1.5466,1.7014,2.2328,2.2559,1.595,0.85566,1.9361,2.397,1.5762,0.50933,0.38697,0.014738,1.9636,1.1667,0.71209,1.1975,1.7371,0.032469,0.10022,1.4431,2.2553,1.9516,0.71505,1.8424,0.32254,1.0766,1.0124,1.9524,2.6528,0.7845,1.7238,0.13404,1.3594,2.742,2.0073,0.186,0.8678,0.60512,0.76291,1.9705,1.0199,2.3263,0.78082,0.69908,1.5379,1.2057,0.62967,1.3782,1.3118,0.92827,1.299,1.9008,1.224,1.7052,0.70184,0.90116,0.43749,1.3792,1.3595,0.25979,1.2976,0.72073,0.34512,2.5502,0.75533,1.3284,1.3395,1.1563,0.99327,1.9461,2.3003
1.3328,1.6978,1.7602,2.2121,0.37972,2.1536,0.96861,0.073249,1.5422,2.2858,0.64596,0.17608,2.3606,1.8884,0.20381,1.4106,2.0338,1.0195,1.1043,0.034899,1.2665,0.71739,0.70316,1.7045,1.3262,1.1674,0.2349,0.7211,2.6289,1.1552,0.92045,1.0191,0.73664,0.98404,0.52525,0.23874,0.94361,0.96458,1.2616,2.6545,1.3277,0.85869,0.70899,0.14476,0.63188,1.3276,1.1088,1.5222,0.95659,2.3731,0.11987,0.74482,1.5987,0.32921,0.29464,0.48794,0.60344,1.6232,0.75539,0.32603,1.2883,1.2573,0.56386,2.5842,0.18293,1.1065,0.84321,1.4957,1.8661,1.5891,0.5869,0.10147,0.94258,2.5514,2.42,0.341,0.18026,1.2667,1.3524,0.98267,0.14633,0.30032,0.068155,1.1084,1.6129,0.52583,1.219,1.3953,0.85697,0.50697,0.27438,0.50615,0.87907,0.58091,0.92937,0.78153,1.319,0.1987,0.63973,0.95018,0.41781
0.90087,1.0468,1.0495,0.67015,0.38199,0.31641,1.5688,1.192,0.35552,1.2289,1.3532,1.1091,1.3003,2.1088,1.0558,0.62664,0.057629,1.2583,0.66661,1.6543,1.0262,0.77044,0.34187,1.5695,1.0289,0.3377,0.14789,0.33944,2.6322,0.63047,0.50517,0.5093,1.9133,1.5825,0.081873,0.44718,1.2261,1.0199,0.61006,0.82866,1.1466,1.1937,0.20746,0.6579,1.1809,1.1081,0.35217,0.89444,0.9312,1.8986,0.38088,1.0269,0.58799,2.3331,0.3703,1.269,1.7483,1.0019,0.38917,2.1927,0.9247,0.27044,0.10186,0.52334,1.7003,2.2364,0.6934,1.021,0.93603,0.78609,0.26312,0.32068,0.54752,0.069371,1.2906,0.77008,0.24848,0.39188,0.099807,0.19352,0.51865,1.1528,0.65389,0.60578,1.4728,0.86403,1.1348,0.85077,1.3328,1.9102,0.31752,1.1156,1.2276,0.66394,2.2374,0.27288,0.73494,0.69259,0.48861,0.27814,1.3466
0.56019,1.942,1.3181,1.7675,0.58641,2.1002,1.3239,1.0621,0.51672,0.49519,1.4448,1.9337,0.91213,0.70648,2.3613,0.59894,0.25616,0.14355,0.033974,0.67092,0.94718,1.4577,1.5444,2.4096,1.6706,0.67091,0.24273,0.27499,1.3005,1.1136,1.4058,1.2503,0.42309,0.0075425,0.56813,0.30438,0.36417,0.77976,0.37556,0.1407,0.19943,1.2974,0.93621,0.37752,0.32341,1.112,0.37072,0.43049,1.4845,1.38,1.1422,1.0212,1.1733,1.1483,0.91437,1.0995,0.054676,0.63013,1.0361,0.041913,0.60785,0.46114,1.5747,0.97545,1.4601,1.0925,1.3937,0.53362,0.69699,0.11776,0.90928,3.0029,0.6833,0.57173,1.2761,1.4864,1.0495,0.8228,0.55503,0.048306,0.93245,1.4836,1.1392,1.6952,0.62227,0.69659,1.0293,0.0090405,1.6069,0.23722,1.0931,0.33631,0.01632,0.032809,1.7923,1.0765,0.63877,0.39027,0.92421,0.53726,0.34054
1.0329,0.80576,0.29397,0.57229,0.45062,0.085412,1.3733,1.4406,0.60312,0.73553,0.35331,0.64733,0.80181,0.3952,1.6844,1.567,0.095729,0.38906,0.31517,1.5764,0.29129,1.4431,1.4666,2.4172,0.2682,0.19717,1.7916,0.0021444,0.61376,0.92029,0.28041,0.28951,1.8265,0.69874,0.14349,0.84732,1.168,0.71645,0.19191,1.7731,0.66727,0.46714,0.88233,2.1066,0.5788,0.97315,1.4395,0.9266,0.43008,0.061849,1.0734,1.6912,0.5332,1.3313,0.032989,0.66755,0.41866,1.7579,0.76737,1.1185,0.29656,0.079952,0.84205,0.32552,1.7349,0.25866,0.71316,0.10937,0.54979,1.8049,0.30372,0.81943,0.23789,1.2786,0.34505,0.22371,1.0772,1.3104,1.5019,1.2913,1.3451,1.9534,1.6869,0.67963,0.19654,0.3421,1.0703,1.445,0.36596,1.6708,0.012093,0.20454,0.26264,0.058791,1.1943,0.41079,1.9219,0.54493,1.9329,0.81767,0.7596
1.8617,0.68172,1.7517,1.8318,0.059789,1.1023,0.38637,0.094401,0.56826,0.91773,0.99936,0.59282,0.70329,0.26594,0.83931,2.1646,0.49427,0.17738,0.82028,1.2177,0.17348,0.49393,1.3333,0.65494,0.55387,0.26374,0.22598,1.2432,0.1223,0.46385,0.92289,0.67288,0.80852,0.47819,0.43702,0.25843,2.124,1.6763,1.1091,0.80606,1.08,0.77182,1.1542,1.3474,0.36251,0.47804,0.10576,1.3942,0.96806,0.7984,0.011473,0.3227,1.0963,2.1236,1.0877,0.79504,1.1753,0.90485,0.78649,1.2042,0.84323,1.3859,0.28247,0.24108,0.45637,1.2497,0.020227,0.67519,1.1601,1.4948,0.15583,0.86931,1.0294,0.49619,1.3814,0.11167,1.8896,0.2647,1.166,0.51477,0.24625,0.86159,1.123,0.047899,0.57538,0.27813,0.089556,0.83248,1.0058,1.2799,0.60213,0.33075,0.31582,0.44813,0.57037,0.1894,1.1502,1.6028,1.3741,0.33462,0.73382
0.72266,0.032813,0.44216,0.05433,0.49598,1.5298,0.32442,1.3737,1.0355,0.097469,1.3962,0.47091,0.57412,0.68414,0.027945,1.1802,2.0282,0.58265,1.0839,0.51006,0.56429,0.047602,0.92378,1.2647,0.59959,0.69781,0.083317,1.2001,0.38932,0.74543,1.2378,0.2505,0.31962,0.51061,0.30008,0.77343,0.24566,1.3228,0.50714,0.77111,0.27358,1.5142,0.17891,1.2223,1.2233,0.097339,0.73785,0.53478,1.8684,0.65836,0.054712,0.67217,1.1687,0.73251,1.4039,0.2407,1.0623,0.6114,1.2034,0.015099,0.50847,1.5463,1.0761,0.43411,0.68212,0.61412,0.21406,0.6035,0.82844,0.2354,1.3486,1.5325,0.067711,0.4485,1.0921,0.94471,0.22089,1.0459,1.3765,1.2282,0.46228,0.72077,1.1068,0.23005,0.81568,0.91079,0.69934,0.22473,0.19297,0.38545,0.703,1.0066,0.35384,0.47679,1.1295,1.3196,0.59581,1.0275,1.5134,0.0053315,0.8108
0.36537,1.0945,0.8506,1.4583,0.59517,0.85684,1.5934,1.9201,0.16377,1.0451,0.50506,0.32104,0.93445,0.48581,0.57416,0.30572,0.80848,0.21563,0.53265,0.073643,1.4108,0.89796,0.037803,0.61864,1.1273,0.56542,0.76238,0.81739,0.87864,0.18191,0.63524,0.63604,0.99696,0.64031,0.39702,0.96031,0.95539,0.72485,0.9003,0.037893,0.53283,0.38088,0.71635,0.68944,1.1982,0.14484,0.1577,0.71525,0.451,0.13582,0.32516,1.6399,0.061346,0.97203,0.43122,0.42714,1.0583,0.50564,0.13015,0.43094,0.33751,1.5759,0.048793,0.57473,1.59,0.57124,1.116,0.88724,0.86575,1.2285,1.8689,0.50122,0.22202,0.5265,0.21362,0.33308,0.51414,0.17335,0.26869,1.1958,0.45971,0.38798,0.05153,0.34268,0.48868,0.65499,1.4504,1.2726,1.5278,2.0475,0.5342,0.12714,0.15314,1.391,0.14378,0.11943,0.037849,0.63676,0.83284,0.1001,0.92023
0.36568,0.099652,0.67344,0.67489,1.5974,0.022315,0.0616,0.10042,0.083731,0.058569,0.22441,0.62821,1.0442,0.14683,1.4774,0.89799,1.1085,0.56674,0.57729,0.58198,0.99734,1.1915,0.73526,0.7411,0.34885,0.81774,0.18933,0.45357,1.0316,0.15035,0.57954,1.4471,0.4721,1.6078,1.0081,0.35805,0.65912,1.8265,1.2184,0.48042,1.0146,0.54351,0.32695,0.54333,1.5062,0.28959,1.2592,0.92605,1.0207,1.0422,0.69597,0.14332,1.1274,0.12038,0.86645,0.32005,0.71813,1.4228,0.10957,1.3165,0.10286,0.56148,0.015131,1.1647,0.11637,0.27718,0.55041,1.0825,0.46081,0.21144,0.72203,0.81519,0.63952,0.69423,0.65324,0.32476,1.3406,0.068805,0.46467,0.028366,0.15062,0.61725,0.33504,0.13683,0.0010494,1.4368,0.45793,0.03492,0.29072,0.51721,0.53587,0.56175,1.0302,0.15962,0.58384,0.021216,1.2289,0.15312,0.98849,0.73356,0.0058523
1.4378,0.8375,0.85432,0.70646,1.0259,0.31804,1.3216,0.25949,0.7478,0.33521,0.9648,0.14445,0.31515,0.50776,0.38507,0.63814,0.52851,0.71662,1.8401,0.87147,0.66543,0.35246,0.83765,0.22358,0.21876,0.29068,0.68681,0.59816,0.049949,0.651,0.34385,0.42848,1.017,0.94861,0.33534,0.026338,0.51556,1.6686,0.93774,0.46314,0.027289,0.57423,1.0511,0.39711,0.14445,1.1143,0.086336,0.86783,0.33645,0.82878,0.05572,1.1933,0.53893,1.0867,0.54437,0.77899,1.058,0.25918,0.88091,0.2614,1.5456,0.48353,0.018367,0.39125,0.5352,0.4677,0.71082,0.049962,1.887,0.54775,0.57823,1.0431,0.72444,0.86245,0.6108,0.94511,0.21892,0.48291,0.65363,0.44302,0.082269,0.56028,0.042986,0.58701,1.2405,0.53262,0.63542,0.93595,1.0606,0.3687,1.0437,0.64796,1.1415,1.0355,1.6863,0.14169,0.13778,0.032362,1.1543,0.3675,0.88781
1.1993,0.14216,0.076618,0.14928,0.18114,0.17768,0.094152,0.30959,0.49498,0.22241,0.15842,0.80222,1.568,0.76703,0.65448,0.30415,0.37283,0.62084,0.5372,0.51776,0.45592,1.3749,0.41162,0.57091,0.38053,0.42791,1.6005,0.2143,0.69367,0.44169,0.12184,0.70908,0.36713,0.41163,1.1658,0.59734,0.31971,0.62589,0.16911,0.40128,0.42669,1.2597,1.2998,0.88454,0.89682,1.0021,2.0403,0.47655,0.30591,0.33945,0.59223,0.32107,0.031657,0.21915,0.34622,0.44177,1.1412,0.54251,1.0394,0.51042,0.62503,0.040692,0.19986,0.23483,1.0963,0.23727,0.64748,0.50765,0.45309,0.13615,0.71863,0.092911,0.35445,0.90618,0.44731,0.19944,0.070404,0.99793,0.80364,0.065616,0.4846,0.089065,0.23432,0.17728,0.70605,0.86994,0.11298,0.13248,1.013,0.44493,0.080651,0.01753,0.52116,0.76675,0.32792,0.030871,0.48576,0.67015,0.070003,1.094,0.10151
0.74209,0.77868,0.30244,0.22863,0.72836,0.29048,0.30897,0.46383,0.5576,0.83596,0.040759,1.5157,0.19676,0.32812,0.62929,0.33608,0.65083,0.21873,0.46383,0.97824,0.30012,0.3926,0.54606,0.30676,0.38578,0.10556,0.60893,0.3594,0.8204,0.17326,0.57485,0.36309,0.87097,0.51834,0.99159,0.25104,0.24188,0.43652,1.0294,0.93456,1.262,0.16589,0.98003,1.4065,0.37195,0.03491,0.023592,0.13907,0.69005,0.18372,1.3371,0.095423,0.55729,0.39577,0.51446,0.1945,0.36967,0.67246,0.88902,0.66618,0.52572,0.67791,0.24326,0.25275,0.8059,0.84081,0.026916,0.50641,0.22828,0.46581,0.043413,0.68405,0.0077765,0.63554,0.45063,0.37308,0.78217,1.3908,1.0393,0.54966,0.98029,0.023961,1.6732,0.477,0.7973,0.1966,0.12682,0.35686,0.36079,1.0647,1.3999,0.45398,0.32686,0.026376,0.29956,0.67429,0.19309,0.072663,0.78939,0.47702,0.38725
0.02315,0.1085,0.15098,0.28251,0.15183,0.90703,0.15027,0.20933,0.7085,0.035932,0.67996,0.35945,0.33501,0.19555,0.51478,0.5061,0.092163,0.65738,0.073013,0.1895,0.86045,0.39141,0.13967,1.614,0.12572,0.26689,0.78312,0.61654,1.0135,0.58851,0.40182,0.38769,0.21398,0.28071,0.50178,0.81488,0.6682,1.0283,0.77146,0.91322,0.37075,0.58465,1.1047,0.49834,0.7086,0.53064,0.17041,0.52183,0.8813,0.99517,0.26718,0.39941,0.77698,0.086327,0.95078,0.42708,0.40586,0.63988,0.93615,0.15607,0.85653,0.38392,0.082053,0.63868,0.21872,0.1427,0.29878,0.034155,0.88044,0.15686,0.30382,0.30254,1.0723,0.072545,0.60859,0.95393,0.65604,0.752,0.29958,1.1584,1.3684,0.026698,0.23198,0.7632,0.54875,0.13111,0.14281,0.16905,0.13363,1.4733,0.26373,0.99695,0.8807,0.1078,0.39136,0.55501,0.18515,0.86405,0.38101,0.38774,0.38444
0.37607,0.63592,0.24549,0.26268,0.26651,0.11641,0.078334,0.86127,0.12607,0.72743,0.42242,0.59828,0.96439,0.45899,0.59755,0.17946,0.043688,0.55232,1.3186,0.096539,0.9026,0.020124,0.53097,0.66876,0.14828,0.37884,0.82622,0.27996,0.67451,0.3371,0.54456,0.18728,0.11138,1.3089,0.23955,0.071724,0.40271,1.0707,0.6546,0.6242,0.44334,0.95896,0.272,0.11276,0.60522,0.60445,0.10563,0.74441,0.39701,0.74331,0.34793,0.13308,1.0499,0.52262,1.1793,0.028029,0.52336,0.37443,0.058799,0.22172,0.51539,1.324,0.64237,0.10803,0.34112,0.34675,0.70046,0.40814,0.5008,0.0024694,0.56694,0.23597,0.37866,0.47695,0.81847,0.54657,0.063286,1.1261,0.06602,0.15135,0.35875,0.44548,0.38948,0.75544,0.19185,0.29037,0.27505,0.16154,0.14557,0.3214,0.31696,0.39667,0.34235,0.5085,0.97888,0.61535,0.14675,0.1878,0.33407,0.10116,0.51468
0.42317,0.69697,0.36532,0.13654,0.34366,0.064298,0.30173,0.59535,0.085606,0.29772,1.1179,0.80457,0.10528,0.60583,0.22898,0.085603,0.63325,0.77168,0.63421,0.38237,0.43952,0.21303,1.1443,0.11742,0.33766,0.3161,0.55641,0.42343,0.45638,0.18289,1.0818,0.32581,0.4004,0.6935,0.27862,0.7888,0.35417,0.54391,1.0451,0.42678,0.82093,0.22866,0.69776,0.24325,0.11983,0.5436,0.9708,0.42039,0.24586,0.68467,0.52945,0.6968,0.014986,0.32001,0.098153,0.46305,0.038507,0.55907,0.15316,1.1781,0.048512,0.32401,0.36167,0.75116,0.31504,0.26672,0.80938,0.27367,0.19492,0.72682,0.74734,0.32114,0.6951,0.17634,0.28841,0.7782,0.38322,0.27114,0.27046,0.72792,0.04676,0.22669,0.061778,0.57545,0.56801,0.385,0.4047,0.27952,0.060029,0.19615,0.47545,0.52856,0.013733,0.66073,0.35627,0.37928,0.0031764,1.136,0.15486,0.18719,0.079085
0.21272,0.046257,0.39372,0.79866,0.26197,0.20704,0.61926,0.9455,0.23166,0.41581,0.25514,0.065848,0.68573,0.34201,0.5703,0.28198,0.21917,0.54271,0.87941,0.38628,0.31433,0.28356,0.62513,0.041387,0.41037,0.051829,0.56431,0.75015,0.28492,0.48808,0.88102,0.20955,0.24564,0.68581,0.21228,0.92114,0.061169,0.3405,0.0146,0.42407,0.3136,0.065166,0.11112,0.74205,0.36917,1.0289,0.11723,0.29525,0.13949,0.0011554,0.27,0.075764,0.26447,0.21705,0.26963,0.74419,0.66746,0.10716,1.6051,0.02667,0.60347,0.15595,0.98685,0.21444,1.0044,0.45778,0.34157,0.12071,0.28777,0.99127,0.088157,0.0066808,0.10914,0.44758,0.22063,0.8894,0.041584,0.21716,1.0951,0.54217,0.19026,0.16563,0.356,0.6953,0.69476,0.14126,0.44564,0.42748,0.12803,0.87082,1.0432,0.19149,0.37343,0.80282,0.6546,0.64254,0.12487,0.21819,0.62587,0.11495,0.31517
0.43308,0.74971,0.87858,0.68746,0.20359,0.8083,0.26508,0.62432,1.0737,0.62858,0.15575,0.66845,0.10282,0.54685,0.35638,0.5741,0.30153,0.449,0.49354,0.34188,0.7072,0.22762,0.84784,0.16898,0.85304,0.046956,0.54156,0.4144,0.50518,0.57763,0.36852,0.14889,0.22427,0.28849,0.38942,0.23326,0.24594,0.2553,0.88671,0.66705,0.92371,0.25514,0.53514,0.071531,0.19391,0.5426,0.074987,0.5326,0.19286,0.46637,0.32691,0.54619,0.095572,0.30703,0.63269,0.049492,0.44832,0.2088,0.62345,0.33275,0.32301,0.28607,0.87323,0.62482,0.47116,0.57123,0.40686,0.27943,0.55891,0.19299,0.22241,0.16936,0.22194,0.81755,0.31908,0.33072,0.38651,0.65516,0.40162,0.1914,0.40845,0.18247,0.54922,0.072763,0.40015,0.23564,0.40349,0.84539,0.32684,0.22286,0.086922,0.048096,0.13947,0.22742,0.82978,0.72238,0.74069,0.40581,0.48281,0.21912,0.26307
0.59173,0.068916,0.38436,0.62605,0.59223,0.11022,0.39612,0.059033,0.41806,0.25211,0.033148,0.45394,0.5542,0.026993,0.35117,0.24184,0.50649,0.90961,0.96237,0.23274,0.19532,0.20316,0.30876,0.46978,0.28967,0.28718,0.2816,0.061697,0.023653,0.38079,0.099594,0.70712,0.26359,0.5953,0.12804,0.29201,0.056816,0.37537,0.54746,0.29005,0.44984,0.44191,1.062,0.44277,0.2642,0.40802,0.51453,0.46596,0.16046,0.28333,0.23323,0.93491,0.48087,0.60886,0.34155,0.11531,0.18871,0.79527,0.39258,0.027141,0.60319,0.14789,0.31267,0.76329,0.41467,0.19982,0.57001,1.0126,0.47804,0.12122,0.12766,0.38215,0.4537,0.31899,0.080168,0.35485,1.1144,0.91472,0.12677,0.69709,0.2855,0.20564,0.44512,0.39132,0.215,0.27697,0.014452,0.21524,0.47788,0.26337,0.57019,0.52175,0.43302,0.08444,0.68431,0.50936,0.014754,0.25401,0.34743,0.47482,0.60334
0.48634,0.39444,0.34159,0.069859,0.077561,0.062813,0.3701,0.044141,0.32872,0.21399,0.11963,0.073793,0.60652,0.17681,0.39518,0.087498,0.34765,0.22968,0.38991,0.21719,0.33645,0.91466,0.17566,0.17181,0.3867,0.85098,0.40798,0.016536,0.63598,0.24263,0.08226,0.16447,0.34245,0.075028,0.56754,1.0407,0.63324,0.04466,0.24152,0.16353,0.49832,0.4763,0.9201,0.015558,0.053406,0.021921,0.18928,0.14939,0.94552,0.13648,0.56416,0.42498,0.19452,0.118,0.67987,0.34817,0.1342,0.1858,0.702,0.31765,0.23446,0.34479,0.099206,0.27081,0.52493,0.23493,0.056257,0.23763,0.29142,0.51138,0.24033,0.49239,0.59789,0.40832,0.18055,0.0034269,0.57913,0.29959,0.33145,1.1267,0.33966,0.56857,0.11684,0.79891,0.10049,0.12937,0.59842,0.23917,0.47207,0.3132,0.273,0.11523,0.47798,0.45002,0.03443,0.21754,0.56763,0.51828,0.22747,0.074486,0.15231
0.7212,0.25231,0.41371,0.42933,0.17103,0.90771,0.06421,0.31385,0.60107,0.3701,0.33534,0.44467,0.43752,0.13406,0.13583,0.70506,0.41358,0.48944,0.7507,0.50843,0.89293,0.43445,0.30534,0.37222,0.53172,0.24164,0.15522,0.32436,0.32291,0.17396,0.56839,0.46852,0.47423,0.33567,0.13518,0.21201,0.36671,0.6667,0.24398,0.64941,0.52693,0.23439,0.89416,0.028796,0.34602,0.11582,0.27396,0.21002,0.3898,0.1206,0.13167,0.55744,0.2424,0.31539,0.35184,0.22303,0.61924,0.096451,0.5022,0.11751,0.34772,0.24472,0.50196,0.040093,0.33018,0.50435,0.049261,0.75365,0.092447,0.25587,0.00077796,0.30024,0.13015,0.055507,0.36403,0.80866,0.30932,0.15392,1.0969,0.1861,0.47353,0.44642,0.033782,0.15934,0.27437,0.28744,0.25423,0.41144,0.047725,0.37472,0.39637,0.025869,0.097168,0.02746,0.35764,0.75382,0.43637,0.13291,0.15203,0.092015,0.45247
0.081793,0.50821,0.25667,0.22086,0.44564,0.059894,0.3851,0.11312,0.23555,0.069423,0.38971,0.45086,0.6753,0.25725,0.33,0.15528,0.28046,0.5321,0.058442,0.24365,0.22398,0.36208,0.60633,0.01975,0.36184,0.11502,0.12728,0.76551,0.34342,0.51437,0.59344,0.25879,0.062569,0.32341,0.34832,0.34311,0.55909,0.3852,0.24822,0.62593,0.7261,0.12489,0.25451,0.15103,0.17848,0.1756,0.47284,0.10897,0.027524,0.1589,0.28887,0.016031,0.11698,0.054187,0.31508,0.15584,0.56954,0.29271,0.15731,0.035282,0.29564,0.41535,0.044261,0.16049,0.51105,0.12822,0.71655,0.28012,0.25097,0.22316,0.26226,0.26823,0.11306,0.68102,0.031189,0.50495,0.37124,0.50128,0.039608,0.16121,0.42589,0.075135,0.1296,0.4485,0.019884,0.25444,0.29135,0.040401,1.08,0.27508,0.18258,0.1561,0.039894,0.46853,0.28278,0.25398,0.58281,0.071841,0.13733,0.34987,0.31669
0.20788,0.22218,0.059938,0.05784,0.059673,0.094592,0.14092,0.53214,0.36049,0.7545,0.46136,0.37076,0.30793,0.047985,0.072416,0.53512,0.27614,0.32326,0.43229,0.20879,0.28094,0.095662,0.14897,0.32709,0.32983,0.073117,0.62255,0.159,0.13372,0.31821,0.5936,0.42991,0.17903,0.22807,0.07611,0.53837,0.30976,0.30092,0.31221,0.65505,0.12741,0.18371,0.0535,0.098958,0.50205,0.80607,0.14875,0.18981,0.57479,0.22423,0.036602,0.20923,0.073008,0.14179,0.14242,0.065982,0.15823,0.01216,0.20358,0.38077,0.23605,0.20991,0.28417,0.75899,0.14271,0.35219,0.44574,0.027014,0.17759,0.4216,0.28665,0.2004,0.55232,0.19422,0.32861,0.22554,0.042282,0.24525,0.19261,0.13583,0.095893,0.49755,0.63954,0.35338,0.56523,0.44099,0.18067,0.87042,0.66867,0.27863,0.21569,0.30983,0.44174,0.40052,0.49743,0.56626,0.27493,0.34269,0.056078,0.29116,0.46279
0.45233,0.23774,0.44173,0.52814,0.16702,0.1524,0.20789,0.22281,0.036494,0.77929,0.40975,0.081035,0.24066,0.0050099,0.077004,0.73268,0.03172,0.79142,0.013318,0.36268,0.3186,0.13632,0.34026,0.5597,0.17845,0.5576,0.041847,0.18902,0.19558,0.059749,0.28992,0.43955,0.22828,0.054416,0.094714,0.22548,0.56102,0.4248,0.50362,0.4139,0.54784,0.19895,0.044246,0.47499,0.152,0.1756,0.64694,0.014934,0.28532,0.18924,0.24885,0.17362,0.26389,0.16656,0.19703,0.52266,0.15525,0.12905,0.3272,0.029001,0.4611,0.58984,0.091444,0.53862,0.043043,0.059532,0.50625,0.1579,0.70688,0.22498,0.1974,0.023399,0.1419,0.24602,0.041103,0.16979,0.29739,0.19805,0.2922,0.053049,0.16275,0.41547,0.12518,0.13336,0.19629,0.19275,0.16777,0.43685,0.063471,0.059673,0.22165,0.0093879,0.59149,0.58197,0.18083,0.25216,0.49275,0.034861,0.35287,0.16281,0.24432
0.72309,0.035588,0.55838,0.072783,0.25619,0.16946,0.027961,0.087862,0.21209,0.27342,0.25196,0.058044,0.077096,0.62737,0.038078,0.22861,0.12427,0.18586,0.80168,0.0015754,0.35536,0.2165,0.14051,0.30174,0.0087065,0.038268,0.19495,0.39895,0.11145,0.32137,0.61116,0.25707,0.26971,0.42101,0.065106,0.52865,0.024433,0.28037,0.13935,0.2148,0.031472,0.54657,0.6617,0.072333,0.056145,0.073762,0.46125,0.22631,0.21664,0.21679,0.047505,0.35618,0.29345,0.02761,0.10575,0.1033,0.13332,0.30345,0.53771,0.41637,0.10405,0.045799,0.10977,0.33944,0.0631,0.22868,0.27006,0.37693,0.19096,0.4192,0.39512,0.54845,0.42107,0.23096,0.11534,0.013964,0.028947,0.3353,0.9681,0.53843,0.39387,0.35682,0.074909,0.02742,0.30047,0.2747,0.54214,0.43255,0.21228,0.0011482,0.22857,0.49912,0.043832,0.15247,0.042158,0.092857,0.074917,0.1617,0.16183,0.44533,0.56447
0.1957,0.21978,0.41597,0.38203,0.10231,0.21633,0.43459,0.34716,0.19356,0.0894,0.25812,0.16171,0.4359,0.19835,0.1292,0.34989,0.18044,0.3374,0.092972,0.51936,0.20396,0.36164,0.022438,0.14224,0.48973,0.0032718,0.0994,0.2572,0.011664,0.21222,0.090326,0.20482,0.010407,0.21914,0.28002,0.2603,0.017664,0.14672,0.48605,0.54594,0.092669,0.36536,0.49274,0.4344,0.076802,0.27266,0.15355,0.26048,0.3679,0.14135,0.32718,0.16239,0.47038,0.48317,0.07986,0.23833,0.42432,0.11463,0.066208,0.12408,0.007789,0.38678,0.12793,0.19415,0.1309,0.74117,0.12936,0.38682,0.41641,0.30143,0.54632,0.39974,0.57318,0.29432,0.12287,0.073034,0.6282,0.29576,0.29842,0.43078,0.065493,0.3287,0.29355,0.36816,0.17603,0.08981,0.32408,0.47699,0.25471,0.13994,0.68457,0.41733,0.2232,0.31273,0.4407,0.12674,0.045316,0.00079586,0.11841,0.011022,0.24012
0.24539,0.22787,0.38256,0.25547,0.81848,0.18339,0.35702,0.23926,0.061643,0.27177,0.24858,0.20896,0.3339,0.01557,0.16626,0.051241,0.18381,0.019168,0.33518,0.67996,0.056581,0.40497,0.17598,0.31492,0.63184,0.13978,0.40663,0.31565,0.12183,0.41835,0.037694,0.20893,0.26578,0.16696,0.18981,0.07521,0.041516,0.0087189,0.2033,0.047682,0.19732,0.1609,0.23864,0.2274,0.14086,0.15833,0.33122,0.24307,0.022109,0.10921,0.64524,0.44125,0.1021,0.40525,0.43545,0.064264,0.2622,0.25692,0.03406,0.1341,0.55015,0.51294,0.2163,0.35509,0.019609,0.36325,0.075218,0.6154,0.15594,0.060489,0.25412,0.12962,0.25775,0.069465,0.044201,0.26492,0.118,0.2362,0.27155,0.12,0.091081,0.044007,0.036598,0.0128,0.43915,0.36834,0.25917,0.035572,0.12105,0.27489,0.073241,0.21896,0.088916,0.073164,0.16002,0.20962,0.1586,0.22467,0.15879,0.36492,0.57188
0.006708,0.32967,0.17532,0.24241,0.19362,0.17319,0.13461,0.10759,0.16282,0.17699,0.48984,0.41592,0.01531,0.081273,0.23223,0.092812,0.13189,0.09228,0.13158,0.1443,0.33566,0.27376,0.48634,0.33519,0.13908,0.070082,0.095975,0.31993,0.3348,0.42012,0.1342,0.015829,0.37177,0.17163,0.42212,0.24395,0.088835,0.18801,0.18878,0.016433,0.15899,0.057692,0.23397,0.21413,0.084587,0.031756,0.32198,0.16854,0.40917,0.057277,0.71119,0.13263,0.32381,0.19295,0.24041,0.17355,0.25378,0.041049,0.14334,0.14627,0.031399,0.2376,0.11713,0.072395,0.070718,0.28711,0.15985,0.21756,0.88269,0.010555,0.10621,0.14118,0.049791,0.035621,0.23334,0.054498,0.14183,0.073164,0.21537,0.34305,0.13414,0.099995,0.07227,0.033592,0.54072,0.11057,0.16989,0.16916,0.42064,0.13566,0.31665,0.084585,0.33742,0.19957,0.040587,0.075909,0.19385,0.11763,0.12754,0.38821,0.44485
0.31197,0.12842,0.0044483,0.42648,0.21831,0.21171,0.2445,0.027,0.30456,0.24185,0.10387,0.49416,0.13642,0.6378,0.30692,0.10696,0.044641,0.11953,0.066623,0.66669,0.11274,0.23566,0.18237,0.066396,0.044026,0.25716,0.54356,0.2811,0.12577,0.27598,0.071612,0.40092,0.3452,0.19572,0.30098,0.049004,0.5013,0.026835,0.052616,0.0024924,0.35644,0.30243,0.098883,0.21498,0.29306,0.4412,0.29878,0.29122,0.084769,0.0079479,0.021211,0.05555,0.088352,0.023285,0.34437,0.39473,0.18303,0.071482,0.38889,0.068415,0.28889,0.031178,0.184,0.031588,0.10743,0.38291,0.29134,0.44397,0.068955,0.27428,0.19425,0.15218,0.33055,0.16681,0.21462,0.10061,0.10663,0.13565,0.31257,0.077136,0.16146,0.29798,0.013717,0.21718,0.18047,0.12886,0.18585,0.21763,0.30025,0.089047,0.14153,0.076967,0.30563,0.065008,0.22102,0.35897,0.16827,0.37664,0.2586,0.19953,0.083281
0.048327,0.095888,0.16296,0.070235,0.43345,0.073536,0.089498,0.1307,0.097087,0.54456,0.35689,0.32019,0.24131,0.16205,0.47643,0.46682,0.22927,0.033623,0.60793,0.097373,0.12336,0.51693,0.36728,0.2649,0.28969,0.0054457,0.17172,0.24037,0.37126,0.18968,0.15933,0.1374,0.063276,0.021586,0.2732,0.39758,0.47407,0.089556,0.20767,0.12602,0.55247,0.012754,0.15858,0.2001,0.23303,0.24598,0.065578,0.069618,0.23796,0.060975,0.32847,0.27023,0.056035,0.32315,0.4025,0.10661,0.15353,0.010546,0.054601,0.074505,0.14392,0.26781,0.24976,0.41122,0.089527,0.23169,0.24628,0.60934,0.1554,0.56752,0.25238,0.089038,0.065083,0.051168,0.2186,0.15624,0.11465,0.14801,0.16224,0.086569,0.16382,0.41662,0.010428,0.30911,0.25711,0.45465,0.24193,0.17662,0.05133,0.31223,0.30242,0.3812,0.13716,0.3418,0.15637,0.11856,0.058564,0.16605,0.18199,0.17168,0.09919
0.22304,0.12568,0.35933,0.095686,0.15957,0.41904,0.15384,0.059599,0.19152,0.17891,0.096424,0.34601,0.17658,0.34595,0.11269,0.3736,0.047521,0.087319,0.25028,0.5352,0.24796,0.046302,0.047406,0.16399,0.14662,0.15386,0.087745,0.26703,0.087568,0.095773,0.2247,0.11452,0.2143,0.10401,0.07559,0.21084,0.2272,0.23642,0.14509,0.0315,0.070168,0.032116,0.27947,0.63053,0.36017,0.26215,0.1204,0.078989,0.19257,0.16369,0.22023,0.18598,0.10814,0.071477,0.15411,0.38758,0.014277,0.032674,0.26466,0.20865,0.094593,0.39141,0.11991,0.18773,0.054766,0.32597,0.058007,0.33498,0.31272,0.34842,0.16204,0.043999,0.099847,0.17362,0.12885,0.15184,0.10353,0.080329,0.31194,0.22432,0.13328,0.27333,0.15649,0.19897,0.11842,0.097612,0.39848,0.015375,0.17489,0.085568,0.21675,0.20594,0.0056428,0.11523,0.0081648,0.40619,0.055394,0.049726,0.31091,0.069222,0.057108
0.2727,0.068526,0.002294,0.24969,0.55034,0.037792,0.058124,0.085512,0.15143,0.57148,0.10303,0.15443,0.27412,0.094329,0.10744,0.073983,0.20559,0.1352,0.23672,0.45179,0.096932,0.11276,0.63243,0.32358,0.17502,0.32795,0.03086,0.15894,0.01891,0.25273,0.27383,0.34646,0.077107,0.28184,0.21525,0.29575,0.1238,0.0088928,0.08691,0.17659,0.019604,0.067944,0.10398,0.20529,0.15063,0.090593,0.16163,0.18287,0.1157,0.024789,0.065738,0.43179,0.050157,0.32199,0.27458,0.38587,0.23584,0.15366,0.32165,0.0073174,0.39115,0.51525,0.24631,0.052387,0.13168,0.14019,0.12631,0.21192,0.011827,0.14269,0.23881,0.28403,0.055932,0.26928,0.28806,0.18013,0.015755,0.0020327,0.27322,0.089034,0.23509,0.13977,0.1521,0.009639,0.082111,0.039313,0.064695,0.42517,0.25318,0.22205,0.06478,0.14122,0.084995,0.42471,0.10552,0.30475,0.14832,0.13985,0.27215,0.092131,0.46558
0.37391,0.51101,0.13221,0.022075,0.017737,0.098887,0.082498,0.0096563,0.58731,0.046575,0.017984,0.0143,0.27081,0.2316,0.12726,0.29702,0.01773,0.21932,0.036322,0.38091,0.19621,0.16215,0.11087,0.092482,0.090121,0.10488,0.31774,0.27682,0.11933,0.16544,0.23449,0.19937,0.22904,0.27606,0.047196,0.12073,0.10223,0.074472,0.053015,0.1352,0.37944,0.10897,0.22134,0.13277,0.16131,0.13178,0.013183,0.38169,0.13994,0.37912,0.096646,0.17299,0.0012344,0.20634,0.49685,0.36947,0.12182,0.095621,0.26827,0.15553,0.033124,0.27569,0.0015579,0.16279,0.42784,0.22719,0.22631,0.16122,0.058575,0.29418,0.20049,0.36273,0.2939,0.15641,0.48353,0.033786,0.18041,0.089473,0.0099424,0.13366,0.009928,0.352,0.049428,0.24088,0.30466,0.15452,0.30131,0.024174,0.027241,0.0071161,0.091414,0.14244,0.033646,0.12478,0.20373,0.089266,0.19973,0.015188,0.0029975,0.13605,0.087781
0.18829,0.079729,0.093177,0.06827,0.31626,0.010207,0.08459,0.11921,0.13072,0.075993,0.015474,0.15999,0.19133,0.044516,0.24708,0.23713,0.14806,0.2148,0.11735,0.0052411,0.16244,0.28571,0.08108,0.084619,0.056108,0.03715,0.18977,0.20774,0.26303,0.017639,0.01241,0.284,0.12003,0.11467,0.0060396,0.10975,0.027793,0.33137,0.19236,0.24312,0.048599,0.11973,0.11189,0.08864,0.035815,0.031407,0.24881,0.025776,0.039137,0.30764,0.16524,0.1314,0.31456,0.056094,0.34761,0.1135,0.10197,0.019386,0.079676,0.11337,0.0025443,0.08198,0.047844,0.011386,0.098785,0.032965,0.29487,0.22065,0.12658,0.25693,0.048407,0.19031,0.13256,0.12975,0.42915,0.14284,0.3588,0.030519,0.07179,0.07141,0.054196,0.055076,0.19776,0.14268,0.033733,0.16187,0.23068,0.0076767,0.1635,0.031883,0.37499,0.058782,0.022794,0.20452,0.0055416,0.12776,0.3309,0.24511,0.43918,0.21109,0.075753
0.32633,0.010829,0.010437,0.035342,0.069535,0.41499,0.26541,0.016264,0.3066,0.0085539,0.018291,0.17389,0.20415,0.11923,0.34994,0.053872,0.11744,0.070573,0.00038869,0.045953,0.17927,0.076103,0.0283,0.096886,0.10756,0.04178,0.33191,0.045168,0.089379,0.31898,0.14293,0.26605,0.0041794,0.31688,0.085523,0.31318,0.20583,0.43549,0.12661,0.065804,0.2456,0.053752,0.02685,0.023793,0.14533,0.20036,0.081076,0.26253,0.1822,0.10876,0.24418,0.06809,0.064994,0.049417,0.31926,0.089453,0.029948,0.12102,0.11658,0.15596,0.10424,0.091915,0.017136,0.54092,0.069049,0.099517,0.31021,0.097379,0.031922,0.04284,0.085734,0.21643,0.082542,0.23405,0.011209,0.17407,0.17856,0.34386,0.076583,0.11172,0.079424,0.26344,0.096411,0.27982,0.16926,0.3134,0.052682,0.063308,0.12252,0.072774,0.36867,0.03153,0.25051,0.12379,0.17052,0.010851,0.18897,0.29533,0.042474,0.24426,0.044352
0.092994,0.089904,0.22095,0.019779,0.082167,0.17327,0.096583,0.02065,0.015755,0.005235,0.020608,0.12705,0.15674,0.062857,0.042387,0.05231,0.12993,0.078733,0.012342,0.12571,0.063776,0.029299,0.28021,0.46569,0.043057,0.092893,0.25189,0.31855,0.20272,0.099613,0.0027978,0.12654,0.042919,0.25581,0.18738,0.1165,0.13372,0.012274,0.01368,0.22141,0.092799,0.15053,0.05471,0.22101,0.24261,0.1996,0.27136,0.074774,0.26655,0.017432,0.0011458,0.10257,0.017672,0.080658,0.14973,0.14176,0.098129,0.029406,0.31778,0.15499,0.022208,0.14334,0.13484,0.30594,0.14794,0.061061,0.011515,0.094922,0.13881,0.13903,0.16484,0.2262,0.074682,0.20123,0.016224,0.15265,0.36167,0.19421,0.21879,0.057117,0.15721,0.080365,0.065557,0.16956,0.013313,0.22608,0.023498,0.14207,0.040042,0.11254,0.057317,0.12475,0.22555,0.088176,0.25571,0.1673,0.09054,0.098321,0.13902,0.034243,0.16575
0.081417,0.020327,0.013704,0.095133,0.30074,0.31917,0.045924,0.12694,0.086453,0.044668,0.072606,0.12463,0.11961,0.18495,0.1264,0.14612,0.37729,0.066886,0.087621,0.23235,0.50171,0.24926,0.23487,0.049932,0.097874,0.074439,0.015578,0.30637,0.09233,0.027711,0.17532,0.1564,0.24959,0.21973,0.10771,0.23789,0.17835,0.069786,0.19804,0.027717,0.083409,0.074121,0.05458,0.0487,0.059323,0.11318,0.18991,0.10418,0.29828,0.02827,0.00021611,0.1856,0.019695,0.21355,0.11361,0.036993,0.029298,0.013212,0.02047,0.12175,0.027109,0.13342,0.29521,0.13417,0.0057371,0.31453,0.18979,0.15933,0.13111,0.086096,0.1458,0.0066686,0.027854,0.019653,0.21948,0.34008,0.018463,0.12437,0.092919,0.05436,0.28928,0.039105,0.13743,0.10211,0.11275,0.0032617,0.033095,0.047535,0.074029,0.010107,0.12611,0.15932,0.12463,0.049547,0.22945,0.054394,0.04909,0.047075,0.32463,0.10989,0.028172
0.12388,0.24153,0.20216,0.12522,0.036035,0.12917,0.13455,0.2441,0.18484,0.030836,0.21383,0.16987,0.309,0.054555,0.25914,0.046332,0.10969,0.088031,0.34791,0.25504,0.28139,0.10428,0.077931,0.12403,0.17712,0.13582,0.098232,0.25401,0.0082391,0.16059,0.22273,0.033916,0.20842,0.11774,0.0052159,6.9584e-05,0.15928,0.020575,0.12551,0.13628,0.062954,0.1083,0.16816,0.38848,0.024812,0.20683,0.17919,0.52939,0.50316,0.17454,0.11834,0.0077771,0.049077,0.037041,0.27039,0.039066,0.26212,0.13765,0.14327,0.14125,0.12072,0.079674,0.090327,0.10493,0.13057,0.19747,0.034466,0.10364,0.024002,0.16996,0.17999,0.15475,0.0016721,0.068576,0.0034174,0.069761,0.1523,0.15493,0.075073,0.21013,0.078383,0.205,0.30638,0.20936,0.09381,0.25661,0.035934,0.050595,0.10065,0.097928,0.13793,0.058725,0.0665,0.15433,0.19328,0.13977,0.015693,0.031002,0.20632,0.29572,0.035102
0.11582,0.21134,0.10108,0.16296,0.10305,0.10479,0.048983,0.27986,0.20063,0.18915,0.11711,0.14817,0.25335,0.04317,0.11989,0.44764,0.13579,0.13625,0.13626,0.18825,0.22801,0.21605,0.17581,0.016738,0.016546,0.0011275,0.076151,0.033612,0.064165,0.081819,0.097597,0.050034,0.14277,0.033022,0.12878,0.031752,0.0090655,0.076946,0.067548,0.087539,0.13408,0.16491,0.046887,0.11377,0.086086,0.062655,0.10448,0.11797,0.10885,0.15466,0.15242,0.13143,0.13415,0.092856,0.14988,0.078661,0.037657,0.046021,0.07833,0.072343,0.19068,0.11461,0.032719,0.15965,0.29027,0.056166,0.16101,0.18386,0.11766,0.098025,0.28765,0.057062,0.034357,0.31776,0.062793,0.064886,0.1311,0.16827,0.071076,0.087829,0.049608,0.20201,0.11681,0.20798,0.045527,0.16858,0.23975,0.31347,0.050958,0.033428,0.12703,0.0026024,0.050025,0.059887,0.13775,0.24645,0.096688,0.26332,0.15239,0.15478,0.1756
0.057796,0.012929,0.22732,0.091684,0.28597,0.019592,0.17609,0.12278,0.017211,0.060963,0.033643,0.13423,0.12131,0.11179,0.16423,0.0064854,0.23569,0.11829,0.014809,0.039598,0.065236,0.078542,0.23067,0.02422,0.11225,0.021907,0.23983,0.082038,0.22225,0.00020482,0.0030204,0.34766,0.23802,0.013817,0.22654,0.11414,0.0088769,0.0038502,0.12785,0.084589,0.063182,0.046375,0.025573,0.10695,0.19382,0.15472,0.070736,0.16493,0.17848,0.09347,0.28857,0.065465,0.22918,0.089828,0.1766,0.090267,0.18424,0.057837,0.073036,0.0050247,0.11762,0.074536,0.18884,0.25889,0.30158,0.28133,0.069167,0.20808,0.16986,0.28332,0.1188,0.22107,0.23006,0.11267,0.14128,0.063033,0.2209,0.062185,0.09417,0.048364,0.19563,0.088908,0.016914,0.31406,0.060012,0.063665,0.11702,0.089673,0.21173,0.049233,0.027834,0.011932,0.081375,0.027767,0.15407,0.041341,0.13952,0.02197,0.013417,0.012824,0.063451
0.10605,0.27294,0.22717,0.1283,0.18007,0.054578,0.18666,0.17572,0.15451,0.035055,0.046997,0.060491,0.08293,0.056568,0.22864,0.11309,0.0017794,0.090851,0.040435,0.090386,0.032471,0.017824,0.22138,0.032458,0.098828,0.11681,0.18752,0.097548,0.025042,0.0034219,0.094438,0.22054,0.25925,0.076055,0.068488,0.195,0.0073954,0.22195,0.026942,0.058262,0.024217,0.12707,0.086883,0.25538,0.1449,0.029846,0.32445,0.026543,0.064975,0.067546,0.0021013,0.286,0.062848,0.2219,0.036585,0.039598,0.0258,0.036638,0.11076,0.046789,0.12279,0.041599,0.054939,0.090381,0.073942,0.14746,0.013048,0.065391,0.0027889,0.044008,0.076885,0.018491,0.011728,0.068608,0.055913,0.033578,0.030194,0.13966,0.076464,0.050948,0.030898,0.16767,0.076124,0.06789,0.11441,0.042772,0.14008,0.079302,0.058543,0.014004,0.060178,0.060106,0.071251,0.031132,0.0013579,0.21604,0.12396,0.099195,0.22887,0.21667,0.097503
0.12052,0.20593,0.050364,0.123,0.04662,0.16183,0.15089,0.013958,0.013223,0.041613,0.037092,0.12929,0.094003,0.081869,0.27666,0.11612,0.21267,0.164,0.21277,0.14245,0.058453,0.23984,0.12501,0.045928,0.13559,0.13539,0.18953,0.19776,0.066979,0.028996,0.14028,0.32706,0.064187,0.15396,0.019736,0.043307,0.03042,0.10033,0.22815,0.096542,0.099257,0.16682,0.12513,0.086282,0.24813,0.20862,0.12787,0.037042,0.12136,0.17607,0.0062209,0.14921,0.074965,0.031116,0.1858,0.10155,0.1575,0.054459,0.21544,0.097508,0.17106,0.074802,0.076389,0.21967,0.056875,0.074363,0.13175,0.031108,0.096834,0.12506,0.16059,0.17708,0.06223,0.062449,0.12563,0.10296,0.22774,0.065121,0.10499,0.025057,0.23813,0.12974,0.005411,0.084718,0.012915,0.069501,0.064238,0.0010431,0.073109,0.098936,0.081151,0.19183,0.06714,0.13316,0.13392,0.079013,0.1222,0.034381,0.20686,0.18077,0.026351
0.10479,0.14296,0.18841,0.16019,0.14101,0.12725,0.15348,0.0010805,0.08579,0.14074,0.090369,0.037016,0.066036,0.012062,0.069848,0.12234,0.047584,0.0088404,0.044479,0.13737,0.020409,0.090819,0.15451,0.066596,0.071112,0.039416,0.029001,0.14513,0.0070571,0.095903,0.0065274,0.082381,0.098903,0.054007,0.098446,0.080156,0.025634,0.2391,0.12206,0.043671,0.035189,0.14139,0.13221,0.048849,0.041575,0.1049,0.10479,0.0055819,0.05825,0.049883,0.10124,0.12515,0.065044,0.078056,0.056382,0.12169,0.1357,0.051942,0.017049,0.084354,0.12551,0.21411,0.21308,0.29238,0.032536,0.058928,0.093423,0.021432,0.1117,0.08276,0.048435,0.085886,0.25307,0.32404,0.23012,0.16099,0.037142,0.18584,0.093299,0.027363,0.040929,0.048671,0.13442,0.011224,0.15177,0.13246,0.018859,0.079996,0.17173,0.13529,0.26257,0.19004,0.023556,0.095852,0.027536,0.0035968,0.06977,0.26033,0.025127,0.10761,0.13211
0.17555,0.12149,0.047261,0.1487,0.0093443,0.11315,0.018862,0.042008,0.28122,0.10881,0.074574,0.073238,0.2782,0.062995,0.08492,0.01022,0.072812,0.16361,0.12082,0.0049449,0.1066,0.10744,0.0012547,0.24557,0.078169,0.079034,0.014855,0.097511,0.0016147,0.18855,0.27342,0.097001,0.0022746,0.11039,0.10051,0.023179,0.18123,0.053783,0.14966,0.019557,0.06923,0.018245,0.24846,0.023267,0.19268,0.085514,0.16941,0.06223,0.15657,0.075401,0.044176,0.038923,0.081302,0.11967,0.041371,0.02837,0.14506,0.11482,0.12193,0.011474,0.063647,0.096346,0.068436,0.032251,0.1419,0.010486,0.034533,0.073852,0.042226,0.24085,0.069581,0.069703,0.049807,0.18234,0.054178,0.11798,0.047057,0.09479,0.2268,0.054753,0.029639,0.0054793,0.044907,0.18943,0.35548,0.050589,0.029463,0.18145,0.11858,0.0055108,0.032405,0.012051,0.036026,0.16591,0.079382,0.083684,0.11604,0.20813,0.0078848,0.18641,0.055182
0.089473,0.1554,0.10001,0.069204,0.011659,0.10365,0.17693,0.020819,0.08081,0.011101,0.022596,0.20601,0.039081,0.099884,0.033912,0.12667,0.076625,0.065914,0.061053,0.097229,0.15781,0.055405,0.049221,0.11601,0.067864,0.058108,0.080118,0.12952,0.11235,0.0057841,0.081696,0.13239,0.11547,0.042191,0.015784,0.0050387,0.1205,0.023487,0.10411,0.0030923,0.13765,0.06216,0.010435,0.059689,0.10818,0.14595,0.2031,0.082405,0.10978,0.094254,0.055326,0.035171,0.04657,0.083201,0.11455,0.11249,0.12027,0.022805,0.10703,0.004155,0.14115,0.0014031,0.024793,0.032878,0.083634,0.061286,0.0044304,0.054811,0.035389,0.10151,0.016207,0.11905,0.097096,0.045116,0.025716,0.031675,0.17932,0.034937,0.026563,0.012144,0.02247,0.1497,0.076302,0.13698,0.0085812,0.056653,0.023973,0.055476,0.053819,0.062138,0.037721,0.067212,0.11912,0.053114,0.25846,0.19985,0.062845,0.091717,0.034516,0.067096,0.03902
0.11691,0.071845,0.038785,0.082416,0.013945,0.044488,0.13607,0.13488,0.0336,0.16529,0.026815,0.013224,0.1524,0.099552,0.010445,0.10022,0.11255,0.00060865,0.0095633,0.022524,0.026554,0.063018,0.01061,0.10034,0.12844,0.079414,0.16036,0.017695,0.032163,0.019152,0.0019533,0.056466,0.15298,0.065268,0.20494,0.028632,0.024863,0.010951,0.14007,0.0095286,0.02873,0.018165,0.047202,0.098073,0.020878,0.021994,0.082137,0.084208,0.13953,0.067589,0.10692,0.11225,0.031261,0.11303,0.021081,0.14315,0.13231,0.09396,0.046978,0.094421,0.066891,0.019653,0.12516,0.034312,0.087077,0.020386,0.055937,0.036353,0.012986,0.1027,0.15983,0.059455,0.09486,0.014903,0.028183,0.17652,0.10341,0.067785,0.0070099,0.022654,0.028176,0.073777,0.11242,0.016137,0.16188,0.14344,0.049009,0.11659,0.092733,0.10172,0.024009,0.29681,0.10655,0.13495,0.070963,0.0020192,0.053404,0.23608,0.019141,0.27171,0.035455
0.13483,0.019765,0.13043,0.048401,0.081431,0.096081,0.10872,0.10877,0.18323,0.07623,0.076211,0.015044,0.10706,0.1557,0.090769,0.21613,0.085322,0.092424,0.094608,0.077386,0.044567,0.066495,0.12338,0.012328,0.13853,0.12731,0.024355,0.07383,0.055708,0.030268,0.041134,0.13543,0.011292,0.086747,0.18827,0.036179,0.099736,0.13582,0.050844,0.0085804,0.011188,0.023373,0.037854,0.027183,0.020421,0.24203,0.073099,0.013737,0.11985,0.18171,0.074437,0.074526,0.06334,0.059231,0.0039838,0.018358,0.065826,0.0042694,0.13618,0.08026,0.030705,0.13617,0.091966,0.041556,0.13627,0.011983,0.11105,0.020421,0.043056,0.13034,0.055488,0.025228,0.01293,0.088871,0.061713,0.042066,0.12803,0.081505,0.04276,0.0086134,0.14963,0.16422,0.025884,0.17799,0.063483,0.076757,0.062217,0.027811,0.058512,0.12224,0.14143,0.071317,0.029891,0.058975,0.12202,0.04833,0.021711,0.018283,0.12934,0.061154,0.10032
0.036527,0.012666,0.0040499,0.1503,0.096437,0.052534,0.13083,0.0076516,0.19273,0.014924,0.078911,0.0043192,0.1373,0.069482,0.16426,0.12756,0.12145,0.0014158,0.046122,0.10584,0.094812,0.16348,0.094692,0.00203,0.036789,0.014851,0.1178,0.1046,0.073894,0.061209,0.12168,0.095521,0.041483,0.17965,0.053976,0.0076049,0.095424,0.078841,0.14227,0.087099,0.020566,0.056397,0.010347,0.0092267,0.021477,0.096575,0.0984,0.021314,0.035964,0.057611,0.18858,0.013446,0.024105,0.15132,0.085674,0.030752,0.062944,0.066517,0.018106,0.062382,0.090052,0.046921,0.1272,0.053575,0.13662,0.0016297,0.038246,0.17189,0.029454,0.15602,0.16567,0.18948,0.097611,0.02959,0.014018,0.1095,0.067248,0.076506,0.13861,0.12496,0.029989,0.13263,0.042753,0.021763,0.021781,0.13398,0.039545,0.017743,0.20862,0.060065,0.097943,0.080591,0.045406,0.19781,0.19163,0.12151,0.023336,0.018654,0.12217,0.047045,0.11181
0.043619,0.089977,0.071334,0.020558,0.14534,0.030982,0.057047,0.033876,0.023738,0.17294,0.058958,0.13645,0.052488,0.12253,0.0042977,0.0063404,0.18311,0.095796,0.055045,0.096772,0.0714,0.0047007,0.034048,0.042309,0.072075,0.034031,0.11747,0.1304,0.099856,0.1825,0.11948,0.0073757,0.025731,0.14642,0.12809,0.012676,0.035966,0.025062,0.067429,0.053541,0.0074437,0.028447,0.026515,0.078127,0.036852,0.074529,0.060824,0.057119,0.10517,0.10549,0.055881,0.03641,0.061547,0.04912,0.081735,0.10795,0.14273,0.079238,0.052114,0.038092,0.084221,0.069645,0.025244,0.13598,0.092948,0.10918,0.11864,0.12856,0.038585,0.0082145,0.023165,0.024454,0.059722,0.081844,0.037495,0.031595,0.010373,0.1966,0.067933,0.060197,0.18844,0.065352,0.036471,0.16856,0.11115,0.058002,0.083012,0.070396,0.10403,0.00143,0.10113,0.17155,0.094966,0.16366,0.016873,0.0046231,0.067826,0.046566,0.13709,0.15157,0.050642
0.045221,0.04783,0.012549,0.087905,0.031974,0.060156,0.077988,0.0044733,0.10023,0.068004,0.029465,0.023948,0.036493,0.14364,0.17404,0.14125,0.021409,0.011816,0.00092676,0.17656,0.12102,0.04164,0.13198,0.0081369,0.0083945,0.026728,0.11243,0.08247,0.020873,0.025191,0.10328,0.030925,0.11891,0.17149,0.069091,0.034953,0.08792,0.17048,0.029383,0.087468,0.11569,0.0086741,0.056388,0.078561,0.074198,0.0056602,0.033166,0.074939,0.020285,0.077174,0.06055,0.010565,0.079163,0.045653,0.20606,0.064854,0.015676,0.009313,0.22387,0.0066372,0.10101,0.088585,0.070052,0.10947,0.021058,0.0083906,0.053094,0.075075,0.064978,0.066976,0.099181,0.091711,0.011133,0.033594,0.096741,0.021687,0.11641,0.039083,0.068804,0.0041388,0.089462,0.05649,0.096142,0.01124,0.092645,0.05324,0.04565,0.13427,0.1684,0.11428,0.066268,0.0087956,0.080904,0.12995,0.091154,0.042463,0.032361,0.071245,0.011693,0.17682,0.049718
0.08871,0.048056,0.074231,0.096281,0.048034,0.10395,0.068662,0.021264,0.1067,0.040178,0.010844,0.011424,0.061415,0.045074,0.0026531,0.10055,0.16437,0.011722,0.007726,0.052777,0.15352,0.012158,0.032307,0.039707,0.12173,0.061646,0.19386,0.039281,0.12269,0.12798,0.035715,0.038934,0.017945,0.023532,0.051735,0.025819,0.072801,0.0030094,0.013483,0.054618,0.0084977,0.089694,0.041986,0.040058,0.068472,0.17519,0.13544,0.011492,0.049928,0.13464,0.0019678,0.1037,0.030759,0.063612,0.041813,0.25,0.025609,0.10576,0.0073302,0.069007,0.11574,0.021481,0.13524,0.092871,0.023925,0.067127,0.037837,0.11126,0.043673,0.0029412,0.021757,0.11708,0.037553,0.076865,0.12604,0.083432,0.030374,0.031917,0.053926,0.0031986,0.057344,0.083731,0.0037378,0.024057,0.047022,0.09561,0.02972,0.0081684,0.015554,0.15985,0.087855,0.024863,0.085891,0.071675,0.096344,0.09523,0.079003,0.11403,0.021372,0.096641,0.0086804
0.091567,0.090332,0.073112,0.030222,0.025645,0.094289,0.036443,0.10529,0.037373,0.10139,0.011213,0.037564,0.031832,0.04148,0.033386,0.20784,0.067368,0.013649,0.084133,0.091497,0.032841,0.028293,0.0096914,0.0058467,0.045062,0.058617,0.0013932,0.028605,0.098286,0.033067,0.042744,0.0040668,0.11497,0.0059057,0.11386,0.044297,0.068806,0.060913,0.1387,0.027066,0.0019067,0.030798,0.0099882,0.076243,0.0135,0.0886,0.083539,0.153,0.10509,0.018201,0.058064,0.029061,0.037634,0.022386,0.031471,0.077708,0.065043,0.013322,0.027298,0.013423,0.031772,0.059947,0.081921,0.012051,0.039482,0.0094758,0.031022,0.051909,0.15031,0.028153,0.071492,0.12473,0.002247,0.0070869,0.056883,0.12106,0.0431,0.047049,0.003012,0.0068685,0.096504,0.020949,0.06146,0.088882,0.058283,0.085675,0.012804,0.018181,0.1184,0.028513,0.057478,0.044305,0.0030521,0.084589,0.00064878,0.04775,0.088446,0.016023,0.049654,0.0045313,0.068197
0.056298,0.049608,0.039763,0.22573,0.060751,0.082433,0.053355,0.019599,0.049051,0.06093,0.031523,0.071313,0.0095081,0.11983,0.0080632,0.057391,0.010253,0.10234,0.047704,0.10725,0.075056,0.081642,0.037618,0.011816,0.10604,0.098473,0.017071,0.042927,0.047508,0.12417,0.043808,0.017222,0.024767,0.020796,0.019048,0.11841,0.076449,0.10237,0.0031164,0.023535,0.082724,0.082431,0.014084,0.014616,0.018418,0.042188,0.16787,0.084596,0.096854,0.094649,0.0089294,0.01914,0.072941,0.057199,0.068225,0.010527,0.10756,0.049245,0.024876,0.021564,0.051747,0.069015,0.1023,0.04782,0.14839,0.086473,0.078233,0.29416,0.10013,0.024113,0.0066846,0.02626,0.01516,0.030731,0.021059,0.027654,0.017217,0.0091775,0.23326,0.036854,0.049946,0.097558,0.087357,0.036951,0.053549,0.028786,0.15579,0.0094794,0.081186,0.16496,0.017398,0.088547,0.051618,0.06633,0.0038884,0.14453,0.059543,0.071524,0.063215,0.072418,0.0085016
0.046252,0.029033,0.13042,0.060657,0.099152,0.061733,0.11903,0.12794,0.012681,0.1713,0.032877,0.05568,0.025081,0.018635,0.060154,0.12754,0.060225,0.048925,0.16192,0.006967,0.011229,0.0067562,0.0061221,0.033577,0.033306,0.12083,0.006153,0.10294,0.11227,0.021847,0.048515,0.010206,0.13097,0.0061347,0.010023,0.067817,0.051916,0.024649,0.054264,0.0049366,0.081136,0.01983,0.009178,0.080994,0.085844,0.016005,0.038494,0.068717,0.13412,0.090107,0.016633,0.00089594,0.025456,0.029068,0.022111,0.11215,0.046984,0.098943,0.083755,0.011266,0.052328,0.040944,0.041962,0.019844,0.0050312,0.076359,0.053276,0.093576,0.063734,0.027125,0.0066545,0.018365,0.09242,0.022584,0.073387,0.0022513,0.013461,0.0013782,0.035465,0.042612,0.074905,0.072342,0.10773,0.010799,0.091665,0.072609,0.10059,0.027872,0.058175,0.045128,0.013849,0.055906,0.024597,0.075314,0.024412,0.10261,0.014022,0.00023232,0.013451,0.051288,0.17687
0.11978,0.036599,0.021744,0.00036139,0.074507,0.036794,0.02443,0.054218,0.063608,0.15589,0.060768,0.020683,0.027889,0.021921,0.028689,0.069138,0.031503,0.024413,0.00961,0.048048,0.066555,0.0022243,0.13122,0.096013,0.060947,0.076174,0.087857,0.034183,0.0065711,0.0065399,0.027916,0.0079089,0.041779,0.054098,0.0031342,0.036383,0.09755,0.060282,0.0099863,0.043804,0.031566,0.0086078,0.091373,0.03762,0.00084007,0.04053,0.010412,0.026303,0.090646,0.047707,0.050281,0.081703,0.025788,0.060869,0.0098062,0.071421,0.062032,0.032432,0.038001,0.024466,0.0044539,0.0081655,0.059168,0.016566,0.093269,0.10628,0.049939,0.030891,0.096191,0.018606,0.046788,0.12972,0.049335,0.0036791,0.031175,0.0077297,0.059954,0.036156,0.032656,0.036106,0.02443,0.087862,0.111,0.10408,0.0067827,0.053761,0.0048197,0.070403,0.028092,0.021439,0.033252,0.061326,0.091116,0.040637,0.12245,0.04919,0.16167,0.02367,0.067438,0.0023111,0.010855
0.023571,0.043639,0.053226,0.047294,0.019505,0.018514,0.046184,0.036501,0.092329,0.071185,0.011708,0.027688,0.044901,0.0017827,0.059553,0.068181,0.031951,0.09352,0.015245,0.01733,0.033727,0.032178,0.031163,0.023697,0.011262,0.06851,0.014625,0.071623,0.0028886,0.035568,0.041228,0.070307,0.037107,0.010079,0.083029,0.096998,0.0011686,0.045381,0.042108,0.063089,0.051355,0.037528,0.067094,0.0065929,0.0086895,0.012273,0.014262,0.22156,0.075873,0.059993,0.0045486,0.019072,0.017119,0.052802,0.012859,0.02654,0.07685,0.0012139,0.059667,0.003733,0.022136,0.016098,0.21112,0.05266,0.017056,0.034044,0.0099122,0.087794,0.14864,0.0081334,0.03003,0.085155,0.015164,0.030721,0.018643,0.044798,0.01347,0.054545,0.042423,0.0075949,0.095018,0.090703,0.050597,0.058698,0.056798,0.042063,0.031364,0.020785,0.042388,0.043874,0.032013,0.0034146,0.068873,0.013118,0.016608,0.057085,0.018444,0.0033449,0.036961,0.034886,0.086375
0.0054315,0.10021,0.06283,0.0065261,0.04933,0.09373,0.042864,0.035572,0.06461,0.0063553,0.082107,0.028775,0.00060057,0.029622,0.042974,0.086018,0.10152,0.11262,0.046496,0.059903,0.046027,0.026148,0.079094,0.067456,0.0022103,0.037275,0.045303,0.04908,0.0073099,0.057307,0.031999,0.077338,0.01283,0.13626,0.0281,0.09664,0.035387,0.031523,0.0044904,0.046126,0.10406,0.043238,0.046621,0.025207,0.072981,0.026666,0.01073,0.13292,0.041685,0.066274,0.080654,0.067421,0.062594,0.07106,0.018631,0.015076,0.013959,0.021495,0.021581,0.05604,0.011716,0.083914,0.01456,0.043288,0.025745,0.032863,0.015929,0.044056,0.06083,0.14684,0.067633,0.03122,0.036326,0.050749,0.038574,0.0044317,0.095754,0.07254,0.11743,0.0784,0.031015,0.013855,0.0078727,0.098092,0.11824,0.043757,0.049778,0.030147,0.07776,0.038529,0.077333,0.014893,0.035563,0.054308,0.052123,0.060155,0.05503,0.081363,0.028714,0.047786,0.043253
0.0098181,0.062153,0.089632,0.10676,0.014487,0.090215,0.086496,0.041672,0.024066,0.055932,0.02179,0.0013145,0.074636,0.035663,0.11245,0.0021445,0.011985,0.0055796,0.043671,0.017579,0.054657,0.02552,0.031301,0.029806,0.01764,0.10381,0.020672,0.026058,0.053154,0.035919,0.015562,0.098123,0.04977,0.072955,0.02936,0.027408,0.066579,0.024852,0.015447,0.053518,0.035408,0.020231,0.085824,0.025712,0.070385,0.06994,0.016485,0.094396,0.052553,0.042473,0.091122,0.031983,0.020715,0.11839,0.023337,0.036739,0.013313,0.059935,0.10754,0.019988,0.10662,0.1709,0.051732,0.040729,0.095632,0.042946,0.038143,0.05682,0.058249,0.056716,0.019423,0.095666,0.11765,0.040423,0.083337,0.032684,0.02927,0.030011,0.014364,0.040482,0.030559,0.028275,0.01252,0.030313,0.014035,0.077074,0.010248,0.015107,0.018757,0.0068138,0.029823,0.1169,0.057602,0.06047,0.034863,0.016471,0.042467,0.035283,0.10172,0.043385,0.12721
0.0064407,0.043027,0.0074757,0.052706,0.018253,0.074336,0.044081,0.0052113,0.035796,0.03351,0.03757,0.035889,0.027356,0.0060691,0.031874,0.085258,0.0093223,0.087877,0.097,0.034553,0.016974,0.025547,0.013071,0.056702,0.012169,0.0043003,0.018669,0.0050381,0.011281,0.0045325,0.048083,0.097573,0.029803,0.020343,0.026981,0.0084004,0.01238,0.046763,0.019858,0.0058341,0.019873,0.036675,0.014928,0.0060509,0.029289,0.043383,0.015994,0.02115,0.02344,0.020675,0.023712,0.02868,0.074852,0.037078,0.062069,0.019302,0.055831,0.067275,0.039806,0.026445,0.014589,0.042469,0.018868,0.061117,0.028211,0.049582,0.071709,0.016714,0.027687,0.0055596,0.017059,0.093126,0.0088862,0.056565,0.032211,0.03293,0.029879,0.046068,0.021484,0.025672,0.016721,0.10445,0.024803,0.026825,0.064756,0.024099,0.056578,0.031153,0.038608,0.035038,0.054121,0.0065587,0.0075828,0.032316,0.068413,0.027992,0.041675,0.060189,0.0018213,0.043004,0.054022
0.028592,0.068411,0.043794,0.0051212,0.041717,0.072134,0.068731,0.034882,0.029608,0.010054,0.040988,0.063303,0.01009,0.054118,0.006828,0.0019594,0.030584,0.046078,0.046815,0.025001,0.030786,0.045662,0.10284,0.022959,0.0043613,0.029143,0.055138,0.011596,0.002676,0.0057131,0.0075273,0.050027,0.0086913,0.0083668,0.074519,0.022108,0.013688,0.080385,0.0080106,0.04393,0.018231,0.032983,0.042347,0.072234,0.046979,0.077063,0.049179,0.072427,0.046931,0.078194,0.06023,0.092874,0.04242,0.011881,0.014436,0.060451,0.0030451,0.033531,0.011364,0.031052,0.0045264,0.052046,0.08139,0.025735,0.0038208,0.033956,0.037668,0.043296,0.036567,0.04973,0.07268,0.043016,0.00022897,0.033523,0.0065797,0.0099872,0.045631,0.031474,0.013926,0.051613,0.0057696,0.095883,0.01209,0.044508,0.0624,0.051771,0.072905,0.016433,0.045895,0.0031465,0.011833,0.010732,0.070468,0.038584,0.00090194,0.021888,0.022261,0.041426,0.043598,0.030799,0.078445
0.072813,0.061284,0.0071995,0.052046,0.0032869,0.015612,0.052767,0.057154,0.031413,0.0090927,0.044339,0.035916,0.021526,0.030442,0.090169,0.0024096,0.062674,0.099732,0.002754,0.012935,0.025114,0.006074,0.070622,0.013529,0.008061,0.042304,0.015069,0.036636,0.052485,0.022494,0.023697,0.048443,0.065599,0.072343,0.0039635,0.037073,0.053798,0.038227,0.0072201,0.018923,0.021754,0.016539,0.059216,0.068244,0.044247,0.032599,0.068661,0.038859,0.032188,0.030907,0.013854,0.038191,0.031934,0.05231,0.0063382,0.062467,0.0050098,0.044459,0.04342,0.011225,0.035257,0.027506,0.058993,0.026231,0.010761,0.036819,0.040084,0.055781,0.077228,0.038087,0.071671,0.033925,0.050269,0.060938,0.031011,0.092017,0.065667,0.053203,0.032996,0.08204,0.067329,0.009046,0.039796,0.021577,0.061597,0.049862,0.057942,0.017247,0.048281,0.026554,0.02835,0.021858,0.010836,0.044621,0.033626,0.015318,0.041129,0.04104,0.0098176,0.049331,0.020267
0.035382,0.050481,0.029596,0.023033,0.027575,0.037295,0.014044,0.0039812,0.04391,0.029448,0.035274,0.067638,0.026208,0.055118,0.064581,0.019163,0.0455,0.11786,0.017231,0.038447,0.0079971,0.013949,0.054922,0.066038,0.020188,0.064209,0.020365,0.022132,0.050743,0.026428,0.029298,0.071683,0.010545,0.076129,0.024356,0.0027421,0.056613,0.10082,0.0042173,0.027617,0.014485,0.030635,0.045307,0.047675,0.079797,0.011575,0.054967,0.0358,0.00047312,0.069416,0.027706,0.0062881,0.049399,0.01207,0.13037,0.031381,0.008654,0.04767,0.0047756,0.085354,0.059831,0.10184,0.014118,0.0033427,0.052984,0.014179,0.036716,0.02261,0.035807,0.08888,0.0060089,0.0053768,0.086551,0.057864,0.039337,0.058106,0.012402,0.0074189,0.010883,0.017667,0.011495,0.019179,0.0008586,0.038581,0.0049436,0.016116,0.050067,0.048853,0.055142,0.070695,0.0033958,0.031667,0.010537,0.023366,0.027666,0.030225,0.076341,0.017964,0.015454,0.015222,0.054498
0.038982,0.04449,0.0088648,0.017477,0.047362,0.0056471,0.0091653,0.05042,0.0018281,0.0049469,0.051917,0.036187,0.013479,0.050253,0.050752,0.042066,0.037155,0.068623,0.0053188,0.02429,0.11683,0.086881,0.032146,0.015628,0.1321,0.01634,0.011947,0.0068266,0.035066,0.077846,0.055683,0.032077,0.043188,0.0078715,0.015994,0.016265,0.011127,0.024294,0.073687,0.018173,0.082341,0.017123,0.067492,0.012803,0.051765,0.00053257,0.053404,0.034222,0.0017108,0.031982,0.016082,0.0056344,0.069573,0.0070284,0.019362,0.05708,0.06578,0.016711,0.018304,0.015832,0.0075357,0.033042,0.048942,0.043148,0.02015,0.011034,0.054001,0.067133,0.004506,0.00451,0.060797,0.0086025,0.027253,0.03222,0.031885,0.011938,0.028434,0.045421,0.031645,0.017867,0.055155,0.028396,0.010927,0.01951,0.10467,0.048901,0.028762,0.0011229,0.091831,0.037558,0.024327,0.027944,0.079163,0.048701,0.015414,0.026738,0.0099305,0.05776,0.011452,0.074739,0.022116
0.018505,0.03995,0.026277,0.014847,0.030206,0.056337,0.034807,0.078567,0.040301,0.072992,0.019199,0.022042,0.052194,0.0079056,0.0039712,0.0091264,0.0043108,0.0063415,0.013088,0.0045508,0.034409,0.045981,0.035026,0.010491,0.080697,0.021814,0.0063735,0.055426,0.033486,0.014185,0.0044399,0.020522,0.011455,0.0019577,0.035244,0.077553,0.045314,0.0092864,0.0028204,0.026462,0.023925,0.036406,0.00093291,0.038682,0.061994,0.028012,0.015442,0.065861,0.036966,0.068731,0.047893,0.024584,0.0077189,0.059484,0.044051,0.047924,0.02319,0.055522,0.069785,0.084478,0.022479,0.030871,0.040457,0.030132,0.025544,0.0456,0.042398,0.091223,0.023255,0.078134,0.018487,0.014514,0.015425,0.023469,0.050279,0.016457,0.008408,0.013948,0.0012262,0.017834,0.022035,0.0095972,0.02159,0.020151,0.077848,0.095359,0.0018684,0.029805,0.10662,0.072051,0.055881,0.028567,0.031287,0.013029,0.031806,0.039738,0.054418,0.079678,0.036232,0.072221,0.039842
0.027413,0.053808,0.014753,0.015599,0.026523,0.0087722,0.00010055,0.020959,0.027177,0.012562,0.028074,0.019604,0.0074401,0.020302,0.0034151,0.043066,0.022812,0.045027,0.036712,0.013736,0.036576,0.024873,0.0036605,0.0089861,0.053899,0.030722,0.022265,0.045164,0.015151,0.057165,0.079056,0.033927,0.051894,0.033221,0.032734,0.053097,0.031491,0.015362,0.052082,0.03016,0.026481,0.0034543,0.047417,0.0062406,0.015035,0.058148,0.0025172,0.063083,0.057526,0.029485,0.037062,0.085437,0.045787,0.023607,0.034236,0.002025,0.044243,0.03264,0.076076,0.0080282,0.0004893,0.051599,0.022272,0.0018263,0.07197,0.025273,0.035819,0.017835,0.0086228,0.020935,0.10684,0.039468,0.020283,0.019555,0.046589,0.038329,0.059145,0.080808,0.0046101,0.012991,0.01004,0.003279,0.011751,0.025511,0.027507,0.036393,0.022031,0.035665,0.0010031,0.055659,0.024266,0.020973,0.027719,0.026204,0.094103,0.039512,0.04679,0.031476,0.035397,0.0092507,0.084049
0.021983,0.060167,0.0068983,0.027695,0.0070065,0.057178,0.026981,0.039773,0.052791,0.035451,0.0048604,0.014567,0.046769,0.02847,0.021831,0.021697,0.028787,0.11234,0.010469,0.057348,0.10074,0.047291,0.0068649,0.06858,0.089868,0.033024,0.083805,0.0022088,0.013998,0.017423,0.043314,0.066527,0.00074389,0.092181,0.068086,0.062891,0.019347,0.048252,0.036393,0.023167,0.0052548,0.090225,0.049124,0.064155,0.019477,0.045316,0.018281,0.0024877,0.025953,0.035785,0.077753,0.014514,0.021858,0.046609,0.075151,0.012159,0.033704,0.00021831,0.041053,0.020997,0.00065614,0.054474,0.056268,0.063443,0.048747,0.0067908,0.017417,0.0081406,0.02631,0.0068358,0.05162,0.026254,0.031004,0.034761,0.036644,0.093305,0.0028921,0.041405,0.022474,0.0084452,0.024181,0.033313,0.014593,0.017429,0.0066983,0.0049269,0.026277,0.0044968,0.033747,0.060028,0.048053,0.018827,0.020038,0.074774,0.0093119,0.027629,0.073729,0.023736,0.012784,0.095666,0.0041245
