0.082494,0.0025605,3.3317,214.88,132.83,0.60615,5.8286,0.54389,0.22227
0.061905,0.0045184,2.6956,246.53,81.286,0.3929,6.1112,0.72105,3.7747
0.026463,0.0084824,3.4905,196.05,26.407,0.91683,5.7221,0.5225,1.2139
0.031594,0.0082303,3.3326,118.78,152.74,0.01114,8.5066,0.9937,2.212
0.089786,0.0015442,0.89066,166.81,194.7,0.46782,1.8804,0.21868,3.439
0.012581,0.0045933,0.64007,71.554,105.86,0.43011,6.3835,0.1058,1.7961
0.054091,0.0057419,4.9954,231.26,22.706,0.46631,2.1261,0.1097,3.6817
0.025113,0.0047512,0.85561,225.93,66.618,0.77246,1.0746,0.063591,1.9735
0.098081,0.0069117,0.163,213.55,38.414,0.32925,5.4657,0.40458,3.4171
0.074143,0.0066518,2.806,102.15,70.251,0.78689,4.0512,0.44837,3.5202
0.055042,0.0036279,4.4093,168.87,110.02,0.47664,4.1285,0.36582,2.2115
0.052398,0.0048849,3.3459,54.503,131.79,0.045405,5.9575,0.7635,0.097888
0.015366,0.0011394,0.95217,135.05,114.36,0.18412,6.9326,0.6279,1.6543
0.071377,0.0098566,1.8446,112.54,218.84,0.72454,3.152,0.77198,2.1215
0.013819,0.0025045,2.3036,82.297,129.51,0.47875,5.9581,0.93285,1.3514
0.01643,0.0019559,4.9082,85.753,235.91,0.16119,3.7454,0.97274,0.98527
0.056948,0.0043517,0.78202,134.58,159.43,0.34771,7.5774,0.19203,4.1086
0.018706,0.0027831,4.2776,68.846,239.42,0.61132,7.4963,0.13887,2.1496
0.083633,0.0054072,3.2238,169.7,60.177,0.19983,2.308,0.69627,4.4389
0.083579,0.0040554,1.8814,144.18,169.03,0.74104,5.5211,0.09382,1.9559
0.07502,0.0095647,0.95462,189.19,72.266,0.25042,5.2402,0.5254,3.8456
0.023488,0.009283,2.1413,189.98,167.95,0.91825,4.8667,0.53034,1.984
0.069364,0.0014741,2.4101,177.71,173.79,0.27637,7.8295,0.86114,4.0426
0.056674,0.0076407,0.60306,56.721,16.998,0.76785,2.383,0.48485,3.7754
0.097568,0.0034221,2.9475,63.761,63.698,0.19678,2.8627,0.39346,1.887
0.068409,0.0048055,1.1309,113.92,56.01,0.29462,1.0729,0.67143,1.0801
0.08203,0.0059308,1.9231,156.17,166.96,0.1002,8.4585,0.74126,3.952
0.050842,0.0094846,2.9149,180.89,211.1,0.58045,5.81,0.52005,4.7465
0.048915,0.0047597,1.259,131.52,86.116,0.68653,4.3152,0.34771,1.6378
0.084278,0.0098475,1.4522,214,195.13,0.55113,5.7539,0.15,3.3563
0.017512,0.0037131,3.0855,193.67,168.83,0.43147,4.9024,0.58609,2.1932
0.021985,0.0073099,1.3264,243.73,1.6788,0.648,5.8258,0.26215,4.1675
